<?xml version="1.0" encoding="UTF-8" standalone="no"?>
<!DOCTYPE svg PUBLIC "-//W3C//DTD SVG 1.1//EN" "http://www.w3.org/Graphics/SVG/1.1/DTD/svg11.dtd">
<svg width="100%" height="100%" viewBox="0 0 128 128" version="1.1" xmlns="http://www.w3.org/2000/svg" xmlns:xlink="http://www.w3.org/1999/xlink" xml:space="preserve" xmlns:serif="http://www.serif.com/" style="fill-rule:evenodd;clip-rule:evenodd;stroke-linejoin:round;stroke-miterlimit:2;">
    <path d="M18.98,80.4C19.03,81.74 20.78,82.15 20.92,80.9C21.06,79.65 21.61,77.56 21.85,76.68C22.09,75.8 26.77,73.98 26.6,73.68C26.42,73.39 25.3,73.28 24.99,73.14C24.1,72.72 22.24,73.23 21.35,73.66C18.94,74.83 18.93,79.06 18.98,80.4Z" style="fill:#70534a;fill-rule:nonzero;"/>
    <path d="M88.64,82.33C86.76,82.33 85.02,80.64 85,78.78C85,78.45 85.04,77.95 85.08,77.38C85.3,74.7 85.63,70.66 83.13,69.61C82.87,69.5 82.56,69.44 82.19,69.44C81.44,69.44 80.52,69.67 79.46,69.94C78.11,70.28 76.57,70.66 75,70.66C71.29,70.66 68.73,68.45 66.95,63.7C66.21,61.71 63.82,59.88 61.63,59.62C60.87,59.53 60.18,59.52 59.51,59.52C57.47,59.51 56.12,59.5 55.04,57.15C54.14,55.2 55.6,53.93 57.93,52.22C58.72,51.64 59.46,51.1 60,50.5C60.39,50.07 60.76,49.63 61.13,49.19C61.72,48.49 62.27,47.82 62.9,47.23C64.79,45.44 67.29,44.42 69.77,44.42C70.05,44.42 70.33,44.43 70.61,44.46C73.45,44.74 76.07,46.48 77.27,48.92C77.9,50.19 78.19,51.67 78.48,53.12C78.92,55.36 79.38,57.68 81.09,59.32C82.17,60.36 83.55,60.9 84.88,61.43C85.94,61.85 86.93,62.24 87.79,62.86C90.06,64.5 90.99,67.85 89.91,70.49C89.62,71.21 89.22,71.82 88.79,72.46C88.39,73.07 87.97,73.7 87.64,74.45C86.89,76.17 86.83,78.54 88.18,79.75C88.68,80.2 89.35,80.44 90.08,80.44C90.77,80.44 91.42,80.23 91.96,79.88C91.82,80.25 91.62,80.61 91.36,80.94C90.72,81.76 89.82,82.27 88.89,82.35C88.81,82.32 88.73,82.33 88.64,82.33Z" style="fill:rgb(149,49,166);fill-rule:nonzero;"/>
    <path d="M60.81,49.3C54.21,49.22 47.68,45.51 45.63,40.67C44.88,38.91 44.49,36.28 46.83,33.8C49.23,31.26 49.24,27.67 49.24,23.87C49.24,23.35 49.24,22.83 49.25,22.31C49.3,18.03 50.03,14.61 51.46,11.88C53.77,7.47 58.48,4.74 63.77,4.74C69.04,4.74 73.74,7.46 76.05,11.84C79.59,18.55 79.89,22.5 74.86,34.11C74.14,35.77 73.91,37.63 73.68,39.44C73.04,44.52 72.43,49.31 61.31,49.31L60.81,49.3Z" style="fill:rgb(149,49,166);fill-rule:nonzero;"/>
    <path d="M96,32.38C96.67,31.3 98.31,31.77 97.84,32.87C97.37,33.97 96.64,34.94 96.43,35.78C96.22,36.62 96.38,37.62 97.07,38.14C97.35,38.35 97.7,38.47 98,38.65C98.31,38.83 98.59,39.11 98.62,39.46C98.64,39.79 98.43,40.1 98.14,40.26C97.85,40.42 97.51,40.45 97.19,40.43C96.239,40.355 95.37,39.859 94.82,39.08C93.37,36.97 95.33,33.46 96,32.38Z" style="fill:url(#_Linear1);fill-rule:nonzero;"/>
    <path d="M26.2,81.34C25.32,81.34 24.52,81.17 23.82,81.03C22.87,80.83 22.5,80.38 22.53,80.04C22.56,79.74 22.92,79.42 23.65,79.42C23.74,79.42 23.84,79.42 23.94,79.44C24.13,79.46 24.31,79.47 24.49,79.47C25.52,79.47 26.32,79.11 26.74,78.47C27.14,77.86 27.17,77.08 26.82,76.26C26.54,75.6 25.43,75.37 24.56,75.37C23.28,75.37 22.14,75.83 21.42,76.63C19.11,79.21 17.48,79.6 16.72,79.6C16.13,79.6 15.68,79.37 15.51,78.98C15.36,78.64 15.46,78.25 15.77,77.92C16.53,77.11 18.13,75.71 19.42,74.59L20.15,73.95C21.85,72.47 24.31,72.35 26.11,72.27C26.64,72.24 27.13,72.22 27.53,72.17C29.47,71.93 36.91,62.45 38.38,60.55C38.4,60.52 38.42,60.49 38.44,60.45C38.47,60.38 41.68,53.42 44.19,47.69C44.56,47.08 44.9,46.46 45.22,45.88C47.4,41.91 48.39,40.09 59.65,39.27C59.904,39.249 60.101,39.034 60.1,38.78L60.1,35.43L67.62,35.43L67.62,38.85C67.62,39.1 67.81,39.31 68.07,39.34C80.13,40.42 81.65,43.93 82.22,45.25L82.31,45.45C83.81,48.76 87.87,57.7 87.87,57.7C87.94,57.85 88.07,57.95 88.23,57.98C88.26,57.98 88.29,57.99 88.31,57.99C88.44,57.99 88.57,57.94 88.66,57.84C89.63,56.85 98.18,48.05 97.9,45.17C97.76,43.72 96.36,42.5 95.01,41.33C94.03,40.48 93.02,39.6 92.67,38.77C91.71,36.47 91.7,33.55 92.24,32.18C92.28,32.08 92.5,31.88 92.86,31.88C93.02,31.88 93.17,31.92 93.32,31.99C93.65,32.16 93.84,33.5 93.96,34.38C94.16,35.83 94.37,37.32 95.17,38.04C95.91,38.7 96.72,39.13 97.24,39.13C97.55,39.13 97.8,38.99 97.92,38.75C98.16,38.28 97.81,37.7 97.47,37.25C96.91,36.49 96.71,35.82 96.92,35.41C97.07,35.11 97.42,35 97.69,35C98.02,35 98.33,35.14 98.53,35.39C99.04,36.02 99.69,36.73 100.44,37.54C101.27,38.44 102.21,39.46 103.25,40.69C104.56,42.24 105.06,45.24 103.22,48.45C98.15,57.29 90.02,68.18 87.51,68.45C87.44,68.46 87.37,68.46 87.3,68.46C84.49,68.46 81.47,62.29 79.05,57.32C78.37,55.93 77.73,54.62 77.1,53.43C77.015,53.272 76.85,53.172 76.67,53.17C76.63,53.17 76.59,53.17 76.55,53.18C76.33,53.23 76.18,53.43 76.18,53.65L76.02,72.92L69.748,77.673C68.868,78.003 61.7,75.83 60.75,75.83C59.39,75.83 55.19,78.273 54.13,77.673L52.18,71.1L52.94,52.64C52.94,52.632 52.941,52.625 52.941,52.617C52.941,52.352 52.725,52.134 52.46,52.13C52.29,52.13 52.12,52.22 52.04,52.38C49.49,56.87 43.93,65.27 43.87,65.35C43.82,65.4 34.14,76.23 31.92,78.53C30.08,80.42 28.22,81.34 26.2,81.34Z" style="fill:#70534a;fill-rule:nonzero;"/>
    <g>
        <path d="M66.21,124.5C63.15,124.5 60.35,123.87 58.11,122.69C48.54,117.6 44.94,103.18 48.49,84.1C49.23,80.13 50.36,74.8 52.18,71.1C53.01,72.33 59.565,74.185 64.46,74.368C69.104,74.541 75.65,73.01 76.02,72.92C76.96,83.58 74.14,87.55 71.14,91.98C68.36,96.1 65.48,100.35 65.48,109.89C65.48,116.31 67.81,117.88 71.57,118.31C71.8,118.34 72.03,118.35 72.26,118.35C74.27,118.35 76.46,117.36 78.97,115.33L79.34,115.03L79.07,114.65C77.42,112.34 75.67,109.56 75.2,106.54C74.72,103.45 75.41,99.71 77.11,96.29C77.73,95.04 78.62,93.45 79.94,92.32C80.31,92 80.71,91.72 81.14,91.46C80.91,92.12 80.73,92.8 80.67,93.07C80.39,94.34 80.58,95.8 81.19,97.19C81.74,98.44 82.55,99.5 83.33,100.53C84.21,101.69 85.04,102.78 85.54,104.12C85.8,104.82 85.99,105.54 86.11,106.26C86.14,106.43 86.15,106.65 86.15,106.87C86.17,107.44 86.19,108.21 86.47,108.61L86.62,109L86.88,109C87.01,109 87.02,108.83 88.46,108.25C89.03,108.02 89.59,107.71 89.72,107.67C90.66,107.39 91.69,107.21 92.69,107.08L92.87,107.03C95.01,106.734 97.173,106.643 99.33,106.76L100.13,106.81C100.79,106.85 101.44,106.89 102.1,106.89C102.86,106.89 103.52,106.83 104.12,106.71C104.34,106.67 104.55,106.61 104.77,106.54C105.48,106.32 106.11,105.99 106.63,105.59C105.19,110.33 100.29,119.01 90.38,119.01C87.92,119.01 85.29,118.47 82.53,117.41L82.17,117.27L81.94,117.59C79.01,121.72 72.67,124.5 66.21,124.5Z" style="fill:rgb(181,111,193);fill-rule:nonzero;"/>
        <path d="M51.4,78.01C51.4,78.01 51.43,78.16 51.5,78.38C51.57,78.58 51.69,78.85 51.86,79.11C52.04,79.37 52.26,79.62 52.52,79.88C52.64,80.01 52.81,80.11 52.94,80.24C53.09,80.36 53.24,80.47 53.41,80.57C53.42,80.58 53.63,80.71 53.63,80.71C53.67,80.74 53.75,80.77 53.83,80.8C53.98,80.85 54.14,80.93 54.3,80.96C54.63,81.04 54.97,81.07 55.3,81.07C55.62,81.06 55.92,81.02 56.14,80.97C56.37,80.91 56.5,80.88 56.5,80.88L56.58,80.95C56.58,80.95 56.5,81.05 56.33,81.19C56.16,81.34 55.9,81.53 55.54,81.68C55.19,81.83 54.74,81.93 54.25,81.92C53.77,81.91 53.25,81.77 52.81,81.49C51.94,80.93 51.35,80.01 51.21,79.25C51.06,78.48 51.32,77.98 51.29,77.99L51.4,78.01ZM58.49,81.36L58.8,81.53C58.98,81.62 59.24,81.75 59.52,81.88C59.81,82 60.12,82.11 60.43,82.2C60.59,82.25 60.76,82.26 60.91,82.31C61.07,82.34 61.23,82.36 61.38,82.37C61.4,82.38 61.62,82.4 61.63,82.39C61.68,82.4 61.77,82.39 61.85,82.39C62.01,82.37 62.17,82.39 62.33,82.36C62.65,82.32 62.97,82.26 63.28,82.19C63.87,82.04 64.37,81.82 64.37,81.82L64.46,81.88C64.46,81.88 64.4,81.98 64.27,82.13C64.14,82.29 63.95,82.5 63.67,82.71C63.39,82.92 63.04,83.12 62.63,83.26C62.22,83.4 61.75,83.47 61.28,83.44C60.34,83.35 59.51,82.83 59.04,82.33C58.843,82.132 58.672,81.91 58.53,81.67C58.43,81.5 58.38,81.4 58.38,81.4L58.49,81.36ZM60.46,85.12C60.46,85.12 60.56,85.2 60.74,85.34C60.9,85.46 61.14,85.63 61.4,85.79C61.66,85.95 61.96,86.11 62.25,86.25C62.4,86.32 62.56,86.36 62.71,86.43C62.86,86.49 63.01,86.53 63.17,86.56C63.19,86.57 63.4,86.62 63.42,86.62C63.47,86.63 63.56,86.64 63.64,86.65C63.8,86.66 63.96,86.7 64.12,86.7C64.45,86.72 64.77,86.7 65.08,86.68C65.68,86.62 66.21,86.49 66.21,86.49L66.29,86.57C66.29,86.57 66.21,86.66 66.06,86.79C65.91,86.93 65.68,87.1 65.38,87.27C65.08,87.43 64.69,87.58 64.26,87.66C63.83,87.73 63.35,87.73 62.9,87.63C61.98,87.4 61.25,86.75 60.86,86.18C60.66,85.9 60.53,85.64 60.46,85.45C60.38,85.26 60.35,85.16 60.35,85.16L60.46,85.12ZM65.42,82.33L65.77,82.41C65.97,82.45 66.26,82.51 66.56,82.55C66.87,82.58 67.2,82.6 67.53,82.6C67.69,82.6 67.86,82.57 68.02,82.56C68.18,82.55 68.34,82.52 68.49,82.48C68.5,82.48 68.73,82.43 68.74,82.43C68.79,82.42 68.87,82.39 68.95,82.37C69.09,82.31 69.26,82.28 69.4,82.2C69.7,82.07 69.98,81.91 70.25,81.75C70.5,81.58 70.73,81.42 70.89,81.28C71.06,81.14 71.16,81.05 71.16,81.05L71.27,81.08C71.27,81.08 71.24,81.19 71.17,81.38C71.1,81.57 70.98,81.84 70.79,82.12C70.41,82.69 69.66,83.34 68.73,83.54C67.8,83.74 66.85,83.47 66.26,83.12C65.96,82.95 65.73,82.76 65.59,82.62C65.44,82.48 65.37,82.4 65.37,82.4L65.42,82.33ZM49.4,84.55C49.41,84.54 49.41,84.72 49.48,84.94C49.54,85.15 49.66,85.43 49.84,85.7C49.93,85.83 50.05,85.96 50.16,86.1C50.29,86.23 50.42,86.36 50.57,86.5C50.72,86.63 50.88,86.75 51.04,86.89C51.19,87.02 51.4,87.14 51.55,87.24C51.68,87.33 51.74,87.35 51.8,87.39C51.88,87.42 51.97,87.47 52.06,87.5C52.24,87.58 52.42,87.65 52.61,87.7C52.8,87.73 52.99,87.81 53.18,87.82C53.37,87.84 53.55,87.87 53.73,87.88C54.08,87.89 54.4,87.88 54.64,87.84C54.88,87.81 55.03,87.78 55.03,87.78L55.1,87.86C55.1,87.86 55,87.95 54.8,88.09C54.6,88.23 54.3,88.39 53.91,88.51C53.52,88.63 53.04,88.69 52.53,88.65C52.02,88.61 51.48,88.47 51,88.19C50.06,87.62 49.35,86.7 49.19,85.88C49.09,85.48 49.13,85.12 49.19,84.89C49.25,84.65 49.31,84.54 49.31,84.54L49.4,84.55ZM55.53,87.8C55.53,87.8 55.63,87.88 55.8,88.03C55.96,88.16 56.19,88.34 56.43,88.52C56.69,88.7 56.97,88.87 57.26,89.03C57.4,89.11 57.57,89.16 57.71,89.24C57.86,89.31 58.01,89.36 58.16,89.4C58.17,89.41 58.39,89.48 58.4,89.48C58.45,89.5 58.53,89.51 58.61,89.53C58.77,89.55 58.93,89.6 59.09,89.61C59.41,89.64 59.74,89.65 60.05,89.64C60.65,89.61 61.19,89.51 61.19,89.51L61.26,89.59C61.26,89.59 61.18,89.67 61.02,89.8C60.86,89.93 60.63,90.09 60.31,90.24C59.69,90.54 58.73,90.73 57.82,90.45C56.92,90.17 56.22,89.48 55.86,88.89C55.68,88.6 55.56,88.33 55.5,88.14C55.43,87.95 55.41,87.84 55.41,87.84L55.53,87.8ZM62.25,89.85L62.55,90.04C62.72,90.14 62.97,90.28 63.23,90.41C63.5,90.54 63.8,90.65 64.09,90.75C64.24,90.8 64.4,90.81 64.54,90.86C64.69,90.89 64.84,90.91 64.98,90.92C65.17,90.94 65.26,90.95 65.42,90.95C65.57,90.93 65.73,90.95 65.88,90.93C66.19,90.89 66.5,90.84 66.79,90.76C67.36,90.61 67.85,90.39 67.85,90.39L67.94,90.45C67.94,90.45 67.88,90.55 67.76,90.7C67.354,91.224 66.805,91.619 66.18,91.84C65.78,91.98 65.32,92.05 64.86,92.02C63.94,91.92 63.15,91.37 62.72,90.85C62.5,90.59 62.36,90.35 62.27,90.17C62.18,89.99 62.14,89.89 62.14,89.89L62.25,89.85ZM48.38,93.55C48.38,93.55 48.4,93.7 48.47,93.9C48.53,94.08 48.64,94.34 48.79,94.58C48.95,94.82 49.15,95.06 49.38,95.29C49.49,95.41 49.64,95.51 49.75,95.63C49.88,95.74 50.01,95.85 50.16,95.94C50.269,96.024 50.387,96.098 50.51,96.16C50.64,96.21 50.77,96.3 50.92,96.33C51.21,96.42 51.52,96.48 51.81,96.51C52.1,96.53 52.39,96.52 52.59,96.49C52.81,96.46 52.94,96.44 52.94,96.44L53.02,96.52C53.02,96.52 52.94,96.61 52.77,96.73C52.61,96.86 52.35,97.02 52.02,97.14C51.68,97.26 51.27,97.33 50.82,97.29C50.38,97.26 49.9,97.1 49.51,96.82C48.74,96.25 48.23,95.38 48.14,94.67C48.04,93.95 48.3,93.5 48.28,93.5L48.38,93.55ZM53.13,96.56L53.39,96.77C53.54,96.89 53.77,97.05 54,97.2C54.24,97.35 54.51,97.5 54.77,97.64C54.9,97.71 55.05,97.75 55.18,97.82C55.31,97.88 55.45,97.93 55.58,97.96C55.58,97.97 55.79,98.03 55.8,98.03C55.84,98.05 55.92,98.06 55.99,98.07C56.13,98.08 56.27,98.14 56.42,98.15C56.71,98.19 57.01,98.2 57.29,98.21C57.85,98.21 58.36,98.13 58.36,98.13L58.43,98.21C58.43,98.21 58.35,98.29 58.21,98.4C58.07,98.52 57.85,98.67 57.56,98.81C57,99.08 56.1,99.26 55.26,99C54.42,98.74 53.78,98.1 53.45,97.56C53.28,97.29 53.17,97.04 53.11,96.86C53.05,96.68 53.02,96.58 53.02,96.58L53.13,96.56ZM58.55,98.31C58.55,98.31 58.65,98.38 58.83,98.49C58.99,98.59 59.22,98.72 59.46,98.85C59.71,98.97 59.98,99.08 60.24,99.18C60.37,99.23 60.51,99.25 60.64,99.3C60.77,99.34 60.9,99.36 61.03,99.37C61.21,99.4 61.28,99.41 61.42,99.42C61.55,99.41 61.69,99.44 61.83,99.43C62.11,99.42 62.4,99.39 62.67,99.35C63.2,99.26 63.69,99.09 63.69,99.09L63.78,99.15C63.78,99.15 63.72,99.24 63.6,99.37C63.48,99.51 63.3,99.7 63.05,99.88C62.8,100.06 62.47,100.23 62.09,100.35C61.71,100.46 61.28,100.5 60.86,100.45C60.01,100.31 59.31,99.76 58.94,99.26C58.75,99.01 58.63,98.78 58.56,98.61C58.49,98.44 58.46,98.35 58.46,98.35L58.55,98.31ZM55.28,76.17C55.28,76.17 55.38,76.27 55.57,76.43C55.74,76.58 55.98,76.79 56.25,76.99C56.53,77.2 56.85,77.4 57.18,77.58C57.34,77.67 57.53,77.73 57.69,77.82C57.86,77.89 58.04,77.96 58.21,78C58.23,78.01 58.46,78.08 58.49,78.08C58.56,78.1 58.65,78.11 58.74,78.13C58.92,78.14 59.11,78.19 59.3,78.19C59.67,78.21 60.04,78.19 60.39,78.16C60.73,78.12 61.04,78.06 61.26,78.01C61.5,77.96 61.63,77.92 61.63,77.92L61.71,78C61.71,78 61.62,78.09 61.45,78.24C61.28,78.39 61.02,78.58 60.68,78.75C60.34,78.92 59.9,79.07 59.42,79.14C58.94,79.21 58.41,79.18 57.91,79.05C56.9,78.76 56.11,78 55.7,77.36C55.49,77.04 55.36,76.74 55.28,76.53C55.2,76.32 55.17,76.2 55.17,76.2L55.28,76.17ZM64.25,78.03C64.25,78.03 64.39,78.04 64.61,78.08C64.82,78.12 65.12,78.17 65.43,78.23C65.75,78.28 66.08,78.33 66.4,78.36C66.56,78.38 66.73,78.36 66.89,78.38C67.05,78.39 67.25,78.37 67.4,78.37C67.52,78.37 67.62,78.36 67.67,78.36C67.74,78.36 67.83,78.34 67.9,78.33C68.06,78.31 68.22,78.3 68.36,78.26C68.5,78.21 68.66,78.2 68.8,78.14C68.94,78.08 69.08,78.04 69.21,77.97C69.47,77.84 69.72,77.7 69.89,77.58C70.08,77.46 70.18,77.39 70.18,77.39L70.28,77.43C70.28,77.43 70.24,77.54 70.15,77.71C70.06,77.89 69.92,78.14 69.69,78.4C69.47,78.66 69.15,78.92 68.76,79.11C68.37,79.3 67.91,79.41 67.46,79.44C66.53,79.5 65.63,79.18 65.06,78.79C64.49,78.41 64.16,78.1 64.16,78.1L64.25,78.03ZM53.05,83.23C53.05,83.23 53.15,83.33 53.34,83.49C53.51,83.64 53.75,83.85 54.02,84.05C54.3,84.26 54.62,84.46 54.95,84.64C55.11,84.73 55.3,84.79 55.46,84.88C55.63,84.95 55.81,85.02 55.98,85.06C56,85.07 56.23,85.14 56.26,85.14C56.33,85.16 56.42,85.17 56.51,85.19C56.69,85.2 56.88,85.25 57.07,85.25C57.44,85.27 57.81,85.25 58.16,85.22C58.5,85.18 58.81,85.12 59.03,85.07C59.27,85.02 59.4,84.98 59.4,84.98L59.48,85.06C59.48,85.06 59.39,85.15 59.22,85.3C59.05,85.45 58.79,85.64 58.45,85.81C58.11,85.98 57.67,86.13 57.19,86.2C56.71,86.27 56.18,86.24 55.68,86.11C54.67,85.82 53.88,85.06 53.47,84.42C53.26,84.1 53.13,83.8 53.05,83.59C52.97,83.38 52.94,83.26 52.94,83.26L53.05,83.23ZM58.27,93.16C58.27,93.16 58.37,93.24 58.55,93.38C58.71,93.5 58.95,93.67 59.21,93.83C59.47,93.99 59.77,94.15 60.06,94.29C60.21,94.36 60.37,94.4 60.52,94.47C60.67,94.53 60.82,94.57 60.98,94.6C61,94.61 61.21,94.66 61.23,94.66C61.28,94.67 61.37,94.68 61.45,94.69C61.61,94.7 61.77,94.74 61.93,94.74C62.26,94.76 62.58,94.74 62.89,94.72C63.49,94.66 64.02,94.53 64.02,94.53L64.1,94.61C64.1,94.61 64.02,94.7 63.87,94.83C63.72,94.97 63.49,95.14 63.19,95.31C62.89,95.47 62.5,95.62 62.07,95.7C61.64,95.77 61.16,95.77 60.71,95.67C59.79,95.44 59.06,94.79 58.67,94.22C58.47,93.94 58.34,93.68 58.27,93.49C58.19,93.3 58.16,93.2 58.16,93.2L58.27,93.16ZM51.05,89.99C51.05,89.99 51.15,90.09 51.31,90.28C51.46,90.44 51.69,90.67 51.95,90.9C52.21,91.13 52.51,91.36 52.83,91.57C52.99,91.68 53.16,91.75 53.32,91.85C53.48,91.94 53.65,92.02 53.83,92.07C53.85,92.08 54.08,92.17 54.11,92.17C54.17,92.19 54.26,92.22 54.36,92.24C54.54,92.27 54.72,92.34 54.91,92.35C55.28,92.4 55.65,92.42 55.99,92.42C56.33,92.41 56.64,92.38 56.87,92.34C57.11,92.31 57.25,92.29 57.25,92.29L57.32,92.37C57.32,92.37 57.22,92.46 57.04,92.59C56.86,92.72 56.58,92.89 56.22,93.04C55.86,93.18 55.42,93.3 54.93,93.32C54.45,93.35 53.92,93.27 53.43,93.1C52.45,92.72 51.72,91.9 51.37,91.22C51.19,90.88 51.08,90.58 51.02,90.36C50.96,90.14 50.94,90.02 50.94,90.02L51.05,89.99ZM56.27,102.16C56.27,102.16 56.37,102.24 56.55,102.38C56.71,102.5 56.95,102.67 57.21,102.83C57.47,102.99 57.77,103.15 58.06,103.29C58.21,103.36 58.37,103.4 58.52,103.47C58.67,103.53 58.82,103.57 58.98,103.6C59,103.61 59.21,103.66 59.23,103.66C59.28,103.67 59.37,103.68 59.45,103.69C59.61,103.7 59.77,103.74 59.93,103.74C60.26,103.76 60.58,103.74 60.89,103.72C61.49,103.66 62.02,103.53 62.02,103.53L62.1,103.61C62.1,103.61 62.02,103.7 61.87,103.83C61.72,103.97 61.49,104.14 61.19,104.31C60.89,104.47 60.5,104.62 60.07,104.7C59.64,104.77 59.16,104.77 58.71,104.67C57.79,104.44 57.06,103.79 56.67,103.22C56.47,102.94 56.34,102.68 56.27,102.49C56.19,102.3 56.16,102.2 56.16,102.2L56.27,102.16ZM49.05,99.99C49.05,99.99 49.15,100.09 49.31,100.28C49.46,100.44 49.69,100.67 49.95,100.9C50.21,101.13 50.51,101.36 50.83,101.57C50.99,101.68 51.16,101.75 51.32,101.85C51.48,101.94 51.65,102.02 51.83,102.07C51.85,102.08 52.08,102.17 52.11,102.17C52.17,102.19 52.26,102.22 52.36,102.24C52.54,102.27 52.72,102.34 52.91,102.35C53.28,102.4 53.65,102.42 53.99,102.42C54.33,102.41 54.64,102.38 54.87,102.34C55.11,102.31 55.25,102.29 55.25,102.29L55.32,102.37C55.32,102.37 55.22,102.46 55.04,102.59C54.86,102.72 54.58,102.89 54.22,103.04C53.86,103.18 53.42,103.3 52.93,103.32C52.45,103.35 51.92,103.27 51.43,103.1C50.45,102.72 49.72,101.9 49.37,101.22C49.19,100.88 49.08,100.58 49.02,100.36C48.96,100.14 48.94,100.02 48.94,100.02L49.05,99.99ZM52.69,104.69C52.69,104.69 52.81,104.77 53.01,104.91C53.19,105.03 53.47,105.2 53.77,105.37C54.08,105.53 54.42,105.69 54.77,105.83C54.95,105.9 55.14,105.94 55.31,106C55.49,106.05 55.67,106.09 55.86,106.1C55.88,106.11 56.12,106.14 56.15,106.14C56.22,106.15 56.31,106.15 56.41,106.15C56.59,106.14 56.78,106.16 56.97,106.14C57.34,106.11 57.71,106.04 58.04,105.96C58.37,105.87 58.67,105.77 58.88,105.69L59.24,105.55L59.33,105.62C59.33,105.62 59.26,105.72 59.11,105.89C58.96,106.06 58.73,106.29 58.41,106.51C58.09,106.73 57.69,106.94 57.22,107.07C56.76,107.2 56.22,107.25 55.71,107.19C54.67,107.04 53.78,106.4 53.28,105.82C53.03,105.53 52.85,105.26 52.75,105.06C52.64,104.86 52.6,104.75 52.6,104.75L52.69,104.69ZM84.24,115.05C84.24,115.05 84.51,114.58 85.05,114.02C85.58,113.45 86.39,112.78 87.28,112.25C88.17,111.73 89.14,111.34 89.9,111.15C90.66,110.95 91.2,110.94 91.2,110.94C91.2,110.94 90.79,111.29 90.16,111.72C89.53,112.15 88.69,112.68 87.84,113.19C86.98,113.69 86.12,114.17 85.43,114.52C84.75,114.86 84.24,115.05 84.24,115.05ZM90.36,114.72C90.36,114.72 90.72,114.38 91.25,113.95C91.78,113.52 92.46,112.96 93.13,112.4C93.8,111.84 94.47,111.26 94.99,110.82C95.51,110.38 95.9,110.08 95.9,110.08C95.9,110.08 95.82,110.57 95.48,111.21C95.32,111.53 95.09,111.88 94.81,112.24C94.53,112.59 94.19,112.93 93.83,113.25C93.45,113.55 93.06,113.83 92.67,114.04C92.27,114.25 91.89,114.42 91.54,114.52C90.85,114.72 90.36,114.72 90.36,114.72ZM96.21,114.34C96.21,114.34 96.28,114.24 96.42,114.09C96.55,113.94 96.73,113.73 96.95,113.48C97.17,113.24 97.41,112.95 97.66,112.65C97.91,112.34 98.17,112.02 98.42,111.68C98.92,111.01 99.38,110.31 99.72,109.76C100.06,109.2 100.33,108.8 100.33,108.8C100.33,108.8 100.43,109.28 100.31,109.97C100.248,110.369 100.137,110.758 99.98,111.13C99.81,111.54 99.57,111.95 99.3,112.33C99.01,112.7 98.69,113.05 98.34,113.33C98,113.61 97.65,113.83 97.33,113.98C96.68,114.3 96.21,114.34 96.21,114.34ZM80.63,113.2C80.63,113.2 80.66,113.07 80.73,112.85C80.79,112.64 80.89,112.34 80.99,111.98C81.1,111.63 81.21,111.22 81.33,110.79C81.44,110.36 81.56,109.9 81.65,109.44C81.84,108.52 81.98,107.58 82.06,106.85C82.14,106.12 82.21,105.59 82.21,105.59C82.21,105.59 82.5,106.04 82.68,106.8C82.78,107.18 82.84,107.64 82.85,108.13C82.86,108.62 82.8,109.15 82.71,109.66C82.59,110.17 82.43,110.68 82.22,111.12C82.01,111.56 81.78,111.96 81.53,112.27C81.07,112.91 80.63,113.2 80.63,113.2ZM79.59,110.75C79.59,110.75 79.43,110.64 79.19,110.37C78.96,110.1 78.66,109.67 78.46,109.07C78.25,108.48 78.13,107.75 78.15,106.98C78.16,106.59 78.18,106.2 78.25,105.81C78.31,105.42 78.38,105.03 78.46,104.64C78.64,103.87 78.81,103.13 78.94,102.44C79.07,101.76 79.13,101.11 79.13,100.55C79.13,99.99 79.06,99.52 78.99,99.19C78.91,98.86 78.85,98.67 78.85,98.67C78.85,98.67 78.99,98.81 79.19,99.11C79.38,99.41 79.62,99.87 79.76,100.48C79.91,101.08 79.96,101.81 79.9,102.58C79.85,103.34 79.68,104.12 79.53,104.88C79.44,105.26 79.36,105.63 79.29,106C79.23,106.36 79.15,106.73 79.11,107.07C79.02,107.76 79.01,108.4 79.07,108.96C79.13,109.51 79.26,109.97 79.37,110.29C79.49,110.56 79.59,110.75 79.59,110.75Z" style="fill:rgb(136,46,160);fill-rule:nonzero;"/>
    </g>
    <g transform="matrix(2.28137,0,0,2.28137,-82.0468,-44.9209)">
        <g transform="matrix(0.154588,0,0,0.154588,54.0871,21.478)">
            <path d="M63.89,13.36C39.54,13.36 33.17,32.23 33.17,58.75C33.17,85.26 52.06,93.35 63.89,93.35C75.72,93.35 94.61,85.26 94.61,58.75C94.61,32.23 88.24,13.36 63.89,13.36Z" style="fill:#70534a;fill-rule:nonzero;"/>
        </g>
        <g transform="matrix(0.154588,0,0,0.154588,54.0871,20.8877)">
            <path d="M73.23,77.9L54.77,77.9C53.71,77.9 53.26,78.61 53.96,79.68C54.94,81.17 58.57,84.04 64,84.04C69.43,84.04 73.06,81.17 74.04,79.68C74.74,78.61 74.29,77.9 73.23,77.9Z" style="fill:rgb(81,63,53);fill-rule:nonzero;"/>
        </g>
        <g transform="matrix(0.154588,0,0,0.154588,54.0871,20.8877)">
            <path d="M53.5,60.51C53.5,63.35 51.6,65.66 49.24,65.66C46.89,65.66 44.97,63.36 44.97,60.51C44.97,57.66 46.88,55.36 49.24,55.36C51.6,55.36 53.5,57.66 53.5,60.51M74.49,60.51C74.49,63.35 76.39,65.66 78.76,65.66C81.11,65.66 83.02,63.36 83.02,60.51C83.02,57.66 81.11,55.36 78.76,55.36C76.4,55.36 74.49,57.66 74.49,60.51" style="fill:rgb(68,68,68);fill-rule:nonzero;"/>
        </g>
        <g transform="matrix(0.154588,0,0,0.154588,54.0871,20.8877)">
            <path d="M68.4,70.05C66.83,70.49 65.2,70.71 63.94,70.71C62.68,70.71 61.05,70.49 59.48,70.05C58.81,69.86 58.54,70.5 58.79,70.92C59.29,71.8 61.29,73.56 63.94,73.56C66.59,73.56 68.59,71.79 69.09,70.92C69.34,70.5 69.08,69.86 68.4,70.05Z" style="fill:#563e37;fill-rule:nonzero;"/>
        </g>
    </g>
    <g>
        <g>
            <clipPath id="_clip2">
                <path d="M78.1,34.37C78.1,34.37 77.5,18.56 76.91,16.12C75.34,9.59 71.01,5.55 65.02,5.48L63.28,5.46C52.22,5.32 50.26,16.49 50.05,19C49.84,21.5 49.8,24.67 49.78,26.15C49.74,29.48 42.41,33.84 42.41,33.84L78.1,34.37Z"/>
            </clipPath>
            <g clip-path="url(#_clip2)">
                <path d="M49.36,26.85C50.4,21.52 49.89,19.61 50.24,17.67C50.54,16.02 52.16,5.14 64.17,5.29C77.89,5.46 77.43,18.03 77.43,18.03L77.31,22.51C77.31,22.51 76.95,25.16 75.44,28.26C73.93,31.36 72.43,33.52 72.43,33.52C72.43,33.52 74.42,28.83 74.47,24.37C74.48,23.34 74.86,19.52 72.71,19.01C64.83,17.14 60.41,12.89 60.41,12.89C59.22,15.41 55.55,17.85 54.23,18.77C53.15,19.53 53.26,22.72 53.26,24.07L53.67,30.27C52.42,29.43 50.04,28.28 49.36,26.85Z" style="fill:rgb(149,49,166);fill-rule:nonzero;"/>
            </g>
        </g>
    </g>
    <g>
        <path d="M61.54,53.3C61.23,52.7 60.63,52.3 59.96,52.24C60.2,51.84 60.3,51.38 60.23,50.91C60.15,50.38 59.87,49.92 59.45,49.6C59.17,49.39 58.84,49.26 58.49,49.22C57.97,49.16 57.45,49.31 57.04,49.62C56.95,48.71 56.23,47.95 55.28,47.84C54.33,47.73 53.46,48.31 53.17,49.17C52.85,48.77 52.37,48.51 51.85,48.45C51.5,48.41 51.15,48.46 50.83,48.6C50.34,48.81 49.97,49.2 49.77,49.7C49.6,50.14 49.58,50.61 49.73,51.06C49.69,51.05 49.65,51.05 49.61,51.04C48.95,50.96 48.3,51.22 47.87,51.72C47.164,52.553 47.263,53.817 48.09,54.53L51.46,57.42C51.44,57.77 51.52,58.12 51.68,58.43C51.74,58.55 51.86,58.63 52,58.65L55.96,59.1C56.1,59.12 56.23,59.06 56.32,58.96C56.55,58.69 56.7,58.37 56.77,58.02L60.7,55.97C61.66,55.48 62.04,54.27 61.54,53.3Z" style="fill:rgb(181,111,193);fill-rule:nonzero;"/>
        <path d="M60.31,55.25L56.19,57.4C56.063,57.468 55.98,57.597 55.97,57.74C55.96,57.93 55.91,58.1 55.81,58.26L52.33,57.86C52.28,57.69 52.26,57.5 52.3,57.32C52.322,57.178 52.269,57.034 52.16,56.94L48.63,53.91C48.39,53.71 48.25,53.42 48.23,53.11C48.21,52.8 48.3,52.5 48.51,52.26C48.731,52.001 49.055,51.852 49.395,51.852C49.672,51.852 49.94,51.95 50.15,52.13L50.18,52.16L52.21,56.15C52.28,56.28 52.4,56.36 52.53,56.37C52.61,56.38 52.69,56.37 52.76,56.33C52.96,56.23 53.04,55.98 52.94,55.77L50.96,51.89C50.96,51.85 50.95,51.81 50.93,51.78L50.55,50.9C50.43,50.61 50.42,50.3 50.53,50.01C50.64,49.72 50.86,49.49 51.15,49.37C51.34,49.29 51.54,49.26 51.75,49.28C52.16,49.33 52.52,49.59 52.69,49.97L52.94,50.54L53.32,55.63C53.33,55.83 53.49,55.99 53.68,56.01L53.76,56.01C53.99,55.99 54.16,55.79 54.14,55.57L53.77,50.64C53.78,50.62 53.78,50.59 53.79,50.56L53.89,49.68C53.975,49.11 54.469,48.683 55.045,48.683C55.686,48.683 56.213,49.211 56.213,49.851C56.213,49.881 56.212,49.91 56.21,49.94L56.14,50.54C56.13,50.56 56.12,50.58 56.11,50.61L54.55,55.61C54.48,55.83 54.6,56.06 54.82,56.13C54.85,56.14 54.87,56.14 54.9,56.15C55.09,56.17 55.28,56.05 55.34,55.86L56.8,51.17L56.85,51.12L57.31,50.49C57.694,49.981 58.426,49.874 58.94,50.25C59.19,50.44 59.35,50.71 59.4,51.01C59.45,51.32 59.37,51.62 59.18,51.88L58.71,52.52L55.71,56.09C55.56,56.26 55.59,56.53 55.76,56.67C55.82,56.72 55.9,56.76 55.98,56.76C56.11,56.78 56.25,56.73 56.34,56.62L59.25,53.16C59.45,53.06 59.68,53.02 59.9,53.04C60.29,53.08 60.62,53.32 60.8,53.66C61.1,54.25 60.88,54.95 60.31,55.25Z" style="fill:rgb(181,111,193);fill-rule:nonzero;"/>
    </g>
    <g>
        <path d="M78.52,52.03C78.11,51.51 77.46,51.23 76.8,51.29C76.96,50.86 76.97,50.4 76.82,49.96C76.527,49.128 75.71,48.59 74.83,48.65C74.32,48.69 73.84,48.93 73.51,49.3C73.25,48.44 72.42,47.83 71.49,47.9C70.56,47.97 69.82,48.68 69.69,49.57C69.3,49.25 68.8,49.08 68.29,49.11C67.95,49.13 67.62,49.25 67.33,49.44C66.9,49.73 66.6,50.18 66.51,50.69C66.42,51.15 66.5,51.61 66.72,52.01L66.6,52.01C65.95,52.06 65.37,52.42 65.04,52.99C64.78,53.44 64.71,53.97 64.85,54.48C64.99,54.99 65.31,55.41 65.76,55.67L69.54,57.85C69.59,58.19 69.72,58.51 69.94,58.79C70.02,58.9 70.15,58.95 70.29,58.94L74.2,58.66C74.33,58.65 74.46,58.57 74.52,58.46C74.69,58.16 74.78,57.82 74.78,57.47L78.21,54.77C79.04,54.12 79.19,52.88 78.52,52.03Z" style="fill:rgb(181,111,193);fill-rule:nonzero;"/>
        <path d="M77.69,54.14L74.1,56.97C73.99,57.06 73.93,57.2 73.95,57.34C73.97,57.52 73.95,57.7 73.89,57.87L70.46,58.12C70.38,57.96 70.33,57.79 70.33,57.6C70.326,57.458 70.25,57.326 70.13,57.25L66.17,54.96C65.9,54.81 65.71,54.56 65.64,54.26C65.56,53.96 65.6,53.66 65.75,53.39C65.94,53.06 66.28,52.85 66.66,52.82C66.89,52.8 67.11,52.86 67.31,52.97L67.34,52.99L70.03,56.48C70.12,56.59 70.25,56.65 70.38,56.64C70.46,56.63 70.53,56.61 70.6,56.56C70.78,56.42 70.81,56.17 70.67,55.99L68.05,52.6C68.039,52.564 68.023,52.53 68,52.5L67.47,51.71C67.3,51.46 67.24,51.15 67.29,50.85C67.35,50.55 67.52,50.29 67.77,50.12C67.94,50.01 68.13,49.94 68.33,49.93C68.74,49.9 69.13,50.09 69.36,50.43L69.7,50.93L71,55.79C71.05,55.98 71.23,56.1 71.42,56.09C71.45,56.09 71.47,56.08 71.5,56.08C71.72,56.02 71.85,55.8 71.79,55.58L70.54,50.88L70.54,50.8L70.48,49.93C70.434,49.302 70.912,48.748 71.54,48.7C72.17,48.65 72.72,49.13 72.77,49.76L72.81,50.35C72.8,50.37 72.8,50.4 72.79,50.42L72.19,55.54C72.16,55.76 72.32,55.96 72.55,55.99L72.63,55.99C72.82,55.98 72.98,55.83 73,55.63L73.56,50.83C73.57,50.81 73.59,50.79 73.6,50.77L73.93,50.08C74.11,49.71 74.47,49.47 74.88,49.44C75.08,49.43 75.28,49.46 75.46,49.55C75.74,49.68 75.94,49.92 76.04,50.21C76.14,50.5 76.12,50.81 75.99,51.09L75.65,51.79L73.4,55.79C73.29,55.99 73.36,56.23 73.55,56.34C73.62,56.38 73.7,56.4 73.78,56.39C73.91,56.38 74.04,56.31 74.11,56.18L76.29,52.31C76.47,52.18 76.68,52.1 76.9,52.08C77.28,52.05 77.65,52.21 77.88,52.51C78.28,53.03 78.19,53.75 77.69,54.14Z" style="fill:rgb(181,111,193);fill-rule:nonzero;"/>
    </g>
    <defs>
        <linearGradient id="_Linear1" x1="0" y1="0" x2="1" y2="0" gradientUnits="userSpaceOnUse" gradientTransform="matrix(3.81539e-16,6.231,-6.231,3.81539e-16,96.462,32.925)"><stop offset="0" style="stop-color:#70534a;stop-opacity:1"/><stop offset="0.6" style="stop-color:#70534a;stop-opacity:1"/><stop offset="1" style="stop-color:#70534a;stop-opacity:1"/></linearGradient>
    </defs>
</svg>
