<?xml version="1.0" encoding="UTF-8" standalone="no"?>
<!DOCTYPE svg PUBLIC "-//W3C//DTD SVG 1.1//EN" "http://www.w3.org/Graphics/SVG/1.1/DTD/svg11.dtd">
<svg width="100%" height="100%" viewBox="0 0 128 128" version="1.1" xmlns="http://www.w3.org/2000/svg" xmlns:xlink="http://www.w3.org/1999/xlink" xml:space="preserve" xmlns:serif="http://www.serif.com/" style="fill-rule:evenodd;clip-rule:evenodd;stroke-linejoin:round;stroke-miterlimit:2;">
    <path d="M18.33,61.39C29.89,61.39 40.55,70.23 46.66,70.23C52.7,70.23 61.52,67.18 56.23,55.74C54.57,54.76 53.17,53.27 52.44,51.21C48.66,47.5 42.77,43.21 42.77,43.21C42.77,43.21 16.21,60.7 8.54,50.61C4.34,45.08 8.95,40.47 14.19,38.23C23.28,34.36 28.43,31.48 35.6,25.47C40.46,20.72 47.69,22.33 51.42,24.66C54.16,26.37 54.41,26.14 54.41,26.14L53.88,32.91C54.35,30.35 54.92,27.59 55.65,24.17C56.6,19.7 63.42,12.43 73.27,18.04C89.6,27.33 110.95,37.94 116.81,50.56C122.75,63.36 124.11,81.49 117.73,94.14C113.17,103.19 103.85,111.5 95.61,114.44C81.18,119.59 55.24,115.8 44.75,102C37.15,92 38.66,84.02 16.99,76.7C16.99,76.7 8.66,74.27 8.23,70.35C7.44,63.03 13.44,61.39 18.33,61.39Z" style="fill:#bf8f68;fill-rule:nonzero;"/>
    <path d="M73.407,27.094L73.571,27.097L73.736,27.103L73.903,27.111L74.07,27.12L74.239,27.132L74.408,27.146L74.579,27.161L74.751,27.179L74.924,27.199L75.005,27.209L75.098,27.221L75.273,27.245L75.449,27.272L75.627,27.3L75.805,27.331L75.984,27.364L76.165,27.398L76.347,27.435L76.53,27.474L76.714,27.515L76.899,27.557L77.085,27.602L77.235,27.64L77.403,27.684L77.588,27.733L77.791,27.787L78.245,27.912L78.282,27.923L78.763,28.052L79.339,28.208L79.968,28.381L80.608,28.559L80.646,28.569L81.372,28.748L82.137,28.939L82.936,29.14L83.765,29.349L84.29,29.483L84.618,29.565L85.491,29.784L86.379,30.008L87.276,30.236L88.178,30.467L89.079,30.7L89.86,30.902L89.976,30.932L90.862,31.163L91.734,31.391L92.585,31.616L93.412,31.837L94.208,32.053L94.97,32.261L95.337,32.363L95.692,32.462L96.037,32.559L96.37,32.654L96.69,32.746L96.998,32.836L97.291,32.923L97.571,33.006L97.836,33.087L98.085,33.164L98.318,33.238L98.534,33.308L98.733,33.375L98.888,33.428L98.914,33.437L99.077,33.496L99.22,33.55L99.076,33.499L98.912,33.444L98.885,33.436L98.729,33.386L98.529,33.325L98.311,33.26L98.076,33.192L97.826,33.121L97.559,33.047L97.278,32.97L96.982,32.891L96.673,32.809L96.351,32.725L96.016,32.638L95.669,32.55L95.311,32.459L94.943,32.367L94.176,32.177L93.375,31.981L92.544,31.781L91.687,31.577L90.811,31.37L89.919,31.162L89.803,31.135L89.017,30.954L88.11,30.748L87.202,30.543L86.299,30.341L85.406,30.142L84.528,29.948L84.198,29.876L83.668,29.763L82.833,29.586L82.027,29.417L81.256,29.256L80.525,29.106L80.487,29.098L79.834,28.986L79.192,28.878L78.606,28.781L78.116,28.702L78.079,28.696L77.617,28.63L77.413,28.602L77.227,28.577L77.061,28.555L76.915,28.538L76.733,28.518L76.553,28.499L76.375,28.483L76.198,28.468L76.023,28.455L75.85,28.444L75.679,28.435L75.509,28.428L75.341,28.422L75.175,28.418L75.01,28.416L74.923,28.416L74.847,28.415L74.686,28.415L74.527,28.418L74.37,28.421L74.214,28.427L74.06,28.434L73.907,28.443L73.757,28.454L73.608,28.466L73.461,28.48L73.315,28.495L73.172,28.512L73.03,28.531L72.89,28.551L72.751,28.573L72.615,28.596L72.48,28.621L72.347,28.647L72.215,28.675L72.085,28.704L71.957,28.735L71.831,28.767L71.707,28.801L71.584,28.836L71.576,28.838L71.463,28.871L71.343,28.907L71.225,28.944L71.108,28.983L70.994,29.024L70.881,29.065L70.769,29.108L70.659,29.153L70.551,29.198L70.445,29.245L70.34,29.293L70.237,29.343L70.135,29.394L70.116,29.403L70.034,29.444L69.935,29.496L69.837,29.548L69.74,29.602L69.645,29.657L69.552,29.714L69.46,29.772L69.37,29.831L69.281,29.891L69.193,29.952L69.107,30.015L69.022,30.078L68.939,30.143L68.928,30.152L68.856,30.208L68.774,30.274L68.694,30.341L68.615,30.41L68.537,30.48L68.461,30.551L68.386,30.623L68.312,30.696L68.239,30.771L68.168,30.846L68.098,30.923L68.029,31.002L67.962,31.081L67.896,31.162L67.831,31.244L67.767,31.327L67.704,31.412L67.643,31.497L67.583,31.584L67.524,31.673L67.466,31.762L67.41,31.853L67.354,31.945L67.3,32.038L67.247,32.133L67.196,32.229L67.145,32.326L67.096,32.424L67.048,32.524L67.002,32.625L66.956,32.727L66.912,32.83L66.869,32.935L66.827,33.041L66.786,33.148L66.747,33.257L66.709,33.367L66.672,33.478L66.637,33.59L66.603,33.704L66.57,33.818L66.538,33.934L66.507,34.052L66.494,34.106L66.478,34.17L66.45,34.29L66.423,34.411L66.397,34.533L66.373,34.657L66.35,34.782L66.328,34.908L66.307,35.035L66.288,35.163L66.27,35.293L66.254,35.423L66.239,35.555L66.225,35.689L66.212,35.823L66.201,35.959L66.192,36.095L66.183,36.233L66.176,36.372L66.17,36.512L66.166,36.654L66.163,36.796L66.162,36.94L66.162,37.084L66.163,37.232L66.186,39.038L66.208,40.859L66.213,41.25L66.228,42.679L66.249,44.487L66.26,45.383L66.273,46.271L66.286,47.15L66.3,48.019L66.316,48.875L66.333,49.718L66.352,50.546L66.372,51.358L66.395,52.151L66.419,52.925L66.432,53.303L66.446,53.677L66.46,54.044L66.475,54.406L66.491,54.762L66.507,55.111L66.523,55.454L66.541,55.79L66.559,56.12L66.578,56.442L66.597,56.756L66.617,57.064L66.638,57.363L66.66,57.655L66.683,57.938L66.706,58.213L66.73,58.479L66.755,58.736L66.78,58.984L66.806,59.222L66.833,59.451L66.861,59.67L66.889,59.878L66.918,60.075L66.948,60.261L66.978,60.435L67.009,60.6L67.024,60.673L67.038,60.744L67.069,60.878L67.1,61.01L67.134,61.142L67.17,61.273L67.209,61.403L67.249,61.534L67.291,61.664L67.336,61.793L67.382,61.922L67.431,62.05L67.481,62.177L67.533,62.304L67.588,62.431L67.644,62.556L67.702,62.681L67.762,62.805L67.824,62.929L67.887,63.051L67.953,63.172L68.02,63.293L68.089,63.413L68.159,63.531L68.232,63.649L68.306,63.765L68.381,63.881L68.458,63.995L68.537,64.108L68.617,64.22L68.698,64.33L68.781,64.44L68.866,64.548L68.952,64.654L69.039,64.76L69.128,64.863L69.217,64.966L69.309,65.067L69.401,65.166L69.494,65.264L69.589,65.36L69.685,65.454L69.782,65.547L69.88,65.638L69.979,65.728L70.079,65.816L70.18,65.901L70.281,65.986L70.384,66.068L70.488,66.148L70.592,66.227L70.697,66.303L70.803,66.378L70.909,66.45L71.017,66.521L71.124,66.59L71.233,66.656L71.342,66.72L71.451,66.783L71.561,66.843L71.671,66.901L71.782,66.957L71.893,67.01L72.004,67.062L72.116,67.111L72.228,67.158L72.34,67.203L72.453,67.245L72.565,67.285L72.678,67.323L72.79,67.359L72.903,67.392L73.016,67.423L73.129,67.451L73.242,67.477L73.355,67.501L73.468,67.522L73.58,67.541L73.697,67.558L73.749,67.565L73.805,67.572L73.862,67.578L73.918,67.583L73.974,67.588L74.03,67.593L74.086,67.596L74.142,67.6L74.198,67.602L74.254,67.604L74.31,67.605L74.366,67.606L74.422,67.606L74.478,67.605L74.534,67.604L74.59,67.602L74.645,67.6L74.701,67.597L74.757,67.593L74.812,67.589L74.868,67.584L74.924,67.578L74.979,67.572L75.035,67.565L75.09,67.557L75.146,67.549L75.201,67.54L75.257,67.531L75.312,67.521L75.367,67.51L75.423,67.498L75.478,67.486L75.533,67.473L75.589,67.46L75.644,67.445L75.699,67.43L75.754,67.415L75.81,67.399L75.865,67.382L75.92,67.364L75.975,67.345L76.031,67.326L76.086,67.306L76.141,67.286L76.196,67.264L76.252,67.242L76.307,67.22L76.362,67.196L76.417,67.172L76.473,67.146L76.528,67.121L76.583,67.094L76.639,67.066L76.694,67.038L76.749,67.009L76.805,66.979L76.86,66.948L76.916,66.917L76.971,66.884L77.026,66.851L77.082,66.817L77.137,66.782L77.193,66.746L77.248,66.709L77.304,66.672L77.359,66.633L77.415,66.594L77.47,66.553L77.526,66.512L77.581,66.47L77.637,66.427L77.692,66.382L77.748,66.337L77.803,66.291L77.859,66.244L77.914,66.196L77.97,66.147L78.025,66.097L78.08,66.046L78.136,65.994L78.191,65.941L78.246,65.887L78.302,65.832L78.357,65.776L78.412,65.719L78.467,65.661L78.522,65.601L78.577,65.541L78.632,65.479L78.687,65.417L78.742,65.353L78.797,65.288L78.852,65.222L78.906,65.155L78.961,65.087L79.015,65.018L79.069,64.948L79.123,64.876L79.143,64.849L79.178,64.803L79.232,64.729L79.286,64.654L79.343,64.573L79.349,64.565L80.319,63.972L81.428,64.228L81.444,64.24L82.038,65.21L81.783,66.319L81.777,66.327L81.711,66.417L81.64,66.512L81.569,66.605L81.524,66.664L81.498,66.697L81.427,66.788L81.355,66.878L81.282,66.967L81.209,67.055L81.136,67.141L81.062,67.227L80.988,67.311L80.914,67.394L80.839,67.476L80.764,67.557L80.688,67.637L80.613,67.716L80.536,67.794L80.46,67.87L80.383,67.945L80.305,68.02L80.228,68.093L80.15,68.165L80.071,68.236L79.992,68.306L79.913,68.374L79.834,68.442L79.754,68.508L79.674,68.574L79.593,68.638L79.512,68.701L79.431,68.763L79.35,68.824L79.268,68.884L79.186,68.942L79.104,69L79.021,69.056L78.938,69.111L78.855,69.166L78.771,69.219L78.688,69.271L78.604,69.321L78.519,69.371L78.435,69.42L78.35,69.467L78.265,69.514L78.18,69.559L78.094,69.603L78.008,69.646L77.922,69.688L77.836,69.729L77.75,69.768L77.663,69.807L77.576,69.844L77.49,69.881L77.402,69.916L77.315,69.95L77.228,69.983L77.14,70.015L77.053,70.046L76.965,70.075L76.877,70.104L76.789,70.131L76.701,70.158L76.613,70.183L76.524,70.207L76.436,70.23L76.347,70.252L76.259,70.273L76.17,70.293L76.082,70.312L75.993,70.33L75.905,70.346L75.816,70.362L75.727,70.376L75.639,70.39L75.55,70.402L75.461,70.413L75.373,70.424L75.284,70.433L75.196,70.441L75.107,70.449L75.019,70.455L74.931,70.46L74.843,70.464L74.754,70.467L74.666,70.47L74.578,70.471L74.491,70.471L74.403,70.47L74.315,70.468L74.228,70.466L74.14,70.462L74.053,70.457L73.966,70.452L73.879,70.445L73.793,70.438L73.706,70.43L73.62,70.42L73.534,70.41L73.448,70.399L73.362,70.387L73.272,70.374L73.106,70.346L72.936,70.314L72.767,70.279L72.599,70.24L72.432,70.198L72.266,70.153L72.101,70.104L71.937,70.053L71.774,69.998L71.613,69.94L71.452,69.88L71.293,69.816L71.135,69.749L70.978,69.68L70.822,69.608L70.667,69.533L70.514,69.455L70.362,69.375L70.212,69.292L70.062,69.207L69.915,69.119L69.768,69.029L69.623,68.936L69.479,68.841L69.337,68.743L69.196,68.643L69.057,68.541L68.919,68.437L68.783,68.33L68.648,68.221L68.515,68.111L68.383,67.998L68.253,67.883L68.125,67.766L67.998,67.647L67.873,67.526L67.75,67.403L67.628,67.278L67.508,67.152L67.389,67.023L67.273,66.893L67.158,66.761L67.045,66.628L66.934,66.492L66.825,66.355L66.717,66.217L66.612,66.077L66.508,65.935L66.407,65.792L66.307,65.647L66.209,65.5L66.114,65.353L66.02,65.204L65.928,65.053L65.839,64.901L65.752,64.748L65.666,64.593L65.583,64.438L65.503,64.281L65.424,64.122L65.348,63.963L65.274,63.802L65.202,63.64L65.133,63.478L65.066,63.314L65.001,63.149L64.939,62.983L64.88,62.816L64.823,62.648L64.768,62.479L64.716,62.309L64.667,62.139L64.62,61.967L64.577,61.795L64.535,61.622L64.497,61.448L64.462,61.276L64.443,61.177L64.424,61.075L64.39,60.875L64.358,60.664L64.327,60.445L64.298,60.218L64.27,59.984L64.244,59.741L64.22,59.491L64.196,59.232L64.174,58.968L64.174,58.966L64.153,58.692L64.134,58.41L64.115,58.121L64.098,57.825L64.082,57.521L64.066,57.21L64.052,56.892L64.039,56.567L64.026,56.236L64.015,55.898L64.004,55.554L63.994,55.204L63.985,54.847L63.977,54.485L63.97,54.117L63.963,53.744L63.957,53.365L63.952,52.981L63.944,52.199L63.938,51.397L63.934,50.579L63.932,49.745L63.933,48.897L63.935,48.035L63.939,47.163L63.944,46.28L63.95,45.389L63.957,44.491L63.974,42.68L63.989,41.251L63.994,40.859L64.016,39.038L64.037,37.228L64.04,37.064L64.044,36.899L64.05,36.735L64.057,36.572L64.066,36.41L64.077,36.249L64.089,36.088L64.103,35.929L64.118,35.771L64.135,35.614L64.153,35.457L64.173,35.302L64.195,35.148L64.218,34.994L64.243,34.842L64.269,34.691L64.297,34.541L64.327,34.391L64.358,34.243L64.391,34.096L64.425,33.95L64.461,33.805L64.499,33.661L64.52,33.584L64.538,33.519L64.58,33.377L64.623,33.237L64.668,33.098L64.714,32.96L64.762,32.823L64.812,32.687L64.863,32.553L64.916,32.419L64.971,32.287L65.027,32.156L65.085,32.027L65.145,31.898L65.206,31.771L65.269,31.646L65.334,31.521L65.4,31.398L65.468,31.276L65.538,31.156L65.61,31.037L65.683,30.919L65.758,30.803L65.834,30.688L65.912,30.575L65.992,30.463L66.074,30.352L66.157,30.243L66.242,30.136L66.329,30.03L66.417,29.925L66.507,29.822L66.599,29.721L66.692,29.621L66.787,29.523L66.883,29.427L66.981,29.332L67.081,29.239L67.182,29.148L67.285,29.058L67.39,28.97L67.496,28.884L67.604,28.799L67.713,28.716L67.809,28.646L67.824,28.635L67.937,28.557L68.052,28.481L68.168,28.407L68.286,28.335L68.405,28.264L68.526,28.196L68.648,28.129L68.771,28.064L68.896,28.001L69.022,27.94L69.15,27.881L69.279,27.824L69.384,27.779L69.409,27.769L69.541,27.717L69.675,27.668L69.81,27.62L69.946,27.574L70.083,27.531L70.222,27.489L70.362,27.449L70.503,27.411L70.645,27.375L70.788,27.341L70.933,27.31L71.079,27.28L71.216,27.254L71.226,27.252L71.375,27.228L71.524,27.205L71.675,27.185L71.827,27.167L71.98,27.151L72.134,27.136L72.289,27.124L72.446,27.114L72.603,27.105L72.762,27.099L72.921,27.095L73.082,27.092L73.244,27.092L73.407,27.094Z" style="fill:#99674f;"/>
    <path d="M91.917,42.64L92.574,42.646L93.219,42.653L93.852,42.661L94.472,42.671L94.919,42.679L95.077,42.684L95.668,42.702L96.242,42.721L96.798,42.74L97.335,42.76L97.853,42.78L98.351,42.8L98.826,42.821L99.279,42.841L99.933,42.871L100.111,42.882L100.838,42.926L101.453,42.965L101.946,42.997L102.309,43.022L102.518,43.037L102.609,43.044L102.786,43.219L102.611,43.396L102.519,43.403L102.311,43.419L101.949,43.449L101.458,43.49L100.846,43.542L100.122,43.607L99.945,43.623L99.294,43.676L98.844,43.714L98.372,43.755L97.878,43.798L97.364,43.844L96.83,43.892L96.278,43.944L95.709,43.998L95.124,44.055L94.967,44.071L94.525,44.111L93.911,44.167L93.284,44.226L92.646,44.288L91.997,44.352L91.789,44.374L91.339,44.416L90.672,44.48L89.998,44.548L89.318,44.618L88.634,44.69L88.512,44.704L88.393,44.719L88.276,44.735L88.274,44.735L88.156,44.751L88.039,44.769L87.923,44.787L87.807,44.806L87.692,44.827L87.577,44.848L87.463,44.871L87.35,44.895L87.238,44.919L87.126,44.945L87.015,44.972L86.905,45L86.796,45.03L86.687,45.06L86.58,45.091L86.473,45.123L86.366,45.156L86.261,45.191L86.156,45.226L86.052,45.262L85.949,45.3L85.847,45.338L85.746,45.378L85.645,45.418L85.546,45.459L85.447,45.502L85.349,45.545L85.252,45.589L85.155,45.634L85.06,45.68L84.966,45.728L84.939,45.741L84.872,45.775L84.778,45.823L84.686,45.871L84.594,45.921L84.504,45.972L84.414,46.023L84.325,46.076L84.237,46.129L84.15,46.183L84.064,46.239L83.979,46.295L83.895,46.352L83.811,46.41L83.729,46.468L83.648,46.528L83.567,46.588L83.488,46.65L83.409,46.712L83.331,46.775L83.255,46.839L83.179,46.904L83.104,46.97L83.031,47.036L82.958,47.104L82.886,47.172L82.815,47.241L82.746,47.311L82.677,47.382L82.609,47.453L82.542,47.526L82.476,47.599L82.412,47.673L82.348,47.748L82.285,47.824L82.224,47.9L82.182,47.954L82.163,47.978L82.102,48.055L82.042,48.133L81.984,48.212L81.926,48.292L81.869,48.373L81.814,48.455L81.759,48.537L81.706,48.62L81.653,48.704L81.602,48.789L81.552,48.875L81.502,48.962L81.454,49.05L81.407,49.138L81.361,49.227L81.316,49.317L81.272,49.408L81.229,49.5L81.188,49.593L81.147,49.687L81.108,49.781L81.069,49.877L81.032,49.973L80.996,50.07L80.961,50.168L80.927,50.267L80.895,50.367L80.863,50.467L80.833,50.569L80.804,50.671L80.776,50.775L80.75,50.879L80.724,50.984L80.7,51.09L80.677,51.197L80.655,51.305L80.635,51.414L80.616,51.523L80.598,51.634L80.581,51.746L80.566,51.858L80.552,51.971L80.539,52.086L80.527,52.201L80.518,52.308L80.517,52.317L80.508,52.434L80.5,52.552L80.493,52.671L80.488,52.791L80.484,52.912L80.482,53.034L80.48,53.156L80.481,53.28L80.483,53.405L80.486,53.53L80.491,53.657L80.497,53.784L80.505,53.916L80.524,54.21L80.545,54.507L80.566,54.805L80.589,55.105L80.613,55.406L80.638,55.708L80.664,56.011L80.692,56.316L80.72,56.621L80.749,56.927L80.779,57.234L80.811,57.541L80.843,57.85L80.876,58.159L80.911,58.468L80.946,58.779L80.983,59.089L80.988,59.135L81.019,59.4L81.057,59.712L81.095,60.024L81.134,60.336L81.175,60.648L81.216,60.961L81.258,61.273L81.301,61.586L81.345,61.898L81.39,62.211L81.435,62.523L81.482,62.835L81.53,63.147L81.578,63.458L81.627,63.769L81.677,64.08L81.728,64.39L81.78,64.7L81.832,65.008L81.886,65.317L81.94,65.624L81.995,65.931L82.05,66.237L82.107,66.542L82.164,66.846L82.187,66.968L82.221,67.149L82.28,67.45L82.338,67.751L82.398,68.051L82.458,68.349L82.519,68.646L82.581,68.942L82.644,69.236L82.707,69.528L82.77,69.819L82.835,70.109L82.9,70.396L82.965,70.682L83.032,70.967L83.099,71.249L83.166,71.529L83.234,71.808L83.303,72.084L83.372,72.358L83.442,72.63L83.512,72.9L83.582,73.164L83.593,73.205L83.604,73.241L83.615,73.277L83.627,73.312L83.639,73.348L83.652,73.383L83.666,73.419L83.68,73.454L83.695,73.489L83.71,73.524L83.726,73.559L83.742,73.594L83.759,73.629L83.777,73.664L83.795,73.698L83.814,73.733L83.834,73.767L83.854,73.802L83.875,73.836L83.896,73.871L83.918,73.905L83.941,73.939L83.965,73.974L83.989,74.008L84.014,74.042L84.039,74.076L84.065,74.11L84.092,74.144L84.12,74.178L84.148,74.212L84.177,74.246L84.206,74.28L84.237,74.314L84.268,74.348L84.299,74.382L84.332,74.415L84.365,74.449L84.399,74.482L84.433,74.516L84.465,74.546L84.541,74.615L84.617,74.681L84.695,74.747L84.776,74.812L84.86,74.876L84.947,74.94L85.036,75.003L85.128,75.065L85.223,75.126L85.321,75.187L85.421,75.247L85.524,75.306L85.63,75.364L85.738,75.421L85.849,75.478L85.962,75.533L86.077,75.587L86.195,75.64L86.315,75.692L86.438,75.742L86.562,75.792L86.689,75.84L86.818,75.887L86.949,75.932L87.083,75.977L87.218,76.02L87.355,76.061L87.494,76.102L87.635,76.141L87.777,76.178L87.922,76.214L88.068,76.248L88.216,76.281L88.365,76.313L88.516,76.343L88.669,76.371L88.822,76.398L88.978,76.423L89.134,76.447L89.292,76.469L89.452,76.49L89.612,76.509L89.774,76.526L89.936,76.541L90.1,76.555L90.265,76.567L90.431,76.578L90.597,76.587L90.765,76.594L90.933,76.599L91.102,76.603L91.272,76.604L91.443,76.605L91.614,76.603L91.785,76.599L91.958,76.594L92.131,76.587L92.304,76.578L92.477,76.568L92.651,76.555L92.826,76.541L93,76.525L93.175,76.507L93.35,76.487L93.525,76.465L93.7,76.442L93.875,76.416L94.05,76.389L94.225,76.36L94.4,76.329L94.575,76.296L94.749,76.261L94.924,76.225L95.098,76.186L95.272,76.146L95.445,76.103L95.618,76.059L95.721,76.031L95.79,76.013L95.962,75.965L96.134,75.915L96.304,75.863L96.475,75.809L96.644,75.753L96.813,75.696L96.981,75.636L97.148,75.575L97.315,75.511L97.48,75.446L97.645,75.378L97.808,75.309L97.971,75.238L98.132,75.165L98.293,75.089L98.452,75.012L98.61,74.933L98.767,74.852L98.922,74.769L99.077,74.684L99.23,74.597L99.382,74.508L99.532,74.417L99.681,74.324L99.828,74.23L99.974,74.133L100.118,74.034L100.261,73.933L100.288,73.914L100.402,73.831L100.551,73.719L100.559,73.713L101.663,73.437L102.645,74.013L102.657,74.029L102.933,75.133L102.357,76.115L102.349,76.121L102.183,76.245L102.039,76.349L102.006,76.373L101.828,76.499L101.647,76.622L101.466,76.742L101.283,76.859L101.099,76.974L100.913,77.085L100.726,77.195L100.537,77.301L100.348,77.405L100.157,77.506L99.965,77.605L99.772,77.701L99.578,77.795L99.383,77.886L99.188,77.974L98.991,78.06L98.793,78.143L98.595,78.224L98.396,78.302L98.196,78.378L97.995,78.452L97.794,78.523L97.592,78.591L97.389,78.657L97.186,78.721L96.983,78.782L96.779,78.841L96.575,78.898L96.493,78.92L96.37,78.952L96.165,79.004L95.96,79.053L95.754,79.1L95.549,79.145L95.343,79.188L95.137,79.228L94.931,79.266L94.724,79.301L94.518,79.335L94.312,79.366L94.106,79.395L93.9,79.422L93.694,79.447L93.489,79.469L93.283,79.489L93.078,79.508L92.873,79.524L92.668,79.537L92.464,79.549L92.26,79.559L92.057,79.566L91.854,79.572L91.652,79.575L91.45,79.576L91.249,79.575L91.048,79.572L90.848,79.567L90.649,79.56L90.45,79.551L90.252,79.54L90.055,79.526L89.859,79.511L89.664,79.494L89.469,79.474L89.276,79.453L89.083,79.43L88.892,79.404L88.701,79.377L88.512,79.347L88.324,79.316L88.136,79.282L87.95,79.247L87.766,79.21L87.582,79.17L87.4,79.129L87.219,79.085L87.039,79.04L86.861,78.992L86.684,78.943L86.509,78.891L86.335,78.838L86.163,78.782L85.992,78.724L85.822,78.665L85.655,78.603L85.489,78.539L85.325,78.473L85.162,78.405L85.001,78.335L84.842,78.263L84.685,78.189L84.53,78.112L84.376,78.033L84.225,77.953L84.076,77.869L83.928,77.784L83.783,77.697L83.64,77.607L83.499,77.514L83.36,77.42L83.224,77.323L83.09,77.224L82.958,77.122L82.829,77.018L82.702,76.911L82.578,76.802L82.46,76.693L82.397,76.634L82.339,76.576L82.28,76.518L82.223,76.459L82.166,76.4L82.11,76.34L82.055,76.279L82.001,76.218L81.947,76.156L81.894,76.093L81.842,76.029L81.81,75.989L81.791,75.965L81.741,75.901L81.691,75.835L81.643,75.769L81.595,75.702L81.548,75.635L81.502,75.567L81.457,75.498L81.413,75.429L81.37,75.358L81.328,75.288L81.287,75.216L81.247,75.144L81.208,75.072L81.17,74.998L81.133,74.925L81.097,74.85L81.063,74.775L81.029,74.699L80.996,74.623L80.965,74.546L80.935,74.469L80.906,74.391L80.878,74.312L80.851,74.233L80.826,74.153L80.801,74.073L80.778,73.993L80.758,73.916L80.685,73.633L80.613,73.351L80.543,73.068L80.473,72.783L80.404,72.495L80.335,72.206L80.267,71.915L80.2,71.622L80.133,71.328L80.067,71.031L80.002,70.734L79.938,70.434L79.874,70.133L79.811,69.831L79.749,69.527L79.687,69.222L79.626,68.916L79.566,68.609L79.507,68.3L79.449,67.99L79.391,67.679L79.357,67.493L79.334,67.367L79.279,67.054L79.224,66.74L79.17,66.426L79.117,66.11L79.064,65.794L79.013,65.477L78.962,65.159L78.912,64.841L78.863,64.522L78.815,64.203L78.768,63.884L78.722,63.564L78.676,63.243L78.632,62.923L78.588,62.602L78.545,62.281L78.504,61.96L78.463,61.639L78.423,61.318L78.384,60.998L78.346,60.677L78.309,60.356L78.273,60.036L78.237,59.716L78.208,59.443L78.203,59.396L78.171,59.077L78.14,58.758L78.109,58.439L78.08,58.122L78.052,57.804L78.025,57.488L77.998,57.172L77.973,56.857L77.949,56.543L77.926,56.23L77.904,55.917L77.883,55.606L77.864,55.296L77.845,54.986L77.827,54.678L77.811,54.372L77.795,54.064L77.788,53.908L77.783,53.75L77.78,53.592L77.778,53.436L77.778,53.28L77.78,53.125L77.784,52.97L77.79,52.817L77.797,52.664L77.806,52.512L77.817,52.361L77.83,52.211L77.844,52.062L77.846,52.05L77.861,51.913L77.88,51.766L77.9,51.619L77.922,51.473L77.946,51.328L77.971,51.184L77.999,51.041L78.027,50.899L78.058,50.758L78.09,50.617L78.124,50.478L78.16,50.339L78.197,50.202L78.236,50.065L78.276,49.93L78.318,49.795L78.362,49.662L78.408,49.529L78.455,49.398L78.503,49.267L78.553,49.138L78.605,49.01L78.658,48.882L78.713,48.756L78.769,48.631L78.827,48.507L78.886,48.384L78.947,48.262L79.01,48.141L79.073,48.021L79.139,47.903L79.205,47.786L79.274,47.669L79.343,47.554L79.414,47.44L79.487,47.328L79.56,47.216L79.636,47.106L79.712,46.996L79.79,46.888L79.869,46.781L79.95,46.676L80.032,46.572L80.115,46.468L80.199,46.367L80.226,46.335L80.286,46.266L80.374,46.168L80.463,46.071L80.553,45.975L80.645,45.88L80.738,45.787L80.832,45.694L80.927,45.604L81.023,45.514L81.12,45.426L81.219,45.339L81.318,45.254L81.419,45.169L81.52,45.087L81.623,45.005L81.727,44.925L81.831,44.846L81.937,44.768L82.044,44.692L82.151,44.617L82.26,44.544L82.37,44.472L82.48,44.401L82.592,44.331L82.704,44.263L82.817,44.197L82.931,44.131L83.046,44.067L83.162,44.004L83.279,43.943L83.397,43.883L83.515,43.825L83.634,43.767L83.754,43.712L83.875,43.657L83.962,43.619L83.996,43.604L84.119,43.554L84.243,43.505L84.367,43.457L84.492,43.411L84.618,43.366L84.744,43.322L84.871,43.28L84.998,43.239L85.127,43.2L85.255,43.162L85.385,43.125L85.515,43.09L85.646,43.056L85.777,43.023L85.909,42.992L86.041,42.962L86.174,42.934L86.307,42.907L86.441,42.882L86.576,42.858L86.711,42.835L86.846,42.813L86.982,42.793L87.119,42.775L87.256,42.758L87.393,42.742L87.531,42.727L87.67,42.714L87.808,42.703L87.947,42.693L88.087,42.684L88.089,42.684L88.227,42.678L88.368,42.673L88.506,42.67L89.203,42.659L89.893,42.65L90.576,42.644L91.251,42.64L91.707,42.639L91.917,42.64Z" style="fill:#99674f;"/>
    <path d="M13.96,75.573L13.766,75.488L13.57,75.4L13.372,75.309L13.172,75.215L12.972,75.118L12.771,75.018L12.569,74.915L12.368,74.81L12.167,74.701L11.966,74.59L11.867,74.533L11.767,74.476L11.668,74.418L11.569,74.359L11.471,74.299L11.374,74.239L11.276,74.178L11.18,74.117L11.084,74.054L10.989,73.992L10.895,73.928L10.801,73.864L10.708,73.799L10.616,73.733L10.525,73.666L10.435,73.599L10.346,73.532L10.258,73.463L10.171,73.394L10.086,73.324L10.001,73.254L9.918,73.183L9.836,73.111L9.756,73.039L9.676,72.966L9.599,72.892L9.522,72.817L9.448,72.742L9.374,72.666L9.303,72.59L9.233,72.513L9.165,72.435L9.098,72.357L9.034,72.278L8.971,72.198L8.91,72.117L8.851,72.036L8.795,71.954L8.74,71.872L8.687,71.789L8.636,71.705L8.588,71.62L8.542,71.535L8.498,71.449L8.457,71.363L8.417,71.276L8.381,71.188L8.347,71.099L8.315,71.01L8.286,70.92L8.26,70.83L8.236,70.739L8.215,70.647L8.197,70.554L8.182,70.461L8.169,70.368L8.151,70.196L8.134,70.027L8.12,69.859L8.109,69.693L8.1,69.53L8.093,69.368L8.089,69.209L8.089,69.199L8.087,69.051L8.087,68.895L8.089,68.741L8.094,68.589L8.1,68.439L8.109,68.291L8.121,68.145L8.134,68L8.15,67.857L8.168,67.717L8.188,67.577L8.21,67.44L8.235,67.305L8.261,67.171L8.29,67.039L8.32,66.909L8.353,66.781L8.387,66.654L8.424,66.529L8.463,66.406L8.503,66.285L8.546,66.165L8.59,66.047L8.636,65.931L8.684,65.816L8.734,65.703L8.786,65.592L8.84,65.482L8.895,65.374L8.952,65.268L9.011,65.163L9.072,65.06L9.134,64.958L9.198,64.858L9.263,64.76L9.33,64.664L9.399,64.568L9.469,64.475L9.541,64.383L9.614,64.293L9.689,64.204L9.765,64.117L9.843,64.031L9.922,63.947L10.002,63.864L10.084,63.783L10.167,63.703L10.252,63.625L10.338,63.548L10.425,63.472L10.513,63.399L10.602,63.326L10.693,63.255L10.785,63.185L10.878,63.117L10.972,63.05L11.067,62.985L11.163,62.921L11.26,62.858L11.359,62.797L11.458,62.737L11.558,62.678L11.659,62.621L11.761,62.565L11.864,62.51L11.968,62.456L12.073,62.404L12.178,62.353L12.285,62.303L12.392,62.255L12.499,62.208L12.608,62.162L12.717,62.117L12.827,62.073L12.938,62.03L13.049,61.989L13.161,61.949L13.273,61.91L13.386,61.872L13.5,61.835L13.614,61.799L13.728,61.764L13.843,61.73L13.959,61.698L14.075,61.666L14.191,61.636L14.308,61.606L14.425,61.578L14.542,61.55L14.66,61.524L14.744,61.506L14.778,61.498L14.896,61.473L15.014,61.449L15.133,61.426L15.252,61.404L15.371,61.383L15.49,61.362L15.609,61.343L15.729,61.324L15.848,61.307L15.968,61.29L16.088,61.274L16.207,61.259L16.327,61.244L16.447,61.231L16.566,61.218L16.686,61.206L16.925,61.185L17.163,61.166L17.401,61.151L17.637,61.138L17.873,61.128L18.107,61.12L18.34,61.115L18.477,61.114L18.614,61.113L18.751,61.113L18.888,61.113L19.025,61.115L19.161,61.117L19.298,61.12L19.435,61.124L19.571,61.128L19.708,61.134L19.98,61.147L20.252,61.163L20.524,61.182L20.795,61.203L21.066,61.228L21.337,61.255L21.607,61.285L21.877,61.318L22.146,61.353L22.415,61.391L22.684,61.432L22.952,61.475L23.219,61.52L23.486,61.568L23.752,61.618L24.018,61.67L24.284,61.724L24.548,61.781L24.812,61.839L25.076,61.9L25.339,61.963L25.601,62.028L25.863,62.094L26.124,62.162L26.385,62.233L26.645,62.305L26.904,62.378L27.162,62.453L27.42,62.53L27.677,62.609L27.934,62.688L28.189,62.77L28.444,62.852L28.699,62.936L28.952,63.022L29.205,63.108L29.456,63.196L29.707,63.284L29.958,63.374L30.207,63.465L30.456,63.557L30.703,63.649L30.95,63.743L31.196,63.837L31.441,63.933L31.685,64.028L31.929,64.125L32.171,64.222L32.413,64.32L32.653,64.418L32.893,64.517L33.369,64.715L33.841,64.914L34.309,65.115L34.773,65.315L35.233,65.516L35.688,65.716L36.139,65.915L36.585,66.113L37.354,66.455L37.463,66.503L37.896,66.693L38.323,66.881L38.745,67.064L39.162,67.245L39.574,67.421L39.98,67.592L40.381,67.759L40.578,67.84L40.775,67.92L40.97,67.998L41.163,68.075L41.355,68.15L41.545,68.224L41.734,68.296L41.921,68.366L42.107,68.435L42.291,68.501L42.473,68.566L42.654,68.629L42.833,68.69L43.01,68.749L43.186,68.806L43.359,68.861L43.531,68.914L43.701,68.964L43.87,69.012L44.036,69.058L44.2,69.102L44.363,69.143L44.523,69.182L44.682,69.218L44.838,69.252L44.992,69.283L45.145,69.312L45.295,69.338L45.443,69.361L45.588,69.382L45.732,69.4L45.873,69.416L46.012,69.428L46.148,69.438L46.284,69.445L46.348,69.448L46.414,69.45L46.479,69.451L46.543,69.451L46.607,69.451L46.671,69.45L46.806,69.446L46.943,69.442L47.08,69.437L47.219,69.43L47.358,69.422L47.498,69.414L47.639,69.404L47.78,69.392L47.922,69.38L48.064,69.366L48.207,69.351L48.35,69.335L48.493,69.318L48.637,69.299L48.781,69.28L48.925,69.258L49.07,69.236L49.214,69.212L49.358,69.187L49.503,69.161L49.647,69.133L49.791,69.104L49.935,69.074L50.079,69.042L50.222,69.009L50.365,68.974L50.508,68.938L50.65,68.901L50.792,68.862L50.933,68.822L51.073,68.781L51.213,68.738L51.352,68.693L51.491,68.647L51.628,68.6L51.765,68.551L51.901,68.501L52.035,68.449L52.169,68.396L52.302,68.341L52.433,68.285L52.563,68.227L52.693,68.168L52.82,68.107L52.947,68.045L53.072,67.981L53.196,67.916L53.318,67.849L53.439,67.781L53.558,67.712L53.675,67.64L53.791,67.568L53.905,67.493L54.018,67.418L54.128,67.34L54.237,67.262L54.344,67.181L54.449,67.1L54.552,67.016L54.654,66.932L54.753,66.845L54.85,66.757L54.945,66.668L55.038,66.577L55.131,66.483L55.174,66.438L55.218,66.391L55.262,66.343L55.305,66.295L55.347,66.247L55.389,66.198L55.43,66.149L55.471,66.1L55.512,66.05L55.551,65.999L55.59,65.949L55.629,65.898L55.667,65.846L55.705,65.794L55.741,65.742L55.778,65.689L55.813,65.636L55.849,65.582L55.883,65.528L55.917,65.474L55.951,65.419L55.983,65.363L56.016,65.308L56.047,65.251L56.078,65.195L56.109,65.138L56.138,65.08L56.168,65.022L56.196,64.963L56.224,64.904L56.252,64.845L56.278,64.785L56.304,64.725L56.33,64.664L56.355,64.602L56.379,64.54L56.403,64.478L56.426,64.415L56.448,64.351L56.469,64.287L56.49,64.223L56.511,64.157L56.531,64.092L56.55,64.026L56.568,63.959L56.586,63.891L56.602,63.824L56.619,63.755L56.634,63.686L56.649,63.616L56.663,63.546L56.677,63.475L56.69,63.404L56.702,63.331L56.713,63.259L56.724,63.185L56.733,63.111L56.742,63.037L56.751,62.961L56.758,62.885L56.765,62.809L56.771,62.732L56.776,62.654L56.78,62.575L56.784,62.496L56.787,62.416L56.789,62.335L56.79,62.254L56.79,62.172L56.789,62.089L56.788,62.005L56.786,61.921L56.783,61.836L56.779,61.751L56.774,61.664L56.768,61.577L56.761,61.49L56.753,61.401L56.745,61.312L56.735,61.222L56.725,61.131L56.714,61.04L56.701,60.947L56.688,60.854L56.674,60.761L56.658,60.666L56.642,60.571L56.625,60.475L56.607,60.378L56.588,60.281L56.567,60.182L56.546,60.083L56.524,59.983L56.5,59.883L56.476,59.781L56.45,59.679L56.424,59.576L56.396,59.472L56.367,59.368L56.337,59.262L56.307,59.156L56.275,59.049L56.241,58.941L56.207,58.833L56.172,58.724L56.135,58.614L56.097,58.503L56.058,58.391L56.018,58.279L55.977,58.165L55.935,58.051L55.891,57.936L55.846,57.821L55.8,57.704L55.753,57.587L55.705,57.469L55.655,57.35L55.604,57.23L55.552,57.109L55.499,56.988L55.444,56.866L55.424,56.82L55.4,56.806L55.258,56.715L55.116,56.621L54.976,56.524L54.838,56.426L54.7,56.325L54.564,56.221L54.43,56.115L54.297,56.007L54.166,55.896L54.036,55.783L53.908,55.667L53.781,55.549L53.657,55.429L53.534,55.306L53.413,55.18L53.294,55.053L53.177,54.922L53.062,54.789L52.949,54.654L52.838,54.516L52.729,54.376L52.623,54.234L52.519,54.089L52.418,53.941L52.319,53.791L52.222,53.639L52.13,53.487L52.082,53.406L52.037,53.327L51.992,53.248L51.948,53.168L51.904,53.087L51.862,53.006L51.82,52.924L51.778,52.842L51.738,52.759L51.698,52.675L51.659,52.591L51.62,52.507L51.582,52.421L51.545,52.335L51.509,52.249L51.474,52.162L51.439,52.074L51.405,51.986L51.371,51.898L51.339,51.808L51.307,51.719L51.276,51.628L51.246,51.537L51.217,51.446L51.188,51.354L51.161,51.261L51.134,51.168L51.108,51.074L51.082,50.98L51.058,50.886L51.034,50.79L51.011,50.694L50.989,50.598L50.968,50.501L50.948,50.404L50.928,50.306L50.91,50.208L50.892,50.109L50.875,50.009L50.859,49.909L50.844,49.809L50.83,49.708L50.817,49.606L50.804,49.504L50.792,49.402L50.782,49.299L50.772,49.195L50.763,49.091L50.755,48.986L50.748,48.881L50.742,48.776L50.737,48.67L50.732,48.563L50.729,48.456L50.726,48.349L50.725,48.241L50.724,48.132L50.725,48.023L50.726,47.914L50.728,47.804L50.731,47.693L50.735,47.582L50.741,47.471L50.747,47.359L50.754,47.247L50.762,47.134L50.771,47.021L50.78,46.907L50.791,46.792L50.803,46.678L50.816,46.562L50.83,46.449L50.929,45.653L51.027,44.879L51.125,44.127L51.222,43.393L51.32,42.677L51.417,41.976L51.515,41.29L51.614,40.616L51.714,39.953L51.815,39.299L51.853,39.06L51.917,38.653L52.021,38.014L52.128,37.378L52.236,36.746L52.347,36.114L52.461,35.483L52.579,34.85L52.7,34.213L52.824,33.571L52.953,32.922L53.086,32.265L53.223,31.598L53.365,30.919L53.512,30.227L53.665,29.52L53.823,28.797L53.987,28.056L54.157,27.294L54.334,26.512L54.517,25.706L54.708,24.875L54.906,24.016L54.933,23.902L54.963,23.783L54.996,23.664L55.031,23.545L55.068,23.425L55.107,23.304L55.148,23.183L55.192,23.062L55.238,22.94L55.286,22.819L55.336,22.696L55.388,22.574L55.443,22.451L55.499,22.328L55.558,22.205L55.618,22.082L55.681,21.959L55.746,21.835L55.813,21.712L55.882,21.588L55.953,21.465L56.026,21.342L56.101,21.219L56.178,21.096L56.257,20.973L56.338,20.85L56.421,20.728L56.506,20.606L56.593,20.485L56.682,20.363L56.773,20.243L56.866,20.122L56.961,20.003L57.058,19.883L57.157,19.765L57.257,19.647L57.36,19.53L57.464,19.413L57.571,19.298L57.679,19.183L57.789,19.069L57.902,18.956L58.016,18.843L58.131,18.732L58.156,18.709L58.249,18.622L58.368,18.513L58.489,18.405L58.613,18.298L58.737,18.192L58.864,18.087L58.993,17.984L59.123,17.882L59.255,17.782L59.389,17.683L59.525,17.586L59.663,17.49L59.802,17.395L59.943,17.303L60.086,17.212L60.23,17.122L60.377,17.035L60.525,16.949L60.675,16.865L60.826,16.784L60.98,16.704L61.134,16.626L61.291,16.55L61.449,16.476L61.609,16.405L61.771,16.335L61.934,16.268L62.099,16.203L62.266,16.141L62.434,16.081L62.603,16.023L62.775,15.968L62.948,15.916L63.122,15.866L63.298,15.819L63.475,15.774L63.654,15.732L63.835,15.693L64.017,15.657L64.2,15.623L64.384,15.593L64.478,15.579L64.572,15.566L64.665,15.553L64.759,15.541L64.854,15.53L64.949,15.52L65.044,15.51L65.139,15.501L65.235,15.493L65.331,15.486L65.428,15.48L65.524,15.474L65.622,15.47L65.719,15.466L65.817,15.463L65.915,15.46L66.014,15.459L66.112,15.458L66.212,15.458L66.311,15.459L66.411,15.461L66.511,15.464L66.611,15.468L66.712,15.472L66.813,15.478L66.914,15.484L67.016,15.491L67.118,15.499L67.22,15.508L67.323,15.518L67.426,15.529L67.529,15.541L67.632,15.553L67.736,15.567L67.84,15.581L67.945,15.596L68.049,15.613L68.154,15.63L68.259,15.648L68.365,15.667L68.471,15.687L68.577,15.708L68.683,15.731L68.79,15.754L68.897,15.778L69.004,15.802L69.111,15.828L69.219,15.855L69.327,15.883L69.435,15.912L69.544,15.942L69.653,15.973L69.762,16.005L69.871,16.038L69.981,16.072L70.09,16.107L70.201,16.143L70.311,16.18L70.422,16.219L70.532,16.258L70.644,16.298L70.755,16.34L70.867,16.382L70.978,16.425L71.091,16.47L71.203,16.516L71.315,16.562L71.428,16.61L71.541,16.659L71.655,16.709L71.768,16.76L71.882,16.812L71.996,16.866L72.111,16.92L72.225,16.976L72.34,17.032L72.455,17.09L72.57,17.149L72.686,17.209L72.801,17.271L72.813,17.277L72.918,17.333L73.034,17.395L73.151,17.459L73.268,17.525L73.385,17.591L73.502,17.658L74.267,18.101L75.039,18.545L75.817,18.992L76.601,19.44L77.391,19.891L78.186,20.344L79.789,21.255L81.407,22.176L82.221,22.639L83.036,23.104L83.853,23.572L84.672,24.042L84.775,24.102L85.492,24.513L86.313,24.986L87.133,25.461L87.953,25.938L88.772,26.418L89.589,26.9L89.997,27.141L90.404,27.384L90.811,27.627L91.217,27.87L91.622,28.114L92.027,28.359L92.431,28.604L92.833,28.85L93.235,29.096L93.636,29.343L94.036,29.591L94.434,29.839L94.832,30.088L95.228,30.337L95.622,30.587L96.016,30.837L96.408,31.088L96.798,31.34L97.187,31.592L97.574,31.845L97.96,32.099L98.344,32.353L98.726,32.607L99.106,32.863L99.484,33.119L99.86,33.375L100.235,33.632L100.607,33.89L100.977,34.148L101.345,34.407L101.71,34.667L102.073,34.927L102.434,35.188L102.793,35.449L102.872,35.508L103.149,35.711L103.502,35.973L103.853,36.236L104.202,36.5L104.547,36.764L104.89,37.029L105.23,37.294L105.567,37.56L105.901,37.827L106.233,38.094L106.561,38.362L106.885,38.631L107.207,38.9L107.525,39.17L107.84,39.441L108.152,39.712L108.46,39.984L108.765,40.257L109.066,40.53L109.364,40.804L109.511,40.941L109.658,41.079L109.803,41.216L109.948,41.354L110.091,41.492L110.234,41.63L110.376,41.768L110.517,41.907L110.656,42.045L110.795,42.184L110.933,42.323L111.07,42.462L111.206,42.601L111.34,42.741L111.474,42.88L111.607,43.02L111.739,43.16L111.869,43.3L111.999,43.441L112.127,43.581L112.255,43.722L112.381,43.863L112.506,44.003L112.631,44.145L112.754,44.286L112.876,44.427L112.997,44.569L113.117,44.711L113.235,44.853L113.353,44.995L113.469,45.138L113.584,45.28L113.698,45.423L113.811,45.566L113.923,45.709L114.034,45.852L114.143,45.996L114.251,46.139L114.358,46.283L114.464,46.427L114.569,46.571L114.672,46.715L114.774,46.86L114.875,47.005L114.975,47.149L115.073,47.294L115.17,47.44L115.266,47.585L115.36,47.731L115.454,47.876L115.546,48.022L115.636,48.168L115.726,48.315L115.814,48.461L115.901,48.608L115.986,48.755L116.07,48.902L116.153,49.049L116.234,49.196L116.314,49.344L116.393,49.491L116.47,49.639L116.546,49.787L116.621,49.936L116.694,50.084L116.766,50.233L116.836,50.382L116.905,50.53L117.042,50.833L117.178,51.137L117.311,51.443L117.443,51.751L117.573,52.061L117.702,52.372L117.828,52.685L117.953,53L118.076,53.317L118.179,53.587L118.198,53.635L118.318,53.955L118.436,54.276L118.553,54.599L118.668,54.923L118.781,55.249L118.892,55.577L119.001,55.905L119.109,56.236L119.214,56.567L119.318,56.9L119.42,57.234L119.52,57.57L119.618,57.907L119.714,58.245L119.808,58.584L119.901,58.924L119.991,59.266L120.08,59.608L120.167,59.952L120.251,60.297L120.334,60.643L120.415,60.989L120.493,61.337L120.57,61.686L120.645,62.035L120.718,62.385L120.789,62.737L120.857,63.088L120.924,63.441L120.989,63.795L121.052,64.149L121.112,64.504L121.171,64.859L121.227,65.215L121.282,65.572L121.334,65.929L121.384,66.287L121.432,66.645L121.478,67.003L121.522,67.362L121.564,67.722L121.603,68.082L121.641,68.442L121.676,68.802L121.709,69.163L121.74,69.524L121.769,69.885L121.796,70.246L121.82,70.608L121.842,70.969L121.862,71.331L121.88,71.693L121.895,72.054L121.908,72.416L121.919,72.778L121.928,73.139L121.934,73.501L121.939,73.862L121.94,74.223L121.94,74.584L121.938,74.804L121.938,74.584L121.936,74.223L121.932,73.862L121.925,73.501L121.916,73.139L121.905,72.778L121.892,72.417L121.876,72.055L121.858,71.694L121.838,71.332L121.815,70.971L121.79,70.61L121.764,70.249L121.734,69.888L121.703,69.527L121.67,69.166L121.634,68.806L121.596,68.446L121.556,68.087L121.514,67.728L121.47,67.369L121.424,67.01L121.375,66.652L121.325,66.295L121.272,65.938L121.217,65.582L121.16,65.226L121.101,64.87L121.04,64.516L120.977,64.162L120.912,63.809L120.845,63.456L120.776,63.104L120.705,62.753L120.632,62.403L120.556,62.054L120.479,61.706L120.4,61.358L120.319,61.012L120.236,60.666L120.151,60.322L120.064,59.978L119.975,59.636L119.884,59.294L119.792,58.954L119.697,58.615L119.601,58.277L119.502,57.94L119.402,57.605L119.3,57.271L119.196,56.938L119.09,56.607L118.982,56.277L118.873,55.948L118.761,55.621L118.648,55.295L118.533,54.971L118.417,54.648L118.298,54.327L118.178,54.008L118.056,53.69L118.037,53.641L117.931,53.374L117.805,53.059L117.677,52.747L117.548,52.436L117.417,52.127L117.284,51.82L117.149,51.514L117.013,51.211L116.875,50.909L116.735,50.61L116.665,50.463L116.594,50.316L116.521,50.17L116.447,50.023L116.372,49.877L116.295,49.731L116.217,49.586L116.137,49.44L116.056,49.295L115.974,49.15L115.891,49.005L115.806,48.86L115.72,48.715L115.632,48.571L115.543,48.427L115.453,48.283L115.362,48.139L115.269,47.995L115.175,47.852L115.08,47.708L114.983,47.565L114.885,47.422L114.786,47.28L114.686,47.137L114.584,46.995L114.481,46.852L114.377,46.71L114.272,46.568L114.166,46.427L114.058,46.285L113.949,46.144L113.839,46.003L113.728,45.862L113.616,45.721L113.502,45.581L113.387,45.44L113.272,45.3L113.155,45.16L113.036,45.02L112.917,44.88L112.797,44.741L112.675,44.601L112.553,44.462L112.429,44.323L112.304,44.184L112.178,44.046L112.051,43.907L111.923,43.769L111.794,43.631L111.664,43.493L111.533,43.355L111.4,43.217L111.267,43.08L111.133,42.943L110.997,42.806L110.861,42.669L110.724,42.532L110.585,42.395L110.446,42.259L110.306,42.123L110.164,41.987L110.022,41.851L109.879,41.715L109.734,41.58L109.589,41.444L109.443,41.309L109.296,41.174L109.148,41.039L108.849,40.77L108.547,40.501L108.241,40.234L107.932,39.966L107.619,39.7L107.303,39.434L106.983,39.169L106.66,38.904L106.334,38.64L106.005,38.377L105.673,38.115L105.338,37.853L104.999,37.591L104.658,37.331L104.314,37.071L103.967,36.811L103.618,36.553L103.265,36.295L102.91,36.037L102.633,35.838L102.553,35.781L102.193,35.525L101.83,35.27L101.465,35.016L101.097,34.762L100.728,34.509L100.356,34.256L99.981,34.004L99.605,33.753L99.227,33.502L98.847,33.252L98.465,33.003L98.081,32.754L97.695,32.506L97.307,32.258L96.918,32.011L96.527,31.765L96.135,31.519L95.741,31.274L95.345,31.029L94.948,30.785L94.55,30.542L94.151,30.299L93.75,30.057L93.348,29.815L92.946,29.574L92.542,29.334L92.137,29.094L91.731,28.855L91.324,28.616L90.917,28.378L90.508,28.14L90.099,27.903L89.69,27.667L89.28,27.431L88.457,26.96L87.634,26.492L86.809,26.027L85.984,25.563L85.159,25.102L84.437,24.7L84.333,24.642L83.508,24.186L82.684,23.733L81.861,23.281L81.041,22.831L79.409,21.938L77.79,21.052L76.988,20.613L76.19,20.175L75.398,19.738L74.611,19.304L73.831,18.872L73.058,18.442L72.944,18.379L72.831,18.317L72.718,18.257L72.606,18.197L72.494,18.139L72.394,18.088L72.382,18.082L72.271,18.027L72.159,17.973L72.048,17.92L71.937,17.869L71.827,17.818L71.717,17.769L71.607,17.72L71.498,17.673L71.389,17.627L71.281,17.581L71.172,17.537L71.064,17.494L70.957,17.452L70.85,17.411L70.743,17.372L70.636,17.333L70.53,17.295L70.424,17.258L70.319,17.223L70.214,17.188L70.109,17.154L70.005,17.121L69.901,17.09L69.797,17.059L69.694,17.029L69.591,17.001L69.488,16.973L69.386,16.946L69.284,16.92L69.183,16.895L69.082,16.871L68.981,16.848L68.881,16.826L68.781,16.805L68.681,16.785L68.582,16.766L68.483,16.747L68.384,16.73L68.286,16.713L68.188,16.698L68.091,16.683L67.994,16.669L67.897,16.656L67.801,16.644L67.705,16.632L67.609,16.622L67.514,16.612L67.419,16.604L67.324,16.596L67.23,16.589L67.137,16.582L67.043,16.577L66.95,16.572L66.858,16.568L66.765,16.565L66.673,16.563L66.582,16.561L66.491,16.561L66.4,16.561L66.309,16.562L66.219,16.563L66.13,16.566L66.04,16.569L65.952,16.573L65.863,16.577L65.775,16.583L65.687,16.589L65.599,16.596L65.512,16.603L65.426,16.611L65.339,16.62L65.253,16.63L65.168,16.64L65.083,16.651L64.998,16.663L64.913,16.676L64.829,16.689L64.745,16.702L64.662,16.717L64.58,16.732L64.414,16.764L64.251,16.798L64.089,16.836L63.928,16.875L63.769,16.917L63.612,16.962L63.456,17.009L63.301,17.058L63.149,17.109L62.997,17.163L62.847,17.218L62.699,17.276L62.552,17.336L62.406,17.398L62.262,17.462L62.12,17.528L61.979,17.596L61.84,17.666L61.702,17.738L61.566,17.811L61.431,17.886L61.298,17.963L61.167,18.042L61.037,18.122L60.908,18.204L60.781,18.288L60.656,18.373L60.532,18.459L60.41,18.547L60.29,18.636L60.171,18.727L60.054,18.819L59.939,18.912L59.825,19.006L59.712,19.102L59.602,19.198L59.493,19.296L59.386,19.395L59.28,19.495L59.176,19.595L59.096,19.676L59.074,19.697L58.974,19.8L58.876,19.903L58.779,20.007L58.684,20.112L58.591,20.218L58.5,20.324L58.41,20.431L58.322,20.539L58.236,20.647L58.152,20.755L58.069,20.864L57.989,20.973L57.91,21.082L57.833,21.192L57.758,21.301L57.684,21.411L57.613,21.521L57.543,21.632L57.476,21.742L57.41,21.852L57.346,21.962L57.284,22.071L57.224,22.181L57.166,22.29L57.11,22.399L57.055,22.508L57.003,22.616L56.953,22.724L56.904,22.832L56.858,22.938L56.813,23.045L56.771,23.15L56.73,23.255L56.691,23.359L56.655,23.462L56.62,23.564L56.588,23.665L56.557,23.765L56.528,23.864L56.502,23.962L56.477,24.059L56.454,24.154L56.434,24.248L56.414,24.344L56.246,25.202L56.084,26.036L55.928,26.845L55.778,27.63L55.634,28.393L55.496,29.136L55.363,29.86L55.235,30.566L55.111,31.257L54.993,31.935L54.879,32.6L54.769,33.254L54.664,33.9L54.562,34.538L54.463,35.171L54.369,35.8L54.277,36.426L54.188,37.052L54.102,37.679L54.018,38.309L53.936,38.943L53.886,39.347L53.857,39.583L53.78,40.232L53.704,40.889L53.63,41.558L53.557,42.24L53.485,42.936L53.413,43.648L53.342,44.378L53.272,45.128L53.201,45.898L53.13,46.691L53.122,46.791L53.115,46.888L53.108,46.985L53.102,47.081L53.097,47.176L53.093,47.271L53.09,47.365L53.087,47.458L53.086,47.55L53.085,47.642L53.085,47.733L53.085,47.824L53.087,47.914L53.089,48.003L53.092,48.092L53.095,48.18L53.1,48.267L53.105,48.354L53.11,48.44L53.117,48.525L53.124,48.61L53.132,48.694L53.141,48.777L53.15,48.86L53.16,48.942L53.171,49.024L53.182,49.105L53.194,49.185L53.206,49.265L53.22,49.344L53.234,49.422L53.248,49.5L53.263,49.577L53.279,49.654L53.296,49.73L53.313,49.806L53.33,49.88L53.349,49.955L53.368,50.028L53.387,50.102L53.407,50.174L53.428,50.246L53.449,50.317L53.471,50.388L53.493,50.458L53.516,50.528L53.539,50.597L53.563,50.666L53.588,50.734L53.613,50.801L53.638,50.868L53.665,50.934L53.691,51L53.718,51.065L53.746,51.13L53.774,51.194L53.803,51.258L53.832,51.321L53.862,51.384L53.892,51.446L53.923,51.507L53.954,51.568L53.986,51.629L54.018,51.689L54.05,51.749L54.083,51.808L54.117,51.866L54.151,51.924L54.185,51.982L54.22,52.039L54.256,52.096L54.29,52.149L54.364,52.263L54.439,52.372L54.516,52.479L54.594,52.584L54.674,52.687L54.755,52.789L54.838,52.888L54.923,52.986L55.009,53.082L55.097,53.176L55.186,53.269L55.277,53.36L55.369,53.449L55.463,53.536L55.558,53.622L55.654,53.705L55.752,53.787L55.851,53.868L55.952,53.946L56.053,54.023L56.156,54.099L56.26,54.172L56.366,54.244L56.472,54.314L56.58,54.382L56.688,54.449L56.798,54.514L56.909,54.577L57.02,54.639L57.133,54.699L57.246,54.757L57.361,54.813L57.476,54.868L57.592,54.921L57.708,54.973L57.826,55.022L57.944,55.07L58.062,55.116L58.182,55.161L58.301,55.204L58.422,55.245L58.543,55.284L58.664,55.322L58.785,55.358L58.907,55.392L59.03,55.425L59.152,55.456L59.275,55.485L59.397,55.512L59.52,55.538L59.643,55.562L59.766,55.584L59.889,55.605L60.012,55.624L60.135,55.641L60.258,55.657L60.38,55.671L60.503,55.683L60.625,55.694L60.746,55.703L60.867,55.71L60.988,55.716L61.108,55.72L61.228,55.723L61.347,55.724L61.466,55.723L61.583,55.72L61.7,55.716L61.817,55.711L61.932,55.704L62.047,55.695L62.16,55.685L62.273,55.673L62.385,55.66L62.495,55.645L62.605,55.629L62.713,55.612L62.82,55.592L62.925,55.572L63.03,55.55L63.133,55.527L63.234,55.502L63.335,55.476L63.433,55.449L63.53,55.42L63.625,55.39L63.719,55.359L63.811,55.327L63.869,55.306L63.901,55.293L63.99,55.259L64.076,55.223L64.174,55.181L64.183,55.177L65.32,55.19L66.123,55.996L66.131,56.014L66.119,57.152L65.315,57.955L65.306,57.959L65.181,58.008L65.042,58.059L64.902,58.108L64.851,58.125L64.761,58.154L64.619,58.198L64.476,58.24L64.332,58.28L64.186,58.317L64.04,58.352L63.893,58.384L63.745,58.414L63.597,58.442L63.447,58.468L63.297,58.492L63.146,58.513L62.994,58.532L62.842,58.549L62.688,58.564L62.535,58.577L62.381,58.587L62.226,58.595L62.07,58.602L61.915,58.606L61.758,58.607L61.602,58.607L61.445,58.605L61.287,58.6L61.13,58.593L60.972,58.584L60.814,58.573L60.655,58.56L60.497,58.545L60.338,58.527L60.179,58.508L60.02,58.486L59.861,58.462L59.702,58.436L59.543,58.408L59.384,58.377L59.226,58.345L59.067,58.31L58.909,58.273L58.75,58.234L58.592,58.193L58.435,58.149L58.384,58.134L58.397,58.181L58.431,58.307L58.465,58.432L58.497,58.557L58.528,58.681L58.558,58.804L58.587,58.927L58.615,59.049L58.641,59.171L58.666,59.292L58.69,59.412L58.713,59.531L58.735,59.65L58.756,59.769L58.776,59.886L58.794,60.003L58.812,60.12L58.828,60.235L58.843,60.351L58.857,60.465L58.87,60.579L58.882,60.692L58.892,60.805L58.902,60.917L58.91,61.028L58.918,61.139L58.924,61.249L58.929,61.359L58.934,61.468L58.937,61.576L58.939,61.684L58.94,61.791L58.94,61.898L58.938,62.004L58.936,62.109L58.933,62.214L58.929,62.318L58.923,62.421L58.917,62.524L58.909,62.626L58.901,62.728L58.891,62.829L58.881,62.929L58.869,63.029L58.857,63.128L58.843,63.226L58.828,63.324L58.813,63.421L58.796,63.518L58.779,63.614L58.76,63.709L58.74,63.804L58.72,63.898L58.698,63.991L58.676,64.084L58.652,64.176L58.628,64.268L58.603,64.358L58.577,64.448L58.549,64.538L58.521,64.627L58.492,64.715L58.462,64.802L58.431,64.889L58.4,64.975L58.367,65.061L58.333,65.146L58.299,65.23L58.264,65.313L58.228,65.396L58.191,65.478L58.153,65.56L58.114,65.64L58.075,65.72L58.034,65.8L57.993,65.878L57.951,65.956L57.909,66.034L57.865,66.11L57.821,66.186L57.776,66.261L57.73,66.336L57.684,66.41L57.636,66.483L57.588,66.555L57.54,66.627L57.49,66.698L57.44,66.768L57.39,66.838L57.338,66.907L57.286,66.975L57.233,67.042L57.18,67.109L57.126,67.175L57.071,67.241L57.016,67.306L56.96,67.37L56.903,67.433L56.846,67.496L56.789,67.558L56.73,67.619L56.671,67.68L56.612,67.74L56.552,67.799L56.49,67.859L56.369,67.973L56.245,68.085L56.118,68.195L55.99,68.303L55.86,68.407L55.728,68.51L55.594,68.609L55.459,68.707L55.322,68.801L55.183,68.894L55.043,68.983L54.902,69.071L54.759,69.156L54.616,69.239L54.47,69.32L54.324,69.398L54.176,69.474L54.028,69.548L53.878,69.62L53.728,69.689L53.576,69.757L53.424,69.822L53.27,69.885L53.116,69.947L52.961,70.006L52.806,70.063L52.65,70.119L52.493,70.172L52.336,70.224L52.178,70.274L52.019,70.321L51.861,70.368L51.701,70.412L51.542,70.454L51.382,70.495L51.222,70.534L51.062,70.571L50.902,70.607L50.741,70.641L50.581,70.674L50.42,70.704L50.259,70.733L50.099,70.761L49.938,70.787L49.778,70.812L49.618,70.835L49.458,70.856L49.299,70.876L49.139,70.895L48.98,70.912L48.822,70.928L48.664,70.942L48.506,70.955L48.349,70.967L48.193,70.977L48.037,70.986L47.882,70.994L47.727,71L47.574,71.005L47.421,71.009L47.269,71.012L47.118,71.013L46.967,71.013L46.818,71.012L46.669,71.01L46.589,71.008L46.509,71.006L46.428,71.002L46.347,70.998L46.265,70.992L46.182,70.986L46.02,70.971L45.855,70.953L45.69,70.931L45.523,70.907L45.356,70.879L45.187,70.849L45.018,70.815L44.848,70.779L44.677,70.74L44.505,70.698L44.332,70.654L44.158,70.607L43.982,70.557L43.806,70.506L43.629,70.451L43.451,70.395L43.272,70.336L43.092,70.275L42.91,70.212L42.728,70.147L42.544,70.079L42.36,70.01L42.174,69.939L41.987,69.866L41.8,69.791L41.611,69.714L41.421,69.636L41.23,69.555L41.037,69.474L40.844,69.39L40.65,69.306L40.454,69.219L40.258,69.132L40.06,69.042L39.861,68.952L39.461,68.767L39.056,68.578L38.646,68.384L38.233,68.187L37.815,67.985L37.393,67.781L36.967,67.574L36.86,67.522L36.102,67.156L35.663,66.944L35.221,66.732L34.775,66.518L34.324,66.305L33.871,66.091L33.413,65.878L32.952,65.666L32.487,65.455L32.254,65.35L32.019,65.245L31.784,65.141L31.548,65.038L31.311,64.935L31.073,64.833L30.835,64.732L30.595,64.631L30.355,64.531L30.114,64.432L29.873,64.334L29.63,64.237L29.387,64.141L29.143,64.046L28.898,63.952L28.653,63.859L28.407,63.767L28.16,63.677L27.912,63.588L27.664,63.5L27.415,63.414L27.166,63.329L26.915,63.246L26.664,63.164L26.413,63.084L26.161,63.006L25.908,62.929L25.654,62.854L25.4,62.781L25.146,62.709L24.89,62.64L24.635,62.572L24.378,62.507L24.121,62.443L23.864,62.382L23.606,62.322L23.347,62.265L23.088,62.211L22.828,62.158L22.568,62.108L22.307,62.06L22.046,62.015L21.784,61.972L21.522,61.932L21.259,61.894L20.996,61.859L20.732,61.827L20.468,61.797L20.204,61.77L19.939,61.746L19.673,61.725L19.54,61.716L19.407,61.707L19.274,61.699L19.141,61.692L19.008,61.685L18.875,61.68L18.741,61.675L18.607,61.671L18.474,61.667L18.34,61.665L18.113,61.662L17.884,61.662L17.654,61.665L17.424,61.67L17.192,61.678L16.959,61.688L16.726,61.702L16.609,61.71L16.493,61.719L16.376,61.728L16.259,61.738L16.142,61.749L16.025,61.761L15.908,61.774L15.792,61.787L15.675,61.802L15.559,61.817L15.442,61.833L15.326,61.85L15.21,61.868L15.094,61.886L14.979,61.906L14.863,61.927L14.83,61.933L14.748,61.948L14.633,61.971L14.519,61.995L14.405,62.02L14.291,62.046L14.178,62.072L14.065,62.1L13.953,62.129L13.841,62.159L13.729,62.189L13.618,62.221L13.508,62.254L13.398,62.288L13.288,62.323L13.18,62.359L13.071,62.396L12.964,62.435L12.857,62.474L12.751,62.515L12.645,62.557L12.54,62.6L12.436,62.644L12.333,62.689L12.23,62.735L12.129,62.783L12.028,62.832L11.928,62.882L11.829,62.933L11.73,62.986L11.633,63.039L11.537,63.095L11.441,63.151L11.347,63.209L11.253,63.267L11.161,63.328L11.069,63.389L10.979,63.452L10.889,63.517L10.801,63.582L10.714,63.649L10.628,63.718L10.543,63.787L10.46,63.859L10.377,63.931L10.296,64.005L10.216,64.081L10.138,64.158L10.06,64.236L9.984,64.316L9.909,64.397L9.836,64.48L9.764,64.565L9.693,64.651L9.624,64.738L9.556,64.828L9.49,64.918L9.425,65.011L9.361,65.105L9.299,65.2L9.239,65.298L9.18,65.396L9.123,65.497L9.067,65.599L9.013,65.703L8.961,65.809L8.91,65.916L8.861,66.025L8.813,66.136L8.768,66.249L8.724,66.364L8.682,66.48L8.642,66.598L8.603,66.718L8.567,66.84L8.532,66.964L8.499,67.089L8.468,67.217L8.439,67.346L8.412,67.477L8.387,67.61L8.364,67.746L8.343,67.883L8.324,68.022L8.308,68.163L8.293,68.306L8.28,68.451L8.27,68.598L8.262,68.747L8.256,68.898L8.252,69.052L8.251,69.197L8.251,69.207L8.252,69.364L8.256,69.524L8.262,69.685L8.271,69.849L8.282,70.015L8.295,70.182L8.311,70.352L8.321,70.442L8.334,70.531L8.35,70.619L8.368,70.708L8.389,70.795L8.413,70.882L8.44,70.969L8.469,71.055L8.5,71.141L8.534,71.226L8.57,71.311L8.609,71.396L8.65,71.479L8.693,71.563L8.739,71.646L8.787,71.728L8.837,71.81L8.889,71.891L8.943,71.972L9,72.052L9.058,72.132L9.118,72.211L9.18,72.29L9.244,72.368L9.31,72.446L9.377,72.523L9.446,72.599L9.517,72.675L9.59,72.751L9.664,72.825L9.739,72.9L9.816,72.973L9.895,73.046L9.975,73.119L10.056,73.19L10.138,73.262L10.222,73.332L10.307,73.402L10.393,73.471L10.481,73.54L10.569,73.608L10.658,73.676L10.748,73.743L10.84,73.809L10.932,73.874L11.025,73.939L11.118,74.003L11.213,74.067L11.308,74.13L11.403,74.192L11.5,74.254L11.597,74.315L11.694,74.375L11.792,74.434L11.89,74.493L11.988,74.552L12.186,74.666L12.385,74.777L12.585,74.886L12.784,74.992L12.983,75.095L13.182,75.195L13.379,75.293L13.576,75.387L13.77,75.478L13.962,75.567L14.152,75.652L14.332,75.732L14.151,75.655L13.96,75.573Z" style="fill:#99674f;"/>
    <path d="M101.23,66.54C99.38,63.1 92.36,64.68 92.36,64.68L94.38,59.59C94.92,58.24 96.64,57.87 97.68,58.88C99.72,60.87 102.93,63.67 106,65.03C107.07,65.5 107.58,66.71 107.08,67.77C105.77,70.59 103.72,75.77 104.11,79.93C104.21,81.01 103.27,81.89 102.2,81.74C82.16,79 73.16,97.17 73.16,97.17C73.16,97.17 74.45,85.63 85.61,78.67C89.58,76.19 91.23,77.25 92.31,77.29C95.13,77.38 98.42,77.03 100.06,75.07C101.16,73.73 103.08,69.98 101.23,66.54Z" style="fill:#99674f;fill-rule:nonzero;"/>
    <path d="M38.6,67.681C38.6,67.681 41.282,69.932 44.932,70.682C48.582,71.432 53.58,73.06 60.12,79.83C62.53,82.32 64.65,87.25 65.7,89.96C65.79,90.2 66.16,90.12 66.14,89.86C65.8,85.7 63.81,73.78 52.12,70.22C40.383,69.465 40.788,68.556 38.6,67.681Z" style="fill:#99674f;fill-rule:nonzero;"/>
    <g transform="matrix(1,0,0,1,5.68434e-14,0.00332827)">
        <path d="M10.301,40.484L10.202,40.565L10.103,40.648L10.006,40.731L9.91,40.814L9.815,40.899L9.721,40.984L9.628,41.069L9.536,41.156L9.446,41.243L9.357,41.331L9.27,41.419L9.183,41.508L9.098,41.597L9.015,41.688L8.932,41.778L8.851,41.87L8.772,41.962L8.694,42.055L8.617,42.148L8.542,42.242L8.469,42.336L8.397,42.431L8.327,42.527L8.258,42.623L8.191,42.72L8.125,42.817L8.061,42.915L7.999,43.013L7.939,43.112L7.88,43.212L7.823,43.312L7.768,43.412L7.714,43.513L7.663,43.615L7.613,43.717L7.565,43.82L7.519,43.923L7.475,44.026L7.433,44.13L7.392,44.235L7.354,44.34L7.318,44.445L7.283,44.551L7.251,44.657L7.221,44.764L7.193,44.871L7.167,44.979L7.143,45.087L7.121,45.196L7.101,45.305L7.084,45.414L7.069,45.524L7.062,45.581L7.056,45.634L7.046,45.745L7.038,45.856L7.033,45.967L7.029,46.079L7.029,46.191L7.03,46.304L7.034,46.417L7.04,46.53L7.049,46.644L7.06,46.758L7.073,46.872L7.089,46.987L7.108,47.102L7.129,47.217L7.152,47.333L7.178,47.449L7.207,47.566L7.238,47.683L7.272,47.8L7.309,47.918L7.348,48.035L7.39,48.154L7.434,48.272L7.482,48.391L7.532,48.511L7.585,48.63L7.641,48.75L7.699,48.871L7.761,48.991L7.825,49.112L7.892,49.234L7.963,49.355L8.036,49.477L8.112,49.6L8.191,49.722L8.274,49.845L8.359,49.969L8.447,50.092L8.539,50.216L8.634,50.34L8.731,50.465L8.822,50.576L8.914,50.684L9.008,50.79L9.103,50.894L9.2,50.995L9.298,51.094L9.398,51.19L9.432,51.221L9.499,51.283L9.602,51.374L9.706,51.462L9.812,51.548L9.919,51.631L10.028,51.713L10.137,51.791L10.249,51.868L10.361,51.942L10.475,52.014L10.59,52.084L10.706,52.152L10.824,52.218L10.943,52.281L11.063,52.342L11.184,52.401L11.307,52.458L11.43,52.513L11.555,52.566L11.682,52.617L11.809,52.665L11.938,52.712L12.068,52.757L12.199,52.8L12.331,52.84L12.464,52.879L12.598,52.916L12.734,52.951L12.87,52.984L13.008,53.015L13.147,53.045L13.287,53.072L13.428,53.098L13.57,53.122L13.713,53.143L13.857,53.164L14.002,53.182L14.148,53.199L14.295,53.214L14.443,53.227L14.592,53.238L14.742,53.248L14.893,53.256L15.044,53.262L15.197,53.267L15.35,53.27L15.505,53.271L15.66,53.271L15.816,53.269L15.973,53.265L16.13,53.26L16.289,53.253L16.448,53.245L16.608,53.235L16.769,53.224L16.93,53.211L17.092,53.197L17.255,53.181L17.419,53.164L17.583,53.145L17.748,53.125L17.913,53.104L18.079,53.081L18.246,53.056L18.413,53.031L18.581,53.004L18.749,52.975L18.918,52.946L19.087,52.915L19.257,52.882L19.427,52.849L19.598,52.814L19.77,52.778L19.941,52.74L20.113,52.702L20.286,52.662L20.459,52.621L20.632,52.579L20.806,52.536L20.98,52.491L21.154,52.446L21.328,52.399L21.487,52.356L21.503,52.351L21.678,52.302L21.854,52.252L22.029,52.201L22.205,52.149L22.381,52.096L22.557,52.042L22.733,51.986L22.91,51.93L23.087,51.873L23.263,51.815L23.44,51.757L23.617,51.697L23.794,51.636L23.971,51.575L24.148,51.512L24.325,51.449L24.502,51.385L24.679,51.321L25.034,51.188L25.388,51.053L25.741,50.916L26.094,50.775L26.447,50.632L26.799,50.487L27.149,50.339L27.499,50.189L27.848,50.036L28.196,49.882L28.542,49.726L28.886,49.569L29.229,49.41L29.571,49.249L29.91,49.087L30.247,48.925L30.582,48.761L30.915,48.596L31.246,48.43L31.574,48.264L31.899,48.097L32.221,47.93L32.343,47.867L32.541,47.764L32.859,47.598L33.173,47.432L33.484,47.267L33.791,47.101L34.095,46.937L34.395,46.772L34.691,46.609L34.984,46.446L35.272,46.284L35.556,46.123L35.836,45.963L36.112,45.805L36.383,45.649L36.649,45.493L36.772,45.421L36.911,45.341L37.169,45.192L37.421,45.045L37.668,44.899L37.91,44.756L38.147,44.616L38.377,44.478L38.823,44.209L39.243,43.953L39.639,43.709L40.008,43.478L40.351,43.263L40.422,43.217L40.668,43.067L40.956,42.888L41.115,42.789L41.215,42.729L41.443,42.589L41.639,42.469L41.8,42.369L41.911,42.299L42.021,42.232L42.095,42.186L42.283,42.085L42.485,42.019L42.696,41.988L42.909,41.994L43.118,42.036L43.316,42.113L43.498,42.224L43.566,42.275L43.759,42.425L44.066,42.665L44.474,42.985L44.713,43.175L44.973,43.382L45.065,43.456L45.25,43.608L45.544,43.852L45.854,44.11L46.18,44.383L46.519,44.67L46.87,44.968L47.233,45.278L47.604,45.599L47.983,45.929L48.369,46.268L48.76,46.614L48.762,46.616L49.151,46.971L49.543,47.334L49.741,47.518L49.938,47.703L50.134,47.888L50.331,48.074L50.526,48.262L50.721,48.449L50.916,48.638L51.109,48.826L51.301,49.015L51.491,49.204L51.68,49.393L51.867,49.582L52.052,49.771L52.235,49.96L52.416,50.148L52.595,50.336L52.77,50.522L52.942,50.707L52.962,51.73L51.938,51.733L51.753,51.569L51.567,51.406L51.377,51.242L51.185,51.078L50.99,50.913L50.793,50.748L50.594,50.583L50.393,50.418L50.19,50.253L49.986,50.088L49.781,49.923L49.574,49.759L49.366,49.595L49.158,49.432L48.949,49.269L48.74,49.107L48.53,48.946L48.321,48.787L47.902,48.47L47.489,48.16L47.487,48.159L47.078,47.849L46.675,47.547L46.278,47.252L45.89,46.966L45.512,46.689L45.145,46.423L44.791,46.168L44.451,45.925L44.127,45.695L43.821,45.478L43.629,45.343L43.534,45.275L43.27,45.084L43.028,44.911L42.749,44.713L42.538,44.849L42.437,44.913L42.272,45.015L41.974,45.198L41.721,45.351L41.645,45.396L41.286,45.604L40.898,45.826L40.484,46.061L40.043,46.308L39.579,46.566L39.337,46.699L39.09,46.834L38.837,46.971L38.579,47.11L38.315,47.251L38.046,47.394L37.9,47.471L37.771,47.537L37.491,47.681L37.205,47.827L36.915,47.973L36.621,48.121L36.321,48.269L36.018,48.419L35.71,48.569L35.398,48.72L35.083,48.872L34.763,49.024L34.44,49.176L34.113,49.328L33.783,49.48L33.45,49.633L33.241,49.727L33.113,49.784L32.772,49.934L32.429,50.083L32.083,50.232L31.734,50.38L31.383,50.528L31.03,50.674L30.674,50.819L30.316,50.963L29.957,51.105L29.595,51.246L29.232,51.385L28.867,51.523L28.501,51.658L28.133,51.792L27.764,51.923L27.395,52.052L27.024,52.179L26.653,52.303L26.281,52.425L25.908,52.544L25.535,52.66L25.163,52.772L24.975,52.828L24.789,52.882L24.602,52.936L24.415,52.989L24.229,53.04L24.042,53.092L23.856,53.142L23.67,53.191L23.483,53.239L23.297,53.287L23.111,53.333L22.925,53.379L22.74,53.423L22.554,53.467L22.369,53.509L22.184,53.551L21.999,53.591L21.814,53.631L21.797,53.634L21.63,53.669L21.446,53.707L21.262,53.743L21.079,53.778L20.896,53.813L20.713,53.846L20.531,53.877L20.349,53.908L20.167,53.937L19.986,53.965L19.805,53.992L19.625,54.018L19.445,54.042L19.266,54.065L19.087,54.087L18.908,54.108L18.731,54.127L18.553,54.144L18.377,54.161L18.2,54.176L18.025,54.189L17.85,54.202L17.675,54.212L17.502,54.221L17.329,54.229L17.156,54.236L16.984,54.24L16.813,54.244L16.643,54.245L16.473,54.245L16.305,54.244L16.137,54.241L15.969,54.236L15.803,54.23L15.637,54.222L15.472,54.213L15.309,54.201L15.145,54.188L14.983,54.174L14.822,54.157L14.662,54.139L14.502,54.119L14.344,54.097L14.186,54.074L14.03,54.048L13.874,54.021L13.72,53.992L13.567,53.961L13.414,53.928L13.263,53.893L13.113,53.857L12.964,53.818L12.816,53.777L12.67,53.735L12.524,53.69L12.38,53.644L12.237,53.595L12.095,53.544L11.955,53.491L11.816,53.436L11.678,53.379L11.541,53.32L11.406,53.259L11.272,53.196L11.14,53.13L11.009,53.062L10.88,52.993L10.752,52.92L10.625,52.846L10.5,52.769L10.377,52.691L10.255,52.61L10.134,52.526L10.016,52.441L9.899,52.353L9.783,52.262L9.67,52.17L9.558,52.075L9.447,51.978L9.339,51.878L9.232,51.776L9.127,51.672L9.059,51.601L9.024,51.565L8.922,51.457L8.822,51.346L8.723,51.233L8.627,51.117L8.532,50.999L8.439,50.878L8.349,50.755L8.253,50.62L8.16,50.486L8.071,50.352L7.985,50.218L7.902,50.085L7.822,49.952L7.745,49.82L7.672,49.688L7.601,49.556L7.534,49.425L7.469,49.294L7.408,49.164L7.349,49.034L7.294,48.905L7.242,48.776L7.192,48.647L7.145,48.519L7.102,48.392L7.061,48.265L7.023,48.138L6.988,48.012L6.955,47.886L6.925,47.761L6.899,47.637L6.874,47.513L6.853,47.389L6.834,47.267L6.818,47.144L6.804,47.022L6.793,46.901L6.785,46.78L6.779,46.66L6.776,46.541L6.775,46.422L6.777,46.304L6.781,46.186L6.788,46.069L6.797,45.952L6.808,45.836L6.822,45.721L6.838,45.607L6.847,45.552L6.856,45.493L6.876,45.379L6.898,45.266L6.922,45.154L6.948,45.043L6.977,44.932L7.008,44.821L7.041,44.712L7.076,44.603L7.113,44.494L7.152,44.386L7.193,44.279L7.236,44.173L7.281,44.067L7.328,43.962L7.377,43.858L7.428,43.754L7.48,43.651L7.535,43.548L7.591,43.447L7.649,43.346L7.709,43.245L7.77,43.146L7.833,43.047L7.898,42.948L7.965,42.851L8.033,42.754L8.103,42.657L8.174,42.562L8.247,42.467L8.322,42.373L8.397,42.279L8.475,42.187L8.554,42.095L8.634,42.003L8.716,41.913L8.799,41.823L8.884,41.734L8.97,41.645L9.057,41.557L9.146,41.47L9.235,41.384L9.326,41.298L9.419,41.214L9.512,41.13L9.607,41.046L9.703,40.964L9.8,40.882L9.898,40.8L9.997,40.72L10.097,40.64L10.199,40.562L10.301,40.483L10.31,40.477L10.301,40.484Z" style="fill:#99674f;"/>
    </g>
    <path d="M38.6,43.92C40.86,42.36 42.74,40.01 44.25,37.49C44.5,37.07 45.15,37.17 45.25,37.65C45.69,39.84 44.73,42.61 43.73,43.92" style="fill:#99674f;fill-rule:nonzero;"/>
</svg>
