<?xml version="1.0" encoding="UTF-8" standalone="no"?>
<!DOCTYPE svg PUBLIC "-//W3C//DTD SVG 1.1//EN" "http://www.w3.org/Graphics/SVG/1.1/DTD/svg11.dtd">
<svg width="100%" height="100%" viewBox="0 0 128 128" version="1.1" xmlns="http://www.w3.org/2000/svg" xmlns:xlink="http://www.w3.org/1999/xlink" xml:space="preserve" xmlns:serif="http://www.serif.com/" style="fill-rule:evenodd;clip-rule:evenodd;stroke-linejoin:round;stroke-miterlimit:2;">
    <g transform="matrix(1.28523,0,0,1.28523,-2.69498,1.94548)">
        <path d="M84.03,51.64C84.03,51.64 89.92,52.66 89.92,59.01C89.92,64.61 85.62,66.82 81.32,66.82L81.32,51.64L84.03,51.64ZM19.75,51.64C19.75,51.64 13.86,52.66 13.86,59.01C13.86,64.61 18.16,66.82 22.46,66.82L22.46,51.64L19.75,51.64Z" style="fill:#563e37;fill-rule:nonzero;"/>
    </g>
    <g transform="matrix(0.96969,0,0,1,1.93986,0)">
        <path d="M64.17,14.87C31.06,14.87 21.22,38.23 21.22,73.78C21.22,109.34 48.08,122.14 64.17,122.14C80.26,122.14 106.78,109 106.78,73.45C106.78,37.89 97.28,14.87 64.17,14.87Z" style="fill:#70534a;fill-rule:nonzero;"/>
    </g>
    <path d="M76.38,100.52L51.62,100.52C50.2,100.52 49.59,101.47 50.53,102.9C51.84,104.9 56.72,108.75 64,108.75C71.28,108.75 76.16,104.9 77.47,102.9C78.41,101.47 77.8,100.52 76.38,100.52Z" style="fill:rgb(81,63,53);fill-rule:nonzero;"/>
    <path d="M69.98,89.99C67.87,90.59 65.69,90.88 64,90.88C62.31,90.88 60.13,90.59 58.02,89.99C57.12,89.73 56.77,90.59 57.09,91.16C57.76,92.34 60.45,94.71 64,94.71C67.55,94.71 70.24,92.34 70.91,91.16C71.24,90.59 70.88,89.74 69.98,89.99Z" style="fill:#563e37;fill-rule:nonzero;"/>
    <g transform="matrix(0.96969,0,0,1,1.93986,0)">
        <path d="M44.67,63.594L44.67,67.199L35.855,64.203L35.938,67.289C29.402,68.26 22.494,70.846 22.494,70.846C22.038,71.23 21.626,71.62 21.236,72.014C21.231,72.602 21.221,73.184 21.221,73.779C21.221,77.954 21.601,81.804 22.281,85.367C25.844,85.822 32.726,86.605 37.973,86.605C46.681,86.77 56.243,83.504 63.4,83.504L66.277,83.504C73.436,83.504 82.999,86.77 91.707,86.605C96.173,86.605 101.807,86.036 105.639,85.58C106.374,81.864 106.779,77.828 106.779,73.45C106.779,72.519 106.769,71.602 106.756,70.69C105.878,70.353 100.289,68.256 94.629,67.344L94.711,64.204L85.898,67.199L85.898,63.594L73.092,70.094C69.539,71.102 66.455,72.002 64.84,72.002C63.623,72.002 60.81,71.103 57.451,70.1L57.484,70.098L44.67,63.594Z" style="fill:rgb(106,0,185);fill-opacity:0.88;fill-rule:nonzero;"/>
    </g>
    <path d="M41.426,71.146C39.666,72.325 38.471,74.586 38.471,77.189C38.471,80.999 41.039,84.089 44.199,84.089C47.359,84.089 49.91,80.999 49.91,77.189C49.913,76.101 49.697,75.023 49.273,74.021L41.426,71.146ZM86.57,71.148L78.717,74.025C78.293,75.026 78.077,76.102 78.08,77.189C78.08,80.999 80.64,84.089 83.8,84.089C86.95,84.089 89.52,80.999 89.52,77.189C89.52,74.587 88.327,72.327 86.57,71.149L86.57,71.148Z" style="fill:rgb(39,39,39);fill-rule:nonzero;"/>
    <g transform="matrix(1.28523,0,0,1.28523,-2.69498,1.94548)">
        <path d="M52.65,6.46C52.65,6.46 52.15,6.44 51.94,6.45C51.73,6.45 51.23,6.46 51.23,6.46C23.82,6.99 15.56,23.48 15.56,34.91C15.56,46.02 15.57,54.19 15.57,54.19C15.57,54.19 16.01,53.74 16.81,53.11C17.67,52.44 18.62,52.07 18.62,52.07L19.901,61.35L29.13,42.27C29.19,42.15 29.31,42.08 29.44,42.1L34.85,42.7C40.29,43.3 45.76,43.6 51.22,43.61L51.22,43.62C51.46,43.62 51.69,43.61 51.93,43.61C52.17,43.61 52.4,43.62 52.64,43.62L52.64,43.6C58.1,43.58 63.57,43.29 69.01,42.69L74.42,42.09C74.55,42.08 74.67,42.15 74.73,42.26L83.87,61.34L85.24,52.06C85.24,52.06 86.19,52.44 87.05,53.1C87.86,53.73 88.29,54.18 88.29,54.18C88.29,54.18 88.3,46.02 88.3,34.9C88.32,23.48 80.06,6.99 52.65,6.46Z" style="fill:#232020;fill-rule:nonzero;"/>
    </g>
</svg>
