<?xml version="1.0" encoding="UTF-8" standalone="no"?>
<!DOCTYPE svg PUBLIC "-//W3C//DTD SVG 1.1//EN" "http://www.w3.org/Graphics/SVG/1.1/DTD/svg11.dtd">
<svg width="100%" height="100%" viewBox="0 0 128 128" version="1.1" xmlns="http://www.w3.org/2000/svg" xmlns:xlink="http://www.w3.org/1999/xlink" xml:space="preserve" xmlns:serif="http://www.serif.com/" style="fill-rule:evenodd;clip-rule:evenodd;stroke-linejoin:round;stroke-miterlimit:2;">
    <path d="M128,12.8C128,5.735 122.265,0 115.2,0L12.8,0C5.735,0 0,5.735 0,12.8L0,115.2C0,122.265 5.735,128 12.8,128L115.2,128C122.265,128 128,122.265 128,115.2L128,12.8Z" style="fill:rgb(28,97,146);"/>
    <path id="rect2" d="M10.891,11.51C10.481,11.51 10.15,11.84 10.15,12.24L10.15,20.83C10.15,21.23 10.491,21.551 10.891,21.551L53.26,21.551C53.67,21.551 53.99,21.23 53.99,20.83L54,20.83L54,12.24C54,11.83 53.67,11.51 53.27,11.51L10.891,11.51ZM10.891,28.85C10.481,28.85 10.15,29.18 10.15,29.58L10.15,38.17C10.15,38.58 10.491,38.9 10.891,38.9L26.721,38.9L26.721,55.939C26.721,56.349 27.049,56.67 27.449,56.67L36.711,56.67C37.111,56.67 37.439,56.339 37.439,55.939L37.439,38.9L53.26,38.9C53.67,38.9 53.99,38.57 53.99,38.17L54,38.17L54,29.58C54,29.17 53.67,28.85 53.27,28.85L10.891,28.85Z" style="fill:white;fill-rule:nonzero;"/>
    <path id="rect4" d="M104.631,77.106L104.135,77.368L94.549,92.023C94.577,91.704 94.633,91.405 94.633,91.086C94.633,85.052 90.313,80.17 83.389,80.17C76.474,80.17 72.145,85.052 72.145,91.086C72.145,97.111 76.474,101.993 83.389,101.993C85.478,101.993 87.287,101.506 88.852,100.729L78.508,116.535L78.479,117.136L78.995,117.445L89.911,117.445L90.407,117.172L98.017,105.3C98.017,105.394 97.987,105.479 97.987,105.573C97.987,111.607 102.316,116.488 109.241,116.488C116.156,116.488 120.485,111.607 120.494,105.591C120.494,99.557 116.165,94.675 109.25,94.675C107.329,94.675 105.634,95.078 104.153,95.753L115.52,78.006L115.538,77.415L115.022,77.106L104.631,77.106ZM83.389,86.785C86.116,86.785 87.821,88.706 87.821,91.086C87.821,93.466 86.125,95.387 83.389,95.387C80.662,95.387 78.956,93.466 78.956,91.086C78.956,88.706 80.662,86.785 83.389,86.785ZM109.241,101.281C111.967,101.281 113.673,103.202 113.673,105.582C113.673,107.962 111.967,109.883 109.241,109.883C106.505,109.883 104.799,107.962 104.799,105.582C104.799,103.202 106.505,101.281 109.241,101.281Z" style="fill:white;fill-rule:nonzero;"/>
    <path id="path18" d="M79.249,54.575C79.95,55.077 80.727,55.541 81.523,55.883C85.862,57.74 91.036,56.432 94.845,53.95C98.332,51.676 101.989,47.289 101.468,42.996L101.468,42.977L101.203,23.695C101.383,23.686 101.544,23.686 101.695,23.676C103.136,23.667 104.595,23.781 106.007,24.055C108.65,24.576 111.313,25.609 113.217,27.571C115.122,29.513 116.884,31.437 119.708,31.948C120.892,32.157 122.939,31.797 123.687,30.764C124.919,29.068 122.247,28.461 121.432,27.59C120.665,26.756 120.371,25.316 120.182,24.226C119.566,20.531 117.993,17.138 115.217,14.59C111.512,11.188 106.442,8.904 101.013,7.929C100.236,7.786 99.336,7.73 98.521,7.9C98.502,7.9 98.493,7.891 98.474,7.891C97.09,7.91 95.991,9.037 96.01,10.43L96.37,36.411C94.826,35.587 93.092,35.094 91.292,34.904C86.791,34.44 81.902,35.833 78.746,38.619C77.685,39.557 76.624,40.789 75.989,42.058C75.326,43.366 74.786,45.289 74.899,46.767C75.155,49.847 76.7,52.775 79.249,54.575L79.249,54.575Z" style="fill:white;fill-rule:nonzero;"/>
    <path id="path20" d="M32.072,71.716C17.483,71.716 6.885,82.041 6.885,96.271C6.885,110.5 17.474,120.834 32.072,120.834C37.984,120.834 43.379,119.158 47.678,115.991L43.222,109.956C40.221,112.167 36.37,113.333 32.063,113.333C21.65,113.333 14.386,106.315 14.386,96.279C14.386,86.244 21.658,79.234 32.063,79.234C45.099,79.234 49.74,88.384 49.74,96.937L49.757,97.236C49.783,97.648 49.705,98.929 49.082,99.832C48.941,99.981 48.292,100.341 47.476,100.341C47.011,100.341 46.152,100.245 45.616,99.595C44.669,98.455 44.16,95.551 44.125,93.963L44.081,93.963L44.081,85.48C44.081,85.191 43.844,84.954 43.555,84.954L37.195,84.954C36.905,84.954 36.668,85.191 36.668,85.48L36.668,86.138C34.861,85.156 32.738,84.55 30.273,84.55C22.606,84.55 17.816,89.963 17.816,96.639C17.816,103.324 22.606,108.736 30.273,108.736C34.493,108.736 37.791,107.07 39.949,104.482C41.774,106.622 44.502,107.842 47.485,107.842C50.626,107.842 53.661,106.394 55.231,104.148C57.328,101.131 57.319,97.762 57.267,96.815C57.214,81.787 47.099,71.716 32.072,71.716ZM30.282,102.21C26.738,102.21 24.518,99.709 24.518,96.613C24.518,93.525 26.738,91.016 30.282,91.016C33.835,91.016 36.046,93.525 36.046,96.613C36.046,99.709 33.835,102.21 30.282,102.21Z" style="fill:white;fill-rule:nonzero;"/>
</svg>
