<?xml version="1.0" encoding="UTF-8" standalone="no"?>
<!DOCTYPE svg PUBLIC "-//W3C//DTD SVG 1.1//EN" "http://www.w3.org/Graphics/SVG/1.1/DTD/svg11.dtd">
<svg width="100%" height="100%" viewBox="0 0 128 128" version="1.1" xmlns="http://www.w3.org/2000/svg" xmlns:xlink="http://www.w3.org/1999/xlink" xml:space="preserve" xmlns:serif="http://www.serif.com/" style="fill-rule:evenodd;clip-rule:evenodd;stroke-linejoin:round;stroke-miterlimit:1.41421;">
    <g>
        <path d="M72.65,24.67C72.65,24.67 72.65,47.86 75.64,58.64C77.11,63.95 78.95,67.3 83.36,63.99L100.46,63.82C104.86,67.18 108.02,63.96 108.97,58.5C111.21,45.62 111.21,24.67 111.21,24.67L72.65,24.67Z" style="fill:#bfa055;fill-rule:nonzero;"/>
        <ellipse cx="91.93" cy="24.67" rx="19.28" ry="17.33" style="fill:#bfa055;"/>
        <path d="M112.72,61.64L113.38,63.4C114.67,66.87 116.32,70.2 118.31,73.33L124.89,83.33C125.82,84.75 125.53,86.65 124.21,87.72C123.622,88.194 122.889,88.453 122.133,88.453C121.028,88.453 119.993,87.899 119.38,86.98L103.63,63.37L103.31,59.29L112.72,61.64ZM71.28,61.44L70.62,63.2C69.33,66.67 67.68,70 65.69,73.13L59.11,83.13C58.18,84.55 58.47,86.45 59.79,87.52C60.378,87.994 61.111,88.253 61.867,88.253C62.972,88.253 64.007,87.699 64.62,86.78L80.37,63.17L80.69,59.09L71.28,61.44Z" style="fill:#e0bb95;fill-rule:nonzero;"/>
        <path d="M91.93,49.82C88.43,49.81 84.03,50.22 81.69,50.84C74.4,52.78 72.61,56.21 70.43,62.1L91.93,70.29L91.93,49.82Z" style="fill:rgb(170,0,255);fill-rule:nonzero;"/>
        <rect x="88.66" y="55.66" width="5.31" height="15.77" style="fill:rgb(170,0,255);fill-rule:nonzero;"/>
        <rect x="78.55" y="61.97" width="12.28" height="17.4" style="fill:rgb(170,0,255);fill-rule:nonzero;"/>
        <path d="M78.62,77.45L70.43,96.9L91.93,96.9L91.93,77.45L78.62,77.45Z" style="fill:rgb(170,0,255);fill-rule:nonzero;"/>
        <rect x="78.62" y="98.95" width="9.21" height="28.66" style="fill:#e0bb95;fill-rule:nonzero;"/>
        <rect x="78.62" y="96.9" width="9.21" height="3.07" style="fill:#c48e6a;fill-rule:nonzero;"/>
        <path d="M89.06,128L77.06,128L77.06,125.5C77.06,123.29 78.85,121.5 81.06,121.5L85.06,121.5C87.27,121.5 89.06,123.29 89.06,125.5L89.06,128Z" style="fill:rgb(68,68,68);fill-rule:nonzero;"/>
        <path d="M91.93,49.82C95.43,49.81 99.83,50.22 102.17,50.84C109.46,52.78 111.25,56.21 113.43,62.1L91.93,70.29L91.93,49.82Z" style="fill:rgb(170,0,255);fill-rule:nonzero;"/>
        <rect x="91.92" y="61.978" width="13.31" height="17.4" style="fill:rgb(170,0,255);fill-rule:nonzero;"/>
        <path d="M105.23,77.45L113.42,96.9L91.93,96.9L91.93,77.45L105.23,77.45Z" style="fill:rgb(170,0,255);fill-rule:nonzero;"/>
        <rect x="96.025" y="98.953" width="9.21" height="28.66" style="fill:#e0bb95;fill-rule:nonzero;"/>
        <rect x="96.025" y="96.907" width="9.21" height="3.07" style="fill:#c48e6a;fill-rule:nonzero;"/>
        <path d="M94.79,128L106.79,128L106.79,125.5C106.79,123.29 105,121.5 102.79,121.5L98.79,121.5C96.58,121.5 94.79,123.29 94.79,125.5L94.79,128Z" style="fill:rgb(68,68,68);fill-rule:nonzero;"/>
        <path d="M91.93,56.78C88.99,56.78 86.81,54.81 86.81,51.87L86.81,46.75L97.05,46.75L97.05,51.87C97.04,54.8 94.87,56.78 91.93,56.78Z" style="fill:#e0bb95;fill-rule:nonzero;"/>
        <path d="M97.04,51.77C97.04,51.77 95.09,52.56 91.93,52.56C88.77,52.56 86.81,51.86 86.81,51.86L86.81,46.84C86.81,45.5 87.7,44.04 89.04,44.04L94.83,44.04C96.17,44.04 97.05,45.4 97.05,46.74L97.05,51.77L97.04,51.77Z" style="fill:#c48e6a;fill-rule:nonzero;"/>
        <rect x="89.88" y="76.43" width="4.09" height="20.47" style="fill:rgb(170,0,255);fill-rule:nonzero;"/>
        <g>
            <rect x="78.62" y="71.44" width="13.31" height="6.02" style="fill:rgb(123,31,162);fill-rule:nonzero;"/>
            <rect x="91.92" y="71.43" width="13.31" height="6.02" style="fill:rgb(123,31,162);fill-rule:nonzero;"/>
            <rect x="89.88" y="71.44" width="4.09" height="6.02" style="fill:rgb(123,31,162);fill-rule:nonzero;"/>
        </g>
        <path d="M91.93,11.51C80.08,11.51 76.98,20.7 76.98,33.6C76.98,46.51 86.17,50.44 91.93,50.44C97.69,50.44 106.88,46.5 106.88,33.6C106.88,20.7 103.78,11.51 91.93,11.51Z" style="fill:#e0bb95;fill-rule:nonzero;"/>
        <path d="M96.45,21.64C94.87,23.15 87.05,30.21 76.26,32.05L76.26,17.59C76.26,17.59 80.92,8.35 92.09,8.35C103.26,8.35 107.92,17.82 107.92,17.82L107.92,32.05C107.92,32.05 100.6,29.24 96.92,21.73C96.874,21.625 96.769,21.557 96.654,21.557C96.578,21.557 96.504,21.587 96.45,21.64Z" style="fill:#bfa055;fill-rule:nonzero;"/>
        <path d="M86.9,34.46C86.9,35.82 85.99,36.93 84.86,36.93C83.73,36.93 82.82,35.83 82.82,34.46C82.82,33.09 83.74,31.99 84.86,31.99C85.98,32 86.9,33.1 86.9,34.46M96.95,34.46C96.95,35.82 97.86,36.93 98.99,36.93C100.12,36.93 101.03,35.83 101.03,34.46C101.03,33.09 100.11,31.99 98.99,31.99C97.87,32 96.95,33.1 96.95,34.46" style="fill:rgb(68,68,68);fill-rule:nonzero;"/>
        <path d="M96.35,42.79L91.93,42.79L87.51,42.79C87,42.79 86.79,43.13 87.12,43.64C87.59,44.35 89.33,45.73 91.93,45.73C94.53,45.73 96.27,44.36 96.74,43.64C97.07,43.13 96.85,42.79 96.35,42.79Z" style="fill:rgb(76,55,52);fill-rule:nonzero;"/>
        <path d="M94.06,39.31C93.31,39.52 92.53,39.63 91.92,39.63C91.31,39.63 90.54,39.53 89.78,39.31C89.46,39.22 89.33,39.52 89.45,39.73C89.69,40.15 90.65,41 91.92,41C93.19,41 94.15,40.15 94.39,39.73C94.51,39.52 94.38,39.22 94.06,39.31Z" style="fill:#c48e6a;fill-rule:nonzero;"/>
    </g>
    <g>
        <path d="M14.93,61.24L14.27,63C12.98,66.47 11.33,69.8 9.34,72.93L2.86,82.93C1.93,84.35 2.22,86.45 3.54,87.52C5.05,88.74 7.59,88.4 8.67,86.78L24.42,63.17L24.74,59.09L14.93,61.24Z" style="fill:#9b643c;fill-rule:nonzero;"/>
        <path d="M35.98,49.81C32.36,49.8 27.81,50.23 25.39,50.87C17.84,52.88 15.99,56.43 13.74,62.52L35.98,71L35.98,49.81Z" style="fill:#00bfa5;fill-rule:nonzero;"/>
        <path d="M57.03,61.24L57.69,63C58.98,66.47 60.63,69.8 62.62,72.93L69.1,82.93C70.03,84.35 69.74,86.45 68.42,87.52C66.91,88.74 64.37,88.4 63.29,86.78L47.53,63.18L47.21,59.1L57.03,61.24Z" style="fill:#9b643c;fill-rule:nonzero;"/>
        <path d="M35.98,49.81C39.6,49.8 44.15,50.23 46.57,50.87C54.12,52.88 55.97,56.43 58.22,62.52L35.98,71L35.98,49.81Z" style="fill:#00bfa5;fill-rule:nonzero;"/>
        <rect x="22.15" y="62.39" width="13.84" height="19.5" style="fill:#00bfa5;fill-rule:nonzero;"/>
        <rect x="22.15" y="81.9" width="10.71" height="45.72" style="fill:rgb(97,97,97);fill-rule:nonzero;"/>
        <path d="M34.26,128L20.76,128L20.76,124.5C20.76,122.29 22.55,120.5 24.76,120.5L30.26,120.5C32.47,120.5 34.26,122.29 34.26,124.5L34.26,128Z" style="fill:rgb(68,68,68);fill-rule:nonzero;"/>
        <rect x="35.982" y="62.397" width="13.77" height="19.5" style="fill:#00bfa5;fill-rule:nonzero;"/>
        <rect x="39.037" y="81.887" width="10.71" height="45.72" style="fill:rgb(97,97,97);fill-rule:nonzero;"/>
        <path d="M37.64,128L51.14,128L51.14,124.5C51.14,122.29 49.35,120.5 47.14,120.5L41.64,120.5C39.43,120.5 37.64,122.29 37.64,124.5L37.64,128Z" style="fill:rgb(68,68,68);fill-rule:nonzero;"/>
        <path d="M35.98,57.47C33.06,57.47 30.69,55.1 30.69,52.18L30.69,47.66L41.27,47.66L41.27,52.18C41.27,55.1 38.9,57.47 35.98,57.47Z" style="fill:#9b643c;fill-rule:nonzero;"/>
        <path d="M41.28,51.74C41.28,51.74 39.26,52.56 35.99,52.56C32.72,52.56 30.69,51.84 30.69,51.84L30.69,46.65C30.69,45.26 31.61,43.76 33,43.76L38.98,43.76C40.37,43.76 41.28,45.17 41.28,46.56L41.28,51.74Z" style="fill:#7a4c32;fill-rule:nonzero;"/>
        <g>
            <path d="M51.89,29.71C51.89,29.71 54.81,30.22 54.81,33.36C54.81,36.13 52.68,37.23 50.55,37.23L50.55,29.72L51.89,29.72L51.89,29.71ZM20.07,29.71C20.07,29.71 17.15,30.22 17.15,33.36C17.15,36.13 19.28,37.23 21.41,37.23L21.41,29.72L20.07,29.72L20.07,29.71Z" style="fill:#7a4c32;fill-rule:nonzero;"/>
            <path d="M35.98,9.13C23.41,9.13 20.12,18.88 20.12,32.57C20.12,46.77 29.25,50.44 35.98,50.44C42.62,50.44 51.84,46.87 51.84,32.57C51.85,18.88 48.56,9.13 35.98,9.13Z" style="fill:#9b643c;fill-rule:nonzero;"/>
            <path d="M30.76,33.84C30.76,35.25 29.81,36.4 28.64,36.4C27.47,36.4 26.52,35.25 26.52,33.84C26.52,32.42 27.47,31.28 28.64,31.28C29.81,31.28 30.76,32.43 30.76,33.84M41.2,33.84C41.2,35.25 42.15,36.4 43.32,36.4C44.49,36.4 45.44,35.25 45.44,33.84C45.44,32.42 44.49,31.28 43.32,31.28C42.15,31.28 41.2,32.43 41.2,33.84" style="fill:rgb(68,68,68);fill-rule:nonzero;"/>
            <path d="M40.57,42.49L35.98,42.49L31.39,42.49C30.86,42.49 30.64,42.84 30.99,43.37C31.48,44.11 33.29,45.54 35.99,45.54C38.69,45.54 40.5,44.11 40.99,43.37C41.33,42.85 41.1,42.49 40.57,42.49Z" style="fill:rgb(81,63,53);fill-rule:nonzero;"/>
            <path d="M38.2,38.59C37.42,38.81 36.61,38.92 35.98,38.92C35.35,38.92 34.54,38.81 33.76,38.59C33.43,38.5 33.29,38.81 33.41,39.02C33.66,39.46 34.66,40.34 35.97,40.34C37.29,40.34 38.29,39.46 38.53,39.02C38.67,38.81 38.53,38.5 38.2,38.59Z" style="fill:#7a4c32;fill-rule:nonzero;"/>
            <path d="M36.36,7.34C36.36,7.34 36.11,7.33 36.01,7.33C35.9,7.33 35.66,7.34 35.66,7.34C22.09,7.61 18,15.77 18,21.43C18,26.93 18.01,30.97 18.01,30.97C18.01,30.97 18.23,30.75 18.62,30.44C19.04,30.11 19.52,29.92 19.52,29.92L20.21,34.52L24.73,25.07C24.76,25.01 24.82,24.98 24.88,24.98L27.56,25.28C30.25,25.58 32.96,25.72 35.66,25.73L35.66,25.74L36.36,25.74L36.36,25.73C39.07,25.72 41.77,25.58 44.46,25.28L47.14,24.98C47.2,24.97 47.27,25.01 47.29,25.07L51.81,34.52L52.5,29.92C52.5,29.92 52.97,30.11 53.4,30.44C53.8,30.75 54.01,30.97 54.01,30.97C54.01,30.97 54.02,26.93 54.02,21.43C54.02,15.77 49.93,7.61 36.36,7.34Z" style="fill:#47352d;fill-rule:nonzero;"/>
        </g>
        <path d="M49.75,81.9L22.15,81.9L22.15,97.44L32.86,97.44L32.86,96.54C32.86,95.229 33.939,94.15 35.25,94.15L36.65,94.15C37.961,94.15 39.04,95.229 39.04,96.54L39.04,97.44L49.75,97.44L49.75,81.9Z" style="fill:rgb(97,97,97);fill-rule:nonzero;"/>
    </g>
</svg>
