<?xml version="1.0" encoding="UTF-8" standalone="no"?>
<!DOCTYPE svg PUBLIC "-//W3C//DTD SVG 1.1//EN" "http://www.w3.org/Graphics/SVG/1.1/DTD/svg11.dtd">
<svg width="100%" height="100%" viewBox="0 0 128 128" version="1.1" xmlns="http://www.w3.org/2000/svg" xmlns:xlink="http://www.w3.org/1999/xlink" xml:space="preserve" xmlns:serif="http://www.serif.com/" style="fill-rule:evenodd;clip-rule:evenodd;stroke-linejoin:round;stroke-miterlimit:2;">
    <path d="M111.63,54.12C111.63,54.12 114.02,68.51 114.02,71.44C114.02,89.04 90.76,96.1 65.35,96.11L65.35,18.92C86.54,18.96 111.63,54.12 111.63,54.12Z" style="fill:rgb(239,83,80);fill-rule:nonzero;"/>
    <path d="M105.77,50.87C105.77,50.87 109.57,69.35 109.57,72.27C109.57,89.87 87.94,98.25 63.51,98.25L63.51,19.59C83.9,19.62 105.77,50.87 105.77,50.87Z" style="fill:rgb(183,28,28);fill-rule:nonzero;"/>
    <path d="M17.69,54.12C17.69,54.12 15.3,68.51 15.3,71.44C15.3,89.04 38.56,96.1 63.97,96.11L63.97,18.92C42.78,18.96 17.69,54.12 17.69,54.12Z" style="fill:rgb(239,83,80);fill-rule:nonzero;"/>
    <path d="M23.55,50.87C23.55,50.87 19.75,69.35 19.75,72.27C19.75,89.87 41.38,98.25 65.81,98.25L65.81,19.59C45.43,19.62 23.55,50.87 23.55,50.87Z" style="fill:rgb(183,28,28);fill-rule:nonzero;"/>
    <path d="M14,118.11L14,128L114,128L114,118.11C114,102.94 89.46,95.24 64.38,95.27C39.46,95.3 14,102.05 14,118.11Z" style="fill:rgb(229,57,53);fill-rule:nonzero;"/>
    <path d="M73.09,90.27L54.92,90.27L54.92,99.86C54.92,104.2 58.62,107.72 63.18,107.72L64.83,107.72C69.39,107.72 73.09,104.2 73.09,99.86L73.09,90.27Z" style="fill:rgb(228,152,0);fill-rule:nonzero;"/>
    <path d="M63.69,111.44L48.21,104.29C45.11,102.86 42.99,99.78 42.65,96.24L41.47,83.95L56.37,93.41C60.89,96.11 63.69,101.12 63.69,106.55L63.69,111.44Z" style="fill:rgb(253,216,53);fill-rule:nonzero;"/>
    <path d="M63.21,111.44L78.94,104.17C81.89,102.8 83.97,99.93 84.45,96.57L86.14,84.54L70.53,93.4C66.01,96.1 63.22,101.11 63.22,106.54L63.22,111.44L63.21,111.44Z" style="fill:rgb(253,216,53);fill-rule:nonzero;"/>
    <path d="M64,13.59C39.65,13.59 33.28,32.46 33.28,58.98C33.28,85.49 52.17,93.58 64,93.58C75.83,93.58 94.72,85.49 94.72,58.98C94.72,32.47 88.35,13.59 64,13.59Z" style="fill:rgb(251,193,27);fill-rule:nonzero;"/>
    <g transform="matrix(1.98326,0,0,1.98326,-146.089,-40.3382)">
        <path d="M94.066,27.778C96.675,25.707 100.329,23.961 105.476,23.859C105.476,23.859 105.721,23.849 105.834,23.849C105.936,23.849 106.191,23.859 106.191,23.859C109.911,23.964 112.963,24.918 115.402,26.243C116.216,26.5 116.997,26.834 117.673,27.221C118.084,27.456 118.457,27.717 118.827,28.012C118.903,28.073 119.184,28.228 119.209,28.321C119.238,28.425 118.994,28.305 118.886,28.296C118.731,28.283 118.574,28.272 118.419,28.252L118.368,28.246C118.971,28.744 119.515,29.258 120,29.772C120.271,29.935 120.539,30.114 120.804,30.314C121.132,30.562 121.401,30.867 121.659,31.184C121.748,31.294 121.84,31.401 121.917,31.52C121.966,31.595 122.148,31.735 122.06,31.745C121.896,31.764 121.698,31.677 121.52,31.62C122.01,32.31 122.39,32.964 122.665,33.536C123.633,35.551 124.199,37.503 124.508,39.288C125.092,40.069 125.567,40.92 125.654,41.756C125.668,41.885 125.453,41.592 125.348,41.517C125.153,41.377 124.947,41.255 124.746,41.124C124.854,42.375 124.844,43.507 124.778,44.475C125.148,44.925 125.697,45.513 125.762,46.106C125.767,46.16 125.663,46.061 125.615,46.037C125.48,45.97 125.357,45.907 125.234,45.818C125.048,45.683 124.867,45.537 124.697,45.38C124.515,47.006 124.206,47.978 124.206,47.978C124.206,47.978 123.992,47.754 123.584,47.437C123.145,47.1 122.665,46.906 122.665,46.906C123.306,49.8 123.851,54.429 122.665,56.431C120.735,54.812 118.108,49.269 117.391,39.774C116.735,40.348 116.068,40.864 115.492,41.108C115.534,41.282 115.575,41.456 115.63,41.619C115.693,41.806 115.767,41.99 115.858,42.164C115.907,42.256 116.121,42.448 116.018,42.432C115.768,42.394 115.388,42.01 115.166,41.873C114.718,41.595 114.247,41.364 113.749,41.208C113.257,41.177 112.766,41.13 112.283,41.047C112.464,41.653 112.611,42.271 112.664,42.901C112.683,43.125 112.706,43.776 112.534,43.933C112.534,43.933 112.37,43.713 112.357,43.694C112.245,43.534 112.131,43.375 112.017,43.217C111.69,42.765 111.364,42.316 110.987,41.903C110.287,41.135 109.563,40.41 108.76,39.79C107.985,39.438 107.209,39.088 106.389,38.836C105.299,38.5 104.178,38.454 103.065,38.251C102.871,38.215 102.678,38.17 102.487,38.118C102.375,38.122 102.263,38.127 102.152,38.133C102.787,39.669 103,41.371 102.51,42.961C102.292,43.667 101.971,44.34 101.551,44.947C101.52,44.992 101.219,45.432 101.139,45.399C100.91,45.303 100.565,44.561 100.421,44.352C99.882,43.567 99.309,42.759 98.629,42.086C97.378,40.845 95.87,40.03 94.322,39.278C94.417,45.039 92.655,52.822 89.002,56.431C88.06,54.319 88.205,49.505 89.002,46.906C89.002,46.906 88.512,47.1 88.084,47.437C87.686,47.754 87.461,47.978 87.461,47.978C87.461,47.978 86.769,45.388 86.759,42.115C86.575,42.277 86.243,42.692 86.034,42.725C85.973,42.735 86.045,42.601 86.052,42.539C86.069,42.39 86.093,42.241 86.117,42.093C86.173,41.748 86.247,41.406 86.344,41.07C86.474,40.618 86.659,40.195 86.876,39.788C87.097,37.721 87.669,35.566 88.878,33.721C88.632,33.702 88.393,33.677 88.167,33.65C87.877,33.614 87.587,33.553 87.313,33.452C87.277,33.439 87.088,33.396 87.076,33.358C87.076,33.358 87.599,33.105 87.679,33.062C88.34,32.711 88.992,32.314 89.634,31.927C89.969,31.724 90.31,31.497 90.647,31.254C91.238,30.503 91.939,29.698 92.772,28.904C92.544,28.723 92.341,28.501 92.171,28.224C91.979,27.91 91.799,27.548 91.755,27.177C91.74,27.051 91.827,26.729 92.041,26.77C92.608,26.879 92.864,27.699 93.479,27.838C93.635,27.873 93.855,27.833 94.066,27.778Z" style="fill:rgb(109,76,65);fill-rule:nonzero;"/>
    </g>
    <path d="M73.23,78.13L54.77,78.13C53.71,78.13 53.26,78.84 53.96,79.91C54.94,81.4 58.57,84.27 64,84.27C69.43,84.27 73.06,81.4 74.04,79.91C74.74,78.84 74.29,78.13 73.23,78.13Z" style="fill:rgb(38,38,38);fill-rule:nonzero;"/>
    <g>
        <path d="M53.5,60.75C53.5,63.59 51.6,65.9 49.24,65.9C46.89,65.9 44.97,63.6 44.97,60.75C44.97,57.9 46.88,55.6 49.24,55.6C51.6,55.6 53.5,57.9 53.5,60.75M74.49,60.75C74.49,63.59 76.39,65.9 78.76,65.9C81.11,65.9 83.02,63.6 83.02,60.75C83.02,57.9 81.11,55.6 78.76,55.6C76.4,55.6 74.49,57.9 74.49,60.75" style="fill:rgb(68,68,68);fill-rule:nonzero;"/>
    </g>
    <path d="M68.46,70.29C66.89,70.73 65.26,70.95 64,70.95C62.74,70.95 61.11,70.73 59.54,70.29C58.87,70.1 58.6,70.74 58.85,71.16C59.35,72.04 61.35,73.8 64,73.8C66.65,73.8 68.65,72.03 69.15,71.16C69.39,70.73 69.13,70.1 68.46,70.29Z" style="fill:rgb(228,152,0);fill-rule:nonzero;"/>
    <path id="a" d="M64.41,3.54C17.65,3.54 21.17,50.89 21.17,50.89C21.17,50.89 33.38,39.88 64.67,39.88C95.96,39.88 106.76,49.87 106.76,49.87C106.76,49.87 111.17,3.54 64.41,3.54Z" style="fill:rgb(229,57,53);fill-rule:nonzero;"/>
    <clipPath id="_clip1">
        <path d="M64.41,3.54C17.65,3.54 21.17,50.89 21.17,50.89C21.17,50.89 33.38,39.88 64.67,39.88C95.96,39.88 106.76,49.87 106.76,49.87C106.76,49.87 111.17,3.54 64.41,3.54Z"/>
    </clipPath>
    <g clip-path="url(#_clip1)">
        <path d="M47.12,5.89L54.07,3.54L54.07,27.29C52.66,17.03 50.64,9.61 47.12,5.89ZM81.71,5.89L74.76,3.54L74.76,27.29C76.17,17.03 78.19,9.61 81.71,5.89Z" style="fill:rgb(229,115,115);fill-rule:nonzero;"/>
    </g>
    <path d="M69.62,40.28L59.02,40.28C56.2,40.28 53.92,38 53.92,35.18L53.92,6.47C53.92,3.65 56.2,1.37 59.02,1.37L69.62,1.37C72.44,1.37 74.72,3.65 74.72,6.47L74.72,35.17C74.72,37.99 72.44,40.28 69.62,40.28Z" style="fill:rgb(229,57,53);fill-rule:nonzero;"/>
    <path d="M94.01,127.94L34,127.94L34,123.61C34,122.25 35.12,121.13 36.48,121.13L91.53,121.13C92.89,121.13 94.01,122.25 94.01,123.61L94.01,127.94Z" style="fill:rgb(253,216,53);fill-rule:nonzero;"/>
    <rect x="61.55" y="106.87" width="4" height="21.07" style="fill:rgb(253,216,53);fill-rule:nonzero;"/>
    <g>
        <path d="M63.48,38.92C63.15,38.92 62.82,38.81 62.56,38.6C62.45,38.51 62.35,38.41 62.27,38.3C61.36,37.98 59.36,37.34 57.41,37.12C50.1,36.3 47.12,33.2 45.9,30.74C44.4,27.7 44.77,24.04 46.95,20.43C48.05,18.6 48.44,16.98 48.1,15.63C47.856,14.687 47.272,13.868 46.46,13.33C46.08,13.11 45.82,12.73 45.74,12.3C45.66,11.87 45.77,11.42 46.05,11.09L50.16,6.06C50.544,5.595 51.171,5.402 51.75,5.57C51.77,5.57 53.67,6.13 55.99,6.13C56.62,6.13 57.22,6.09 57.79,6.01C60.36,5.64 62.47,3.59 62.83,3.23C62.94,3.09 63.08,2.97 63.24,2.88C63.47,2.74 63.73,2.67 64,2.67C64.471,2.672 64.916,2.894 65.2,3.27C65.66,3.73 67.71,5.66 70.2,6.01C70.77,6.09 71.37,6.13 72,6.13C74.32,6.13 76.23,5.57 76.25,5.57C76.39,5.53 76.53,5.51 76.67,5.51C77.11,5.51 77.54,5.71 77.83,6.06L81.94,11.09C82.157,11.358 82.276,11.693 82.276,12.038C82.276,12.581 81.983,13.083 81.51,13.35C81.47,13.37 80.26,14.11 79.88,15.64C79.54,16.99 79.93,18.61 81.03,20.44C83.2,24.05 83.58,27.71 82.08,30.75C80.87,33.21 77.89,36.31 70.57,37.14C68.61,37.36 66.62,38 65.71,38.32C65.348,38.824 64.709,39.052 64.11,38.89L64,38.84L63.87,38.88C63.74,38.91 63.61,38.92 63.48,38.92Z" style="fill:rgb(255,202,40);fill-rule:nonzero;"/>
        <path d="M64.01,4.17L64.01,4.19C64.18,4.37 66.68,7.03 69.99,7.5C70.68,7.6 71.35,7.64 72,7.64C74.59,7.64 76.67,7.02 76.67,7.02L80.78,12.05C80.78,12.05 75.89,14.81 79.75,21.22C83.61,27.63 81.24,34.43 70.41,35.66C67.54,35.98 64.67,37.12 64.67,37.12L64.51,37.16L64.51,37.44L64,37.28L63.48,37.42L63.48,37.14L63.32,37.1C63.32,37.1 60.44,35.96 57.58,35.64C46.75,34.42 44.38,27.61 48.24,21.2C52.1,14.79 47.21,12.03 47.21,12.03L51.32,7C51.32,7 53.4,7.62 55.99,7.62C56.64,7.62 57.32,7.58 58,7.48C61.31,7.01 63.81,4.36 63.98,4.17L63.98,4.15C63.99,4.17 64,4.18 64.01,4.17C64,4.18 64.01,4.17 64.01,4.17M63.99,1.17C63.63,1.17 63.27,1.23 62.93,1.37C62.42,1.56 61.98,1.89 61.66,2.29C61,2.93 59.34,4.28 57.59,4.52C57.09,4.59 56.56,4.63 56,4.63C53.92,4.63 52.19,4.13 52.17,4.13C51.015,3.791 49.762,4.178 49,5.11L44.89,10.14C44.31,10.85 44.02,11.74 44.21,12.63C44.4,13.51 44.91,14.23 45.71,14.64C46.38,15.08 47.62,16.43 45.67,19.66C43.22,23.72 42.83,27.9 44.56,31.41C45.94,34.2 49.26,37.73 57.24,38.63C58.82,38.81 60.47,39.3 61.42,39.61C61.977,40.135 62.714,40.428 63.48,40.43C63.65,40.43 63.83,40.41 64,40.38C64.17,40.41 64.35,40.43 64.52,40.43C65.286,40.428 66.023,40.135 66.58,39.61C67.52,39.29 69.17,38.81 70.75,38.63C78.74,37.73 82.06,34.21 83.43,31.41C85.16,27.9 84.77,23.73 82.32,19.66C80.37,16.43 81.61,15.08 82.28,14.64C83.08,14.23 83.59,13.52 83.78,12.63C83.97,11.74 83.68,10.84 83.1,10.14L79,5.11C78.42,4.4 77.56,4.01 76.68,4.01C76.39,4.01 76.1,4.05 75.82,4.14C75.81,4.14 74.09,4.64 72,4.64C71.44,4.64 70.91,4.6 70.41,4.53C68.6,4.27 66.89,2.85 66.28,2.23C66.06,1.97 65.79,1.74 65.48,1.57C65.03,1.3 64.51,1.17 63.99,1.17Z" style="fill:rgb(198,40,40);fill-rule:nonzero;"/>
        <ellipse cx="64" cy="20.58" rx="12.51" ry="11.83" style="fill:rgb(121,85,72);"/>
        <g>
            <path d="M62.81,14.09C62.25,13.58 61.96,12.82 62.06,12.09C61.69,12.52 61.52,13.1 61.47,13.53C61.26,15.46 63.5,16.07 63.54,16.03C63.61,15.94 63.75,15.7 63.58,15.23C63.32,14.53 64,14.14 64,14.14C64,14.14 63.74,14.7 63.93,14.94C64.23,15.32 64.5,15.3 64.63,15.49C64.77,15.69 64.61,16.01 64.47,16.07C65.48,15.99 66.28,15.12 66.49,14.19C66.7,13.26 66.43,12.29 66.03,11.41C65.97,12.12 65.24,12.71 64.48,12.68C64.7,12.41 65.05,11.66 64.83,10.85C64.61,10.03 63.32,9.59 63.32,9.59C63.32,9.59 63.68,9.96 63.7,10.71C63.7,11.46 61.95,12.33 62.81,14.09ZM69.3,27.68L59.37,18L57.58,19.27L67.54,28.93C67.68,29.07 67.92,29.15 68.17,29.15C68.43,29.15 68.7,29.08 68.91,28.93C69.2,28.73 69.41,28.39 69.44,28.1C69.462,27.946 69.41,27.79 69.3,27.68Z" style="fill:rgb(255,235,59);fill-rule:nonzero;"/>
            <path d="M60.21,16.94C60.07,16.84 59.79,16.82 59.63,16.8C59.66,16.74 59.96,16.11 60.38,15.99C60.73,15.89 60.64,15.45 60.32,15.34C59.62,15.11 58.17,15.14 56.95,16.22C56.81,16.34 54.98,18.01 54.07,18.87C54.01,18.92 53.94,18.96 53.84,18.98C53.3,19.11 52.97,19.62 53.1,20.11C53.23,20.58 53.55,21.31 54.26,21.79C54.94,22.25 56.17,22.55 56.2,22.55C56.71,22.55 57.15,22.33 57.3,21.88C57.39,21.61 57.18,21.45 57.47,21.1C57.47,21.1 60.39,18.5 60.68,18.1C60.97,17.7 60.73,17.33 60.21,16.94Z" style="fill:rgb(255,235,59);fill-rule:nonzero;"/>
            <g>
                <path d="M58.7,27.68L68.63,18L70.42,19.27L60.46,28.93C60.32,29.07 60.08,29.15 59.83,29.15C59.57,29.15 59.3,29.08 59.09,28.93C58.8,28.73 58.59,28.39 58.56,28.1C58.54,27.89 58.62,27.76 58.7,27.68Z" style="fill:rgb(255,235,59);fill-rule:nonzero;"/>
                <path d="M67.79,16.94C67.93,16.84 68.21,16.82 68.37,16.8C68.34,16.74 68.04,16.11 67.62,15.99C67.27,15.89 67.36,15.45 67.68,15.34C68.38,15.11 69.83,15.14 71.05,16.22C71.19,16.34 73.02,18.01 73.93,18.87C73.99,18.92 74.06,18.96 74.16,18.98C74.7,19.11 75.03,19.62 74.9,20.11C74.77,20.58 74.45,21.31 73.74,21.79C73.06,22.25 71.83,22.55 71.8,22.55C71.29,22.55 70.85,22.33 70.7,21.88C70.61,21.61 70.82,21.45 70.53,21.1C70.53,21.1 67.61,18.5 67.32,18.1C67.03,17.7 67.27,17.33 67.79,16.94Z" style="fill:rgb(255,235,59);fill-rule:nonzero;"/>
            </g>
        </g>
    </g>
    <path d="M64.66,33.25C20.13,33.25 17.73,54.1 17.73,54.1L22.3,56.6C22.3,56.6 23.34,50.81 26.7,49.07C33.96,45.31 44.96,40.78 64.67,40.77L64.67,33.25L64.66,33.25Z" style="fill:rgb(239,83,80);fill-rule:nonzero;"/>
    <path d="M64.66,33.25C109.19,33.25 111.59,54.1 111.59,54.1L106.8,56.1C106.8,56.1 105.76,50.31 102.4,48.57C95.14,44.81 84.36,40.78 64.64,40.77L64.64,33.25L64.66,33.25Z" style="fill:rgb(239,83,80);fill-rule:nonzero;"/>
</svg>
