<?xml version="1.0" encoding="UTF-8" standalone="no"?>
<svg
   width="128px"
   height="128px"
   version="1.1"
   xml:space="preserve"
   style="fill-rule:evenodd;clip-rule:evenodd;stroke-linecap:round;stroke-linejoin:round;stroke-miterlimit:10;"
   id="svg100"
   sodipodi:docname="person in lotus position.svg"
   inkscape:version="1.1 (c68e22c387, 2021-05-23)"
   xmlns:inkscape="http://www.inkscape.org/namespaces/inkscape"
   xmlns:sodipodi="http://sodipodi.sourceforge.net/DTD/sodipodi-0.dtd"
   xmlns="http://www.w3.org/2000/svg"
   xmlns:svg="http://www.w3.org/2000/svg"><sodipodi:namedview
     id="namedview102"
     pagecolor="#ffffff"
     bordercolor="#666666"
     borderopacity="1.0"
     inkscape:pageshadow="2"
     inkscape:pageopacity="0.0"
     inkscape:pagecheckerboard="0"
     showgrid="false"
     inkscape:zoom="2.8284271"
     inkscape:cx="70.710678"
     inkscape:cy="58.336309"
     inkscape:window-width="958"
     inkscape:window-height="1048"
     inkscape:window-x="953"
     inkscape:window-y="0"
     inkscape:window-maximized="0"
     inkscape:current-layer="svg100" /><path
     d="M83.69,91.034C81.964,89.394 80.84,87.22 80.5,84.864L77.68,64.954L86.16,63.744C86.44,67.324 87.73,83.174 88.82,85.374C89.91,87.584 100.57,99.854 102.27,101.814L100.08,106.564L83.69,91.034ZM25.28,101.804C26.99,99.844 37.64,87.574 38.73,85.364C39.81,83.164 41.11,67.314 41.39,63.734L49.87,64.944L47.05,84.854C46.72,87.204 45.58,89.394 43.86,91.024L27.47,106.554L25.28,101.804Z"
     style="fill:#70534a;fill-rule:nonzero;"
     id="path2" /><path
     d="m 49.27,96.774 v -26.96 c 0,-0.26 -0.2,-0.48 -0.46,-0.5 l -8.51,-0.75 0.78,-8.81 c 0.01,-0.11 1.59,-11.17 23.13,-11.17 21.46,0 22.69,11.06 22.7,11.17 l 0.78,8.806094 -8.22,0.733906 c -0.26,0.02 -0.46,0.24 -0.46,0.5 v 26.98 z"
     style="fill:#da4105;fill-rule:nonzero"
     id="path4"
     sodipodi:nodetypes="cscccscccscc" /><path
     d="M63.57,53.104C61.49,53.104 59.8,51.504 59.8,49.524L59.8,45.044L68.2,45.044L68.2,49.524C68.2,51.494 66.51,53.104 64.43,53.104L63.57,53.104Z"
     style="fill:#563e37;fill-rule:nonzero;"
     id="path6" /><path
     d="M30.68,122.714C26.52,122.714 22.74,121.904 20.54,120.544C18.37,119.204 16.54,116.574 17.23,114.514C18.13,111.804 20.86,109.034 24.17,107.464C32.99,103.274 46.4,100.414 46.53,100.384C48.41,99.964 50.16,99.764 51.76,99.764C53.73,99.764 55.48,100.084 56.96,100.724C59.25,101.704 65.72,103.784 71.98,105.794C77.05,107.424 83.11,109.374 85.61,110.344C79.84,111.434 74.6,112.984 69.08,114.624C60.37,117.214 50.49,120.144 35.2,122.394C33.73,122.604 32.21,122.714 30.68,122.714Z"
     style="fill:#70534a;fill-rule:nonzero;"
     id="path8" /><path
     d="M97.17,122.674C95.68,122.674 94.18,122.574 92.72,122.384C82.33,121.004 68.8,116.784 58.26,111.654C54.27,109.714 50.59,107.454 47.91,105.804C46.83,105.144 45.88,104.554 45.1,104.104C43.32,103.074 41.9,102.484 39.94,102.484C39.58,102.484 39.21,102.504 38.82,102.544L38.21,102.#232020.8,102.664 37.53,102.694 37.2,102.#232020.12,102.694 37.03,102.694 36.94,102.#232020.85,102.684 36.79,102.664 36.78,102.#232020.66,102.434 36.9,101.674 37.19,101.164C37.72,99.944 39.22,98.674 40.76,98.#232020.08,98.674 41.4,98.734 41.7,98.844C43.83,99.614 46.42,101.164 46.45,101.174C46.48,101.194 46.52,101.214 46.56,101.224C47.57,101.534 48.46,101.694 49.28,101.#232020.57,101.694 51.42,101.314 52.16,100.974C52.71,100.724 53.18,100.514 53.75,100.514C54.05,100.514 54.37,100.574 54.73,100.704C56,101.144 56.21,102.814 56.24,103.514C56.3,104.894 58.15,106.014 59.4,106.184C59.4,106.184 69.75,107.414 69.77,107.414C69.87,107.414 69.97,107.384 70.06,107.324L81.1,99.484C83.06,100.144 96.39,104.714 103.97,108.214C107.55,109.864 109.88,112.054 110.71,114.524C111.4,116.584 109.57,119.204 107.4,120.554C105.21,121.884 101.4,122.674 97.17,122.674Z"
     style="fill:url(#_Linear1);fill-rule:nonzero;"
     id="path10" /><path
     d="M42.58,101.994L49.03,98.154C49.18,98.064 49.27,97.904 49.27,97.724L49.27,95.034C50.93,95.544 55.65,96.684 64.41,96.684C73.07,96.684 77.46,95.564 79.03,95.044L79.15,97.744C79.16,97.914 79.25,98.064 79.39,98.154L85.83,101.994L64.1,111.814L42.58,101.994Z"
     style="fill:#1e9ddb;fill-rule:nonzero;fill-opacity:1"
     id="path12" /><path
     d="M55.95,108.594L60.38,108.074L68.95,106.874C70.19,106.704 72.04,105.584 72.11,104.204C72.14,103.504 72.36,101.844 73.62,101.394C73.98,101.274 74.3,101.214 74.6,101.214C75.16,101.214 75.64,101.424 76.19,101.674C76.93,102.014 77.78,102.394 79.07,102.394C79.89,102.394 80.77,102.244 81.79,101.924C81.829,101.913 81.866,101.897 81.9,101.874C81.93,101.854 84.52,100.304 86.65,99.544C86.95,99.434 87.27,99.374 87.59,99.374C89.13,99.374 90.62,100.644 91.13,101.814C91.47,102.434 91.66,103.144 91.56,103.334C91.55,103.354 91.49,103.374 91.4,103.374C91.31,103.374 91.22,103.384 91.14,103.384C90.8,103.384 90.54,103.354 90.13,103.304L89.52,103.234C89.12,103.194 88.75,103.174 88.39,103.174C86.43,103.174 85.02,103.764 83.23,104.794C82.37,105.294 81.51,105.834 80.58,106.424C78.43,107.784 75.99,109.324 72.15,111.194C69.95,112.264 66.86,113.574 66.02,113.924L55.95,108.594Z"
     style="fill:url(#_Linear2);fill-rule:nonzero;"
     id="path14" /><path
     d="M49.027,107.765C46.285,107.832 42.408,108.055 37.871,108.679C36.953,108.807 35.761,109.222 34.703,109.901C33.645,110.581 32.695,111.543 32.486,112.814C32.482,112.841 32.479,112.868 32.479,112.895C32.479,113.169 32.705,113.395 32.98,113.395C33.223,113.395 33.433,113.217 33.473,112.976C33.613,112.116 34.321,111.334 35.243,110.743C36.163,110.153 37.125,109.568 37.857,109.466C46.843,108.232 53.016,108.11 53.016,108.11C53.292,108.126 53.835,108.588 53.85,108.312C53.851,108.302 53.851,108.293 53.851,108.283C53.851,108.019 53.641,107.798 53.377,107.784C53.113,107.77 51.769,107.697 49.027,107.764L49.027,107.765Z"
     style="fill:#563e37;fill-rule:nonzero;"
     id="path16" /><g
     transform="matrix(1,0,0,1,0.43,-1.126)"
     id="g20"><path
       d="M29.92,105.17L26.92,103C26.92,103 26.9,102.91 26.57,102.5C25.19,100.84 22.62,101.73 20.91,101.07C19.21,100.41 19.12,97.26 16.56,97.49C15.62,97.58 16.72,100.97 16.72,100.97C16.72,100.97 16.24,106.8 19.64,108.29C24.47,110.4 28.24,107.32 28.24,107.32L29.92,105.17Z"
       style="fill:url(#_Linear3);fill-rule:nonzero;"
       id="path18" /></g><g
     transform="matrix(1,0,0,1,0.43,-1.126)"
     id="g24"><path
       d="M15.46,106.06C15.46,106.06 15.866,103.26 15.93,101.85C15.992,100.504 15.227,98.319 15.85,97.81C16.466,97.306 17.43,97.9 17.84,99.13C18.22,100.27 18.12,102.67 18.12,102.67C18.73,102.051 19.63,102.16 19.8,103.12L20.011,105.848C20.011,105.848 20.466,104.66 21.38,105.32C22.364,106.031 23.57,107.86 23.57,107.86C23.57,107.86 24.015,106.407 25.855,105.447C27.695,104.487 29.408,104.38 29.62,105.5C29.79,106.4 25.323,108.876 23.65,110.15C23.112,110.56 22.44,110.03 22.44,110.03C21.64,110.5 20.68,110.65 19.78,110.44C19.07,110.27 18.43,109.88 17.95,109.33L17.59,108.91L17.05,109.12C16.17,109.18 15.21,108.67 14.68,108.03C14.68,108.03 13.026,106.24 12.613,105.034C12.11,103.564 11.783,101.01 12.36,100.38C12.85,99.846 13.914,99.666 13.99,101.82L14.08,104.36C14.68,105.24 17.56,108.94 17.56,108.94"
       style="fill:url(#_Linear4);fill-rule:nonzero;stroke:#563e37;stroke-width:0.5px;"
       id="path22" /></g><path
     d="M18.498,100.544C18.305,100.54 18.322,100.976 18.308,101.168L18.039,105.085C18.037,105.163 18.061,105.239 18.107,105.302L21.119,109.372C21.185,109.461 21.29,109.514 21.401,109.514C21.593,109.514 21.751,109.356 21.751,109.164C21.751,109.089 21.726,109.016 21.682,108.956L18.742,104.981L18.739,101.008C18.739,100.814 18.692,100.548 18.499,100.544L18.498,100.544Z"
     style="fill:#563e37;fill-rule:nonzero;"
     id="path26" /><path
     d="M20.394,103.854C20.2,103.863 20.124,104.067 20.144,104.26L20.206,104.846C20.231,105.077 20.264,105.119 20.363,105.27L22.84,109.043C22.946,109.205 23.227,109.347 23.38,109.23C23.534,109.113 23.378,108.966 23.26,108.813C23.161,108.681 21.21,106.333 20.684,104.89C20.552,104.53 20.544,104.374 20.536,104.21C20.528,104.016 20.587,103.845 20.394,103.854Z"
     style="fill:#563e37;fill-rule:nonzero;"
     id="path28" /><path
     d="m 97.17,122.674 c -1.49,0 -2.99,-0.1 -4.45,-0.29 -10.39,-1.38 -23.92,-5.6 -34.46,-10.73 -3.99,-1.94 -7.67,-4.2 -10.35,-5.85 -1.08,-0.66 -2.03,-1.25 -2.81,-1.7 -1.78,-1.03 -3.2,-1.62 -5.16,-1.62 -0.36,0 -0.73,0.02 -1.12,0.06 l -0.61,0.07 c -0.41,0.05 -0.68,0.08 -1.01,0.08 -0.08,0 -0.17,0 -0.26,-0.01 -0.09,0 -0.15,-0.02 -0.16,-0.04 -0.12,-0.21 0.12,-0.97 0.41,-1.48 0.53,-1.22 2.03,-2.49 3.57,-2.49 0.32,0 0.64,0.06 0.94,0.17 2.13,0.77 4.72,2.32 4.75,2.33 0.03,0.02 0.07,0.04 0.11,0.05 1.01,0.31 1.9,0.47 2.72,0.47 1.29,0 2.14,-0.38 2.88,-0.72 0.55,-0.25 1.02,-0.46 1.59,-0.46 0.3,0 0.62,0.06 0.98,0.19 1.27,0.44 1.48,2.11 1.51,2.81 0.06,1.38 1.91,2.5 3.16,2.67 0.29,0.05 7.7,1.38 11.51,1.38 3.74,0 7.07,-0.5 10.29,-0.98 2.93,-0.44 5.7,-0.85 8.53,-0.85 1.02,0 1.973906,0.05 2.923906,0.16 6.78,0.77 12.536094,3.26 17.586094,7.6 0.2,0.39 0.35,0.72 0.45,1.04 0.69,2.06 -1.14,4.68 -3.31,6.03 -2.17,1.32 -5.98,2.11 -10.21,2.11 z"
     style="fill:#70534a;fill-rule:nonzero"
     id="path30"
     sodipodi:nodetypes="sccccsccscccscccscscccscsccccs" /><path
     d="M49.867,62.403C49.463,62.402 49.121,62.711 49.08,63.113L48.45,69.283L48.81,69.313C49.069,69.334 49.271,69.553 49.27,69.813L49.27,70.37C49.65,70.342 49.959,70.042 49.998,69.663L50.65,63.274C50.653,63.247 50.654,63.22 50.654,63.193C50.654,62.79 50.346,62.448 49.945,62.407C49.919,62.404 49.893,62.403 49.867,62.403ZM78.334,62.616C78.315,62.617 78.296,62.618 78.277,62.62C77.847,62.664 77.529,63.055 77.572,63.485L78.225,69.875C78.267,70.275 78.608,70.583 79.01,70.583L79.01,69.794C79.01,69.534 79.21,69.314 79.47,69.294L79.752,69.269L79.145,63.325C79.103,62.915 78.746,62.603 78.334,62.616Z"
     style="fill-opacity:0.56;"
     id="path32" /><path
     d="M39.94,102.483C39.58,102.483 39.21,102.504 38.82,102.544L38.21,102.#232020.911,102.651 37.7,102.662 37.47,102.673L37.463,102.687C37.463,102.687 43.407,104.248 45.253,107.935L45.311,107.939C46.548,107.858 47.787,107.8 49.027,107.765C49.935,107.742 50.507,107.752 51.148,107.755C50.064,107.112 48.985,106.462 47.91,105.804C46.83,105.144 45.88,104.554 45.1,104.104C43.32,103.074 41.9,102.484 39.94,102.484L39.94,102.483Z"
     style="fill-opacity:0.39;"
     id="path34" /><path
     d="M50.28,107.232C50.584,107.414 50.84,107.572 51.148,107.755C50.506,107.752 49.935,107.742 49.028,107.765C47.964,107.791 46.687,107.852 45.311,107.939C45.311,107.939 52.561,110.556 53.482,118.898C58.464,117.709 62.725,116.493 66.717,115.314C63.774,114.171 60.917,112.947 58.26,111.654C55.29,110.21 52.612,108.641 50.28,107.232Z"
     style="fill-opacity:0.31;"
     id="path36" /><path
     d="M88.39,103.175C86.43,103.175 85.02,103.764 83.23,104.794C82.37,105.294 81.51,105.834 80.58,106.424C80.417,106.528 80.218,106.647 80.049,106.753C80.432,106.697 80.819,106.642 81.199,106.585C82.296,106.42 83.368,106.266 84.432,106.13L84.445,106.12C87.278,104.147 93.693,104.003 93.693,104.003C92.974,103.73 92.275,103.473 91.573,103.212C91.569,103.254 91.573,103.309 91.561,103.335C91.551,103.355 91.491,103.374 91.401,103.374C91.311,103.374 91.221,103.384 91.141,103.384C90.801,103.384 90.541,103.354 90.131,103.304L89.52,103.234C89.12,103.194 88.75,103.174 88.39,103.174L88.39,103.175Z"
     style="fill-opacity:0.39;"
     id="path38" /><g
     id="g52"><g
       transform="matrix(-1,0,0,1,127.57,-1.126)"
       id="g42"><path
         d="M29.92,105.17L26.92,103C26.92,103 26.9,102.91 26.57,102.5C25.19,100.84 22.62,101.73 20.91,101.07C19.21,100.41 19.12,97.26 16.56,97.49C15.62,97.58 16.72,100.97 16.72,100.97C16.72,100.97 16.24,106.8 19.64,108.29C24.47,110.4 28.24,107.32 28.24,107.32L29.92,105.17Z"
         style="fill:url(#_Linear5);fill-rule:nonzero;"
         id="path40" /></g><g
       transform="matrix(-1,0,0,1,127.57,-1.126)"
       id="g46"><path
         d="M15.46,106.06C15.46,106.06 15.866,103.26 15.93,101.85C15.992,100.504 15.227,98.319 15.85,97.81C16.466,97.306 17.43,97.9 17.84,99.13C18.22,100.27 18.12,102.67 18.12,102.67C18.73,102.051 19.63,102.16 19.8,103.12L20.011,105.848C20.011,105.848 20.466,104.66 21.38,105.32C22.364,106.031 23.57,107.86 23.57,107.86C23.57,107.86 24.015,106.407 25.855,105.447C27.695,104.487 29.408,104.38 29.62,105.5C29.79,106.4 25.323,108.876 23.65,110.15C23.112,110.56 22.44,110.03 22.44,110.03C21.64,110.5 20.68,110.65 19.78,110.44C19.07,110.27 18.43,109.88 17.95,109.33L17.59,108.91L17.05,109.12C16.17,109.18 15.21,108.67 14.68,108.03C14.68,108.03 13.026,106.24 12.613,105.034C12.11,103.564 11.783,101.01 12.36,100.38C12.85,99.846 13.914,99.666 13.99,101.82L14.08,104.36C14.68,105.24 17.56,108.94 17.56,108.94"
         style="fill:url(#_Linear6);fill-rule:nonzero;stroke:#563e37;stroke-width:0.5px;"
         id="path44" /></g><path
       d="M109.502,100.544C109.695,100.54 109.678,100.976 109.692,101.168L109.961,105.085C109.963,105.163 109.939,105.239 109.893,105.302L106.881,109.372C106.815,109.461 106.71,109.514 106.599,109.514C106.407,109.514 106.249,109.356 106.249,109.164C106.249,109.089 106.274,109.016 106.318,108.956L109.258,104.981L109.261,101.008C109.261,100.814 109.308,100.548 109.501,100.544L109.502,100.544Z"
       style="fill:#563e37;fill-rule:nonzero;"
       id="path48" /><path
       d="M107.606,103.854C107.8,103.863 107.876,104.067 107.856,104.26L107.794,104.846C107.769,105.077 107.736,105.119 107.637,105.27L105.16,109.043C105.054,109.205 104.773,109.347 104.62,109.23C104.466,109.113 104.622,108.966 104.74,108.813C104.839,108.681 106.79,106.333 107.316,104.89C107.448,104.53 107.456,104.374 107.464,104.21C107.472,104.016 107.413,103.845 107.606,103.854Z"
       style="fill:#563e37;fill-rule:nonzero;"
       id="path50" /></g><g
     id="g66"><path
       d="M64.062,8.865C51.921,8.865 48.312,17.432 48.312,30.468C48.312,43.508 58.162,48.202 64.062,48.202C69.962,48.202 79.688,43.384 79.688,30.347C79.688,17.307 76.204,8.865 64.062,8.865Z"
       style="fill:#70534a;fill-rule:nonzero;"
       id="path54" /><path
       d="M66.193,36.413C65.48,36.618 64.742,36.728 64,36.739C63.38,36.739 62.58,36.633 61.807,36.413C61.477,36.317 61.349,36.633 61.466,36.842C61.712,37.274 62.698,38.144 64,38.144C65.302,38.144 66.288,37.274 66.534,36.842C66.655,36.632 66.523,36.321 66.193,36.412L66.193,36.413Z"
       style="fill:#563e37;fill-rule:nonzero;"
       id="path56" /><path
       d="M55.137,29.945C55.137,29.945 57.648,32.129 60.15,29.945M72.863,29.945C72.863,29.945 70.352,32.129 67.85,29.945"
       style="fill:none;stroke:#2f2f2f;stroke-width:1.08px;stroke-miterlimit:4;"
       id="path58" /><path
       d="M68.566,40.257C68.566,40.257 65.522,40.912 64,40.912C62.478,40.912 59.434,40.257 59.434,40.257C58.91,40.257 58.685,40.607 59.032,41.135C59.515,41.872 61.315,43.292 64,43.292C66.685,43.292 68.485,41.872 68.968,41.135C69.315,40.607 69.09,40.257 68.566,40.257Z"
       style="fill:#513f35;fill-rule:nonzero;"
       id="path60" /><g
       transform="matrix(0.984771,0,0,0.984771,-40.2733,-17.4276)"
       id="g64"><path
         d="M94.066,27.778C96.675,25.707 100.329,23.961 105.476,23.859C105.476,23.859 105.721,23.849 105.834,23.849C105.936,23.849 106.191,23.859 106.191,23.859C109.911,23.964 112.963,24.918 115.402,26.243C116.216,26.5 116.997,26.834 117.673,27.221C118.084,27.456 118.457,27.717 118.827,28.012C118.903,28.073 119.184,28.228 119.209,28.321C119.238,28.425 118.994,28.305 118.886,28.296C118.731,28.283 118.574,28.272 118.419,28.252L118.368,28.246C118.971,28.744 119.515,29.258 120,29.772C120.271,29.935 120.539,30.114 120.804,30.314C121.132,30.562 121.401,30.867 121.659,31.184C121.748,31.294 121.84,31.401 121.917,31.52C121.966,31.595 122.148,31.735 122.06,31.745C121.896,31.764 121.698,31.677 121.52,31.62C122.01,32.31 122.39,32.964 122.665,33.536C123.633,35.551 124.199,37.503 124.508,39.288C125.092,40.069 125.567,40.92 125.654,41.756C125.668,41.885 125.453,41.592 125.348,41.517C125.153,41.377 124.947,41.255 124.746,41.124C124.854,42.375 124.844,43.507 124.778,44.475C125.148,44.925 125.697,45.513 125.762,46.106C125.767,46.16 125.663,46.061 125.615,46.037C125.48,45.97 125.357,45.907 125.234,45.818C125.048,45.683 124.867,45.537 124.697,45.38C124.515,47.006 124.206,47.978 124.206,47.978C124.206,47.978 123.992,47.754 123.584,47.437C123.145,47.1 122.665,46.906 122.665,46.906C123.306,49.8 123.851,54.429 122.665,56.431C120.735,54.812 118.108,49.269 117.391,39.774C116.735,40.348 116.068,40.864 115.492,41.108C115.534,41.282 115.575,41.456 115.63,41.619C115.693,41.806 115.767,41.99 115.858,42.164C115.907,42.256 116.121,42.448 116.018,42.432C115.768,42.394 115.388,42.01 115.166,41.873C114.718,41.595 114.247,41.364 113.749,41.208C113.257,41.177 112.766,41.13 112.283,41.047C112.464,41.653 112.611,42.271 112.664,42.901C112.683,43.125 112.706,43.776 112.534,43.933C112.534,43.933 112.37,43.713 112.357,43.694C112.245,43.534 112.131,43.375 112.017,43.217C111.69,42.765 111.364,42.316 110.987,41.903C110.287,41.135 109.563,40.41 108.76,39.79C107.985,39.438 107.209,39.088 106.389,38.836C105.299,38.5 104.178,38.454 103.065,38.251C102.871,38.215 102.678,38.17 102.487,38.118C102.375,38.122 102.263,38.127 102.152,38.133C102.787,39.669 103,41.371 102.51,42.961C102.292,43.667 101.971,44.34 101.551,44.947C101.52,44.992 101.219,45.432 101.139,45.399C100.91,45.303 100.565,44.561 100.421,44.352C99.882,43.567 99.309,42.759 98.629,42.086C97.378,40.845 95.87,40.03 94.322,39.278C94.417,45.039 92.655,52.822 89.002,56.431C88.06,54.319 88.205,49.505 89.002,46.906C89.002,46.906 88.512,47.1 88.084,47.437C87.686,47.754 87.461,47.978 87.461,47.978C87.461,47.978 86.769,45.388 86.759,42.115C86.575,42.277 86.243,42.692 86.034,42.725C85.973,42.735 86.045,42.601 86.052,42.539C86.069,42.39 86.093,42.241 86.117,42.093C86.173,41.748 86.247,41.406 86.344,41.07C86.474,40.618 86.659,40.195 86.876,39.788C87.097,37.721 87.669,35.566 88.878,33.721C88.632,33.702 88.393,33.677 88.167,33.65C87.877,33.614 87.587,33.553 87.313,33.452C87.277,33.439 87.088,33.396 87.076,33.358C87.076,33.358 87.599,33.105 87.679,33.062C88.34,32.711 88.992,32.314 89.634,31.927C89.969,31.724 90.31,31.497 90.647,31.254C91.238,30.503 91.939,29.698 92.772,28.904C92.544,28.723 92.341,28.501 92.171,28.224C91.979,27.91 91.799,27.548 91.755,27.177C91.74,27.051 91.827,26.729 92.041,26.77C92.608,26.879 92.864,27.699 93.479,27.838C93.635,27.873 93.855,27.833 94.066,27.778Z"
         style="fill:#232020;fill-rule:nonzero;"
         id="path62" /></g></g><defs
     id="defs98"><linearGradient
       id="_Linear1"
       x1="0"
       y1="0"
       x2="1"
       y2="0"
       gradientUnits="userSpaceOnUse"
       gradientTransform="matrix(74.096,0,0,74.096,36.734,110.679)"><stop
         offset="0"
         style="stop-color:#70534a;stop-opacity:1"
         id="stop68" /><stop
         offset="1"
         style="stop-color:#70534a;stop-opacity:1"
         id="stop70" /></linearGradient><linearGradient
       id="_Linear2"
       x1="0"
       y1="0"
       x2="1"
       y2="0"
       gradientUnits="userSpaceOnUse"
       gradientTransform="matrix(35.638,0,0,35.638,55.953,106.663)"><stop
         offset="0"
         style="stop-color:#70534a;stop-opacity:1"
         id="stop73" /><stop
         offset="1"
         style="stop-color:#70534a;stop-opacity:1"
         id="stop75" /></linearGradient><linearGradient
       id="_Linear3"
       x1="0"
       y1="0"
       x2="1"
       y2="0"
       gradientUnits="userSpaceOnUse"
       gradientTransform="matrix(6.224,9.145,-9.145,6.224,20.371,100.786)"><stop
         offset="0"
         style="stop-color:#70534a;stop-opacity:1"
         id="stop78" /><stop
         offset="1"
         style="stop-color:#70534a;stop-opacity:1"
         id="stop80" /></linearGradient><linearGradient
       id="_Linear4"
       x1="0"
       y1="0"
       x2="1"
       y2="0"
       gradientUnits="userSpaceOnUse"
       gradientTransform="matrix(17.311,0,0,17.311,12.324,104.168)"><stop
         offset="0"
         style="stop-color:#70534a;stop-opacity:1"
         id="stop83" /><stop
         offset="1"
         style="stop-color:#70534a;stop-opacity:1"
         id="stop85" /></linearGradient><linearGradient
       id="_Linear5"
       x1="0"
       y1="0"
       x2="1"
       y2="0"
       gradientUnits="userSpaceOnUse"
       gradientTransform="matrix(6.224,9.145,-9.145,6.224,20.371,100.786)"><stop
         offset="0"
         style="stop-color:#70534a;stop-opacity:1"
         id="stop88" /><stop
         offset="1"
         style="stop-color:#70534a;stop-opacity:1"
         id="stop90" /></linearGradient><linearGradient
       id="_Linear6"
       x1="0"
       y1="0"
       x2="1"
       y2="0"
       gradientUnits="userSpaceOnUse"
       gradientTransform="matrix(17.311,0,0,17.311,12.324,104.168)"><stop
         offset="0"
         style="stop-color:#70534a;stop-opacity:1"
         id="stop93" /><stop
         offset="1"
         style="stop-color:#70534a;stop-opacity:1"
         id="stop95" /></linearGradient></defs></svg>
