<?xml version="1.0" encoding="UTF-8" standalone="no"?>
<!DOCTYPE svg PUBLIC "-//W3C//DTD SVG 1.1//EN" "http://www.w3.org/Graphics/SVG/1.1/DTD/svg11.dtd">
<svg width="100%" height="100%" viewBox="0 0 128 128" version="1.1" xmlns="http://www.w3.org/2000/svg" xmlns:xlink="http://www.w3.org/1999/xlink" xml:space="preserve" xmlns:serif="http://www.serif.com/" style="fill-rule:evenodd;clip-rule:evenodd;stroke-linejoin:round;stroke-miterlimit:1.41421;">
    <g transform="matrix(1.43134,0,0,1.43134,-44.7452,-35.7849)">
        <path d="M56.633,77.364C60.333,73.722 58.213,63.859 65.553,64L65.656,64C72.258,63.873 71.207,71.839 73.621,76.092C73.268,77.115 72.858,78.158 72.416,79.245C71.173,82.304 68.087,88.462 63.767,87.147C62.879,86.876 61.959,85.641 61.382,84.961C59.607,82.868 58.144,80.608 57.01,78.106L56.633,77.364Z" style="fill:rgb(71,71,71);"/>
    </g>
    <g transform="matrix(1.43134,0,0,1.43134,-44.7452,-35.7849)">
        <path d="M65.553,64C56.223,63.82 62.177,79.803 52.037,78.632C48.076,78.174 45.257,77.466 44.135,77.035C41.538,76.035 40.39,72.454 39.637,70.092C37.589,63.667 36.891,53.931 42.107,48.628C46.541,44.119 59.764,45.063 65.553,45.133L65.656,45.133C71.445,45.063 84.669,44.119 89.103,48.628C94.318,53.931 93.62,63.667 91.572,70.092C90.819,72.454 89.671,76.035 87.075,77.035C85.953,77.466 83.133,78.174 79.172,78.632C69.032,79.803 74.986,63.82 65.656,64L65.553,64Z" style="fill:rgb(91,217,234);"/>
        <path d="M73.195,42.211L73.626,42.214L74.06,42.218L74.281,42.221L74.5,42.225L74.72,42.229L74.941,42.234L75.163,42.24L75.385,42.246L75.608,42.253L75.831,42.26L76.055,42.268L76.279,42.277L76.503,42.286L76.728,42.297L76.953,42.308L77.179,42.32L77.404,42.332L77.63,42.346L77.856,42.36L78.081,42.376L78.307,42.392L78.533,42.409L78.759,42.427L78.985,42.446L79.211,42.466L79.436,42.487L79.662,42.509L79.887,42.532L80.112,42.556L80.336,42.582L80.561,42.608L80.785,42.636L81.008,42.664L81.231,42.694L81.454,42.726L81.676,42.758L81.897,42.792L82.118,42.827L82.338,42.864L82.558,42.902L82.777,42.941L82.995,42.982L83.213,43.024L83.43,43.068L83.646,43.113L83.861,43.16L84.075,43.209L84.289,43.259L84.501,43.311L84.713,43.365L84.923,43.42L85.133,43.478L85.341,43.537L85.549,43.598L85.755,43.661L85.961,43.726L86.165,43.794L86.364,43.862L86.469,43.898L86.57,43.935L86.67,43.971L86.77,44.008L86.87,44.046L86.97,44.085L87.069,44.124L87.168,44.163L87.266,44.203L87.364,44.244L87.462,44.286L87.56,44.328L87.657,44.371L87.754,44.414L87.85,44.458L87.946,44.503L88.042,44.549L88.137,44.595L88.232,44.642L88.327,44.689L88.421,44.738L88.515,44.787L88.608,44.837L88.701,44.887L88.794,44.939L88.886,44.991L88.977,45.044L89.069,45.098L89.159,45.153L89.25,45.208L89.34,45.265L89.429,45.322L89.518,45.38L89.606,45.439L89.694,45.499L89.781,45.56L89.868,45.622L89.954,45.684L90.04,45.748L90.125,45.813L90.21,45.878L90.294,45.945L90.377,46.013L90.459,46.081L90.541,46.151L90.623,46.222L90.703,46.293L90.783,46.366L90.862,46.44L90.941,46.515L91.018,46.591L91.093,46.666L91.171,46.746L91.246,46.824L91.321,46.903L91.394,46.982L91.467,47.061L91.54,47.141L91.611,47.222L91.682,47.303L91.753,47.384L91.822,47.466L91.891,47.548L91.959,47.631L92.027,47.714L92.094,47.797L92.16,47.881L92.225,47.965L92.29,48.05L92.354,48.135L92.417,48.22L92.48,48.306L92.542,48.392L92.604,48.479L92.664,48.565L92.724,48.653L92.784,48.74L92.842,48.828L92.9,48.916L92.958,49.005L93.014,49.093L93.071,49.183L93.126,49.272L93.181,49.362L93.235,49.452L93.288,49.542L93.341,49.633L93.393,49.724L93.445,49.815L93.496,49.906L93.546,49.998L93.595,50.09L93.644,50.182L93.693,50.275L93.74,50.367L93.788,50.46L93.834,50.554L93.88,50.647L93.925,50.741L93.97,50.835L94.014,50.929L94.057,51.023L94.1,51.118L94.144,51.216L94.225,51.403L94.306,51.594L94.384,51.785L94.46,51.978L94.533,52.171L94.605,52.365L94.674,52.559L94.741,52.755L94.805,52.95L94.868,53.147L94.929,53.343L94.987,53.541L95.043,53.739L95.098,53.937L95.15,54.136L95.2,54.335L95.249,54.534L95.295,54.734L95.34,54.935L95.382,55.135L95.423,55.336L95.462,55.537L95.499,55.739L95.534,55.941L95.568,56.143L95.6,56.345L95.63,56.547L95.658,56.75L95.684,56.953L95.709,57.155L95.733,57.358L95.754,57.561L95.774,57.765L95.793,57.968L95.81,58.171L95.825,58.374L95.839,58.577L95.851,58.781L95.862,58.984L95.871,59.187L95.879,59.39L95.886,59.593L95.891,59.796L95.894,59.999L95.896,60.201L95.897,60.404L95.897,60.606L95.895,60.808L95.892,61.01L95.887,61.212L95.882,61.413L95.875,61.614L95.866,61.815L95.857,62.016L95.846,62.216L95.834,62.416L95.821,62.616L95.807,62.815L95.792,63.014L95.775,63.212L95.757,63.41L95.739,63.607L95.719,63.805L95.698,64.001L95.676,64.197L95.653,64.393L95.628,64.588L95.603,64.782L95.577,64.976L95.55,65.17L95.522,65.362L95.493,65.554L95.463,65.746L95.432,65.937L95.4,66.127L95.367,66.316L95.333,66.505L95.299,66.693L95.263,66.88L95.227,67.067L95.19,67.252L95.152,67.437L95.113,67.621L95.073,67.805L95.033,67.987L94.991,68.169L94.949,68.349L94.907,68.529L94.863,68.708L94.819,68.886L94.774,69.063L94.728,69.239L94.682,69.413L94.635,69.587L94.587,69.76L94.539,69.932L94.489,70.103L94.44,70.273L94.389,70.441L94.338,70.609L94.287,70.775L94.235,70.938L94.162,71.169L94.085,71.407L94.005,71.655L93.92,71.911L93.832,72.173L93.785,72.309L93.738,72.446L93.689,72.584L93.64,72.724L93.588,72.864L93.536,73.007L93.482,73.15L93.427,73.295L93.37,73.44L93.312,73.587L93.252,73.734L93.191,73.883L93.128,74.032L93.064,74.182L92.997,74.332L92.929,74.483L92.859,74.634L92.787,74.786L92.712,74.938L92.636,75.091L92.558,75.243L92.477,75.396L92.394,75.548L92.309,75.701L92.221,75.853L92.13,76.005L92.037,76.157L91.943,76.304L91.891,76.384L91.842,76.459L91.791,76.534L91.739,76.61L91.687,76.685L91.634,76.759L91.58,76.834L91.526,76.908L91.47,76.982L91.414,77.056L91.357,77.13L91.298,77.203L91.239,77.277L91.179,77.349L91.118,77.422L91.056,77.494L90.993,77.566L90.93,77.637L90.865,77.708L90.799,77.779L90.732,77.849L90.664,77.919L90.595,77.988L90.524,78.057L90.453,78.125L90.381,78.192L90.307,78.26L90.232,78.326L90.156,78.392L90.079,78.457L90.001,78.521L89.921,78.585L89.841,78.647L89.759,78.709L89.676,78.771L89.592,78.831L89.506,78.89L89.419,78.949L89.331,79.006L89.242,79.062L89.152,79.118L89.06,79.172L88.967,79.225L88.873,79.277L88.778,79.327L88.681,79.376L88.584,79.424L88.485,79.471L88.385,79.516L88.284,79.56L88.182,79.602L88.078,79.643L87.924,79.7L87.765,79.757L87.6,79.814L87.428,79.87L87.25,79.926L87.064,79.982L86.871,80.038L86.67,80.095L86.462,80.152L86.245,80.209L86.02,80.266L85.787,80.324L85.546,80.382L85.297,80.44L85.04,80.498L84.775,80.556L84.502,80.613L84.221,80.671L83.932,80.728L83.635,80.785L83.331,80.842L83.019,80.898L82.699,80.953L82.372,81.007L82.037,81.061L81.695,81.114L81.346,81.166L80.989,81.217L80.627,81.266L80.441,81.291L80.255,81.315L80.067,81.339L79.877,81.362L79.686,81.385L79.487,81.408L79.342,81.424L79.192,81.439L79.043,81.452L78.894,81.462L78.746,81.471L78.6,81.478L78.453,81.483L78.308,81.486L78.163,81.488L78.019,81.487L77.875,81.484L77.732,81.479L77.59,81.472L77.448,81.463L77.308,81.452L77.168,81.439L77.028,81.423L76.89,81.406L76.752,81.386L76.615,81.364L76.478,81.341L76.343,81.314L76.208,81.286L76.074,81.256L75.942,81.223L75.81,81.188L75.679,81.151L75.549,81.112L75.42,81.07L75.292,81.027L75.166,80.981L75.04,80.933L74.916,80.883L74.793,80.831L74.672,80.776L74.552,80.72L74.433,80.662L74.316,80.601L74.2,80.539L74.086,80.475L73.973,80.409L73.862,80.341L73.753,80.271L73.646,80.2L73.54,80.127L73.436,80.052L73.333,79.976L73.233,79.899L73.134,79.82L73.037,79.74L72.942,79.658L72.849,79.575L72.757,79.491L72.668,79.406L72.58,79.32L72.494,79.233L72.41,79.145L72.328,79.056L72.247,78.967L72.169,78.876L72.092,78.785L72.017,78.693L71.943,78.601L71.871,78.508L71.801,78.414L71.732,78.32L71.665,78.226L71.6,78.131L71.536,78.035L71.473,77.94L71.412,77.844L71.353,77.747L71.295,77.651L71.238,77.554L71.182,77.457L71.128,77.36L71.075,77.263L71.023,77.165L70.973,77.068L70.923,76.97L70.875,76.872L70.828,76.774L70.782,76.676L70.737,76.578L70.693,76.48L70.649,76.382L70.607,76.284L70.566,76.186L70.526,76.088L70.486,75.99L70.447,75.892L70.409,75.794L70.372,75.696L70.336,75.598L70.3,75.5L70.264,75.399L70.197,75.207L70.132,75.013L70.069,74.818L70.008,74.624L69.95,74.431L69.893,74.238L69.837,74.046L69.784,73.854L69.732,73.664L69.681,73.474L69.631,73.285L69.583,73.097L69.535,72.911L69.488,72.724L69.398,72.359L69.221,71.643L69.134,71.293L69.091,71.124L69.048,70.955L69.004,70.789L68.961,70.625L68.917,70.463L68.873,70.305L68.828,70.148L68.784,69.995L68.739,69.845L68.693,69.697L68.647,69.553L68.601,69.413L68.554,69.275L68.505,69.138L68.482,69.076L68.458,69.012L68.434,68.948L68.41,68.886L68.386,68.824L68.361,68.764L68.337,68.704L68.312,68.646L68.287,68.588L68.262,68.532L68.238,68.477L68.213,68.422L68.188,68.369L68.162,68.317L68.137,68.267L68.112,68.217L68.087,68.168L68.062,68.121L68.037,68.074L68.011,68.029L67.986,67.985L67.961,67.942L67.936,67.901L67.911,67.86L67.885,67.821L67.86,67.782L67.836,67.745L67.811,67.709L67.786,67.674L67.761,67.64L67.737,67.608L67.712,67.576L67.688,67.545L67.664,67.516L67.64,67.487L67.616,67.459L67.592,67.433L67.568,67.407L67.545,67.382L67.521,67.358L67.498,67.335L67.475,67.313L67.451,67.292L67.428,67.271L67.405,67.251L67.382,67.231L67.358,67.213L67.335,67.195L67.311,67.177L67.288,67.16L67.264,67.143L67.24,67.127L67.216,67.112L67.191,67.096L67.166,67.081L67.14,67.067L67.114,67.053L67.087,67.039L67.06,67.025L67.032,67.012L67.003,66.999L66.973,66.986L66.943,66.973L66.911,66.961L66.879,66.949L66.845,66.937L66.81,66.926L66.774,66.915L66.737,66.904L66.698,66.893L66.657,66.883L66.616,66.873L66.573,66.864L66.528,66.855L66.481,66.846L66.433,66.838L66.383,66.831L66.332,66.824L66.278,66.817L66.223,66.812L66.165,66.807L66.106,66.802L66.045,66.799L65.982,66.796L65.917,66.794L65.85,66.793L65.781,66.793L65.674,66.795L65.536,66.795L65.428,66.793L65.359,66.793L65.292,66.794L65.227,66.796L65.164,66.799L65.103,66.802L65.044,66.807L64.987,66.812L64.931,66.817L64.878,66.824L64.826,66.831L64.776,66.838L64.728,66.846L64.681,66.855L64.637,66.864L64.593,66.873L64.552,66.883L64.512,66.893L64.473,66.904L64.435,66.915L64.399,66.926L64.364,66.937L64.33,66.949L64.298,66.961L64.266,66.973L64.236,66.986L64.206,66.999L64.177,67.012L64.149,67.025L64.122,67.039L64.095,67.053L64.069,67.067L64.043,67.081L64.018,67.096L63.994,67.112L63.969,67.127L63.945,67.143L63.921,67.16L63.898,67.177L63.874,67.195L63.851,67.213L63.828,67.231L63.804,67.251L63.781,67.271L63.758,67.292L63.735,67.313L63.711,67.335L63.688,67.358L63.664,67.382L63.641,67.407L63.617,67.433L63.593,67.459L63.569,67.487L63.545,67.516L63.521,67.545L63.497,67.576L63.472,67.608L63.448,67.64L63.423,67.674L63.398,67.709L63.374,67.745L63.349,67.782L63.324,67.821L63.299,67.86L63.274,67.901L63.248,67.942L63.223,67.985L63.198,68.029L63.173,68.074L63.147,68.121L63.122,68.168L63.097,68.217L63.072,68.267L63.047,68.317L63.022,68.369L62.997,68.422L62.972,68.477L62.947,68.532L62.922,68.588L62.897,68.646L62.873,68.704L62.848,68.764L62.824,68.824L62.799,68.886L62.775,68.948L62.751,69.012L62.727,69.076L62.704,69.138L62.656,69.275L62.609,69.413L62.562,69.553L62.516,69.697L62.471,69.845L62.425,69.995L62.381,70.148L62.336,70.305L62.292,70.463L62.249,70.625L62.205,70.789L62.162,70.955L62.118,71.124L62.075,71.293L61.988,71.643L61.812,72.359L61.721,72.724L61.674,72.911L61.626,73.097L61.578,73.285L61.528,73.474L61.477,73.664L61.425,73.854L61.372,74.046L61.317,74.238L61.26,74.431L61.201,74.624L61.14,74.818L61.077,75.013L61.012,75.207L60.945,75.399L60.909,75.5L60.873,75.598L60.837,75.696L60.8,75.794L60.762,75.892L60.723,75.99L60.684,76.088L60.643,76.186L60.602,76.284L60.56,76.382L60.517,76.48L60.473,76.578L60.427,76.676L60.381,76.774L60.334,76.872L60.286,76.97L60.236,77.068L60.186,77.165L60.134,77.263L60.081,77.36L60.027,77.457L59.971,77.554L59.915,77.651L59.856,77.747L59.797,77.844L59.736,77.94L59.673,78.035L59.609,78.131L59.544,78.226L59.477,78.32L59.408,78.414L59.338,78.508L59.266,78.601L59.193,78.693L59.117,78.785L59.04,78.876L58.962,78.967L58.881,79.056L58.799,79.145L58.715,79.233L58.629,79.32L58.541,79.406L58.452,79.491L58.36,79.575L58.267,79.658L58.172,79.74L58.075,79.82L57.977,79.899L57.876,79.976L57.774,80.052L57.67,80.127L57.564,80.2L57.456,80.271L57.347,80.341L57.236,80.409L57.123,80.475L57.009,80.539L56.893,80.601L56.776,80.662L56.657,80.72L56.537,80.776L56.416,80.831L56.293,80.883L56.169,80.933L56.044,80.981L55.917,81.027L55.789,81.07L55.66,81.112L55.53,81.151L55.399,81.188L55.268,81.223L55.135,81.256L55.001,81.286L54.866,81.314L54.731,81.341L54.595,81.364L54.457,81.386L54.32,81.406L54.181,81.423L54.042,81.439L53.902,81.452L53.761,81.463L53.619,81.472L53.477,81.479L53.334,81.484L53.191,81.487L53.047,81.488L52.902,81.486L52.756,81.483L52.61,81.478L52.463,81.471L52.315,81.462L52.167,81.452L52.017,81.439L51.867,81.424L51.723,81.408L51.524,81.385L51.332,81.362L51.142,81.339L50.955,81.315L50.768,81.291L50.582,81.266L50.22,81.217L49.864,81.166L49.514,81.114L49.172,81.061L48.837,81.007L48.51,80.953L48.19,80.898L47.878,80.842L47.574,80.785L47.277,80.728L46.988,80.671L46.707,80.613L46.434,80.556L46.169,80.498L45.912,80.44L45.663,80.382L45.422,80.324L45.189,80.266L44.964,80.209L44.748,80.152L44.539,80.095L44.338,80.038L44.145,79.982L43.959,79.926L43.781,79.87L43.61,79.814L43.444,79.757L43.285,79.7L43.132,79.643L43.028,79.602L42.925,79.56L42.824,79.516L42.724,79.471L42.625,79.424L42.528,79.376L42.431,79.327L42.336,79.277L42.242,79.225L42.149,79.172L42.057,79.118L41.967,79.062L41.878,79.006L41.79,78.949L41.703,78.89L41.618,78.831L41.533,78.771L41.45,78.709L41.368,78.647L41.288,78.585L41.208,78.521L41.13,78.457L41.053,78.392L40.977,78.326L40.902,78.26L40.829,78.192L40.756,78.125L40.685,78.057L40.615,77.988L40.546,77.919L40.478,77.849L40.41,77.779L40.345,77.708L40.28,77.637L40.216,77.566L40.153,77.494L40.091,77.422L40.03,77.349L39.97,77.277L39.911,77.203L39.853,77.13L39.795,77.056L39.739,76.982L39.683,76.908L39.629,76.834L39.575,76.759L39.522,76.685L39.47,76.61L39.418,76.534L39.368,76.459L39.318,76.384L39.266,76.304L39.173,76.157L39.079,76.005L38.989,75.853L38.901,75.701L38.815,75.548L38.732,75.396L38.652,75.243L38.573,75.091L38.497,74.938L38.423,74.786L38.351,74.634L38.28,74.483L38.212,74.332L38.146,74.182L38.081,74.032L38.018,73.883L37.957,73.734L37.897,73.587L37.839,73.44L37.782,73.295L37.727,73.15L37.673,73.007L37.621,72.864L37.57,72.723L37.52,72.584L37.471,72.446L37.424,72.309L37.377,72.172L37.289,71.911L37.204,71.655L37.124,71.407L37.048,71.169L36.974,70.938L36.922,70.775L36.871,70.609L36.82,70.441L36.77,70.273L36.72,70.103L36.671,69.932L36.622,69.76L36.574,69.587L36.527,69.413L36.481,69.239L36.435,69.063L36.39,68.886L36.346,68.708L36.303,68.529L36.26,68.349L36.218,68.169L36.177,67.987L36.136,67.805L36.096,67.621L36.058,67.437L36.02,67.252L35.982,67.067L35.946,66.88L35.911,66.693L35.876,66.505L35.842,66.316L35.809,66.127L35.777,65.937L35.746,65.746L35.716,65.554L35.687,65.362L35.659,65.17L35.632,64.976L35.606,64.782L35.581,64.588L35.557,64.393L35.534,64.197L35.512,64.001L35.491,63.805L35.471,63.608L35.452,63.41L35.434,63.212L35.418,63.014L35.402,62.815L35.388,62.616L35.375,62.416L35.363,62.216L35.352,62.016L35.343,61.815L35.335,61.614L35.328,61.413L35.322,61.212L35.317,61.01L35.314,60.808L35.312,60.606L35.312,60.404L35.313,60.201L35.315,59.999L35.319,59.796L35.324,59.593L35.33,59.39L35.338,59.187L35.347,58.984L35.358,58.781L35.37,58.577L35.384,58.374L35.399,58.171L35.416,57.968L35.435,57.765L35.455,57.561L35.477,57.358L35.5,57.155L35.525,56.953L35.551,56.75L35.58,56.547L35.61,56.345L35.641,56.143L35.675,55.941L35.71,55.739L35.747,55.537L35.786,55.336L35.827,55.135L35.87,54.935L35.914,54.734L35.96,54.534L36.009,54.335L36.059,54.136L36.111,53.937L36.166,53.739L36.222,53.541L36.281,53.343L36.341,53.147L36.404,52.95L36.468,52.755L36.535,52.559L36.605,52.365L36.676,52.171L36.749,51.978L36.825,51.785L36.903,51.594L36.984,51.403L37.065,51.216L37.109,51.118L37.152,51.023L37.195,50.929L37.239,50.835L37.284,50.741L37.329,50.647L37.375,50.554L37.422,50.46L37.469,50.367L37.517,50.275L37.565,50.182L37.614,50.09L37.663,49.998L37.714,49.906L37.765,49.815L37.816,49.724L37.868,49.633L37.921,49.542L37.975,49.452L38.029,49.362L38.083,49.272L38.139,49.183L38.195,49.093L38.251,49.005L38.309,48.916L38.367,48.828L38.426,48.74L38.485,48.653L38.545,48.565L38.606,48.479L38.667,48.392L38.729,48.306L38.792,48.22L38.855,48.135L38.919,48.05L38.984,47.965L39.05,47.881L39.116,47.797L39.182,47.714L39.25,47.631L39.318,47.548L39.387,47.466L39.457,47.384L39.527,47.303L39.598,47.222L39.67,47.141L39.742,47.061L39.815,46.982L39.889,46.903L39.963,46.824L40.038,46.746L40.116,46.666L40.191,46.591L40.268,46.515L40.347,46.44L40.426,46.366L40.506,46.293L40.586,46.222L40.668,46.151L40.75,46.081L40.832,46.013L40.916,45.945L41,45.878L41.084,45.813L41.169,45.748L41.255,45.684L41.341,45.622L41.428,45.56L41.515,45.499L41.603,45.439L41.691,45.38L41.78,45.322L41.87,45.265L41.96,45.208L42.05,45.153L42.141,45.098L42.232,45.044L42.324,44.991L42.416,44.939L42.508,44.887L42.601,44.837L42.695,44.787L42.788,44.738L42.883,44.689L42.977,44.642L43.072,44.595L43.167,44.549L43.263,44.503L43.359,44.458L43.456,44.414L43.552,44.371L43.65,44.328L43.747,44.286L43.845,44.244L43.943,44.203L44.042,44.163L44.141,44.124L44.24,44.085L44.339,44.046L44.439,44.008L44.539,43.971L44.64,43.935L44.74,43.898L44.845,43.862L45.044,43.794L45.248,43.726L45.454,43.661L45.66,43.598L45.868,43.537L46.076,43.478L46.286,43.42L46.496,43.365L46.708,43.311L46.921,43.259L47.134,43.209L47.348,43.16L47.563,43.113L47.779,43.068L47.996,43.024L48.214,42.982L48.432,42.941L48.651,42.902L48.871,42.864L49.091,42.827L49.312,42.792L49.534,42.758L49.756,42.726L49.978,42.694L50.201,42.664L50.425,42.636L50.649,42.608L50.873,42.582L51.097,42.556L51.322,42.532L51.547,42.509L51.773,42.487L51.998,42.466L52.224,42.446L52.45,42.427L52.676,42.409L52.902,42.392L53.128,42.376L53.354,42.36L53.579,42.346L53.805,42.332L54.031,42.32L54.256,42.308L54.481,42.297L54.706,42.286L54.93,42.277L55.154,42.268L55.378,42.26L55.601,42.253L55.824,42.246L56.046,42.24L56.268,42.234L56.489,42.229L56.709,42.225L56.929,42.221L57.149,42.218L57.583,42.214L58.014,42.211L58.442,42.21L58.866,42.211L59.285,42.213L59.699,42.216L60.108,42.221L60.51,42.227L60.907,42.234L61.297,42.241L61.682,42.249L62.425,42.267L63.137,42.285L63.812,42.302L64.45,42.318L64.751,42.325L65.042,42.33L65.321,42.335L65.573,42.339L65.636,42.339L65.888,42.335L66.167,42.33L66.458,42.325L66.759,42.318L67.397,42.302L68.073,42.285L68.785,42.267L69.528,42.249L69.912,42.241L70.302,42.234L70.699,42.227L71.102,42.221L71.51,42.216L71.924,42.213L72.343,42.211L72.767,42.21L73.195,42.211ZM72.353,45.005L71.944,45.007L71.539,45.011L71.138,45.016L70.743,45.021L70.353,45.028L69.968,45.035L69.59,45.043L68.852,45.061L68.144,45.078L67.467,45.096L66.825,45.112L66.517,45.118L66.22,45.124L65.933,45.13L65.656,45.133L65.553,45.133L65.276,45.13L64.989,45.124L64.692,45.118L64.385,45.112L63.742,45.096L63.065,45.078L62.357,45.061L61.62,45.043L61.241,45.035L60.857,45.028L60.466,45.021L60.071,45.016L59.67,45.011L59.265,45.007L58.856,45.005L58.443,45.004L58.026,45.005L57.607,45.008L57.184,45.013L56.972,45.016L56.76,45.019L56.546,45.023L56.333,45.028L56.119,45.033L55.905,45.039L55.69,45.046L55.475,45.053L55.26,45.061L55.045,45.069L54.829,45.078L54.614,45.088L54.398,45.099L54.183,45.11L53.967,45.122L53.752,45.135L53.537,45.149L53.322,45.163L53.107,45.179L52.892,45.195L52.678,45.212L52.465,45.23L52.251,45.249L52.039,45.269L51.826,45.29L51.615,45.311L51.404,45.334L51.193,45.358L50.983,45.382L50.775,45.408L50.566,45.435L50.359,45.463L50.153,45.492L49.947,45.522L49.743,45.553L49.539,45.586L49.337,45.619L49.136,45.654L48.936,45.69L48.737,45.727L48.54,45.766L48.343,45.805L48.149,45.846L47.955,45.888L47.763,45.932L47.573,45.977L47.384,46.023L47.196,46.07L47.011,46.119L46.827,46.17L46.644,46.221L46.464,46.275L46.285,46.329L46.108,46.385L45.933,46.443L45.761,46.502L45.675,46.532L45.59,46.563L45.505,46.594L45.421,46.625L45.337,46.657L45.254,46.689L45.171,46.721L45.089,46.754L45.008,46.787L44.927,46.821L44.847,46.855L44.767,46.889L44.688,46.924L44.609,46.96L44.531,46.995L44.454,47.031L44.377,47.068L44.3,47.105L44.225,47.142L44.15,47.18L44.075,47.218L44.001,47.257L43.928,47.296L43.856,47.336L43.784,47.376L43.713,47.416L43.642,47.457L43.572,47.498L43.503,47.54L43.434,47.582L43.366,47.625L43.299,47.668L43.233,47.711L43.167,47.755L43.102,47.8L43.037,47.845L42.973,47.89L42.91,47.936L42.848,47.982L42.786,48.029L42.726,48.076L42.666,48.124L42.606,48.172L42.548,48.221L42.49,48.27L42.433,48.32L42.376,48.37L42.321,48.42L42.266,48.471L42.212,48.523L42.159,48.575L42.107,48.628L42.046,48.69L41.986,48.753L41.926,48.816L41.867,48.879L41.808,48.943L41.75,49.008L41.692,49.072L41.635,49.138L41.578,49.203L41.522,49.269L41.467,49.335L41.412,49.402L41.357,49.469L41.303,49.536L41.25,49.604L41.197,49.672L41.145,49.741L41.093,49.809L41.041,49.879L40.99,49.948L40.94,50.018L40.89,50.088L40.841,50.159L40.792,50.23L40.744,50.301L40.696,50.373L40.649,50.444L40.602,50.517L40.555,50.589L40.509,50.662L40.464,50.735L40.419,50.809L40.375,50.883L40.331,50.957L40.288,51.032L40.245,51.106L40.202,51.182L40.16,51.257L40.119,51.333L40.078,51.409L40.037,51.485L39.997,51.562L39.958,51.638L39.918,51.716L39.88,51.793L39.842,51.871L39.804,51.949L39.767,52.027L39.73,52.106L39.694,52.185L39.658,52.264L39.622,52.343L39.553,52.503L39.485,52.663L39.419,52.825L39.355,52.987L39.293,53.151L39.233,53.315L39.174,53.481L39.117,53.647L39.062,53.814L39.008,53.982L38.956,54.151L38.906,54.32L38.857,54.491L38.81,54.662L38.765,54.834L38.722,55.006L38.68,55.18L38.639,55.354L38.6,55.528L38.563,55.703L38.528,55.879L38.493,56.056L38.461,56.233L38.43,56.41L38.4,56.588L38.372,56.767L38.346,56.946L38.321,57.125L38.297,57.305L38.275,57.485L38.254,57.666L38.235,57.847L38.217,58.028L38.2,58.21L38.185,58.392L38.172,58.574L38.159,58.757L38.148,58.939L38.138,59.122L38.13,59.305L38.123,59.488L38.117,59.672L38.113,59.855L38.109,60.039L38.107,60.223L38.107,60.406L38.107,60.59L38.109,60.774L38.111,60.958L38.116,61.141L38.121,61.325L38.127,61.509L38.135,61.692L38.143,61.875L38.153,62.059L38.164,62.242L38.176,62.424L38.189,62.607L38.203,62.789L38.218,62.972L38.235,63.153L38.252,63.335L38.27,63.516L38.289,63.697L38.31,63.877L38.331,64.057L38.353,64.237L38.376,64.416L38.401,64.595L38.426,64.773L38.452,64.951L38.478,65.129L38.506,65.305L38.535,65.481L38.564,65.657L38.594,65.832L38.626,66.006L38.658,66.18L38.69,66.353L38.724,66.525L38.758,66.697L38.793,66.867L38.829,67.037L38.866,67.207L38.903,67.375L38.941,67.543L38.98,67.709L39.02,67.875L39.06,68.04L39.101,68.204L39.142,68.367L39.184,68.529L39.227,68.69L39.27,68.85L39.314,69.009L39.359,69.167L39.404,69.324L39.449,69.48L39.496,69.635L39.542,69.788L39.589,69.941L39.637,70.092L39.709,70.317L39.783,70.548L39.86,70.785L39.94,71.027L40.023,71.274L40.066,71.399L40.109,71.524L40.154,71.65L40.199,71.777L40.245,71.905L40.293,72.033L40.341,72.161L40.39,72.29L40.44,72.419L40.491,72.548L40.543,72.677L40.597,72.806L40.651,72.934L40.707,73.063L40.763,73.192L40.821,73.319L40.88,73.447L40.941,73.574L41.002,73.7L41.065,73.826L41.129,73.95L41.195,74.074L41.262,74.197L41.33,74.319L41.399,74.439L41.47,74.559L41.543,74.677L41.617,74.793L41.654,74.851L41.692,74.908L41.731,74.965L41.769,75.022L41.808,75.078L41.848,75.133L41.888,75.188L41.928,75.243L41.968,75.297L42.01,75.351L42.051,75.404L42.093,75.457L42.135,75.51L42.178,75.561L42.221,75.613L42.264,75.663L42.308,75.713L42.353,75.763L42.397,75.812L42.443,75.86L42.488,75.908L42.534,75.955L42.581,76.002L42.628,76.048L42.675,76.093L42.723,76.138L42.771,76.182L42.82,76.225L42.869,76.268L42.919,76.31L42.969,76.351L43.02,76.392L43.071,76.431L43.122,76.47L43.174,76.509L43.227,76.546L43.28,76.583L43.333,76.619L43.387,76.654L43.442,76.689L43.497,76.722L43.552,76.755L43.608,76.787L43.665,76.818L43.722,76.848L43.779,76.877L43.837,76.906L43.895,76.933L43.954,76.96L44.014,76.986L44.074,77.011L44.135,77.035L44.245,77.076L44.365,77.119L44.494,77.163L44.634,77.208L44.783,77.255L44.941,77.303L45.109,77.352L45.286,77.402L45.472,77.453L45.667,77.504L45.871,77.556L46.084,77.609L46.305,77.662L46.535,77.716L46.774,77.769L47.021,77.823L47.277,77.877L47.54,77.931L47.812,77.985L48.092,78.039L48.38,78.092L48.675,78.145L48.978,78.198L49.289,78.25L49.608,78.301L49.933,78.351L50.266,78.401L50.607,78.449L50.954,78.497L51.13,78.52L51.308,78.543L51.488,78.566L51.669,78.588L51.853,78.61L52.037,78.632L52.156,78.644L52.272,78.656L52.387,78.666L52.501,78.674L52.613,78.681L52.724,78.686L52.834,78.69L52.942,78.692L53.049,78.693L53.154,78.692L53.258,78.69L53.36,78.687L53.462,78.682L53.562,78.675L53.66,78.668L53.758,78.658L53.854,78.648L53.948,78.636L54.042,78.623L54.134,78.608L54.225,78.592L54.315,78.575L54.403,78.556L54.491,78.536L54.577,78.515L54.662,78.493L54.745,78.469L54.828,78.444L54.909,78.418L54.99,78.39L55.069,78.362L55.147,78.332L55.224,78.301L55.299,78.269L55.374,78.235L55.448,78.201L55.52,78.165L55.592,78.128L55.662,78.09L55.731,78.051L55.8,78.011L55.867,77.97L55.933,77.928L55.999,77.885L56.063,77.84L56.126,77.795L56.189,77.748L56.25,77.701L56.311,77.653L56.371,77.603L56.429,77.553L56.487,77.501L56.544,77.449L56.6,77.396L56.655,77.342L56.71,77.287L56.763,77.231L56.816,77.174L56.868,77.116L56.919,77.057L56.969,76.998L57.018,76.938L57.067,76.876L57.115,76.814L57.162,76.752L57.208,76.688L57.254,76.624L57.299,76.559L57.343,76.493L57.387,76.426L57.43,76.359L57.472,76.291L57.513,76.222L57.554,76.152L57.594,76.082L57.634,76.011L57.673,75.94L57.711,75.867L57.749,75.795L57.786,75.721L57.822,75.647L57.859,75.572L57.894,75.497L57.929,75.421L57.963,75.345L57.997,75.268L58.03,75.19L58.063,75.112L58.096,75.033L58.128,74.954L58.159,74.875L58.19,74.795L58.221,74.714L58.251,74.633L58.28,74.552L58.31,74.47L58.367,74.304L58.423,74.138L58.477,73.97L58.531,73.8L58.583,73.629L58.633,73.457L58.683,73.283L58.732,73.109L58.78,72.934L58.827,72.757L58.874,72.58L58.919,72.403L58.965,72.225L59.01,72.046L59.099,71.688L59.276,70.97L59.365,70.612L59.411,70.433L59.456,70.255L59.503,70.078L59.549,69.901L59.597,69.725L59.646,69.55L59.695,69.375L59.746,69.202L59.797,69.03L59.85,68.86L59.904,68.69L59.96,68.522L60.017,68.356L60.075,68.191L60.105,68.109L60.135,68.028L60.166,67.947L60.197,67.867L60.229,67.787L60.261,67.707L60.293,67.628L60.326,67.55L60.36,67.472L60.394,67.395L60.429,67.318L60.464,67.242L60.499,67.166L60.536,67.091L60.572,67.017L60.61,66.943L60.648,66.869L60.686,66.797L60.726,66.725L60.765,66.654L60.806,66.583L60.847,66.513L60.889,66.444L60.931,66.375L60.974,66.307L61.018,66.24L61.063,66.174L61.108,66.108L61.154,66.043L61.2,65.979L61.248,65.916L61.296,65.854L61.345,65.792L61.395,65.731L61.445,65.671L61.497,65.612L61.549,65.554L61.602,65.496L61.655,65.44L61.71,65.384L61.766,65.329L61.822,65.275L61.879,65.223L61.938,65.171L61.997,65.12L62.057,65.07L62.118,65.021L62.179,64.973L62.242,64.925L62.306,64.879L62.371,64.834L62.437,64.79L62.503,64.748L62.571,64.706L62.64,64.665L62.71,64.625L62.78,64.587L62.852,64.549L62.925,64.513L62.999,64.478L63.074,64.443L63.151,64.411L63.228,64.379L63.306,64.348L63.386,64.319L63.466,64.291L63.548,64.264L63.631,64.238L63.716,64.213L63.801,64.19L63.887,64.168L63.975,64.148L64.064,64.128L64.154,64.11L64.246,64.093L64.339,64.078L64.433,64.064L64.528,64.051L64.624,64.04L64.722,64.03L64.821,64.021L64.922,64.014L65.024,64.008L65.127,64.003L65.231,64L65.337,63.999L65.445,63.999L65.553,64L65.656,64L65.765,63.999L65.872,63.999L65.978,64L66.082,64.003L66.185,64.008L66.287,64.014L66.388,64.021L66.487,64.03L66.585,64.04L66.681,64.051L66.777,64.064L66.871,64.078L66.963,64.093L67.055,64.11L67.145,64.128L67.234,64.148L67.322,64.168L67.408,64.19L67.494,64.213L67.578,64.238L67.661,64.264L67.743,64.291L67.823,64.319L67.903,64.348L67.981,64.379L68.059,64.411L68.135,64.443L68.21,64.478L68.284,64.513L68.357,64.549L68.429,64.587L68.5,64.625L68.569,64.665L68.638,64.706L68.706,64.748L68.773,64.79L68.838,64.834L68.903,64.879L68.967,64.925L69.03,64.973L69.092,65.021L69.153,65.07L69.213,65.12L69.272,65.171L69.33,65.223L69.387,65.275L69.444,65.329L69.499,65.384L69.554,65.44L69.608,65.496L69.661,65.554L69.713,65.612L69.764,65.671L69.815,65.731L69.864,65.792L69.913,65.854L69.961,65.916L70.009,65.979L70.056,66.043L70.101,66.108L70.147,66.174L70.191,66.24L70.235,66.307L70.278,66.375L70.321,66.444L70.362,66.513L70.403,66.583L70.444,66.654L70.484,66.725L70.523,66.797L70.561,66.869L70.599,66.943L70.637,67.017L70.674,67.091L70.71,67.166L70.745,67.242L70.781,67.318L70.815,67.395L70.849,67.472L70.883,67.55L70.916,67.628L70.948,67.707L70.981,67.787L71.012,67.867L71.043,67.947L71.074,68.028L71.104,68.109L71.134,68.191L71.193,68.356L71.25,68.522L71.305,68.69L71.359,68.86L71.412,69.03L71.464,69.202L71.514,69.375L71.563,69.55L71.612,69.725L71.66,69.901L71.707,70.078L71.753,70.255L71.799,70.433L71.844,70.612L71.933,70.97L72.11,71.688L72.199,72.046L72.244,72.225L72.29,72.403L72.336,72.58L72.382,72.757L72.429,72.934L72.477,73.109L72.526,73.283L72.576,73.457L72.627,73.629L72.679,73.8L72.732,73.97L72.786,74.138L72.842,74.304L72.9,74.47L72.929,74.552L72.959,74.633L72.989,74.714L73.019,74.795L73.05,74.875L73.082,74.954L73.114,75.033L73.146,75.112L73.179,75.19L73.212,75.268L73.246,75.345L73.28,75.421L73.315,75.497L73.351,75.572L73.387,75.647L73.423,75.721L73.46,75.795L73.498,75.867L73.537,75.94L73.575,76.011L73.615,76.082L73.655,76.152L73.696,76.222L73.738,76.291L73.78,76.359L73.823,76.426L73.866,76.493L73.91,76.559L73.955,76.624L74.001,76.688L74.047,76.752L74.094,76.814L74.142,76.876L74.191,76.938L74.24,76.998L74.291,77.057L74.342,77.116L74.393,77.174L74.446,77.231L74.5,77.287L74.554,77.342L74.609,77.396L74.665,77.449L74.722,77.501L74.78,77.553L74.839,77.603L74.898,77.653L74.959,77.701L75.02,77.748L75.083,77.795L75.146,77.84L75.211,77.885L75.276,77.928L75.342,77.97L75.41,78.011L75.478,78.051L75.547,78.09L75.618,78.128L75.689,78.165L75.762,78.201L75.835,78.235L75.91,78.269L75.986,78.301L76.063,78.332L76.141,78.362L76.22,78.39L76.3,78.418L76.381,78.444L76.464,78.469L76.548,78.493L76.632,78.515L76.719,78.536L76.806,78.556L76.894,78.575L76.984,78.592L77.075,78.608L77.167,78.623L77.261,78.636L77.356,78.648L77.452,78.658L77.549,78.668L77.648,78.675L77.747,78.682L77.849,78.687L77.951,78.69L78.055,78.692L78.161,78.693L78.267,78.692L78.375,78.69L78.485,78.686L78.596,78.681L78.708,78.674L78.822,78.666L78.937,78.656L79.054,78.644L79.172,78.632L79.357,78.61L79.54,78.588L79.721,78.566L79.901,78.543L80.079,78.52L80.255,78.497L80.603,78.449L80.943,78.401L81.276,78.351L81.602,78.301L81.92,78.25L82.231,78.198L82.534,78.145L82.83,78.092L83.117,78.039L83.397,77.985L83.669,77.931L83.933,77.877L84.188,77.823L84.435,77.769L84.674,77.716L84.904,77.662L85.126,77.609L85.338,77.556L85.542,77.504L85.737,77.453L85.924,77.402L86.1,77.352L86.268,77.303L86.426,77.255L86.575,77.208L86.715,77.163L86.844,77.119L86.964,77.076L87.075,77.035L87.135,77.011L87.195,76.986L87.255,76.96L87.314,76.933L87.372,76.906L87.43,76.877L87.488,76.848L87.545,76.818L87.601,76.787L87.657,76.755L87.712,76.722L87.767,76.689L87.822,76.654L87.876,76.619L87.929,76.583L87.982,76.546L88.035,76.509L88.087,76.47L88.138,76.431L88.19,76.392L88.24,76.351L88.29,76.31L88.34,76.268L88.389,76.225L88.438,76.182L88.486,76.138L88.534,76.093L88.581,76.048L88.628,76.002L88.675,75.955L88.721,75.908L88.767,75.86L88.812,75.812L88.857,75.763L88.901,75.713L88.945,75.663L88.988,75.613L89.032,75.561L89.074,75.51L89.116,75.457L89.158,75.404L89.2,75.351L89.241,75.297L89.281,75.243L89.322,75.188L89.361,75.133L89.401,75.078L89.44,75.022L89.479,74.965L89.517,74.908L89.555,74.851L89.592,74.793L89.666,74.677L89.739,74.559L89.81,74.439L89.879,74.319L89.948,74.197L90.014,74.074L90.08,73.95L90.144,73.826L90.207,73.7L90.269,73.574L90.329,73.447L90.388,73.319L90.446,73.192L90.503,73.063L90.558,72.934L90.613,72.806L90.666,72.677L90.718,72.548L90.769,72.419L90.819,72.29L90.869,72.161L90.917,72.033L90.964,71.905L91.01,71.777L91.055,71.65L91.1,71.524L91.143,71.399L91.186,71.274L91.269,71.027L91.349,70.785L91.426,70.548L91.5,70.317L91.572,70.092L91.62,69.941L91.667,69.788L91.714,69.635L91.76,69.48L91.806,69.324L91.851,69.167L91.895,69.009L91.939,68.85L91.982,68.69L92.025,68.529L92.067,68.367L92.109,68.204L92.149,68.04L92.19,67.875L92.229,67.709L92.268,67.543L92.306,67.375L92.343,67.207L92.38,67.037L92.416,66.867L92.451,66.697L92.485,66.525L92.519,66.353L92.552,66.18L92.584,66.006L92.615,65.832L92.645,65.657L92.675,65.481L92.703,65.305L92.731,65.129L92.758,64.951L92.784,64.773L92.809,64.595L92.833,64.416L92.856,64.237L92.878,64.057L92.899,63.877L92.92,63.697L92.939,63.516L92.957,63.335L92.975,63.153L92.991,62.972L93.006,62.789L93.02,62.607L93.033,62.424L93.045,62.242L93.056,62.059L93.066,61.875L93.075,61.692L93.082,61.509L93.088,61.325L93.094,61.141L93.098,60.958L93.101,60.774L93.102,60.59L93.103,60.406L93.102,60.223L93.1,60.039L93.097,59.855L93.092,59.672L93.086,59.488L93.079,59.305L93.071,59.122L93.061,58.939L93.05,58.757L93.038,58.574L93.024,58.392L93.009,58.21L92.992,58.028L92.974,57.847L92.955,57.666L92.934,57.485L92.912,57.305L92.889,57.125L92.864,56.946L92.837,56.767L92.809,56.588L92.779,56.41L92.748,56.233L92.716,56.056L92.682,55.879L92.646,55.703L92.609,55.528L92.57,55.354L92.53,55.18L92.488,55.006L92.444,54.834L92.399,54.662L92.352,54.491L92.303,54.32L92.253,54.151L92.201,53.982L92.148,53.814L92.092,53.647L92.035,53.481L91.977,53.315L91.916,53.151L91.854,52.987L91.79,52.825L91.724,52.663L91.656,52.503L91.587,52.343L91.552,52.264L91.516,52.185L91.479,52.106L91.443,52.027L91.405,51.949L91.368,51.871L91.329,51.793L91.291,51.716L91.252,51.638L91.212,51.562L91.172,51.485L91.132,51.409L91.091,51.333L91.049,51.257L91.007,51.182L90.965,51.106L90.922,51.032L90.878,50.957L90.834,50.883L90.79,50.809L90.745,50.735L90.7,50.662L90.654,50.589L90.608,50.517L90.561,50.444L90.513,50.373L90.466,50.301L90.417,50.23L90.368,50.159L90.319,50.088L90.269,50.018L90.219,49.948L90.168,49.879L90.117,49.809L90.065,49.741L90.012,49.672L89.959,49.604L89.906,49.536L89.852,49.469L89.797,49.402L89.742,49.335L89.687,49.269L89.631,49.203L89.574,49.138L89.517,49.072L89.46,49.008L89.401,48.943L89.343,48.879L89.283,48.816L89.224,48.753L89.163,48.69L89.103,48.628L89.05,48.575L88.997,48.523L88.943,48.471L88.888,48.42L88.833,48.37L88.777,48.32L88.719,48.27L88.662,48.221L88.603,48.172L88.544,48.124L88.484,48.076L88.423,48.029L88.361,47.982L88.299,47.936L88.236,47.89L88.172,47.845L88.108,47.8L88.043,47.755L87.977,47.711L87.91,47.668L87.843,47.625L87.775,47.582L87.706,47.54L87.637,47.498L87.567,47.457L87.497,47.416L87.425,47.376L87.353,47.336L87.281,47.296L87.208,47.257L87.134,47.218L87.06,47.18L86.984,47.142L86.909,47.105L86.833,47.068L86.756,47.031L86.678,46.995L86.6,46.96L86.522,46.924L86.442,46.889L86.363,46.855L86.282,46.821L86.201,46.787L86.12,46.754L86.038,46.721L85.955,46.689L85.872,46.657L85.788,46.625L85.704,46.594L85.62,46.563L85.534,46.532L85.449,46.502L85.276,46.443L85.101,46.385L84.924,46.329L84.745,46.275L84.565,46.221L84.383,46.17L84.199,46.119L84.013,46.07L83.826,46.023L83.637,45.977L83.446,45.932L83.254,45.888L83.061,45.846L82.866,45.805L82.67,45.766L82.472,45.727L82.273,45.69L82.073,45.654L81.872,45.619L81.67,45.586L81.466,45.553L81.262,45.522L81.056,45.492L80.85,45.463L80.643,45.435L80.435,45.408L80.226,45.382L80.016,45.358L79.806,45.334L79.595,45.311L79.383,45.29L79.171,45.269L78.958,45.249L78.745,45.23L78.531,45.212L78.317,45.195L78.102,45.179L77.888,45.163L77.673,45.149L77.457,45.135L77.242,45.122L77.027,45.11L76.811,45.099L76.596,45.088L76.38,45.078L76.165,45.069L75.949,45.061L75.734,45.053L75.519,45.046L75.305,45.039L75.09,45.033L74.876,45.028L74.663,45.023L74.45,45.019L74.237,45.016L74.025,45.013L73.603,45.008L73.183,45.005L72.766,45.004L72.353,45.005Z" style="fill:rgb(225,130,44);"/>
    </g>
    <g transform="matrix(1.43134,0,0,1.43134,-44.7452,-35.7849)">
        <path d="M52.919,47.591C49.548,47.602 44.674,48.228 42.481,51.816C41.903,52.763 41.461,53.785 41.126,54.841C40.78,55.931 40.538,57.047 40.484,58.192C40.335,61.315 40.841,64.6 41.93,67.538C42.417,68.855 43.484,69.904 45.056,69.685C47.262,69.378 48.376,68.045 49.624,66.341C52.087,62.975 53.43,58.759 56.879,56.228C59.133,54.575 64.374,53.217 64.062,50.127C63.891,48.433 61.561,47.612 56.879,47.591L52.919,47.591Z" style="fill:white;fill-opacity:0.741176;"/>
    </g>
    <g transform="matrix(1.43134,0,0,1.43134,-30.67,-22.5668)">
        <path d="M97.619,29.891C96.645,32.553 97.503,41.222 97.504,46.522C97.507,56.931 95.702,67.979 90.138,76.925C88.207,80.029 85.857,83.411 82.79,85.495C77.769,88.908 70.975,87.827 68.22,82.274C67.386,80.591 68.125,77.532 67.184,76.669C66.242,75.805 62.868,75.577 62.571,77.092C62.234,78.811 64.035,85.301 65.162,86.983C68.883,92.536 78.059,93.617 84.841,90.204C88.983,88.12 91.325,85.363 93.932,82.259C101.448,73.313 103.885,62.265 103.882,51.857C103.881,46.556 104.397,34.213 103.353,30.552C102.825,28.702 98.281,28.085 97.619,29.891Z" style="fill:rgb(225,130,44);"/>
    </g>
    <path d="M63.653,85.084C62.325,85.112 59.119,85.132 57.635,86.461C57.3,86.761 57.026,87.13 56.828,87.532C55.579,90.06 58.116,91.796 60.383,92.069C61.817,92.241 63.141,92.009 64.526,91.666C65.307,91.473 66.125,91.284 66.785,90.797C67.15,90.527 67.469,90.193 67.718,89.813C67.962,89.44 68.181,89.042 68.307,88.612C68.826,86.846 66.452,85.413 65.501,85.208C64.804,85.058 64.39,85.069 63.653,85.084Z" style="fill:rgb(71,71,71);"/>
</svg>
