<?xml version="1.0" encoding="UTF-8" standalone="no"?>
<!DOCTYPE svg PUBLIC "-//W3C//DTD SVG 1.1//EN" "http://www.w3.org/Graphics/SVG/1.1/DTD/svg11.dtd">
<svg width="100%" height="100%" viewBox="0 0 128 128" version="1.1" xmlns="http://www.w3.org/2000/svg" xmlns:xlink="http://www.w3.org/1999/xlink" xml:space="preserve" xmlns:serif="http://www.serif.com/" style="fill-rule:evenodd;clip-rule:evenodd;stroke-linejoin:round;stroke-miterlimit:2;">
    <g>
        <path d="M47.02,119.76C47.02,119.76 40.22,119.41 36.81,114.67C29.44,104.44 25.39,78.86 25.39,42.65C25.39,40.99 25.65,26.24 36.05,15.82C42.8,9.05 52.4,5.62 64.57,5.62C76.65,5.62 86.09,9 92.62,15.66C102.44,25.68 102.66,39.82 102.61,42.55C102.61,78.86 98.55,104.44 91.19,114.67C87.89,119.26 81.4,119.73 80.94,119.76L64,119.73L47.02,119.76Z" style="fill:rgb(236,236,236);fill-rule:nonzero;"/>
    </g>
    <g>
        <g>
            <path d="M13.5,130.5L13.5,120.99C13.5,103.7 40.71,97.53 64,97.5L64.14,97.5C77.53,97.5 89.96,99.65 99.15,103.55C106.15,106.53 114.5,111.97 114.5,120.99L114.5,130.5L13.5,130.5Z" style="fill:rgb(218,65,5);fill-rule:nonzero;"/>
        </g>
    </g>
    <g>
        <path d="M63.17,107.23C59.17,107.23 55.91,104.01 55.91,100.06L55.91,91.08L72.07,91.08L72.07,100.06C72.07,104.02 68.81,107.23 64.81,107.23L63.17,107.23Z" style="fill:#563e37;fill-rule:nonzero;"/>
    </g>
    <g>
        <path d="M39.5,72.07C36.84,71.47 29.97,69.11 25.39,60.21C22.45,54.5 21.73,44.39 21.56,40.29L39.5,51L39.5,72.07Z" style="fill:#563e37;fill-rule:nonzero;"/>
        <g>
            <path d="M88.5,51L106.45,40.29C106.27,44.39 105.55,54.5 102.62,60.21C98.08,69.03 91.17,71.44 88.51,72.06L88.51,51L88.5,51Z" style="fill:#563e37;fill-rule:nonzero;"/>
        </g>
    </g>
    <g>
        <g transform="matrix(0.791581,0,0,0.791581,13.3392,-1.27118)">
            <path d="M63.987,12.969C30.077,12.969 21.22,36.84 21.22,73.77C21.22,112.06 45.83,121.96 64,121.96C81.9,121.96 106.78,112.34 106.78,73.77C106.78,36.83 97.897,12.969 63.987,12.969Z" style="fill:#70534a;fill-rule:nonzero;"/>
        </g>
        <g transform="matrix(0.791581,0,0,0.791581,13.3392,-1.27118)">
            <path d="M76.38,100.52L51.62,100.52C50.2,100.52 49.59,101.47 50.53,102.9C51.84,104.9 56.72,108.75 64,108.75C71.28,108.75 76.16,104.9 77.47,102.9C78.41,101.47 77.8,100.52 76.38,100.52Z" style="fill:rgb(81,63,53);fill-rule:nonzero;"/>
        </g>
        <g transform="matrix(0.791581,0,0,0.791581,13.3392,-1.27118)">
            <path d="M69.98,89.99C67.87,90.59 65.69,90.88 64,90.88C62.31,90.88 60.13,90.59 58.02,89.99C57.12,89.73 56.77,90.59 57.09,91.16C57.76,92.34 60.45,94.71 64,94.71C67.55,94.71 70.24,92.34 70.91,91.16C71.24,90.59 70.88,89.74 69.98,89.99Z" style="fill:#563e37;fill-rule:nonzero;"/>
        </g>
        <g transform="matrix(0.791581,0,0,0.791581,13.3392,-1.27118)">
            <path d="M49.91,77.19C49.91,81 47.36,84.09 44.2,84.09C41.04,84.09 38.47,81 38.47,77.19C38.47,73.37 41.04,70.28 44.2,70.28C47.36,70.28 49.91,73.37 49.91,77.19M78.08,77.19C78.08,81 80.64,84.09 83.8,84.09C86.95,84.09 89.52,81 89.52,77.19C89.52,73.37 86.95,70.28 83.8,70.28C80.64,70.28 78.08,73.37 78.08,77.19" style="fill:rgb(68,68,68);fill-rule:nonzero;"/>
        </g>
        <g>
            <g>
                <g>
                    <clipPath id="_clip1">
                        <path d="M30.41,88.85L28.91,37.41C28.91,20.46 44.69,7.56 61.64,7.56L66.57,7.56C83.52,7.56 99.11,20.46 99.11,37.41L97.61,88.59L30.41,88.85Z"/>
                    </clipPath>
                    <g clip-path="url(#_clip1)">
                        <path d="M101.89,42.65C101.89,42.65 102.91,7.08 64.08,7.08C25.25,7.08 26.11,42.65 26.11,42.65C26.11,42.65 26.44,88.13 29.31,94.04C32.18,99.95 36.51,99.75 36.51,99.75C36.51,99.75 34.48,73.21 34.25,60.71C34.19,57.79 33.31,46.98 39.41,45.62C61.77,40.6 74.42,28.73 74.42,28.73C77.71,35.92 88,42.92 91.69,45.59C94.72,47.78 94.3,56.79 94.24,60.62L91.19,99.68C91.19,99.68 95.87,100.05 98.84,94.04C101.8,88.02 101.89,42.65 101.89,42.65Z" style="fill:rgb(236,236,236);fill-rule:nonzero;"/>
                    </g>
                </g>
            </g>
        </g>
    </g>
    <g>
        <path d="M63.99,113.67C50.74,113.67 42.69,106.14 41.66,104.74L41.66,93.82C41.66,93.64 41.71,93.51 41.75,93.43L54.95,96.22C59.08,97.16 61.91,100.91 62.5,106.25C62.58,107.01 63.23,107.58 63.99,107.58C64.75,107.58 65.4,107 65.48,106.25C66.08,100.88 68.9,97.13 73.05,96.21L86.24,93.43C86.28,93.51 86.33,93.64 86.33,93.82L86.33,104.74C85.3,106.14 77.25,113.67 63.99,113.67Z" style="fill:rgb(218,65,5);fill-rule:nonzero;"/>
    </g>
</svg>
