<?xml version="1.0" encoding="UTF-8" standalone="no"?>
<!DOCTYPE svg PUBLIC "-//W3C//DTD SVG 1.1//EN" "http://www.w3.org/Graphics/SVG/1.1/DTD/svg11.dtd">
<svg width="100%" height="100%" viewBox="0 0 128 128" version="1.1" xmlns="http://www.w3.org/2000/svg" xmlns:xlink="http://www.w3.org/1999/xlink" xml:space="preserve" xmlns:serif="http://www.serif.com/" style="fill-rule:evenodd;clip-rule:evenodd;stroke-linejoin:round;stroke-miterlimit:2;">
    <g>
        <path d="M106.91,66.04C106.91,66.04 114.78,67.4 114.78,75.88C114.78,83.36 109.04,86.31 103.3,86.31L103.3,66.04L106.91,66.04ZM21.09,66.04C21.09,66.04 13.22,67.4 13.22,75.88C13.22,83.36 18.96,86.31 24.7,86.31L24.7,66.04L21.09,66.04Z" style="fill:#99674f;fill-rule:nonzero;"/>
    </g>
    <path d="M64,10.55C30.09,10.55 21.22,36.84 21.22,73.77C21.22,112.06 45.83,121.96 64,121.96C81.9,121.96 106.78,112.34 106.78,73.77C106.78,36.83 97.91,10.55 64,10.55Z" style="fill:#bf8f68;fill-rule:nonzero;"/>
    <path d="M49.91,77.19C49.91,81 47.36,84.09 44.2,84.09C41.04,84.09 38.47,81 38.47,77.19C38.47,73.37 41.04,70.28 44.2,70.28C47.36,70.28 49.91,73.37 49.91,77.19M78.08,77.19C78.08,81 80.64,84.09 83.8,84.09C86.95,84.09 89.52,81 89.52,77.19C89.52,73.37 86.95,70.28 83.8,70.28C80.64,70.28 78.08,73.37 78.08,77.19" style="fill:rgb(68,68,68);fill-rule:nonzero;"/>
    <clipPath id="_clip1">
        <path d="M64,10.55C30.09,10.55 21.22,36.84 21.22,73.77C21.22,112.06 45.83,121.96 64,121.96C81.9,121.96 106.78,112.34 106.78,73.77C106.78,36.83 97.91,10.55 64,10.55Z" clip-rule="nonzero"/>
    </clipPath>
    <g clip-path="url(#_clip1)">
        <path d="M22.828,74.361C23.209,77.616 23.373,80.792 24.519,83.883C25.232,85.804 26.101,87.736 27.351,89.373C36.308,101.101 53.855,92.949 65.787,93.99C70.216,94.377 74.284,94.382 78.567,95.318C84.544,96.625 91.074,95.77 96.382,92.673C101.181,89.874 102.672,85.724 104.338,80.571C104.958,78.653 105.208,76.661 105.551,74.683C105.622,74.272 105.791,72.829 106.156,72.573C106.938,72.025 111.324,72.977 112.283,72.979C113.317,72.98 114.498,72.852 115.508,73.165C122.863,75.444 123.18,86.817 121.806,92.657C118.708,105.813 107.387,114.912 97.354,122.93C87.705,130.641 78.427,140.28 66.361,144.002C57.181,146.834 46.457,145.204 37.434,142.496C28.585,139.84 18.372,136.282 11.522,129.751C7.258,125.685 4.005,120.161 1.876,114.709C-1.905,105.029 -0.173,96.148 2.173,86.371C3.654,80.198 5.22,74.043 8.017,68.314C10.153,63.939 12.564,59.283 15.494,55.384C16.113,54.56 18.167,52.028 19.318,52.051C19.658,52.058 20.575,53.431 20.789,53.693C22.298,55.548 23.528,57.617 24.579,59.761L22.828,74.361ZM78.726,99.577C78.726,99.577 69.37,98.627 64,98.627C58.63,98.627 48.878,99.577 48.878,99.577C47.031,99.577 46.237,100.516 47.46,102.377C49.165,104.98 54.526,110.623 64,110.623C73.474,110.623 78.44,104.98 80.144,102.377C81.368,100.516 80.574,99.577 78.726,99.577Z" style="fill:#6d4c41;"/>
    </g>
    <path d="M69.98,89.99C67.87,90.59 65.69,90.88 64,90.88C62.31,90.88 60.13,90.59 58.02,89.99C57.12,89.73 56.77,90.59 57.09,91.16C57.76,92.34 60.45,94.71 64,94.71C67.55,94.71 70.24,92.34 70.91,91.16C71.24,90.59 70.88,89.74 69.98,89.99Z" style="fill:#99674f;fill-rule:nonzero;"/>
    <path d="M65.02,5.72C65.02,5.72 64.36,5.7 64.07,5.7C63.78,5.7 63.12,5.72 63.12,5.72C26.53,6.43 15.5,28.44 15.5,43.71C15.5,58.55 15.51,69.45 15.51,69.45C15.51,69.45 16.09,68.85 17.17,68.01C18.32,67.12 19.58,66.62 19.58,66.62L21.43,79L33.62,53.52C33.69,53.36 33.86,53.27 34.03,53.29L41.26,54.09C48.52,54.9 55.82,55.29 63.12,55.31L63.12,55.33C63.44,55.33 63.75,55.32 64.07,55.32C64.39,55.32 64.7,55.33 65.02,55.33L65.02,55.31C72.32,55.29 79.61,54.9 86.88,54.09L94.11,53.29C94.28,53.27 94.45,53.36 94.52,53.52L106.71,79L108.56,66.61C108.56,66.61 109.83,67.11 110.97,68C112.05,68.84 112.63,69.44 112.63,69.44C112.63,69.44 112.64,58.54 112.64,43.7C112.65,28.44 101.62,6.43 65.02,5.72Z" style="fill:#6d4c41;fill-rule:nonzero;"/>
    <path d="M76.38,100.52L51.62,100.52C50.2,100.52 49.59,101.47 50.53,102.9C51.84,104.9 56.72,108.75 64,108.75C71.28,108.75 76.16,104.9 77.47,102.9C78.41,101.47 77.8,100.52 76.38,100.52Z" style="fill:rgb(81,63,53);fill-rule:nonzero;"/>
</svg>
