<?xml version="1.0" encoding="UTF-8" standalone="no"?>
<!DOCTYPE svg PUBLIC "-//W3C//DTD SVG 1.1//EN" "http://www.w3.org/Graphics/SVG/1.1/DTD/svg11.dtd">
<svg width="100%" height="100%" viewBox="0 0 128 128" version="1.1" xmlns="http://www.w3.org/2000/svg" xmlns:xlink="http://www.w3.org/1999/xlink" xml:space="preserve" xmlns:serif="http://www.serif.com/" style="fill-rule:evenodd;clip-rule:evenodd;stroke-linejoin:round;stroke-miterlimit:2;">
    <g>
        <path d="M115.9,71.06L12.1,71.06L12.1,117.757C12.1,121.166 14.864,123.93 18.273,123.93C36.717,123.93 91.283,123.93 109.727,123.93C113.136,123.93 115.9,121.166 115.9,117.757C115.9,103.808 115.9,71.06 115.9,71.06Z" style="fill:rgb(247,147,41);"/>
        <path d="M75.29,93.59L52.72,93.59C52.17,93.59 51.72,93.91 51.72,94.31L51.72,124L76.3,124L76.3,94.31C76.29,93.91 75.85,93.59 75.29,93.59Z" style="fill:rgb(78,52,46);fill-rule:nonzero;"/>
        <path d="M124.69,77.85C123.85,73.88 121.17,66.39 118.48,62.03C95.44,24.75 70.32,10.96 64,10.96C57.68,10.96 31.94,23.5 9.52,62.04C6.95,66.46 4.27,72.87 3.31,77.86C2.823,80.412 2.835,82.488 2.963,83.907C3.017,84.268 3.282,84.561 3.635,84.652C3.989,84.743 4.362,84.613 4.584,84.323C5.539,83.095 6.828,81.408 7.83,80.097C8.066,79.789 8.47,79.661 8.84,79.778C9.21,79.895 9.467,80.232 9.483,80.62C9.518,81.493 9.557,82.471 9.593,83.353C9.609,83.745 9.871,84.084 10.247,84.198C10.623,84.311 11.03,84.174 11.26,83.856C12.109,82.684 13.152,81.243 13.986,80.092C14.212,79.779 14.609,79.641 14.981,79.745C15.352,79.849 15.62,80.174 15.651,80.558C15.724,81.467 15.807,82.497 15.881,83.415C15.912,83.804 16.185,84.131 16.563,84.231C16.94,84.331 17.339,84.183 17.56,83.861C18.362,82.687 19.35,81.243 20.139,80.09C20.355,79.773 20.745,79.624 21.118,79.715C21.49,79.806 21.768,80.119 21.814,80.5C21.928,81.442 22.058,82.521 22.173,83.473C22.22,83.859 22.503,84.174 22.882,84.261C23.26,84.348 23.653,84.188 23.863,83.861C24.618,82.689 25.547,81.245 26.288,80.092C26.495,79.772 26.878,79.611 27.252,79.689C27.625,79.767 27.912,80.068 27.973,80.444C28.13,81.418 28.311,82.544 28.47,83.528C28.531,83.91 28.825,84.213 29.204,84.286C29.584,84.36 29.969,84.189 30.168,83.858C30.874,82.688 31.742,81.249 32.436,80.099C32.632,79.774 33.008,79.602 33.383,79.667C33.757,79.732 34.053,80.02 34.128,80.393C34.33,81.395 34.566,82.566 34.77,83.579C34.846,83.957 35.149,84.247 35.529,84.308C35.91,84.368 36.287,84.185 36.476,83.849C37.132,82.685 37.937,81.255 38.582,80.11C38.767,79.78 39.136,79.597 39.511,79.649C39.886,79.701 40.191,79.977 40.28,80.345C40.529,81.373 40.822,82.587 41.074,83.627C41.164,84 41.476,84.278 41.857,84.325C42.238,84.371 42.608,84.177 42.786,83.837C43.391,82.679 44.131,81.264 44.726,80.125C44.901,79.79 45.262,79.596 45.638,79.635C46.013,79.674 46.327,79.938 46.429,80.301C46.726,81.352 47.08,82.605 47.38,83.67C47.484,84.038 47.805,84.304 48.186,84.337C48.568,84.371 48.93,84.165 49.096,83.82C49.65,82.672 50.325,81.274 50.87,80.144C51.033,79.804 51.387,79.599 51.763,79.625C52.139,79.651 52.461,79.903 52.577,80.261C52.922,81.333 53.338,82.623 53.688,83.709C53.805,84.073 54.135,84.326 54.517,84.346C54.899,84.366 55.253,84.148 55.408,83.798C55.909,82.664 56.517,81.289 57.011,80.17C57.164,79.826 57.51,79.609 57.886,79.622C58.262,79.635 58.593,79.876 58.721,80.23C59.114,81.317 59.59,82.636 59.989,83.739C60.119,84.098 60.457,84.34 60.839,84.347C61.221,84.353 61.568,84.123 61.71,83.769C62.16,82.649 62.702,81.302 63.145,80.198C63.285,79.849 63.624,79.62 64,79.62C64.376,79.62 64.715,79.849 64.855,80.198C65.298,81.302 65.84,82.649 66.29,83.769C66.432,84.123 66.779,84.353 67.161,84.347C67.543,84.34 67.881,84.098 68.011,83.739C68.41,82.636 68.886,81.317 69.279,80.23C69.407,79.876 69.738,79.635 70.114,79.622C70.49,79.609 70.836,79.826 70.989,80.17C71.483,81.289 72.091,82.664 72.592,83.798C72.747,84.148 73.101,84.366 73.483,84.346C73.865,84.326 74.195,84.073 74.312,83.709C74.662,82.623 75.078,81.333 75.423,80.261C75.539,79.903 75.861,79.651 76.237,79.625C76.613,79.599 76.967,79.804 77.13,80.144C77.675,81.274 78.35,82.672 78.904,83.82C79.07,84.165 79.432,84.371 79.814,84.337C80.195,84.304 80.516,84.038 80.62,83.67C80.92,82.605 81.274,81.352 81.571,80.301C81.673,79.938 81.987,79.674 82.362,79.635C82.738,79.596 83.099,79.79 83.274,80.125C83.869,81.264 84.609,82.679 85.214,83.837C85.392,84.177 85.762,84.371 86.143,84.325C86.524,84.278 86.836,84 86.926,83.627C87.178,82.587 87.471,81.373 87.72,80.345C87.809,79.977 88.114,79.701 88.489,79.649C88.864,79.597 89.233,79.78 89.418,80.11C90.063,81.255 90.868,82.685 91.524,83.849C91.713,84.185 92.09,84.368 92.471,84.308C92.851,84.247 93.154,83.957 93.23,83.579C93.434,82.566 93.67,81.395 93.872,80.393C93.947,80.02 94.243,79.732 94.617,79.667C94.992,79.602 95.368,79.774 95.564,80.099C96.258,81.249 97.126,82.688 97.832,83.858C98.031,84.189 98.416,84.36 98.796,84.286C99.175,84.213 99.469,83.91 99.53,83.528C99.689,82.544 99.87,81.418 100.027,80.444C100.088,80.068 100.375,79.767 100.748,79.689C101.122,79.611 101.505,79.772 101.712,80.092C102.453,81.245 103.382,82.689 104.137,83.861C104.347,84.188 104.74,84.348 105.118,84.261C105.497,84.174 105.78,83.859 105.827,83.473C105.942,82.521 106.072,81.442 106.186,80.5C106.232,80.119 106.51,79.806 106.882,79.715C107.255,79.624 107.645,79.773 107.861,80.09C108.65,81.243 109.638,82.687 110.44,83.861C110.661,84.183 111.06,84.331 111.437,84.231C111.815,84.131 112.088,83.804 112.119,83.415C112.193,82.497 112.276,81.467 112.349,80.558C112.38,80.174 112.648,79.849 113.019,79.745C113.391,79.641 113.788,79.779 114.014,80.092C114.848,81.243 115.891,82.684 116.74,83.856C116.97,84.174 117.377,84.311 117.753,84.198C118.129,84.084 118.391,83.745 118.407,83.353C118.443,82.471 118.482,81.493 118.517,80.62C118.533,80.232 118.79,79.895 119.16,79.778C119.53,79.661 119.934,79.789 120.17,80.097C121.166,81.4 122.446,83.074 123.389,84.308C123.616,84.606 124.001,84.737 124.362,84.639C124.724,84.541 124.99,84.234 125.036,83.863C125.163,82.364 125.193,80.216 124.69,77.85Z" style="fill:rgb(141,107,99);fill-rule:nonzero;"/>
    </g>
</svg>
