<?xml version="1.0" encoding="UTF-8" standalone="no"?>
<!DOCTYPE svg PUBLIC "-//W3C//DTD SVG 1.1//EN" "http://www.w3.org/Graphics/SVG/1.1/DTD/svg11.dtd">
<svg width="100%" height="100%" viewBox="0 0 128 128" version="1.1" xmlns="http://www.w3.org/2000/svg" xmlns:xlink="http://www.w3.org/1999/xlink" xml:space="preserve" xmlns:serif="http://www.serif.com/" style="fill-rule:evenodd;clip-rule:evenodd;stroke-linecap:round;stroke-linejoin:round;stroke-miterlimit:10;">
    <path d="M104.52,111.71C104.52,111.71 103.33,67.54 127.04,58.82C127.04,58.82 119.07,66.03 112.9,78.38C106.91,90.36 106.03,96.9 104.52,111.71Z" style="fill:rgb(124,179,66);fill-rule:nonzero;"/>
    <path d="M103.58,115.16C103.58,115.16 94.84,56.8 127.03,44.96C127.03,44.96 114.56,53.34 109.99,67.05C104.41,83.81 103.55,96.89 103.58,115.16Z" style="fill:rgb(124,179,66);fill-rule:nonzero;"/>
    <path d="M8.12,121.09L8.12,130.98L95.26,130.98L95.26,121.09C95.26,105.92 73.87,98.22 52.02,98.25C30.3,98.28 8.12,105.03 8.12,121.09Z" style="fill:rgb(85,139,47);fill-rule:nonzero;"/>
    <path d="M61.17,92.25L43,92.25L43,102.39C43,106.98 46.7,110.69 51.26,110.69L52.91,110.69C57.47,110.69 61.17,106.97 61.17,102.39L61.17,92.25Z" style="fill:#c48e6a;fill-rule:nonzero;"/>
    <path d="M51.97,14.59C27.62,14.59 21.25,33.46 21.25,59.98C21.25,86.49 40.14,94.58 51.97,94.58C63.8,94.58 82.69,86.49 82.69,59.98C82.69,33.46 76.32,14.59 51.97,14.59Z" style="fill:#e0bb95;fill-rule:nonzero;"/>
    <g transform="matrix(1.98326,0,0,1.98326,-158.014,-39.4245)">
        <path d="M94.066,27.778C96.675,25.707 100.329,23.961 105.476,23.859C105.476,23.859 105.721,23.849 105.834,23.849C105.936,23.849 106.191,23.859 106.191,23.859C109.911,23.964 112.963,24.918 115.402,26.243C116.216,26.5 116.997,26.834 117.673,27.221C118.084,27.456 118.457,27.717 118.827,28.012C118.903,28.073 119.184,28.228 119.209,28.321C119.238,28.425 118.994,28.305 118.886,28.296C118.731,28.283 118.574,28.272 118.419,28.252L118.368,28.246C118.971,28.744 119.515,29.258 120,29.772C120.271,29.935 120.539,30.114 120.804,30.314C121.132,30.562 121.401,30.867 121.659,31.184C121.748,31.294 121.84,31.401 121.917,31.52C121.966,31.595 122.148,31.735 122.06,31.745C121.896,31.764 121.698,31.677 121.52,31.62C122.01,32.31 122.39,32.964 122.665,33.536C123.633,35.551 124.199,37.503 124.508,39.288C125.092,40.069 125.567,40.92 125.654,41.756C125.668,41.885 125.453,41.592 125.348,41.517C125.153,41.377 124.947,41.255 124.746,41.124C124.854,42.375 124.844,43.507 124.778,44.475C125.148,44.925 125.697,45.513 125.762,46.106C125.767,46.16 125.663,46.061 125.615,46.037C125.48,45.97 125.357,45.907 125.234,45.818C125.048,45.683 124.867,45.537 124.697,45.38C124.515,47.006 124.206,47.978 124.206,47.978C124.206,47.978 123.992,47.754 123.584,47.437C123.145,47.1 122.665,46.906 122.665,46.906C123.306,49.8 123.851,54.429 122.665,56.431C120.735,54.812 118.108,49.269 117.391,39.774C116.735,40.348 116.068,40.864 115.492,41.108C115.534,41.282 115.575,41.456 115.63,41.619C115.693,41.806 115.767,41.99 115.858,42.164C115.907,42.256 116.121,42.448 116.018,42.432C115.768,42.394 115.388,42.01 115.166,41.873C114.718,41.595 114.247,41.364 113.749,41.208C113.257,41.177 112.766,41.13 112.283,41.047C112.464,41.653 112.611,42.271 112.664,42.901C112.683,43.125 112.706,43.776 112.534,43.933C112.534,43.933 112.37,43.713 112.357,43.694C112.245,43.534 112.131,43.375 112.017,43.217C111.69,42.765 111.364,42.316 110.987,41.903C110.287,41.135 109.563,40.41 108.76,39.79C107.985,39.438 107.209,39.088 106.389,38.836C105.299,38.5 104.178,38.454 103.065,38.251C102.871,38.215 102.678,38.17 102.487,38.118C102.375,38.122 102.263,38.127 102.152,38.133C102.787,39.669 103,41.371 102.51,42.961C102.292,43.667 101.971,44.34 101.551,44.947C101.52,44.992 101.219,45.432 101.139,45.399C100.91,45.303 100.565,44.561 100.421,44.352C99.882,43.567 99.309,42.759 98.629,42.086C97.378,40.845 95.87,40.03 94.322,39.278C94.417,45.039 92.655,52.822 89.002,56.431C88.06,54.319 88.205,49.505 89.002,46.906C89.002,46.906 88.512,47.1 88.084,47.437C87.686,47.754 87.461,47.978 87.461,47.978C87.461,47.978 86.769,45.388 86.759,42.115C86.575,42.277 86.243,42.692 86.034,42.725C85.973,42.735 86.045,42.601 86.052,42.539C86.069,42.39 86.093,42.241 86.117,42.093C86.173,41.748 86.247,41.406 86.344,41.07C86.474,40.618 86.659,40.195 86.876,39.788C87.097,37.721 87.669,35.566 88.878,33.721C88.632,33.702 88.393,33.677 88.167,33.65C87.877,33.614 87.587,33.553 87.313,33.452C87.277,33.439 87.088,33.396 87.076,33.358C87.076,33.358 87.599,33.105 87.679,33.062C88.34,32.711 88.992,32.314 89.634,31.927C89.969,31.724 90.31,31.497 90.647,31.254C91.238,30.503 91.939,29.698 92.772,28.904C92.544,28.723 92.341,28.501 92.171,28.224C91.979,27.91 91.799,27.548 91.755,27.177C91.74,27.051 91.827,26.729 92.041,26.77C92.608,26.879 92.864,27.699 93.479,27.838C93.635,27.873 93.855,27.833 94.066,27.778Z" style="fill:#bfa055;fill-rule:nonzero;"/>
    </g>
    <path d="M42.55,98.7L51.58,110.69L43.06,116.84L39.11,99.09L42.55,98.7ZM60.72,98.66L51.6,110.69L60.2,116.84L64.15,99.05L60.72,98.66Z" style="fill:rgb(174,213,129);fill-rule:nonzero;"/>
    <path d="M61.31,79.13L42.85,79.13C41.79,79.13 41.34,79.84 42.04,80.91C43.02,82.4 46.65,85.27 52.08,85.27C57.51,85.27 61.14,82.4 62.12,80.91C62.82,79.84 62.36,79.13 61.31,79.13Z" style="fill:rgb(68,68,68);fill-rule:nonzero;"/>
    <g>
        <path d="M41.58,61.74C41.58,64.58 39.68,66.89 37.32,66.89C34.97,66.89 33.05,64.59 33.05,61.74C33.05,58.89 34.96,56.59 37.32,56.59C39.68,56.59 41.58,58.89 41.58,61.74M62.57,61.74C62.57,64.58 64.47,66.89 66.84,66.89C69.19,66.89 71.1,64.59 71.1,61.74C71.1,58.89 69.19,56.59 66.84,56.59C64.48,56.59 62.57,58.89 62.57,61.74" style="fill:rgb(68,68,68);fill-rule:nonzero;"/>
    </g>
    <path d="M56.48,71.28C54.91,71.72 53.28,71.94 52.02,71.94C50.76,71.94 49.13,71.72 47.56,71.28C46.89,71.09 46.62,71.73 46.87,72.15C47.37,73.03 49.37,74.79 52.02,74.79C54.67,74.79 56.67,73.02 57.17,72.15C57.42,71.73 57.15,71.09 56.48,71.28Z" style="fill:#c48e6a;fill-rule:nonzero;"/>
    <path d="M103.2,111.86C102.7,111.86 102.27,111.47 102.24,110.97L101.66,103.39C101.64,103.13 101.72,102.88 101.89,102.69C102.06,102.5 102.29,102.38 102.55,102.36L102.56,102.36C103.13,102.36 103.55,102.75 103.59,103.25L104.17,110.83C104.21,111.36 103.81,111.83 103.28,111.87C103.26,111.86 103.22,111.86 103.2,111.86Z" style="fill:#e0bb95;fill-rule:nonzero;"/>
    <path d="M102.62,102.85C102.86,102.85 103.07,103.04 103.09,103.28L103.67,110.86C103.69,111.12 103.5,111.34 103.24,111.36L103.2,111.36C102.96,111.36 102.75,111.17 102.73,110.93L102.15,103.35C102.13,103.09 102.32,102.87 102.58,102.85L102.62,102.85M102.62,101.85L102.51,101.85C101.7,101.91 101.1,102.62 101.16,103.43L101.74,111.01C101.8,111.77 102.44,112.36 103.2,112.36L103.31,112.36C104.12,112.3 104.72,111.59 104.66,110.78L104.08,103.2C104.018,102.443 103.379,101.853 102.62,101.85Z" style="fill:white;fill-rule:nonzero;"/>
    <path d="M108.44,56.32C108.3,56.32 108.16,56.26 108.06,56.15C107.84,55.9 107.34,53.6 107.46,52.57C107.59,51.33 108.34,49.72 109.33,48.58C110.58,47.1 112.96,45.47 115.06,45.23L115.12,45.23C115.3,45.23 115.48,45.33 115.56,45.5C116.1,46.54 116.02,47.99 115.32,49.81C114.65,51.52 113.16,53.03 111.79,54.29C111.08,54.92 109.39,55.87 108.84,56.18L108.71,56.25C108.668,56.28 108.621,56.301 108.57,56.31C108.53,56.32 108.49,56.32 108.44,56.32Z" style="fill:#e0bb95;fill-rule:nonzero;"/>
    <path d="M115.12,45.73C115.69,46.82 115.33,48.38 114.85,49.63C114.24,51.2 112.84,52.65 111.45,53.92C110.66,54.63 108.43,55.83 108.43,55.83C108.42,55.83 107.82,53.72 107.95,52.63C108.07,51.44 108.8,49.94 109.7,48.91C110.89,47.53 113.14,45.96 115.12,45.73M115.13,44.73C115.09,44.73 115.05,44.73 115.01,44.74C112.68,45.02 110.24,46.76 108.96,48.27C107.9,49.49 107.12,51.16 106.98,52.53C106.86,53.5 107.33,56.07 107.7,56.49C107.946,56.77 108.329,56.89 108.69,56.8C108.79,56.77 108.89,56.73 108.97,56.68L109.08,56.62C110.63,55.75 111.62,55.11 112.13,54.67C113.55,53.37 115.09,51.81 115.8,50C116.56,48.03 116.63,46.44 116.02,45.27C115.84,44.93 115.49,44.73 115.13,44.73Z" style="fill:white;fill-rule:nonzero;"/>
    <path d="M101.85,93.85C101.53,93.85 98.96,92.52 98.1,91.8C96.96,90.87 95.83,89.3 95.29,87.91C94.54,86.03 94.34,83.31 95.42,81.76C95.52,81.62 95.67,81.55 95.83,81.55C95.88,81.55 95.92,81.56 95.97,81.57C97.62,82.04 99.09,83.54 100.02,84.72C101.29,86.33 101.87,88.32 102.28,90.07C102.45,90.85 102.4,92.22 102.36,93.18L102.35,93.4C102.33,93.65 102.12,93.85 101.85,93.85Z" style="fill:#e0bb95;fill-rule:nonzero;"/>
    <path d="M95.83,82.05C97.31,82.47 98.68,83.83 99.63,85.03C100.82,86.54 101.39,88.44 101.79,90.18C102,91.16 101.84,93.35 101.85,93.35C101.84,93.35 99.42,92.25 98.42,91.42C97.32,90.52 96.25,89.02 95.75,87.74C95.07,86.03 94.84,83.48 95.83,82.05M95.83,81.05C95.51,81.05 95.2,81.2 95.01,81.48C93.77,83.26 94.04,86.16 94.82,88.11C95.39,89.57 96.58,91.21 97.78,92.2C98.51,92.8 101.27,94.36 101.84,94.36C102.37,94.36 102.81,93.95 102.84,93.42L102.84,93.35L102.85,93.21C102.9,92.14 102.94,90.81 102.76,89.98C102.34,88.16 101.74,86.1 100.41,84.42C99.43,83.18 97.88,81.61 96.1,81.1C96.015,81.062 95.923,81.045 95.83,81.05Z" style="fill:white;fill-rule:nonzero;"/>
    <path d="M104.05,93.86C103.33,93.86 102.49,90.51 102.48,90.22C102.34,88.03 102.79,86.22 103.78,85C104.9,83.62 106.4,82.73 107.8,82.61L107.84,82.61C108.01,82.61 108.17,82.69 108.26,82.84C109.31,84.45 109.29,86.86 108.96,88.44C108.67,89.73 107.95,91.1 107.13,91.94C106.5,92.57 105.11,93.36 104.34,93.78C104.24,93.83 104.15,93.86 104.05,93.86Z" style="fill:#e0bb95;fill-rule:nonzero;"/>
    <path d="M107.83,83.12C108.79,84.6 108.78,86.84 108.45,88.34C108.19,89.47 107.55,90.78 106.75,91.59C106.02,92.32 104.04,93.36 104.04,93.36C104.03,93.36 103.01,91.18 102.97,90.2C102.86,88.48 103.09,86.62 104.16,85.32C105,84.28 106.35,83.24 107.83,83.12M107.83,82.12L107.75,82.12C106.22,82.24 104.58,83.21 103.38,84.69C102.31,86 101.82,87.93 101.97,90.26C101.99,90.76 102.19,91.51 102.58,92.5C103.12,93.88 103.3,94.35 104.04,94.35C104.22,94.35 104.39,94.3 104.53,94.22C105.53,93.68 106.82,92.92 107.46,92.29C108.35,91.39 109.12,89.92 109.43,88.55C109.81,86.79 109.8,84.31 108.67,82.56C108.49,82.29 108.17,82.12 107.83,82.12Z" style="fill:white;fill-rule:nonzero;"/>
    <path d="M102.06,102.47C101.74,102.47 99.44,101.25 98.74,100.66C97.73,99.84 96.73,98.45 96.25,97.23C95.6,95.62 95.37,93.23 96.37,91.78C96.47,91.64 96.62,91.57 96.78,91.57C96.83,91.57 96.87,91.58 96.92,91.59C98.39,92.01 99.68,93.33 100.51,94.37C101.63,95.79 102.14,97.55 102.5,99.09C102.65,99.79 102.61,100.99 102.57,101.84L102.56,102.01C102.55,102.26 102.33,102.47 102.06,102.47Z" style="fill:#e0bb95;fill-rule:nonzero;"/>
    <path d="M96.79,92.06C98.09,92.43 99.29,93.62 100.12,94.67C101.17,96 101.66,97.66 102.01,99.19C102.19,100.05 102.05,101.97 102.06,101.97C102.05,101.97 99.92,101 99.05,100.28C98.08,99.49 97.15,98.18 96.71,97.05C96.12,95.55 95.91,93.31 96.79,92.06M96.79,91.06C96.47,91.06 96.16,91.21 95.97,91.49C94.85,93.09 95.09,95.68 95.79,97.42C96.3,98.73 97.34,100.16 98.43,101.05C99.03,101.55 101.51,102.97 102.07,102.97C102.6,102.971 103.043,102.55 103.07,102.02L103.07,101.95L103.08,101.83C103.12,100.88 103.16,99.71 103,98.97C102.63,97.36 102.09,95.54 100.91,94.04C100.04,92.94 98.66,91.54 97.07,91.09C96.97,91.07 96.88,91.06 96.79,91.06Z" style="fill:white;fill-rule:nonzero;"/>
    <path d="M104.04,102.48C103.31,102.48 102.61,99.37 102.6,99.23C102.47,97.3 102.87,95.69 103.75,94.61C104.74,93.39 106.08,92.59 107.32,92.49L107.36,92.49C107.53,92.49 107.69,92.57 107.78,92.72C108.71,94.15 108.7,96.28 108.4,97.68C108.14,98.83 107.5,100.04 106.78,100.78C106.23,101.33 105,102.03 104.32,102.4C104.24,102.45 104.14,102.48 104.04,102.48Z" style="fill:#e0bb95;fill-rule:nonzero;"/>
    <path d="M107.36,93C108.2,94.29 108.19,96.26 107.91,97.58C107.69,98.57 107.12,99.72 106.42,100.43C105.78,101.07 104.04,101.98 104.04,101.98C104.03,101.98 103.14,100.07 103.1,99.21C103,97.7 103.21,96.07 104.14,94.93C104.88,94.02 106.07,93.1 107.36,93M107.36,92L107.28,92C105.9,92.11 104.44,92.97 103.36,94.3C102.4,95.48 101.96,97.2 102.1,99.27C102.1,99.29 102.68,102.98 104.04,102.98C104.22,102.98 104.39,102.93 104.53,102.85C105.42,102.37 106.56,101.7 107.12,101.14C107.91,100.33 108.6,99.02 108.88,97.8C109.22,96.23 109.21,94.01 108.19,92.45C108.01,92.167 107.696,91.996 107.36,92Z" style="fill:white;fill-rule:nonzero;"/>
    <g>
        <path d="M100.74,83.85C100.36,83.85 97.96,82.19 97.32,81.5C96.35,80.47 95.51,78.82 95.23,77.39C94.83,75.47 95.15,72.78 96.52,71.35C96.62,71.25 96.75,71.2 96.88,71.2C96.94,71.2 97,71.21 97.06,71.23C98.66,71.83 99.85,73.44 100.57,74.68C101.55,76.39 101.75,78.42 101.82,80.18C101.83,80.98 101.52,82.34 101.28,83.3L101.25,83.44C101.2,83.67 100.99,83.85 100.74,83.85C100.75,83.85 100.74,83.85 100.74,83.85Z" style="fill:#e0bb95;fill-rule:nonzero;"/>
        <path d="M96.87,71.69C98.28,72.22 99.4,73.67 100.13,74.92C101.04,76.51 101.25,78.43 101.31,80.19C101.33,81.18 100.73,83.35 100.75,83.35C100.74,83.35 98.52,82.06 97.69,81.16C96.76,80.18 95.98,78.61 95.72,77.29C95.36,75.55 95.6,73.01 96.87,71.69M96.87,70.69C96.6,70.69 96.34,70.8 96.15,71C94.59,72.63 94.33,75.51 94.74,77.5C95.04,79.03 95.91,80.74 96.96,81.85C97.49,82.42 100.1,84.36 100.75,84.36C101.23,84.36 101.65,84.01 101.73,83.54L101.76,83.41C102,82.43 102.32,81.02 102.31,80.18C102.24,78.34 102.03,76.23 101,74.43C100.23,73.11 98.96,71.41 97.23,70.76C97.116,70.713 96.993,70.689 96.87,70.69Z" style="fill:white;fill-rule:nonzero;"/>
    </g>
    <g>
        <path d="M102.94,84C102.8,84 102.66,83.94 102.56,83.83C102.33,83.56 101.86,81.09 101.99,80.2C102.27,78.02 103.06,76.28 104.28,75.17C104.79,74.7 106.63,73.16 108.73,73.15C108.93,73.15 109.11,73.27 109.19,73.44C109.95,75.13 109.47,77.51 108.82,79.04C108.28,80.29 107.3,81.58 106.32,82.34C105.62,82.87 104.23,83.5 103.19,83.93C103.15,83.96 103.1,83.97 103.04,83.99C103.01,84 102.98,84 102.94,84Z" style="fill:#e0bb95;fill-rule:nonzero;"/>
        <path d="M108.73,73.65C109.42,75.18 108.98,77.39 108.36,78.86C107.88,79.96 106.98,81.21 106.01,81.96C105.13,82.63 102.93,83.51 102.94,83.51C102.93,83.51 102.34,81.25 102.49,80.28C102.71,78.56 103.31,76.75 104.63,75.54C105.66,74.57 107.22,73.65 108.73,73.65M108.73,72.65C107.19,72.65 105.4,73.46 103.94,74.8C102.64,75.99 101.79,77.84 101.49,80.14C101.35,81.05 101.81,83.72 102.18,84.15C102.37,84.37 102.65,84.5 102.94,84.5C103,84.5 103.07,84.49 103.14,84.48C103.21,84.47 103.28,84.44 103.34,84.42C104.45,83.96 105.88,83.32 106.62,82.75C107.67,81.94 108.71,80.57 109.28,79.25C110,77.54 110.47,75.07 109.64,73.24C109.482,72.88 109.123,72.647 108.73,72.65Z" style="fill:white;fill-rule:nonzero;"/>
    </g>
    <g>
        <path d="M101.49,74.3C101.06,74.3 98.85,72.33 98.4,71.7C97.6,70.61 97.04,68.91 97.01,67.48C96.95,65.57 97.73,62.97 99.34,61.69C99.43,61.62 99.54,61.58 99.65,61.58C99.72,61.58 99.8,61.6 99.86,61.63C101.38,62.35 102.31,64.02 102.82,65.3C103.52,67.06 103.36,69.07 103.11,70.81C102.98,71.59 102.43,72.91 102.02,73.83L101.96,73.98C101.89,74.16 101.7,74.3 101.49,74.3Z" style="fill:#e0bb95;fill-rule:nonzero;"/>
        <path d="M99.65,62.08C100.98,62.71 101.85,64.2 102.36,65.48C103,67.1 102.87,68.99 102.62,70.73C102.46,71.7 101.48,73.79 101.49,73.8C101.48,73.8 99.48,72.36 98.8,71.41C98.04,70.37 97.53,68.77 97.51,67.47C97.45,65.73 98.14,63.27 99.65,62.08M99.65,61.08C99.43,61.08 99.21,61.15 99.03,61.3C97.21,62.74 96.45,65.52 96.51,67.5C96.54,69.04 97.12,70.81 98,72C98.34,72.48 100.75,74.8 101.49,74.8C101.91,74.8 102.28,74.54 102.43,74.15L102.48,74.03C102.9,73.08 103.47,71.73 103.61,70.89C103.87,69.07 104.03,66.98 103.29,65.11C102.74,63.75 101.74,61.96 100.07,61.17C99.938,61.11 99.795,61.079 99.65,61.08Z" style="fill:white;fill-rule:nonzero;"/>
    </g>
    <g>
        <path d="M104.22,74.58C104.06,74.58 103.91,74.5 103.81,74.37C103.59,74.07 103.58,71.53 103.86,70.71C104.53,68.6 105.62,66.96 107.03,65.98C108.47,64.96 110.14,64.35 111.48,64.35C111.59,64.35 111.71,64.35 111.82,64.36C112.03,64.38 112.21,64.52 112.27,64.73C112.74,66.44 111.88,68.67 110.92,70.19C110.16,71.36 108.96,72.55 107.84,73.22C106.95,73.74 105.14,74.33 104.4,74.55C104.4,74.55 104.38,74.56 104.37,74.56C104.321,74.572 104.271,74.579 104.22,74.58Z" style="fill:#e0bb95;fill-rule:nonzero;"/>
        <path d="M111.49,64.85C111.59,64.85 111.69,64.85 111.79,64.86C112.21,66.4 111.38,68.53 110.5,69.92C109.83,70.96 108.69,72.13 107.59,72.79C106.58,73.38 104.22,74.08 104.22,74.09C104.21,74.09 104.02,71.82 104.34,70.88C104.87,69.21 105.79,67.47 107.32,66.4C108.46,65.58 110.05,64.85 111.49,64.85M111.49,63.85C109.41,63.85 107.48,65.05 106.75,65.57C105.24,66.63 104.1,68.31 103.39,70.57C103.15,71.28 103.01,74.11 103.41,74.67C103.662,75.024 104.117,75.174 104.53,75.04C105.51,74.74 107.21,74.18 108.1,73.66C109.28,72.95 110.55,71.7 111.34,70.48C112.36,68.86 113.26,66.48 112.75,64.61C112.639,64.203 112.281,63.909 111.86,63.88C111.74,63.85 111.62,63.85 111.49,63.85Z" style="fill:white;fill-rule:nonzero;"/>
    </g>
    <g>
        <path d="M104.01,64.73C103.54,64.73 101.63,62.56 101.3,61.93C100.68,60.8 100.42,59.09 100.65,57.69C100.93,55.85 102.17,53.4 104,52.32C104.153,52.225 104.347,52.225 104.5,52.32C105.92,53.15 106.57,54.85 106.86,56.14C107.25,57.9 106.73,59.84 106.17,61.51C105.9,62.26 105.11,63.49 104.53,64.36L104.44,64.49C104.37,64.63 104.2,64.73 104.01,64.73C104.02,64.73 104.02,64.73 104.01,64.73Z" style="fill:#e0bb95;fill-rule:nonzero;"/>
        <path d="M104.26,52.75C105.48,53.46 106.09,54.97 106.38,56.24C106.74,57.85 106.26,59.68 105.7,61.34C105.37,62.27 104,64.23 104.01,64.23C104,64.23 102.25,62.67 101.74,61.69C101.16,60.62 100.94,59.03 101.14,57.76C101.4,56.09 102.53,53.77 104.26,52.75M104.26,51.75C104.08,51.75 103.91,51.8 103.75,51.89C101.69,53.11 100.45,55.72 100.16,57.62C99.91,59.13 100.19,60.93 100.87,62.17C101.05,62.52 103.15,65.23 104.02,65.23C104.38,65.23 104.71,65.04 104.88,64.74L104.96,64.62C105.55,63.73 106.37,62.46 106.65,61.67C107.24,59.92 107.77,57.9 107.36,56.02C107.05,54.63 106.34,52.79 104.77,51.88C104.61,51.79 104.43,51.75 104.26,51.75Z" style="fill:white;fill-rule:nonzero;"/>
    </g>
    <g>
        <path d="M106.71,65.14C106.54,65.14 106.37,65.05 106.28,64.89C106.06,64.51 106.59,61.98 106.97,61.28C108.03,59.27 109.37,57.82 110.97,56.98C111.66,56.61 113.47,55.76 115.29,55.76C115.55,55.76 115.8,55.78 116.04,55.81C116.27,55.84 116.44,56.03 116.46,56.25C116.63,57.93 115.38,60.02 114.14,61.41C113.17,62.48 111.76,63.53 110.53,64.09C109.55,64.53 107.63,64.95 106.85,65.11L106.84,65.11C106.8,65.14 106.75,65.14 106.71,65.14Z" style="fill:#e0bb95;fill-rule:nonzero;"/>
        <path d="M115.29,56.26C115.52,56.26 115.75,56.28 115.97,56.31C116.12,57.82 114.91,59.81 113.78,61.09C112.92,62.05 111.57,63.09 110.34,63.64C109.22,64.14 106.72,64.64 106.72,64.64C106.71,64.64 106.93,62.42 107.42,61.52C108.25,59.94 109.48,58.33 111.22,57.42C112.38,56.8 113.92,56.26 115.29,56.26M115.29,55.26C113.36,55.26 111.46,56.16 110.74,56.54C109.05,57.43 107.63,58.95 106.53,61.06C106.23,61.6 105.47,64.49 105.86,65.15C106.04,65.46 106.37,65.64 106.72,65.64C106.79,65.64 106.87,65.63 106.94,65.61C107.98,65.39 109.78,64.98 110.75,64.55C112.04,63.96 113.52,62.87 114.52,61.75C115.83,60.27 117.15,58.04 116.97,56.2C116.92,55.75 116.58,55.38 116.13,55.31C115.85,55.28 115.57,55.26 115.29,55.26Z" style="fill:white;fill-rule:nonzero;"/>
    </g>
    <g>
        <path d="M101.86,107.61C103.36,107.98 104.32,109.04 104.99,110.36C106.66,110.06 109.54,109.76 110.38,109.78C111.37,109.81 112.68,109.92 112.9,111.95C113.04,113.27 112.54,114.36 110.85,114.52C110.22,114.58 109.57,114.62 108.93,114.65L109.16,115.39C109.75,115.38 110.28,115.36 110.69,115.36C112.4,115.34 113.37,116.25 113.37,118.06C113.37,119.65 112,120.4 111,120.46C110.47,120.49 108.99,120.41 107.53,120.27L107.38,120.58L107.32,120.67C108.24,120.81 109.12,120.96 109.74,121.07C111.41,121.37 112.21,122.48 112.02,123.8C111.79,125.4 110.36,125.84 109.37,125.81C108.63,125.79 106.03,125.38 104.29,125.01L103.95,125.5C104.07,125.52 104.2,125.54 104.34,125.56C104.36,125.56 104.38,125.57 104.41,125.57L104.76,125.63C104.79,125.63 104.81,125.64 104.84,125.64C104.98,125.66 105.12,125.69 105.26,125.71L105.28,125.71C105.43,125.73 105.58,125.76 105.73,125.79C105.76,125.79 105.79,125.8 105.81,125.8L106.16,125.86C106.21,125.87 106.25,125.88 106.3,125.88C106.4,125.9 106.5,125.92 106.59,125.93L106.74,125.96C106.84,125.98 106.93,126 107.02,126.01L107.16,126.04C107.29,126.07 107.43,126.09 107.55,126.12C109.08,126.44 109.66,127.13 109.47,128.34C109.21,130.04 107.5,130.42 106.59,130.33C105.68,130.25 102.62,129.62 101.62,129.18L101.44,129.09L101.09,129.59C96.59,129.29 93.36,127.41 93.36,127.41C90.72,125.93 90.28,124.79 89.84,122.98C89.34,120.92 89.46,118.48 89.48,118.1C89.64,114 90.55,111.35 93.86,109.15C94.66,108.62 95.83,107.69 98.42,107.39C99.42,107.29 100.86,107.36 101.86,107.61Z" style="fill:#e0bb95;fill-rule:nonzero;"/>
        <path d="M105.6,114.42C105.6,114.42 105.64,112.36 104.99,110.36L105.71,110.23C105.71,110.23 106.22,111.65 106.4,113.75C106.43,114.09 106.44,114.4 106.44,114.7L107.08,114.66L111.37,114.42C111.37,114.42 111.05,114.48 111.05,114.96C111.05,115.16 111.17,115.29 111.26,115.37C111.08,115.35 110.88,115.33 110.68,115.34L106.42,115.45C106.41,115.57 106.41,115.69 106.4,115.82C106.3,117.56 105.89,119.23 104.92,119.87C108.14,120.25 111,120.44 111,120.44C110.44,120.67 110.68,121.35 110.68,121.35C108.51,120.76 103.25,120.45 103.25,120.45C101.03,120.26 100.73,121.76 100.73,121.76C100.32,123.57 102.29,124.4 102.29,124.4C102.55,124.55 104.9,125.02 106.58,125.34L108.26,125.65L108.73,125.74C108.68,125.73 108.48,125.72 108.4,126.05C108.36,126.21 108.4,126.32 108.43,126.39C108.18,126.28 107.88,126.18 107.53,126.11C106.74,125.95 104.35,125.56 104.17,125.53L103.57,125.45C101.59,125.19 101.11,125.54 101.11,125.54C100.01,126.12 100.33,127.52 100.33,127.52C100.57,128.87 102.06,129.29 102.06,129.29C102.63,129.46 105.65,130.19 105.65,130.19L101.08,129.59C100.76,129.49 100.64,129.34 100.46,129.2C98.85,127.88 99.53,126.09 99.53,126.09C99.78,125.4 100.3,125.09 100.3,125.09C100.61,124.9 100.97,124.8 101.34,124.76C99.47,123.77 99.77,121.77 99.77,121.77C100.01,120.54 100.9,120.02 101.6,119.8C101.54,119.75 101.47,119.7 101.41,119.64C101.41,119.64 100.21,118.85 100.65,115.46C100.8,114.32 100.78,114.16 100.66,113.44C100.66,113.44 100.23,111.9 98.95,112.39C98.95,112.39 98.52,112.5 97.85,113.03C97.85,113.03 97.31,113.45 97.32,112.79C97.32,112.59 97.46,112.23 97.73,111.92C97.73,111.92 98.01,111.59 98.7,111.4C98.7,111.4 100.49,110.69 101.38,112.48C101.85,113.42 101.76,114.04 101.61,115C101.61,115 101.33,118.03 102.12,119C102.12,119 102.9,119.89 104.15,119.34C104.16,119.36 105.86,118.42 105.6,114.42Z" style="fill:#c48e6a;fill-rule:nonzero;"/>
    </g>
    <path d="M110.89,120.45L111,120.45C111.99,120.39 113.36,119.64 113.37,118.05C113.37,116.31 112.48,115.41 110.89,115.36L110.82,114.99L111.34,114.96C112.22,114.75 112.68,114.22 112.84,113.54C112.9,113.44 112.92,112.3 112.91,112.17C112.83,111.1 112.44,110.6 112.44,110.6C112.04,109.58 109.58,109.81 109.58,109.81L105.09,110.41C104.93,110.36 104.77,110.31 104.62,110.26C103.97,109.24 103.1,108.45 101.85,108.14C100.85,107.9 99.42,107.82 98.41,107.94C95.82,108.24 94.65,109.17 93.85,109.7C93.68,109.81 93.54,109.93 93.39,110.05C94.3,111.7 95.68,113.43 97.37,113.14C97.48,112.89 97.66,112.63 97.74,112.54C98.1,112.15 98.6,111.87 99.13,111.81C99.96,111.71 100.82,112.12 101.27,112.82C101.97,113.9 101.16,115.33 101.11,116.62C101.09,117.23 101.59,117.82 101.71,118.42C101.82,118.99 102.04,119.59 102.53,119.9C102.56,119.92 102.61,119.92 102.64,119.94C102.61,120.04 102.54,120.24 102.46,120.5C102.14,120.52 101.83,120.58 101.56,120.73C100.94,121.07 100.62,121.82 100.7,122.51C100.76,123.02 101.03,123.49 101.41,123.84C101.17,124.62 100.97,125.32 100.87,125.73C100.18,126.26 100.11,127.39 100.59,128.14C101.09,128.93 102.01,129.36 102.92,129.59C103.83,129.82 104.77,129.9 105.66,130.2C105.61,130.19 105.57,130.19 105.52,130.18C105.97,130.26 106.35,130.32 106.59,130.34C107.49,130.42 109.21,130.04 109.47,128.35C109.62,127.38 109.26,126.75 108.33,126.37C108.26,126.12 108.14,125.84 108.07,125.63C108.24,125.66 108.42,125.7 108.59,125.73C108.92,125.77 109.2,125.8 109.37,125.8C110.36,125.83 111.8,125.39 112.02,123.79C112.17,122.73 111.68,121.82 110.62,121.34C110.23,121.26 109.83,121.2 109.44,121.13C109.6,120.87 109.76,120.61 109.92,120.36L110.89,120.45Z" style="fill:#e0bb95;fill-rule:nonzero;"/>
    <path d="M111.33,115.39C111.19,115.21 111.16,114.92 111.16,114.92L111.13,114.92C110.77,114.89 106.46,114.71 106.46,114.71C106.44,113.32 105.87,111.66 105.48,110.33C105.22,110.3 104.91,110.33 104.64,110.24C104.98,111.55 105.61,113.08 105.65,114.42C105.68,115.32 105.62,116.21 105.43,117.09C105.28,117.8 105.04,118.52 104.52,119.03C104,119.54 103.15,119.75 102.54,119.36C102.05,119.05 101.84,118.45 101.72,117.88C101.6,117.28 101.55,116.67 101.58,116.07C101.63,114.78 101.98,113.37 101.29,112.29C100.84,111.59 99.97,111.18 99.15,111.28C98.62,111.34 98.12,111.62 97.76,112.01C97.59,112.2 96.93,113.14 97.61,113.16C97.8,113.16 97.97,113.03 98.12,112.91C98.58,112.54 99.16,112.2 99.73,112.37C100.43,112.58 100.7,113.43 100.73,114.16C100.77,115.16 100.56,116.15 100.56,117.14C100.56,118.14 100.83,119.21 101.6,119.84C100.56,120.07 99.79,121.1 99.76,122.17C99.73,123.24 100.4,124.26 101.33,124.78C100.46,124.8 99.7,125.5 99.47,126.34C99.24,127.18 99.5,128.1 100.03,128.79C100.26,129.09 100.54,129.35 100.88,129.51C100.95,129.54 101.03,129.56 101.11,129.58L101.43,129.12L101.32,129.27L101.1,129.58C101.33,129.65 101.58,129.69 101.82,129.73C101.96,129.75 102.1,129.77 102.25,129.78C103.34,129.92 104.43,130.06 105.52,130.19C105.57,130.2 105.61,130.2 105.66,130.21C104.77,129.91 103.83,129.83 102.92,129.6C102.01,129.37 101.1,128.94 100.59,128.15C100.09,127.36 100.18,126.15 100.97,125.66C101.45,125.36 102.04,125.38 102.6,125.42C103.49,125.48 104.37,125.59 105.25,125.73C105.49,125.77 105.73,125.81 105.96,125.85L106.14,125.88C106.19,125.89 106.23,125.9 106.28,125.9C106.38,125.92 106.48,125.94 106.57,125.95L106.72,125.98C106.82,126 106.91,126.02 107,126.03L107.14,126.06C107.27,126.09 107.41,126.11 107.53,126.14C107.8,126.2 108.02,126.27 108.23,126.34C108.29,126.36 108.36,126.37 108.42,126.39C108.28,126.16 108.45,125.81 108.71,125.77L108.57,125.74L103.68,124.78C103.04,124.65 102.38,124.52 101.83,124.19C101.23,123.83 100.77,123.21 100.68,122.51C100.59,121.81 100.92,121.06 101.54,120.73C102.01,120.47 102.57,120.48 103.11,120.49C105.62,120.57 108.13,120.86 110.6,121.35C110.62,121.35 110.65,121.36 110.67,121.36C110.51,121.05 110.67,120.61 110.99,120.47C110.95,120.47 110.91,120.46 110.88,120.46C108.9,120.28 106.92,120.09 104.94,119.91C106.15,118.85 106.33,117.06 106.42,115.46C106.42,115.45 111.13,115.39 111.33,115.39Z" style="fill:#c48e6a;fill-rule:nonzero;"/>
    <g>
        <path d="M23.29,47.13C23.29,47.13 22.95,94.88 52.27,94.88M81.63,47.13C81.63,47.13 81.97,94.88 52.65,94.88" style="fill:none;fill-rule:nonzero;stroke:rgb(141,110,99);stroke-width:2px;"/>
        <path d="M53.11,95.73C53.11,95.73 52.13,98.68 49.68,99.96C47.23,101.24 44.8,101.42 44.25,100.37C43.7,99.32 45.23,97.42 47.68,96.14C50.13,94.86 53.11,95.73 53.11,95.73Z" style="fill:none;fill-rule:nonzero;stroke:rgb(141,110,99);stroke-width:2.76px;"/>
        <path d="M52.27,95.43C52.27,95.43 53.49,98.5 55.94,99.78C58.39,101.06 60.58,101.12 61.13,100.07C61.68,99.02 60.15,97.12 57.7,95.84C55.25,94.56 52.27,95.43 52.27,95.43Z" style="fill:none;fill-rule:nonzero;stroke:rgb(141,110,99);stroke-width:2.76px;"/>
        <path d="M103.97,27.42C103.97,39.8 80.7,50.78 51.99,50.78C23.28,50.78 0,39.79 0,27.42C0,15.05 23.27,6.27 51.98,6.27C80.69,6.27 103.97,15.04 103.97,27.42Z" style="fill:rgb(255,238,88);fill-rule:nonzero;"/>
        <path d="M28.3,25.55L34.68,4.49C35.42,2.05 37.78,0.37 40.46,0.37L63.43,0.37C66.11,0.37 68.46,2.04 69.21,4.47L75.67,25.55C75.67,25.55 75.67,31.37 51.98,31.37C28.29,31.37 28.3,25.55 28.3,25.55Z" style="fill:rgb(253,216,53);fill-rule:nonzero;"/>
    </g>
</svg>
