<?xml version="1.0" encoding="UTF-8" standalone="no"?>
<!DOCTYPE svg PUBLIC "-//W3C//DTD SVG 1.1//EN" "http://www.w3.org/Graphics/SVG/1.1/DTD/svg11.dtd">
<svg width="100%" height="100%" viewBox="0 0 128 128" version="1.1" xmlns="http://www.w3.org/2000/svg" xmlns:xlink="http://www.w3.org/1999/xlink" xml:space="preserve" xmlns:serif="http://www.serif.com/" style="fill-rule:evenodd;clip-rule:evenodd;stroke-linejoin:round;stroke-miterlimit:2;">
    <path d="M116.74,49.62C114.84,25.06 98.93,5.74 64,7.42C28.93,5.89 13.27,25.06 11.36,49.62C10.12,65.53 9.03,127.97 9.03,127.97L118.98,127.97C118.97,127.98 117.97,65.54 116.74,49.62Z" style="fill:rgb(211,211,211);fill-rule:nonzero;"/>
    <path d="M20.43,118.09L20.43,127.98L107.57,127.98L107.57,118.09C107.57,102.92 86.18,95.22 64.33,95.25C42.61,95.28 20.43,102.03 20.43,118.09Z" style="fill:rgb(245,245,245);fill-rule:nonzero;"/>
    <path d="M73.06,89.82L54.92,89.82L54.92,102.42L49.82,112.13C49.66,112.43 49.88,112.79 50.22,112.79L77.76,112.79C78.1,112.79 78.32,112.43 78.16,112.13L73.06,102.42L73.06,89.82Z" style="fill:#99674f;fill-rule:nonzero;"/>
    <path d="M64,14.28C39.67,14.28 33.3,33.14 33.3,59.64C33.3,86.14 52.17,94.22 64,94.22C75.83,94.22 94.7,86.14 94.7,59.64C94.7,33.14 88.33,14.28 64,14.28Z" style="fill:#bf8f68;fill-rule:nonzero;"/>
    <g transform="matrix(1.98326,0,0,1.98326,-146.089,-40.3382)">
        <path d="M94.066,27.778C96.675,25.707 100.329,23.961 105.476,23.859C105.476,23.859 105.721,23.849 105.834,23.849C105.936,23.849 106.191,23.859 106.191,23.859C109.911,23.964 112.963,24.918 115.402,26.243C116.216,26.5 116.997,26.834 117.673,27.221C118.084,27.456 118.457,27.717 118.827,28.012C118.903,28.073 119.184,28.228 119.209,28.321C119.238,28.425 118.994,28.305 118.886,28.296C118.731,28.283 118.574,28.272 118.419,28.252L118.368,28.246C118.971,28.744 119.515,29.258 120,29.772C120.271,29.935 120.539,30.114 120.804,30.314C121.132,30.562 121.401,30.867 121.659,31.184C121.748,31.294 121.84,31.401 121.917,31.52C121.966,31.595 122.148,31.735 122.06,31.745C121.896,31.764 121.698,31.677 121.52,31.62C122.01,32.31 122.39,32.964 122.665,33.536C123.633,35.551 124.199,37.503 124.508,39.288C125.092,40.069 125.567,40.92 125.654,41.756C125.668,41.885 125.453,41.592 125.348,41.517C125.153,41.377 124.947,41.255 124.746,41.124C124.854,42.375 124.844,43.507 124.778,44.475C125.148,44.925 125.697,45.513 125.762,46.106C125.767,46.16 125.663,46.061 125.615,46.037C125.48,45.97 125.357,45.907 125.234,45.818C125.048,45.683 124.867,45.537 124.697,45.38C124.515,47.006 124.206,47.978 124.206,47.978C124.206,47.978 123.992,47.754 123.584,47.437C123.145,47.1 122.665,46.906 122.665,46.906C123.306,49.8 123.851,54.429 122.665,56.431C120.735,54.812 118.108,49.269 117.391,39.774C116.735,40.348 116.068,40.864 115.492,41.108C115.534,41.282 115.575,41.456 115.63,41.619C115.693,41.806 115.767,41.99 115.858,42.164C115.907,42.256 116.121,42.448 116.018,42.432C115.768,42.394 115.388,42.01 115.166,41.873C114.718,41.595 114.247,41.364 113.749,41.208C113.257,41.177 112.766,41.13 112.283,41.047C112.464,41.653 112.611,42.271 112.664,42.901C112.683,43.125 112.706,43.776 112.534,43.933C112.534,43.933 112.37,43.713 112.357,43.694C112.245,43.534 112.131,43.375 112.017,43.217C111.69,42.765 111.364,42.316 110.987,41.903C110.287,41.135 109.563,40.41 108.76,39.79C107.985,39.438 107.209,39.088 106.389,38.836C105.299,38.5 104.178,38.454 103.065,38.251C102.871,38.215 102.678,38.17 102.487,38.118C102.375,38.122 102.263,38.127 102.152,38.133C102.787,39.669 103,41.371 102.51,42.961C102.292,43.667 101.971,44.34 101.551,44.947C101.52,44.992 101.219,45.432 101.139,45.399C100.91,45.303 100.565,44.561 100.421,44.352C99.882,43.567 99.309,42.759 98.629,42.086C97.378,40.845 95.87,40.03 94.322,39.278C94.417,45.039 92.655,52.822 89.002,56.431C88.06,54.319 88.205,49.505 89.002,46.906C89.002,46.906 88.512,47.1 88.084,47.437C87.686,47.754 87.461,47.978 87.461,47.978C87.461,47.978 86.769,45.388 86.759,42.115C86.575,42.277 86.243,42.692 86.034,42.725C85.973,42.735 86.045,42.601 86.052,42.539C86.069,42.39 86.093,42.241 86.117,42.093C86.173,41.748 86.247,41.406 86.344,41.07C86.474,40.618 86.659,40.195 86.876,39.788C87.097,37.721 87.669,35.566 88.878,33.721C88.632,33.702 88.393,33.677 88.167,33.65C87.877,33.614 87.587,33.553 87.313,33.452C87.277,33.439 87.088,33.396 87.076,33.358C87.076,33.358 87.599,33.105 87.679,33.062C88.34,32.711 88.992,32.314 89.634,31.927C89.969,31.724 90.31,31.497 90.647,31.254C91.238,30.503 91.939,29.698 92.772,28.904C92.544,28.723 92.341,28.501 92.171,28.224C91.979,27.91 91.799,27.548 91.755,27.177C91.74,27.051 91.827,26.729 92.041,26.77C92.608,26.879 92.864,27.699 93.479,27.838C93.635,27.873 93.855,27.833 94.066,27.778Z" style="fill:#6d4c41;fill-rule:nonzero;"/>
    </g>
    <path d="M53.45,60.73C53.45,63.57 51.55,65.88 49.19,65.88C46.84,65.88 44.92,63.58 44.92,60.73C44.92,57.88 46.83,55.58 49.19,55.58C51.55,55.57 53.45,57.88 53.45,60.73M74.44,60.73C74.44,63.57 76.34,65.88 78.71,65.88C81.06,65.88 82.97,63.58 82.97,60.73C82.97,57.88 81.06,55.58 78.71,55.58C76.35,55.57 74.44,57.88 74.44,60.73" style="fill:rgb(68,68,68);fill-rule:nonzero;"/>
    <path d="M73.23,78.11L54.77,78.11C53.71,78.11 53.26,78.82 53.96,79.89C54.94,81.38 58.57,84.25 64,84.25C69.43,84.25 73.06,81.38 74.04,79.89C74.74,78.82 74.29,78.11 73.23,78.11Z" style="fill:rgb(81,63,53);fill-rule:nonzero;"/>
    <path d="M68.46,70.27C66.89,70.71 65.26,70.93 64,70.93C62.74,70.93 61.11,70.71 59.54,70.27C58.87,70.08 58.6,70.72 58.85,71.14C59.35,72.02 61.35,73.78 64,73.78C66.65,73.78 68.65,72.01 69.15,71.14C69.39,70.71 69.13,70.08 68.46,70.27Z" style="fill:#99674f;fill-rule:nonzero;"/>
    <path d="M64.42,22.62C74.14,22.62 85.39,19.92 94.7,17.13C93.25,15.58 92.12,14.64 90.8,13.57C71.23,19.38 55.91,19.1 37.21,13.57C35.51,14.67 34.09,16.15 33.31,17.13C42.8,20.05 54.48,22.62 64.42,22.62Z" style="fill:rgb(245,245,245);fill-rule:nonzero;"/>
</svg>
