<?xml version="1.0" encoding="UTF-8" standalone="no"?>
<!DOCTYPE svg PUBLIC "-//W3C//DTD SVG 1.1//EN" "http://www.w3.org/Graphics/SVG/1.1/DTD/svg11.dtd">
<svg width="100%" height="100%" viewBox="0 0 128 128" version="1.1" xmlns="http://www.w3.org/2000/svg" xmlns:xlink="http://www.w3.org/1999/xlink" xml:space="preserve" xmlns:serif="http://www.serif.com/" style="fill-rule:evenodd;clip-rule:evenodd;stroke-linejoin:round;stroke-miterlimit:2;">
    <g>
        <path d="M123,89.33L5,89.33C2.25,89.33 0,87.08 0,84.33L0,5C0,2.25 2.25,0 5,0L123,0C125.75,0 128,2.25 128,5L128,84.33C128,87.08 125.75,89.33 123,89.33Z" style="fill:rgb(33,33,33);fill-rule:nonzero;"/>
        <path d="M120.851,84.25L7.15,84.25C4.5,84.25 2.331,82.196 2.331,79.686L2.331,7.276C2.331,4.766 4.5,2.712 7.149,2.712L120.851,2.712C123.501,2.712 125.669,4.766 125.669,7.276L125.669,79.686C125.669,82.196 123.5,84.25 120.851,84.25Z" style="fill:rgb(24,89,135);fill-rule:nonzero;"/>
        <g transform="matrix(0.558494,0,0,0.558494,1.62585,7.11126)">
            <text x="8.276px" y="16.266px" style="font-family:'ComicNeue-Bold', 'Comic Neue';font-weight:700;font-size:10.743px;fill:white;stroke:white;stroke-width:0.9px;">pub struct Blobmoji {</text>
            <text x="12.101px" y="27.905px" style="font-family:'ComicNeue-Bold', 'Comic Neue';font-weight:700;font-size:10.743px;fill:white;stroke:white;stroke-width:0.9px;">build_path: PathBuf<tspan x="101.215px " y="27.905px ">,</tspan></text>
            <text x="12.101px" y="39.543px" style="font-family:'ComicNeue-Bold', 'Comic Neue';font-weight:700;font-size:10.743px;fill:white;stroke:white;stroke-width:0.9px;">hashes: FileHashes,</text>
            <text x="12.101px" y="51.182px" style="font-family:'ComicNeue-Bold', 'Comic Neue';font-weight:700;font-size:10.743px;fill:white;stroke:white;stroke-width:0.9px;">aliases: Option&lt;PathBuf&gt;,</text>
            <text x="12.101px" y="62.82px" style="font-family:'ComicNeue-Bold', 'Comic Neue';font-weight:700;font-size:10.743px;fill:white;stroke:white;stroke-width:0.9px;">r<tspan x="16.108px " y="62.82px ">e</tspan>nder_only: bool,</text>
            <text x="12.101px" y="74.459px" style="font-family:'ComicNeue-Bold', 'Comic Neue';font-weight:700;font-size:10.743px;fill:white;stroke:white;stroke-width:0.9px;">def<tspan x="26.217px " y="74.459px ">a</tspan>ult_f<tspan x="52.076px " y="74.459px ">o</tspan>nt: String,</text>
            <text x="12.101px" y="86.097px" style="font-family:'ComicNeue-Bold', 'Comic Neue';font-weight:700;font-size:10.743px;fill:white;stroke:white;stroke-width:0.9px;">f<tspan x="15.334px " y="86.097px ">o</tspan>nt<tspan x="29.988px " y="86.097px ">d</tspan>b: usv<tspan x="61.799px " y="86.097px ">g</tspan>::f<tspan x="75.367px " y="86.097px ">o</tspan>nt<tspan x="90.021px " y="86.097px ">d</tspan>b::Dat<tspan x="121.133px " y="86.097px ">a</tspan>base,</text>
            <text x="12.101px" y="97.736px" style="font-family:'ComicNeue-Bold', 'Comic Neue';font-weight:700;font-size:10.743px;fill:white;stroke:white;stroke-width:0.9px;">wav<tspan x="28.602px " y="97.736px ">e</tspan>flag: bool,</text>
            <text x="12.101px" y="109.374px" style="font-family:'ComicNeue-Bold', 'Comic Neue';font-weight:700;font-size:10.743px;fill:white;stroke:white;stroke-width:0.9px;">r<tspan x="16.108px " y="109.374px ">e</tspan>duce_colors: Option&lt;Bo<tspan x="129.674px " y="109.374px ">x</tspan>&lt;ReduceColors&gt;&gt;,</text>
            <text x="8.276px" y="121.012px" style="font-family:'ComicNeue-Bold', 'Comic Neue';font-weight:700;font-size:10.743px;fill:white;stroke:white;stroke-width:0.9px;">}</text>
        </g>
    </g>
    <path d="M28.31,113.53C21.8,91.19 21.8,45.39 21.8,45.39L105.8,45.06C105.8,45.06 105.8,86.55 100.92,113.25L28.31,113.53Z" style="fill:#6d4c41;fill-rule:nonzero;"/>
    <path d="M20.23,118.09L20.23,127.98L107.37,127.98L107.37,118.09C107.37,102.92 85.98,95.22 64.13,95.25C42.41,95.28 20.23,102.03 20.23,118.09Z" style="fill:rgb(101,31,255);fill-rule:nonzero;"/>
    <ellipse cx="63.8" cy="46.11" rx="42" ry="39.5" style="fill:#6d4c41;"/>
    <path d="M72.89,90.25L54.72,90.25L54.72,99.84C54.72,104.18 58.42,107.7 62.98,107.7L64.63,107.7C69.19,107.7 72.89,104.18 72.89,99.84L72.89,90.25Z" style="fill:#99674f;fill-rule:nonzero;"/>
    <path d="M63.8,13.57C39.45,13.57 33.08,32.44 33.08,58.96C33.08,85.47 51.97,93.56 63.8,93.56C75.63,93.56 94.52,85.47 94.52,58.96C94.52,32.45 88.15,13.57 63.8,13.57Z" style="fill:#bf8f68;fill-rule:nonzero;"/>
    <path d="M73.13,78.11L54.67,78.11C53.61,78.11 53.16,78.82 53.86,79.89C54.84,81.38 58.47,84.25 63.9,84.25C69.33,84.25 72.96,81.38 73.94,79.89C74.65,78.82 74.19,78.11 73.13,78.11Z" style="fill:rgb(68,68,68);fill-rule:nonzero;"/>
    <g>
        <path d="M53.41,60.73C53.41,63.57 51.51,65.88 49.15,65.88C46.8,65.88 44.88,63.58 44.88,60.73C44.88,57.88 46.79,55.58 49.15,55.58C51.5,55.57 53.41,57.88 53.41,60.73M74.4,60.73C74.4,63.57 76.3,65.88 78.67,65.88C81.02,65.88 82.93,63.58 82.93,60.73C82.93,57.88 81.02,55.58 78.67,55.58C76.3,55.57 74.4,57.88 74.4,60.73" style="fill:rgb(68,68,68);fill-rule:nonzero;"/>
    </g>
    <path d="M68.31,70.27C66.74,70.71 65.11,70.93 63.85,70.93C62.59,70.93 60.96,70.71 59.39,70.27C58.72,70.08 58.45,70.72 58.7,71.14C59.2,72.02 61.2,73.78 63.85,73.78C66.5,73.78 68.5,72.01 69,71.14C69.25,70.71 68.98,70.08 68.31,70.27Z" style="fill:#99674f;fill-rule:nonzero;"/>
    <path d="M72.74,34.43C69.51,37.54 53.45,52.01 31.32,55.78L31.32,26.11C31.32,26.11 40.87,7.16 63.79,7.16C86.71,7.16 96.26,26.59 96.26,26.59L96.26,55.78C96.26,55.78 81.24,50.02 73.7,34.61C73.602,34.398 73.389,34.262 73.156,34.262C73.001,34.262 72.852,34.322 72.74,34.43Z" style="fill:#6d4c41;fill-rule:nonzero;"/>
    <ellipse cx="64.4" cy="84.29" rx="43.38" ry="39.29" style="fill:url(#_Radial1);"/>
    <path d="M17.4,109.03C17.4,109.03 16.88,108.32 15.19,108.24C15.05,108.03 14.91,107.84 14.78,107.66C14.52,107.31 13.86,105.8 11.35,107.17C10.54,107.61 10.26,108.01 10.39,108.58C10.29,108.7 10.11,108.84 9.83,108.73C8.96,107.76 7.88,107.55 6.63,108.53C5.21,109.64 5.21,110.43 5.47,111.22L5.46,111.22C5.46,111.22 5.4,111.77 4.99,111.72C4.56,111.35 4.04,111.35 3.23,111.94C1.04,113.52 1.95,115.02 2.31,115.9C2.26,115.98 2.18,116.04 2.04,116.03C1.76,115.88 1.39,115.88 0.9,116.16C-0.26,116.82 -0.09,119.01 0.24,119.73C0.6,120.51 2.59,123.25 3.28,124.02C3.97,124.79 5.36,124.73 6.05,123.93C6.55,123.35 6.92,122.85 5.79,121.81C5.76,121.78 5.72,121.74 5.68,121.71L5.91,121.62C6.54,122.45 7.47,123.34 8.79,122.59C9.45,122.21 10.03,121.35 9.5,120.18L10.27,119.87C10.33,119.96 10.39,120.04 10.45,120.13C11.16,121.15 12.65,120.79 13.5,120.31L13,120.87L12.13,121.23C12.13,121.23 10.73,122.51 12.08,123.93C12.86,124.75 13.79,124.25 15.33,123.63C16.5,123.16 21.1,120.4 21.2,119.53C21.2,119.53 22.1,116.08 21.33,114.09C20.83,112.77 19.18,110.74 17.4,109.03Z" style="fill:#bf8f68;fill-rule:nonzero;"/>
    <path d="M15.93,108.32C15.93,108.32 15.3,108.25 15.19,108.24C16.25,109.82 17.49,112.17 17.99,113.13C18.79,114.67 19.32,116.18 17.89,117.26C17.23,117.76 16.63,117.83 16.14,117.63C15.66,117.24 15.23,116.44 15.23,116.44C13.34,112.97 12.03,111.23 12.03,111.23C11.9,111.08 11.62,110.6 11.23,110.36C10.73,110.06 10.88,110.59 10.88,110.59C13.08,114.02 14.42,116.76 14.42,116.76C14.99,117.8 14.89,118.54 14.73,118.95C14.54,119.45 13.45,120.15 13.45,120.15C11.23,121.48 10.21,119.71 10.21,119.71C10.21,119.71 8.91,118.08 6.73,114.01C6.73,114.01 6.39,113.45 6.18,113.84C6.18,113.84 6.3,114.53 6.62,115.18C6.62,115.18 7.61,117.54 9.54,120.26C10.01,121.39 9.45,122.22 8.8,122.6C8.01,123.05 7.36,122.91 6.83,122.55C6.34,122.07 5.19,120.76 3.51,117.74C3.51,117.74 3.18,116.99 3.02,117.25C3.02,117.25 2.85,117.45 3.31,118.61C3.31,118.61 3.98,120.28 5.65,122.5C6.27,123.36 6.2,123.78 5.95,124.04C5.39,124.6 4.46,124.73 3.77,124.4C4.37,124.77 5.41,125.22 6.42,124.59C6.42,124.59 7.07,124.12 7.12,123.62C8.22,124.23 9.74,123.09 9.74,123.09C10.45,122.54 10.64,121.93 10.62,121.4C12.08,122.27 13.95,121.07 13.95,121.07C15.59,120.14 15.91,119.16 15.91,118.52C16.76,119.05 17.81,118.65 17.81,118.65C19.66,117.83 19.6,116.02 19.6,116.02C19.52,113.52 17.1,109.98 15.93,108.32Z" style="fill:#99674f;fill-rule:nonzero;"/>
    <g>
        <path d="M18.8,116.32C18.81,116.47 18.81,116.62 18.81,116.77C18.81,120.89 16.82,124.22 14.38,124.22C11.93,124.22 9.95,120.88 9.95,116.77C9.95,116.62 9.96,116.47 9.96,116.32C7.54,118.07 5.92,121.22 5.92,124.81L5.92,125.46C5.92,126.87 6.89,128.01 8.08,128.01L20.68,128.01C21.87,128.01 22.84,126.87 22.84,125.46L22.84,124.81C22.84,121.21 21.22,118.07 18.8,116.32Z" style="fill:rgb(224,224,224);fill-rule:nonzero;"/>
        <path d="M14.38,124.22C23.42,124.22 18.81,120.88 18.81,116.77C18.81,116.62 18.8,116.47 18.8,116.32C17.51,115.39 16,114.84 14.38,114.84C12.76,114.84 11.25,115.39 9.96,116.32C9.95,116.47 9.95,116.62 9.95,116.77C9.95,120.89 5.3,124.22 14.38,124.22Z" style="fill:rgb(189,189,189);fill-rule:nonzero;"/>
    </g>
    <g>
        <path d="M9.68,121.37C9.68,121.4 9.67,121.42 9.66,121.45C9.66,121.42 9.67,121.4 9.68,121.37ZM7.33,122.77C7.28,122.76 7.24,122.74 7.2,122.72C7.24,122.74 7.28,122.75 7.33,122.77ZM5.96,124.01C5.96,124.01 5.97,124 5.97,123.99L5.91,124.05C5.93,124.04 5.95,124.03 5.96,124.01ZM6.83,122.53L6.89,122.56C6.87,122.54 6.84,122.53 6.81,122.51C6.82,122.52 6.83,122.52 6.83,122.53ZM5.27,124.44C5.23,124.45 5.2,124.47 5.16,124.48C5.2,124.46 5.24,124.45 5.27,124.44ZM8.27,122.79C8.22,122.8 8.17,122.81 8.11,122.82C8.17,122.81 8.22,122.81 8.27,122.79ZM9.44,121.97C9.42,122 9.4,122.02 9.38,122.05C9.4,122.02 9.42,122 9.44,121.97ZM7.78,122.85C7.73,122.85 7.67,122.84 7.62,122.83C7.68,122.84 7.73,122.85 7.78,122.85ZM9.25,122.21C9.22,122.25 9.18,122.28 9.14,122.31C9.18,122.28 9.22,122.25 9.25,122.21ZM9.59,121.69C9.58,121.72 9.56,121.74 9.55,121.76C9.56,121.73 9.58,121.71 9.59,121.69ZM4.96,124.52C4.91,124.53 4.86,124.53 4.81,124.54C4.86,124.53 4.91,124.53 4.96,124.52ZM9.53,120.24C9.53,120.24 9.53,120.23 9.52,120.23C9.54,120.27 9.55,120.31 9.56,120.35C9.56,120.31 9.55,120.28 9.53,120.24ZM9.66,120.63C9.67,120.67 9.67,120.7 9.68,120.74C9.67,120.7 9.67,120.67 9.66,120.63ZM4.19,124.51C4.122,124.499 4.055,124.483 3.99,124.46C4.05,124.48 4.12,124.49 4.19,124.51ZM4.63,124.55C4.53,124.55 4.42,124.55 4.32,124.53C4.42,124.55 4.53,124.56 4.63,124.55ZM9.71,121.02C9.71,121.05 9.71,121.08 9.7,121.11C9.7,121.08 9.71,121.05 9.71,121.02Z" style="fill:none;fill-rule:nonzero;"/>
        <path d="M4.19,124.51L4.32,124.54C4.42,124.55 4.53,124.56 4.63,124.56C4.69,124.56 4.75,124.55 4.81,124.54C4.86,124.53 4.91,124.53 4.96,124.52C5.03,124.51 5.09,124.49 5.16,124.47C5.2,124.46 5.23,124.45 5.27,124.43C5.51,124.35 5.73,124.22 5.91,124.05L5.97,123.99C6.21,123.73 6.27,123.31 5.66,122.47C3.98,120.25 3.32,118.58 3.32,118.58C2.86,117.41 3.03,117.22 3.03,117.22C3.19,116.96 3.52,117.71 3.52,117.71C5.19,120.71 6.33,122.02 6.82,122.51C6.84,122.53 6.87,122.54 6.9,122.56C7,122.62 7.1,122.68 7.2,122.72C7.24,122.74 7.29,122.75 7.33,122.77C7.43,122.8 7.53,122.82 7.63,122.84C7.68,122.85 7.73,122.85 7.79,122.86C7.9,122.86 8.01,122.85 8.12,122.83C8.17,122.82 8.22,122.82 8.28,122.8C8.45,122.75 8.62,122.69 8.81,122.58C8.89,122.53 8.97,122.48 9.05,122.42C9.09,122.39 9.12,122.35 9.16,122.32C9.2,122.29 9.24,122.25 9.27,122.22C9.32,122.17 9.35,122.11 9.4,122.06C9.42,122.03 9.44,122.01 9.46,121.98C9.5,121.92 9.54,121.84 9.57,121.77C9.58,121.75 9.6,121.72 9.61,121.7C9.64,121.62 9.66,121.54 9.68,121.46C9.69,121.43 9.7,121.41 9.7,121.38C9.72,121.3 9.72,121.21 9.72,121.12C9.72,121.09 9.73,121.06 9.73,121.03C9.73,120.94 9.71,120.85 9.7,120.75C9.69,120.71 9.69,120.68 9.68,120.64C9.66,120.55 9.62,120.45 9.59,120.36C9.58,120.32 9.56,120.28 9.55,120.24C7.63,117.53 6.64,115.17 6.64,115.17C6.32,114.51 6.2,113.83 6.2,113.83C6.41,113.44 6.75,114 6.75,114C8.93,118.07 10.23,119.7 10.23,119.7C10.23,119.7 11.25,121.47 13.47,120.14C13.47,120.14 14.57,119.43 14.75,118.94C14.91,118.53 15.01,117.79 14.44,116.75C14.44,116.75 13.1,114.01 10.9,110.58C10.9,110.58 10.75,110.04 11.25,110.35C11.64,110.59 11.92,111.07 12.05,111.22C12.05,111.22 13.35,112.96 15.25,116.43C15.25,116.43 15.67,117.23 16.16,117.62C16.64,117.82 17.25,117.75 17.91,117.25C19.34,116.17 18.81,114.66 18.01,113.12C17.51,112.16 16.27,109.81 15.21,108.23C15.3,108.24 15.71,108.29 15.88,108.3C15.68,108.26 15.46,108.23 15.21,108.22C15.07,108.01 14.93,107.82 14.8,107.64C14.54,107.29 13.88,105.78 11.37,107.15C10.56,107.59 10.28,107.99 10.41,108.56C10.31,108.68 10.13,108.82 9.85,108.71C8.98,107.74 7.9,107.53 6.65,108.51C5.23,109.62 5.23,110.41 5.49,111.2L5.48,111.2C5.48,111.2 5.42,111.75 5.01,111.7C4.58,111.33 4.06,111.33 3.25,111.92C1.06,113.5 1.97,115 2.33,115.88C2.28,115.96 2.2,116.02 2.06,116.01C1.78,115.86 1.41,115.86 0.92,116.14C-0.24,116.8 -0.07,118.99 0.26,119.71C0.62,120.49 2.61,123.23 3.3,124C3.46,124.17 3.65,124.3 3.86,124.39C3.9,124.41 3.95,124.43 3.99,124.44C4.05,124.48 4.12,124.49 4.19,124.51Z" style="fill:#bf8f68;fill-rule:nonzero;"/>
        <path d="M13.01,120.86L13.51,120.3C12.66,120.78 11.18,121.14 10.46,120.12C10.4,120.03 10.34,119.95 10.28,119.86L9.51,120.17C9.52,120.19 9.52,120.21 9.53,120.23C9.53,120.23 9.53,120.24 9.54,120.24C9.56,120.28 9.56,120.31 9.58,120.35C9.61,120.45 9.65,120.54 9.67,120.63C9.68,120.67 9.68,120.7 9.69,120.74C9.71,120.83 9.72,120.93 9.72,121.02C9.72,121.05 9.72,121.08 9.71,121.11C9.71,121.2 9.7,121.29 9.69,121.37C9.69,121.4 9.68,121.42 9.67,121.45C9.65,121.53 9.63,121.61 9.6,121.69C9.59,121.72 9.57,121.74 9.56,121.76C9.53,121.83 9.49,121.9 9.45,121.97C9.43,122 9.41,122.02 9.39,122.05C9.35,122.11 9.31,122.16 9.26,122.21C9.23,122.25 9.19,122.28 9.15,122.31C9.11,122.34 9.08,122.38 9.04,122.41C8.812,122.588 8.55,122.717 8.27,122.79C8.22,122.8 8.17,122.81 8.11,122.82C8,122.84 7.88,122.85 7.78,122.85C7.73,122.85 7.67,122.84 7.62,122.83C7.52,122.82 7.42,122.79 7.32,122.76C7.27,122.74 7.23,122.73 7.19,122.71C7.09,122.67 6.99,122.61 6.89,122.55L6.83,122.52L6.82,122.51C6.47,122.27 6.17,121.93 5.92,121.6L5.69,121.69C5.73,121.73 5.77,121.76 5.8,121.79C6.93,122.83 6.55,123.33 6.06,123.91C6.03,123.95 6,123.97 5.98,124C5.98,124 5.97,124.01 5.97,124.02C5.95,124.03 5.94,124.05 5.92,124.06C5.73,124.23 5.52,124.36 5.28,124.44C5.24,124.45 5.21,124.47 5.17,124.48C5.1,124.5 5.04,124.51 4.97,124.53C4.92,124.54 4.87,124.54 4.82,124.55C4.76,124.56 4.7,124.56 4.64,124.57C4.54,124.57 4.43,124.57 4.33,124.55C4.28,124.54 4.24,124.53 4.2,124.52C4.132,124.509 4.065,124.493 4,124.47C3.95,124.45 3.91,124.44 3.87,124.42C3.85,124.41 3.82,124.4 3.8,124.39C4.4,124.76 5.44,125.21 6.45,124.58C6.45,124.58 7.1,124.11 7.15,123.61C8.25,124.22 9.77,123.08 9.77,123.08C10.48,122.53 10.67,121.92 10.65,121.39C11.01,121.61 11.4,121.69 11.79,121.7C11.96,121.41 12.15,121.24 12.15,121.24L13.01,120.86ZM15.93,108.32C15.93,108.32 15.9,108.32 15.86,108.31C15.88,108.32 15.91,108.32 15.93,108.32C15.93,108.33 15.93,108.32 15.93,108.32Z" style="fill:#99674f;fill-rule:nonzero;"/>
        <path d="M9.68,120.74C9.7,120.83 9.71,120.93 9.71,121.02C9.71,120.93 9.69,120.83 9.68,120.74ZM9.7,121.11C9.7,121.2 9.69,121.29 9.68,121.37C9.7,121.29 9.7,121.2 9.7,121.11ZM9.38,122.05C9.34,122.11 9.3,122.16 9.25,122.21C9.3,122.16 9.34,122.1 9.38,122.05ZM9.55,121.76C9.52,121.83 9.48,121.9 9.44,121.97C9.48,121.9 9.52,121.83 9.55,121.76ZM9.57,120.35C9.6,120.45 9.64,120.54 9.66,120.63C9.64,120.54 9.61,120.45 9.57,120.35ZM4.81,124.54C4.75,124.55 4.69,124.55 4.63,124.56C4.69,124.55 4.75,124.54 4.81,124.54ZM4.32,124.53C4.27,124.52 4.23,124.51 4.19,124.5C4.23,124.52 4.27,124.53 4.32,124.53ZM3.03,117.22C3.03,117.22 2.86,117.42 3.32,118.58C3.32,118.58 3.99,120.25 5.66,122.47C6.27,123.32 6.21,123.73 5.97,123.99C6,123.96 6.03,123.94 6.05,123.92C6.54,123.34 6.92,122.84 5.79,121.8C5.76,121.77 5.72,121.73 5.68,121.7L5.91,121.61C6.16,121.94 6.46,122.27 6.81,122.52C6.31,122.03 5.17,120.72 3.51,117.72C3.51,117.71 3.18,116.96 3.03,117.22ZM13.97,121.04C15.61,120.11 15.93,119.13 15.93,118.49C16.78,119.02 17.83,118.62 17.83,118.62C19.68,117.8 19.62,115.99 19.62,115.99C19.53,113.52 17.11,109.99 15.93,108.33C15.9,108.32 15.88,108.32 15.85,108.31C15.69,108.29 15.27,108.25 15.18,108.24C16.24,109.82 17.48,112.17 17.98,113.13C18.78,114.67 19.31,116.18 17.88,117.26C17.22,117.76 16.62,117.83 16.13,117.63C15.65,117.24 15.22,116.44 15.22,116.44C13.33,112.97 12.02,111.23 12.02,111.23C11.89,111.08 11.61,110.6 11.22,110.36C10.72,110.06 10.87,110.59 10.87,110.59C13.07,114.02 14.41,116.76 14.41,116.76C14.98,117.8 14.88,118.54 14.72,118.95C14.53,119.45 13.44,120.15 13.44,120.15C11.22,121.48 10.2,119.71 10.2,119.71C10.2,119.71 8.9,118.08 6.72,114.01C6.72,114.01 6.38,113.45 6.17,113.84C6.17,113.84 6.29,114.53 6.61,115.18C6.61,115.18 7.6,117.54 9.52,120.25C9.51,120.23 9.51,120.21 9.5,120.19L10.27,119.88C10.33,119.97 10.39,120.05 10.45,120.14C11.16,121.16 12.65,120.8 13.5,120.32L13,120.88L12.13,121.24C12.13,121.24 11.94,121.41 11.77,121.7C12.91,121.72 13.97,121.04 13.97,121.04ZM9.14,122.31C9.1,122.34 9.07,122.38 9.03,122.41C9.07,122.38 9.11,122.35 9.14,122.31ZM3.98,124.45C3.93,124.43 3.89,124.42 3.85,124.4C3.89,124.42 3.94,124.44 3.98,124.45ZM8.8,122.58C8.62,122.69 8.44,122.75 8.27,122.8C8.44,122.75 8.61,122.68 8.8,122.58ZM7.62,122.84C7.52,122.83 7.42,122.8 7.32,122.77C7.42,122.8 7.52,122.82 7.62,122.84ZM7.19,122.72C7.09,122.68 6.99,122.62 6.89,122.56C6.99,122.62 7.09,122.68 7.19,122.72ZM5.16,124.47C5.09,124.49 5.03,124.5 4.96,124.52C5.03,124.51 5.1,124.49 5.16,124.47Z" style="fill:#99674f;fill-rule:nonzero;"/>
    </g>
    <g>
        <path d="M118.32,121.37C118.32,121.4 118.33,121.42 118.34,121.45C118.34,121.42 118.33,121.4 118.32,121.37ZM120.67,122.77C120.72,122.76 120.76,122.74 120.8,122.72C120.76,122.74 120.72,122.75 120.67,122.77ZM122.04,124.01C122.04,124.01 122.03,124 122.03,123.99L122.09,124.05C122.07,124.04 122.05,124.03 122.04,124.01ZM121.17,122.53L121.11,122.56C121.13,122.54 121.16,122.53 121.19,122.51C121.18,122.52 121.17,122.52 121.17,122.53ZM122.73,124.44C122.77,124.45 122.8,124.47 122.84,124.48C122.8,124.46 122.76,124.45 122.73,124.44ZM119.73,122.79C119.78,122.8 119.83,122.81 119.89,122.82C119.83,122.81 119.78,122.81 119.73,122.79ZM118.96,122.41C119.04,122.47 119.12,122.53 119.2,122.57C119.12,122.53 119.04,122.47 118.96,122.41ZM118.56,121.97C118.58,122 118.6,122.02 118.62,122.05C118.6,122.02 118.58,122 118.56,121.97ZM120.22,122.85C120.27,122.85 120.33,122.84 120.38,122.83C120.32,122.84 120.27,122.85 120.22,122.85ZM118.41,121.69C118.42,121.72 118.44,121.74 118.45,121.76C118.44,121.73 118.42,121.71 118.41,121.69ZM123.04,124.52C123.09,124.53 123.14,124.53 123.19,124.54C123.14,124.53 123.09,124.53 123.04,124.52ZM118.47,120.24C118.47,120.24 118.47,120.23 118.48,120.23C118.46,120.27 118.45,120.31 118.44,120.35C118.44,120.31 118.45,120.28 118.47,120.24ZM118.34,120.63C118.33,120.67 118.33,120.7 118.32,120.74C118.33,120.7 118.33,120.67 118.34,120.63ZM123.81,124.51C123.88,124.5 123.95,124.48 124.01,124.46C123.95,124.48 123.88,124.49 123.81,124.51ZM123.37,124.55C123.47,124.55 123.58,124.55 123.68,124.53C123.58,124.55 123.47,124.56 123.37,124.55ZM118.29,121.02C118.29,121.05 118.29,121.08 118.3,121.11C118.3,121.08 118.29,121.05 118.29,121.02Z" style="fill:none;fill-rule:nonzero;"/>
        <path d="M123.81,124.51L123.68,124.54C123.58,124.55 123.47,124.56 123.37,124.56C123.31,124.56 123.25,124.55 123.19,124.54C123.14,124.53 123.09,124.53 123.04,124.52C122.97,124.51 122.91,124.49 122.84,124.47C122.802,124.461 122.765,124.448 122.73,124.43C122.492,124.351 122.273,124.222 122.09,124.05L122.03,123.99C121.79,123.73 121.73,123.31 122.34,122.47C124.02,120.25 124.68,118.58 124.68,118.58C125.14,117.41 124.97,117.22 124.97,117.22C124.81,116.96 124.48,117.71 124.48,117.71C122.81,120.71 121.67,122.02 121.18,122.51C121.16,122.53 121.13,122.54 121.1,122.56C121,122.62 120.9,122.68 120.8,122.72C120.76,122.74 120.71,122.75 120.67,122.77C120.57,122.8 120.47,122.82 120.37,122.84C120.32,122.85 120.27,122.85 120.21,122.86C120.1,122.86 119.99,122.85 119.88,122.83C119.83,122.82 119.78,122.82 119.72,122.8C119.55,122.75 119.38,122.69 119.19,122.58C119.11,122.53 119.03,122.48 118.95,122.42C118.91,122.39 118.88,122.35 118.84,122.32C118.8,122.29 118.76,122.25 118.73,122.22C118.68,122.17 118.65,122.11 118.6,122.06C118.58,122.03 118.56,122.01 118.54,121.98C118.497,121.913 118.461,121.843 118.43,121.77C118.42,121.75 118.4,121.72 118.39,121.7C118.36,121.62 118.34,121.54 118.32,121.46C118.31,121.43 118.3,121.41 118.3,121.38C118.28,121.3 118.28,121.21 118.28,121.12C118.28,121.09 118.27,121.06 118.27,121.03C118.27,120.94 118.29,120.85 118.3,120.75C118.31,120.71 118.31,120.68 118.32,120.64C118.34,120.55 118.38,120.45 118.41,120.36C118.42,120.32 118.44,120.28 118.45,120.24C120.37,117.53 121.36,115.17 121.36,115.17C121.68,114.51 121.8,113.83 121.8,113.83C121.59,113.44 121.25,114 121.25,114C119.07,118.07 117.77,119.7 117.77,119.7C117.77,119.7 116.75,121.47 114.53,120.14C114.53,120.14 113.43,119.43 113.25,118.94C113.09,118.53 112.99,117.79 113.56,116.75C113.56,116.75 114.9,114.01 117.1,110.58C117.1,110.58 117.25,110.04 116.75,110.35C116.36,110.59 116.08,111.07 115.95,111.22C115.95,111.22 114.65,112.96 112.75,116.43C112.75,116.43 112.33,117.23 111.84,117.62C111.36,117.82 110.75,117.75 110.09,117.25C108.66,116.17 109.19,114.66 109.99,113.12C110.49,112.16 111.73,109.81 112.79,108.23C112.7,108.24 112.29,108.29 112.12,108.3C112.32,108.26 112.54,108.23 112.79,108.22C112.93,108.01 113.07,107.82 113.2,107.64C113.46,107.29 114.12,105.78 116.63,107.15C117.44,107.59 117.72,107.99 117.59,108.56C117.69,108.68 117.87,108.82 118.15,108.71C119.02,107.74 120.1,107.53 121.35,108.51C122.77,109.62 122.77,110.41 122.51,111.2L122.52,111.2C122.52,111.2 122.58,111.75 122.99,111.7C123.42,111.33 123.94,111.33 124.75,111.92C126.94,113.5 126.03,115 125.67,115.88C125.72,115.96 125.8,116.02 125.94,116.01C126.22,115.86 126.59,115.86 127.08,116.14C128.24,116.8 128.07,118.99 127.74,119.71C127.38,120.49 125.39,123.23 124.7,124C124.54,124.17 124.35,124.3 124.14,124.39C124.1,124.41 124.05,124.43 124.01,124.44C123.95,124.48 123.88,124.49 123.81,124.51Z" style="fill:#bf8f68;fill-rule:nonzero;"/>
        <path d="M114.99,120.86L114.49,120.3C115.34,120.78 116.82,121.14 117.54,120.12C117.6,120.03 117.66,119.95 117.72,119.86L118.49,120.17C118.48,120.19 118.48,120.21 118.47,120.23C118.47,120.23 118.47,120.24 118.46,120.24C118.44,120.28 118.44,120.31 118.42,120.35C118.39,120.45 118.35,120.54 118.33,120.63C118.32,120.67 118.32,120.7 118.31,120.74C118.29,120.83 118.28,120.93 118.28,121.02C118.28,121.05 118.28,121.08 118.29,121.11C118.29,121.2 118.3,121.29 118.31,121.37C118.31,121.4 118.32,121.42 118.33,121.45C118.35,121.53 118.37,121.61 118.4,121.69C118.41,121.72 118.43,121.74 118.44,121.76C118.47,121.83 118.51,121.9 118.55,121.97C118.57,122 118.59,122.02 118.61,122.05C118.65,122.11 118.69,122.16 118.74,122.21C118.77,122.25 118.81,122.28 118.85,122.31C118.89,122.34 118.92,122.38 118.96,122.41C119.188,122.588 119.45,122.717 119.73,122.79C119.78,122.8 119.83,122.81 119.89,122.82C120,122.84 120.12,122.85 120.22,122.85C120.27,122.85 120.33,122.84 120.38,122.83C120.48,122.82 120.58,122.79 120.68,122.76C120.73,122.74 120.77,122.73 120.81,122.71C120.91,122.67 121.01,122.61 121.11,122.55L121.17,122.52L121.18,122.51C121.53,122.27 121.83,121.93 122.08,121.6L122.31,121.69C122.27,121.73 122.23,121.76 122.2,121.79C121.07,122.83 121.45,123.33 121.94,123.91C121.96,123.94 122,123.96 122.02,123.98C122.02,123.98 122.03,123.99 122.03,124C122.05,124.01 122.06,124.03 122.08,124.04C122.27,124.21 122.48,124.34 122.72,124.42C122.76,124.43 122.79,124.45 122.83,124.46C122.9,124.48 122.96,124.49 123.03,124.51C123.08,124.52 123.13,124.52 123.18,124.53C123.24,124.54 123.3,124.54 123.36,124.55C123.46,124.55 123.57,124.55 123.67,124.53C123.72,124.52 123.76,124.51 123.8,124.5C123.87,124.49 123.94,124.47 124,124.45C124.05,124.43 124.09,124.42 124.13,124.4C124.15,124.39 124.18,124.38 124.2,124.37C123.6,124.74 122.56,125.19 121.55,124.56C121.55,124.56 120.9,124.09 120.85,123.59C119.75,124.2 118.23,123.06 118.23,123.06C117.52,122.51 117.33,121.9 117.35,121.37C116.99,121.59 116.6,121.67 116.21,121.68C116.04,121.39 115.85,121.22 115.85,121.22L114.99,120.86ZM112.07,108.32C112.07,108.32 112.1,108.32 112.14,108.31C112.12,108.32 112.09,108.32 112.07,108.32C112.07,108.33 112.07,108.32 112.07,108.32Z" style="fill:#99674f;fill-rule:nonzero;"/>
        <path d="M118.32,120.74C118.3,120.83 118.29,120.93 118.29,121.02C118.29,120.93 118.31,120.83 118.32,120.74ZM118.3,121.11C118.3,121.2 118.31,121.29 118.32,121.37C118.3,121.29 118.3,121.2 118.3,121.11ZM118.62,122.05C118.66,122.11 118.7,122.16 118.75,122.21C118.7,122.16 118.66,122.1 118.62,122.05ZM118.43,120.35C118.4,120.45 118.36,120.54 118.34,120.63C118.36,120.54 118.39,120.45 118.43,120.35ZM118.34,121.45C118.36,121.53 118.38,121.61 118.41,121.69C118.38,121.61 118.36,121.53 118.34,121.45ZM123.19,124.54C123.25,124.55 123.31,124.55 123.37,124.56C123.31,124.55 123.25,124.54 123.19,124.54ZM123.68,124.53C123.73,124.52 123.77,124.51 123.81,124.5C123.77,124.52 123.73,124.53 123.68,124.53ZM124.97,117.22C124.97,117.22 125.14,117.42 124.68,118.58C124.68,118.58 124.01,120.25 122.34,122.47C121.73,123.32 121.79,123.73 122.03,123.99C122,123.96 121.97,123.94 121.95,123.92C121.46,123.34 121.08,122.84 122.21,121.8C122.24,121.77 122.28,121.73 122.32,121.7L122.09,121.61C121.84,121.94 121.54,122.27 121.19,122.52C121.69,122.03 122.83,120.72 124.49,117.72C124.49,117.71 124.82,116.96 124.97,117.22ZM114.03,121.04C112.39,120.11 112.07,119.13 112.07,118.49C111.22,119.02 110.17,118.62 110.17,118.62C108.32,117.8 108.38,115.99 108.38,115.99C108.47,113.52 110.89,109.99 112.07,108.33C112.1,108.32 112.12,108.32 112.15,108.31C112.31,108.29 112.73,108.25 112.82,108.24C111.76,109.82 110.52,112.17 110.02,113.13C109.22,114.67 108.69,116.18 110.12,117.26C110.78,117.76 111.38,117.83 111.87,117.63C112.35,117.24 112.78,116.44 112.78,116.44C114.67,112.97 115.98,111.23 115.98,111.23C116.11,111.08 116.39,110.6 116.78,110.36C117.28,110.06 117.13,110.59 117.13,110.59C114.93,114.02 113.59,116.76 113.59,116.76C113.02,117.8 113.12,118.54 113.28,118.95C113.47,119.45 114.56,120.15 114.56,120.15C116.78,121.48 117.8,119.71 117.8,119.71C117.8,119.71 119.1,118.08 121.28,114.01C121.28,114.01 121.62,113.45 121.83,113.84C121.83,113.84 121.71,114.53 121.39,115.18C121.39,115.18 120.4,117.54 118.48,120.25C118.49,120.23 118.49,120.21 118.5,120.19L117.73,119.88C117.67,119.97 117.61,120.05 117.55,120.14C116.84,121.16 115.35,120.8 114.5,120.32L115,120.88L115.87,121.24C115.87,121.24 116.06,121.41 116.23,121.7C115.09,121.72 114.03,121.04 114.03,121.04ZM118.86,122.31C118.9,122.34 118.93,122.38 118.97,122.41C118.93,122.38 118.89,122.35 118.86,122.31ZM124.02,124.45C124.07,124.43 124.11,124.42 124.15,124.4C124.11,124.42 124.06,124.44 124.02,124.45ZM119.2,122.58C119.38,122.69 119.56,122.75 119.73,122.8C119.546,122.745 119.369,122.671 119.2,122.58ZM120.38,122.84C120.48,122.83 120.58,122.8 120.68,122.77C120.58,122.8 120.48,122.82 120.38,122.84ZM120.81,122.72C120.91,122.68 121.01,122.62 121.11,122.56C121.01,122.62 120.91,122.68 120.81,122.72ZM122.84,124.47C122.91,124.49 122.97,124.5 123.04,124.52C122.972,124.509 122.905,124.493 122.84,124.47Z" style="fill:#99674f;fill-rule:nonzero;"/>
    </g>
    <g>
        <path d="M104.87,74.71L23.13,74.71C19.55,74.71 16.63,77.64 16.63,81.21L16.63,132.53C16.63,136.11 19.56,139.03 23.13,139.03L104.88,139.03C108.446,139.03 111.38,136.096 111.38,132.53L111.38,81.21C111.38,77.62 108.47,74.71 104.87,74.71Z" style="fill:rgb(77,208,225);fill-rule:nonzero;"/>
        <path d="M78.88,125.35C77.45,120.44 76.85,112.26 76.6,106.54C76.442,102.949 73.445,100.08 69.85,100.08L60.91,100.08C57.314,100.077 54.314,102.947 54.16,106.54C53.91,112.26 53.31,120.45 51.88,125.35C49.51,133.48 45.8,140.08 52.24,140.08L78.52,140.08C84.96,140.08 81.25,133.48 78.88,125.35Z" style="fill:rgb(0,172,193);fill-rule:nonzero;"/>
    </g>
    <defs>
        <radialGradient id="_Radial1" cx="0" cy="0" r="1" gradientUnits="userSpaceOnUse" gradientTransform="matrix(39.2986,0,0,35.3012,64.5335,85.0836)"><stop offset="0" style="stop-color:white;stop-opacity:1"/><stop offset="1" style="stop-color:white;stop-opacity:0"/></radialGradient>
    </defs>
</svg>
