<?xml version="1.0" encoding="UTF-8" standalone="no"?>
<!DOCTYPE svg PUBLIC "-//W3C//DTD SVG 1.1//EN" "http://www.w3.org/Graphics/SVG/1.1/DTD/svg11.dtd">
<svg width="100%" height="100%" viewBox="0 0 128 128" version="1.1" xmlns="http://www.w3.org/2000/svg" xmlns:xlink="http://www.w3.org/1999/xlink" xml:space="preserve" xmlns:serif="http://www.serif.com/" style="fill-rule:evenodd;clip-rule:evenodd;stroke-linejoin:round;stroke-miterlimit:2;">
    <path d="M18.68,118.1L18.68,127.99L105.82,127.99L105.82,118.1C105.82,102.93 84.43,95.23 62.58,95.26C40.87,95.28 18.68,102.03 18.68,118.1Z" style="fill:rgb(38,38,38);fill-rule:nonzero;"/>
    <path d="M62.69,95.25C54,95.25 48.15,96.31 48.15,96.31L54.55,127.98L62.69,127.98L62.69,95.25Z" style="fill:rgb(224,224,224);fill-rule:nonzero;"/>
    <path d="M62.26,95.25C70.66,95.25 76.38,96.3 76.38,96.3L69.94,127.98L62.25,127.98L62.25,95.25L62.26,95.25Z" style="fill:rgb(224,224,224);fill-rule:nonzero;"/>
    <path d="M71.45,90.25L53.28,90.25L53.28,99.84C53.28,104.18 56.5,106.42 61.06,106.42L64.73,106.25C69.29,106.25 71.45,104.17 71.45,99.84L71.45,90.25Z" style="fill:#563e37;fill-rule:nonzero;"/>
    <path d="M71.44,95.65C71.44,97.18 70.13,100.07 68.04,102.47C65.92,104.91 62.39,106.42 62.39,106.42L72.78,117.5L76.5,96.31C76.5,96.32 73.42,95.84 71.44,95.65Z" style="fill:rgb(245,245,245);fill-rule:nonzero;"/>
    <path d="M62.26,13.58C37.91,13.58 31.54,32.45 31.54,58.97C31.54,85.48 50.43,93.57 62.26,93.57C74.09,93.57 92.98,85.48 92.98,58.97C92.97,32.45 86.6,13.58 62.26,13.58Z" style="fill:#70534a;fill-rule:nonzero;"/>
    <path d="M106.19,22.41C103.6,19.31 101.57,17.42 98.22,15.15C87.79,8.13 73.32,4.97 62.65,4.97C62.52,4.97 62.39,4.98 62.26,4.98C62.13,4.98 62,4.97 61.87,4.97C51.19,4.97 36.72,8.13 26.3,15.16C22.95,17.43 20.92,19.31 18.33,22.42C14.52,26.98 13.74,33.99 16.11,39.89C18.01,44.61 20.27,47.83 20.27,47.83C30.049,59.075 26.563,43.761 29.44,40.29C32.203,36.957 48.85,38.01 62.26,37.48C75.67,38.01 84.844,49.006 89.158,48.837C100.794,48.381 101.586,48.281 104.804,45.32C106.457,43.799 106.987,42.885 108.41,39.89C111.143,34.139 110,26.97 106.19,22.41Z" style="fill:rgb(38,38,38);fill-rule:nonzero;"/>
    <g transform="matrix(2.06861,0,0,2.1214,-157.051,-40.3496)">
        <path d="M94.066,27.778C96.675,25.707 100.329,23.961 105.476,23.859C105.476,23.859 105.721,23.849 105.834,23.849C105.936,23.849 106.191,23.859 106.191,23.859C109.911,23.964 112.963,24.918 115.402,26.243C116.216,26.5 116.997,26.834 117.673,27.221C118.084,27.456 118.457,27.717 118.827,28.012C118.903,28.073 119.184,28.228 119.209,28.321C119.238,28.425 118.994,28.305 118.886,28.296C118.731,28.283 118.574,28.272 118.419,28.252L118.368,28.246C118.971,28.744 119.515,29.258 120,29.772C120.271,29.935 120.539,30.114 120.804,30.314C121.132,30.562 121.401,30.867 121.659,31.184C121.748,31.294 121.84,31.401 121.917,31.52C121.966,31.595 122.148,31.735 122.06,31.745C121.896,31.764 121.698,31.677 121.52,31.62C122.01,32.31 122.39,32.964 122.665,33.536C123.633,35.551 124.199,37.503 124.508,39.288C125.092,40.069 125.567,40.92 125.654,41.756C125.668,41.885 125.453,41.592 125.348,41.517C125.153,41.377 124.947,41.255 124.746,41.124C124.854,42.375 124.844,43.507 124.778,44.475C125.148,44.925 125.697,45.513 125.762,46.106C125.767,46.16 125.663,46.061 125.615,46.037C125.48,45.97 125.357,45.907 125.234,45.818C125.048,45.683 124.867,45.537 124.697,45.38C124.515,47.006 124.206,47.978 124.206,47.978C124.206,47.978 123.992,47.754 123.584,47.437C123.145,47.1 122.665,46.906 122.665,46.906C123.306,49.8 123.851,54.429 122.665,56.431C120.735,54.812 118.108,49.269 117.391,39.774C116.735,40.348 116.068,40.864 115.492,41.108C115.534,41.282 115.575,41.456 115.63,41.619C115.693,41.806 115.767,41.99 115.858,42.164C115.907,42.256 116.121,42.448 116.018,42.432C115.768,42.394 115.388,42.01 115.166,41.873C114.718,41.595 114.247,41.364 113.749,41.208C113.257,41.177 112.766,41.13 112.283,41.047C112.464,41.653 112.611,42.271 112.664,42.901C112.683,43.125 112.706,43.776 112.534,43.933C112.534,43.933 112.37,43.713 112.357,43.694C112.245,43.534 112.131,43.375 112.017,43.217C111.69,42.765 111.364,42.316 110.987,41.903C110.287,41.135 109.563,40.41 108.76,39.79C107.985,39.438 107.209,39.088 106.389,38.836C105.299,38.5 104.178,38.454 103.065,38.251C102.871,38.215 102.678,38.17 102.487,38.118C102.375,38.122 102.263,38.127 102.152,38.133C102.787,39.669 103,41.371 102.51,42.961C102.292,43.667 101.971,44.34 101.551,44.947C101.52,44.992 101.219,45.432 101.139,45.399C100.91,45.303 100.565,44.561 100.421,44.352C99.882,43.567 99.309,42.759 98.629,42.086C97.378,40.845 95.87,40.03 94.322,39.278C94.417,45.039 92.655,52.822 89.002,56.431C88.06,54.319 88.205,49.505 89.002,46.906C89.002,46.906 88.512,47.1 88.084,47.437C87.686,47.754 87.461,47.978 87.461,47.978C87.461,47.978 86.769,45.388 86.759,42.115C86.575,42.277 86.243,42.692 86.034,42.725C85.973,42.735 86.045,42.601 86.052,42.539C86.069,42.39 86.093,42.241 86.117,42.093C86.173,41.748 86.247,41.406 86.344,41.07C86.474,40.618 86.659,40.195 86.876,39.788C87.097,37.721 87.669,35.566 88.878,33.721C88.632,33.702 88.393,33.677 88.167,33.65C87.877,33.614 87.587,33.553 87.313,33.452C87.277,33.439 87.088,33.396 87.076,33.358C87.076,33.358 87.599,33.105 87.679,33.062C88.34,32.711 88.992,32.314 89.634,31.927C89.969,31.724 90.31,31.497 90.647,31.254C91.238,30.503 91.939,29.698 92.772,28.904C92.544,28.723 92.341,28.501 92.171,28.224C91.979,27.91 91.799,27.548 91.755,27.177C91.74,27.051 91.827,26.729 92.041,26.77C92.608,26.879 92.864,27.699 93.479,27.838C93.635,27.873 93.855,27.833 94.066,27.778Z" style="fill:#232020;fill-rule:nonzero;"/>
    </g>
    <path d="M71.59,78.11L53.13,78.11C52.07,78.11 51.62,78.82 52.32,79.89C53.3,81.38 56.93,84.25 62.36,84.25C67.79,84.25 71.42,81.38 72.4,79.89C73.1,78.83 72.65,78.11 71.59,78.11Z" style="fill:rgb(68,68,68);fill-rule:nonzero;"/>
    <g>
        <path d="M51.86,60.73C51.86,63.57 49.96,65.88 47.6,65.88C45.25,65.88 43.33,63.58 43.33,60.73C43.33,57.88 45.24,55.58 47.6,55.58C49.96,55.58 51.86,57.88 51.86,60.73M72.86,60.73C72.86,63.57 74.76,65.88 77.13,65.88C79.48,65.88 81.39,63.58 81.39,60.73C81.39,57.88 79.48,55.58 77.13,55.58C74.76,55.58 72.86,57.88 72.86,60.73" style="fill:rgb(68,68,68);fill-rule:nonzero;"/>
    </g>
    <path d="M66.77,70.27C65.2,70.71 63.57,70.93 62.31,70.93C61.05,70.93 59.42,70.71 57.85,70.27C57.18,70.08 56.91,70.72 57.16,71.14C57.66,72.02 59.66,73.78 62.31,73.78C64.96,73.78 66.96,72.01 67.46,71.14C67.7,70.72 67.44,70.08 66.77,70.27Z" style="fill:#563e37;fill-rule:nonzero;"/>
    <path d="M74.74,96.05L68.34,127.98L75.6,127.98L87.08,115.99L82.33,109.39L89.45,104.68L85.44,98.33C85.43,98.34 80.39,96.8 74.74,96.05Z" style="fill:rgb(10,10,10);fill-rule:nonzero;"/>
    <path d="M53.31,95.65C53.31,97.18 54.62,100.07 56.71,102.47C58.83,104.91 62.36,106.42 62.36,106.42L51.98,117.51L48.24,96.3C48.25,96.29 51.27,95.81 53.31,95.65Z" style="fill:rgb(245,245,245);fill-rule:nonzero;"/>
    <path d="M50.01,96.03L56.42,127.98L49.13,127.98L37.69,115.94L42.44,109.34L35.32,104.63L39.38,98.19C39.37,98.19 44.36,96.78 50.01,96.03Z" style="fill:rgb(10,10,10);fill-rule:nonzero;"/>
    <circle cx="62.55" cy="115.29" r="1.69" style="fill:rgb(38,38,38);"/>
    <circle cx="62.55" cy="123.29" r="1.69" style="fill:rgb(38,38,38);"/>
    <path d="M62.26,40.61C41.22,40.75 22.16,44.31 22.16,44.31C22.16,44.31 31.96,54.81 62.26,55.03C92.56,54.81 102.36,44.31 102.36,44.31C102.36,44.31 83.3,40.75 62.26,40.61Z" style="fill:rgb(38,38,38);fill-rule:nonzero;"/>
    <path d="M106.19,22.41C103.6,19.31 101.57,17.42 98.22,15.15C87.79,8.13 73.32,4.97 62.65,4.97C62.52,4.97 62.39,4.98 62.26,4.98C62.13,4.98 62,4.97 61.87,4.97C51.19,4.97 36.72,8.13 26.3,15.16C22.95,17.43 20.92,19.31 18.33,22.42C14.52,26.98 13.74,33.99 16.11,39.89C18.01,44.61 20.27,47.83 20.27,47.83C22.38,43.83 25.35,41.35 29.44,40.29C33.63,39.2 48.85,38.01 62.26,37.48C75.67,38.01 90.9,39.21 95.08,40.29C99.17,41.35 99.277,39.415 101.387,43.425C101.387,43.425 106.51,44.61 108.41,39.89C110.78,33.98 110,26.97 106.19,22.41Z" style="fill:rgb(38,38,38);fill-rule:nonzero;"/>
    <path d="M100.02,37.6C100.02,37.6 83.61,26.4 62.26,26.34C40.91,26.41 24.49,37.6 24.49,37.6L22.69,44.45C22.69,44.45 40.76,42.39 62.13,42.39C87.51,42.39 101.81,44.45 101.81,44.45L100.02,37.6Z" style="fill:rgb(68,68,68);fill-rule:nonzero;"/>
    <g>
        <clipPath id="_clip1">
            <path d="M100.02,37.6C100.02,37.6 83.61,26.4 62.26,26.34C40.91,26.41 24.49,37.6 24.49,37.6L22.69,44.45C22.69,44.45 40.76,42.39 62.13,42.39C87.51,42.39 101.81,44.45 101.81,44.45L100.02,37.6Z"/>
        </clipPath>
        <g clip-path="url(#_clip1)">
            <path d="M62.37,95.84C24.72,95.84 -5.91,81.76 -5.91,64.45C-5.91,47.14 24.72,33.06 62.37,33.06C100.02,33.06 130.65,47.14 130.65,64.45C130.64,81.76 100.01,95.84 62.37,95.84ZM62.37,34.76C25.88,34.76 -3.8,48.08 -3.8,64.45C-3.8,80.82 25.89,94.14 62.37,94.14C98.85,94.14 128.54,80.82 128.54,64.45C128.54,48.08 98.85,34.76 62.37,34.76Z" style="fill:#70534a;fill-rule:nonzero;"/>
        </g>
    </g>
    <g>
        <clipPath id="_clip2">
            <path d="M100.02,37.6C100.02,37.6 83.61,26.4 62.26,26.34C40.91,26.41 24.49,37.6 24.49,37.6L22.69,44.45C22.69,44.45 40.76,42.39 62.13,42.39C87.51,42.39 101.81,44.45 101.81,44.45L100.02,37.6Z"/>
        </clipPath>
        <g clip-path="url(#_clip2)">
            <path d="M62.37,99.34C24.72,99.34 -5.91,85.26 -5.91,67.95C-5.91,50.64 24.72,36.56 62.37,36.56C100.02,36.56 130.65,50.64 130.65,67.95C130.64,85.26 100.01,99.34 62.37,99.34ZM62.37,38.26C25.88,38.26 -3.8,51.58 -3.8,67.95C-3.8,84.32 25.89,97.64 62.37,97.64C98.85,97.64 128.54,84.32 128.54,67.95C128.54,51.58 98.85,38.26 62.37,38.26Z" style="fill:#70534a;fill-rule:nonzero;"/>
        </g>
    </g>
    <g>
        <path d="M55.62,17.48C55.53,17.54 55.44,17.58 55.33,17.58L45.57,17.58C45.22,17.58 45.07,18.04 45.36,18.24C45.59,18.4 45.82,18.56 46.04,18.72C46.83,19.26 47.77,19.54 48.73,19.54L56.39,19.54C56.16,18.8 55.91,18.11 55.62,17.48ZM55.15,16.52C54.63,15.53 54.13,14.76 53.76,14.24L41.22,14.24C40.95,14.24 40.83,14.57 41.02,14.75C41.14,14.86 41.26,14.97 41.39,15.07C42.45,16.01 43.82,16.52 45.24,16.52L55.15,16.52ZM56.69,20.6L49.95,20.6C49.74,20.6 49.67,20.89 49.86,20.98C53.94,23.01 56.24,22.88 56.24,22.88L57.03,22.88C56.98,22.09 56.86,21.33 56.69,20.6ZM78.94,17.58L69.18,17.58C69.07,17.58 68.97,17.54 68.89,17.48C68.61,18.11 68.35,18.8 68.12,19.53L75.78,19.53C76.74,19.53 77.67,19.25 78.47,18.71C78.69,18.56 78.92,18.4 79.15,18.23C79.43,18.04 79.29,17.58 78.94,17.58ZM83.29,14.24L70.75,14.24C70.38,14.76 69.87,15.53 69.36,16.52L79.27,16.52C80.69,16.52 82.06,16.01 83.12,15.07C83.24,14.96 83.36,14.85 83.49,14.75C83.68,14.57 83.56,14.24 83.29,14.24ZM74.56,20.6L67.83,20.6C67.66,21.33 67.54,22.09 67.48,22.88L68.26,22.88C68.26,22.88 70.57,23.02 74.64,20.98C74.84,20.89 74.77,20.6 74.56,20.6ZM66.48,11.58C65.73,11.93 64.83,12.14 64.01,12.26C62.85,12.44 61.67,12.44 60.51,12.26C59.69,12.14 58.79,11.93 58.04,11.58C57.57,11.36 57,11.6 56.81,12.08L56.02,14.05C55.81,14.57 55.85,14.9 56.04,15.16C56.74,16.12 58.41,18.72 58.52,21.86C58.53,22.21 58.72,22.53 59.03,22.68C59.67,22.99 60.8,23.58 61.65,24.28C62.01,24.57 62.5,24.57 62.86,24.28C63.71,23.58 64.84,22.99 65.48,22.68C65.8,22.53 65.98,22.21 65.99,21.86C66.1,18.72 67.77,16.12 68.47,15.16C68.658,14.907 68.7,14.572 68.58,14.28C68.36,13.72 67.98,12.8 67.7,12.09C67.51,11.6 66.95,11.36 66.48,11.58Z" style="fill:#70534a;fill-rule:nonzero;"/>
    </g>
    <g>
        <path d="M82.24,120.63C82.2,120.66 82.16,120.67 82.11,120.67L77.77,120.67C77.61,120.67 77.55,120.87 77.68,120.97L77.98,121.18C78.33,121.42 78.75,121.54 79.17,121.54L82.58,121.54C82.48,121.22 82.37,120.91 82.24,120.63ZM82.03,120.2C81.8,119.76 81.58,119.42 81.41,119.19L75.83,119.19C75.71,119.19 75.65,119.34 75.74,119.42C75.79,119.47 75.85,119.52 75.9,119.56C76.37,119.98 76.98,120.2 77.61,120.2L82.03,120.2ZM82.72,122.02L79.72,122.02C79.63,122.02 79.6,122.15 79.68,122.19C81.49,123.09 82.52,123.03 82.52,123.03L82.87,123.03C82.842,122.69 82.792,122.353 82.72,122.02ZM92.61,120.67L88.27,120.67C88.22,120.67 88.18,120.65 88.14,120.63C88.01,120.91 87.9,121.22 87.8,121.54L91.21,121.54C91.64,121.54 92.05,121.42 92.4,121.18L92.7,120.97C92.83,120.88 92.77,120.67 92.61,120.67ZM94.55,119.19L88.97,119.19C88.81,119.42 88.58,119.76 88.35,120.2L92.76,120.2C93.39,120.2 94,119.97 94.47,119.56C94.52,119.51 94.58,119.46 94.63,119.42C94.72,119.34 94.66,119.19 94.55,119.19ZM90.66,122.02L87.67,122.02C87.59,122.34 87.54,122.68 87.52,123.03L87.87,123.03C87.87,123.03 88.9,123.09 90.71,122.19C90.79,122.14 90.76,122.02 90.66,122.02ZM87.07,118.01C86.74,118.17 86.34,118.26 85.97,118.31C85.453,118.39 84.927,118.39 84.41,118.31C84.05,118.25 83.65,118.16 83.31,118.01C83.1,117.91 82.85,118.02 82.76,118.23L82.41,119.1C82.32,119.33 82.33,119.48 82.42,119.59C82.73,120.02 83.47,121.17 83.52,122.57C83.53,122.73 83.61,122.87 83.75,122.93C84.04,123.07 84.54,123.33 84.92,123.64C85.08,123.77 85.3,123.77 85.46,123.64C85.84,123.33 86.34,123.07 86.63,122.93C86.77,122.86 86.85,122.72 86.86,122.57C86.91,121.17 87.65,120.02 87.96,119.59C88.04,119.48 88.06,119.33 88.01,119.2C87.91,118.95 87.75,118.54 87.62,118.23C87.53,118.01 87.28,117.91 87.07,118.01Z" style="fill:#70534a;fill-rule:nonzero;"/>
    </g>
</svg>
