<?xml version="1.0" encoding="UTF-8" standalone="no"?>
<!DOCTYPE svg PUBLIC "-//W3C//DTD SVG 1.1//EN" "http://www.w3.org/Graphics/SVG/1.1/DTD/svg11.dtd">
<svg width="100%" height="100%" viewBox="0 0 128 128" version="1.1" xmlns="http://www.w3.org/2000/svg" xmlns:xlink="http://www.w3.org/1999/xlink" xml:space="preserve" xmlns:serif="http://www.serif.com/" style="fill-rule:evenodd;clip-rule:evenodd;stroke-linejoin:round;stroke-miterlimit:2;">
    <g transform="matrix(0.684716,-0.0188833,0.0188833,0.684716,26.3579,1.90426)">
        <path d="M15.08,113.53C8.57,91.19 8.57,45.39 8.57,45.39L92.57,45.06C92.57,45.06 92.57,86.55 87.69,113.25L15.08,113.53Z" style="fill:#6d4c41;fill-rule:nonzero;"/>
    </g>
    <g id="shirt">
        <g>
            <path d="M109.89,106.15C106.93,95.1 103.5,86.88 96.32,77.98C93.37,74.32 87.74,69.53 79.74,68.15C74.73,67.29 58.02,67.42 53.11,67.83C37.84,69.12 32.95,74.02 28.41,90.43C26.38,97.76 25.08,104.74 25.03,110.35C24.95,119.64 28.05,122.5 34.32,123.68C38.28,124.43 49.89,124.22 56.43,122.01C61.3,120.37 71.04,121.3 75.15,124.82C75.88,125.45 77.23,125.5 78.31,125.45C78.31,125.45 82.93,124.98 89.01,124.33C94.36,123.75 100.23,123.42 105.34,121.72C113.62,118.98 110.47,108.32 109.89,106.15ZM88.56,110.17C89.83,105.21 89.24,95.63 89.24,95.63C89.73,99.28 96.18,108.48 96.18,108.48L88.56,110.17Z" style="fill:rgb(101,31,255);fill-rule:nonzero;"/>
        </g>
    </g>
    <g id="bodyGroup">
        <path id="chest" d="M75.27,67.73L71.5,67.51C71.5,67.48 57.45,67.44 57.45,67.44L53.11,67.83C51.74,70.33 53.94,76.91 50.74,83.16C48.6,87.34 42.53,90.25 43.11,95.41C44.47,107.54 55.91,109.94 65.6,109.49C75.29,109.03 79.74,107 79.74,107C70.86,91.25 75.27,67.73 75.27,67.73Z" style="fill:#bf8f68;fill-rule:nonzero;"/>
        <path id="tone_2_" d="M62.51,101.4C62.26,101.4 62.01,101.32 61.8,101.17C61.32,100.81 61.25,100.17 61.65,99.73C64.98,96.03 64.98,89.44 62.46,85.84C62.01,85.2 61.5,84.58 61.86,84.28C62.21,83.99 62.69,84.21 63.09,84.64C66.78,88.6 68.4,96.09 63.87,100.88C63.63,101.12 62.83,101.4 62.51,101.4Z" style="fill:#99674f;fill-opacity:0.8;fill-rule:nonzero;"/>
    </g>
    <path id="hand_2_" d="M73.1,115.25L63.88,117.54L52.38,122.62C52.38,122.62 57.78,124.25 60.87,124.82C67.17,125.97 75.18,124.84 75.18,124.84C75.18,124.84 73.47,121.86 73.12,119.51C72.76,117.16 73.1,115.25 73.1,115.25Z" style="fill:#99674f;fill-rule:nonzero;"/>
    <g id="baby">
        <g>
            <path d="M34.97,108.44C37.2,108.16 39.56,108.45 41.52,108.82C43.28,109.11 46.01,109.9 48.93,110.25C49.62,110.3 50.31,110.32 50.97,110.32C54.1,109.47 54.83,107.36 55.87,103.91C56.99,100.21 56.69,96.6 54.88,93.62C52.17,89.19 47.46,86.58 43.15,87.13C41.57,87.33 38.8,87.71 37.37,88.7C33.82,91.16 32.1,94.64 31.44,97.83C31.2,98.98 30.17,105.33 34.97,108.44Z" style="fill:rgb(164,208,113);fill-rule:nonzero;"/>
        </g>
        <g>
            <path d="M36.02,87.46C33.49,89.45 32.03,92.31 32.47,94.62C33.21,93.32 33.71,91.49 36.71,89.69C43.31,85.71 50.49,88.66 53.2,95.31C56.23,102.75 51.48,110.36 51.48,110.36C54.6,109.78 55.5,108.25 55.5,108.25C60.2,103.22 60.8,96.4 56.01,90.14C51.24,83.88 42.89,82.06 36.02,87.46Z" style="fill:rgb(250,250,250);fill-rule:nonzero;"/>
        </g>
        <g>
            <path d="M54.48,108.41C55.84,106.65 57.63,102.34 59.23,99.76C61.83,95.57 67.36,93.01 73.74,94.66C81.36,96.63 83.98,100.69 85.36,101.58C86.74,102.47 92.65,99.79 96.7,109.16C96.7,109.16 91.94,109.39 89.82,110.18C86.34,111.48 80.68,114.61 76.98,114.93C67.62,115.74 59.33,110.02 59.33,110.02C56.51,109.88 51.49,110.34 51.49,110.34C51.49,110.34 53.12,110.17 54.48,108.41Z" style="fill:rgb(189,189,189);fill-rule:nonzero;"/>
        </g>
    </g>
    <g id="handGroup">
        <path id="hand" d="M59.1,110.51C59.18,105.58 62.22,104.99 62.9,100.54C62.94,100.25 65.19,98.94 65.49,101.85C65.61,103.07 65.3,104.35 64.78,105.46C64.54,105.97 64.66,106.65 66.75,105.67C69.85,104.22 71.24,101.67 72.83,99.78C73.25,99.28 74.06,99.15 74.5,99.35C75.19,99.66 75.56,100.22 75.09,101.6C74.18,104.27 71.53,106.78 71.53,106.78C73.81,106.58 76.16,104.51 77.85,102.97C78.56,102.32 79.07,101.56 79.96,101.67C80.99,101.79 81.15,103.47 80.58,104.5C80.26,105.1 80.18,105.32 80.18,105.32C80.18,105.32 81.22,106.68 80.9,107.72C80.67,108.48 80.02,109.44 80.02,109.44C79.48,111.46 78.21,112.7 74.6,115.15C69.36,118.72 61.6,119.93 61.6,119.93C61.98,114.19 59.1,110.51 59.1,110.51Z" style="fill:#bf8f68;fill-rule:nonzero;"/>
        <path id="tone_1_" d="M80.91,102.87C80.54,103.96 79.84,105.15 79.26,105.94C77.26,108.66 73.57,109.93 73.75,110.31C73.93,110.69 77.94,109.43 79.54,107.01C81.31,104.33 80.91,102.87 80.91,102.87Z" style="fill:#99674f;fill-rule:nonzero;"/>
        <path id="tone" d="M80.82,106.38C80.82,106.38 81.03,108.22 78.24,110.72C76.99,111.85 74.51,113.07 74.51,113.07C74.51,113.07 76.95,112.9 78.68,111.26C81.05,109.01 80.94,108.37 81.04,107.69C81.13,107.04 80.82,106.38 80.82,106.38Z" style="fill:#99674f;fill-rule:nonzero;"/>
    </g>
    <path d="M61.14,111.75C59.19,108.82 57.09,109.87 54.59,110.15C53.74,110.25 51.27,110.42 48.93,110.24C46.01,109.89 43.28,109.11 41.52,108.81C37.55,108.07 31.98,107.63 29.12,111.61C26.26,115.59 28.41,120.52 32.47,122.27C38.87,125.03 50.11,123.82 58.28,121.52C64.21,119.84 63.11,114.7 61.14,111.75Z" style="fill:url(#_Linear1);fill-rule:nonzero;"/>
    <g id="Ebene1" transform="matrix(0.916834,-0.0783498,0.0783498,0.916834,3.09011,5.6357)">
        <g transform="matrix(0.74316,0.0429119,-0.0429119,0.74316,25.5397,-1.88737)">
            <ellipse cx="50.57" cy="46.11" rx="42" ry="39.5" style="fill:#6d4c41;"/>
        </g>
        <g transform="matrix(0.744397,1.38778e-16,-1.38778e-16,0.744397,23.0305,-1.32679)">
            <path d="M59.61,90.25L41.44,90.25L41.44,99.84C41.44,104.18 45.14,107.7 49.7,107.7L51.35,107.7C55.91,107.7 59.61,104.18 59.61,99.84L59.61,90.25Z" style="fill:url(#_Linear2);fill-rule:nonzero;"/>
        </g>
        <g transform="matrix(0.744397,0,0,0.744397,22.8994,0.208323)">
            <path d="M50.46,13.57C26.11,13.57 19.74,32.44 19.74,58.96C19.74,85.47 38.63,93.56 50.46,93.56C62.29,93.56 81.18,85.47 81.18,58.96C81.18,32.45 74.81,13.57 50.46,13.57Z" style="fill:#bf8f68;fill-rule:nonzero;"/>
        </g>
        <g transform="matrix(0.744397,0,0,0.744397,22.8994,0.208323)">
            <path d="M59.8,78.11L41.34,78.11C40.28,78.11 39.83,78.82 40.53,79.89C41.51,81.38 45.14,84.25 50.57,84.25C56,84.25 59.63,81.38 60.61,79.89C61.31,78.82 60.86,78.11 59.8,78.11Z" style="fill:rgb(81,63,53);fill-rule:nonzero;"/>
        </g>
        <g transform="matrix(0.744397,0,0,0.744397,22.8994,0.208323)">
            <path d="M54.98,70.27C53.41,70.71 51.78,70.93 50.52,70.93C49.26,70.93 47.63,70.71 46.06,70.27C45.39,70.08 45.12,70.72 45.37,71.14C45.87,72.02 47.87,73.78 50.52,73.78C53.17,73.78 55.17,72.01 55.67,71.14C55.91,70.71 55.65,70.08 54.98,70.27Z" style="fill:#99674f;fill-rule:nonzero;"/>
        </g>
        <g transform="matrix(0.74316,0.0429119,-0.0429119,0.74316,25.5397,-1.88737)">
            <path d="M59.64,34.43C56.41,37.54 40.35,52.01 18.22,55.78L18.22,26.11C18.22,26.11 27.77,7.16 50.69,7.16C73.61,7.16 83.16,26.59 83.16,26.59L83.16,55.78C83.16,55.78 68.14,50.02 60.6,34.61C60.502,34.398 60.289,34.262 60.056,34.262C59.901,34.262 59.752,34.322 59.64,34.43Z" style="fill:#6d4c41;fill-rule:nonzero;"/>
        </g>
        <g transform="matrix(1.07357,0.168711,-0.168711,1.07357,1.74457,-7.64039)">
            <path d="M50.16,42.71C48.83,42.92 47.58,42.78 46.67,42.4C46.28,42.23 46.09,42.4 46.22,42.8C46.72,44.37 48.55,45.36 50.53,45.05C52.51,44.74 53.95,43.24 53.94,41.59C53.94,41.17 53.71,41.06 53.39,41.34C52.64,41.99 51.5,42.5 50.16,42.71Z" style="fill:rgb(64,64,64);fill-rule:nonzero;"/>
        </g>
        <g transform="matrix(1.07357,0.168711,-0.168711,1.07357,1.74457,-7.64039)">
            <path d="M71.32,39.38C69.99,39.59 68.74,39.45 67.83,39.07C67.44,38.9 67.25,39.07 67.38,39.47C67.88,41.04 69.71,42.03 71.69,41.72C73.67,41.41 75.11,39.91 75.1,38.26C75.1,37.84 74.87,37.73 74.55,38.01C73.8,38.66 72.65,39.17 71.32,39.38Z" style="fill:rgb(64,64,64);fill-rule:nonzero;"/>
        </g>
    </g>
    <defs>
        <linearGradient id="_Linear1" x1="0" y1="0" x2="1" y2="0" gradientUnits="userSpaceOnUse" gradientTransform="matrix(-23.2236,2.84407e-15,-2.84407e-15,-23.2236,55.0655,116.094)"><stop offset="0" style="stop-color:rgb(101,31,255);stop-opacity:1"/><stop offset="0.29" style="stop-color:rgb(101,31,255);stop-opacity:1"/><stop offset="1" style="stop-color:rgb(100,30,254);stop-opacity:0"/></linearGradient>
        <linearGradient id="_Linear2" x1="0" y1="0" x2="1" y2="0" gradientUnits="userSpaceOnUse" gradientTransform="matrix(-0.126799,-13.3112,12.7837,-0.121775,50.6444,107.521)"><stop offset="0" style="stop-color:#bf8f68;stop-opacity:1"/><stop offset="1" style="stop-color:#99674f;stop-opacity:1"/></linearGradient>
    </defs>
</svg>
