<?xml version="1.0" encoding="UTF-8" standalone="no"?>
<!DOCTYPE svg PUBLIC "-//W3C//DTD SVG 1.1//EN" "http://www.w3.org/Graphics/SVG/1.1/DTD/svg11.dtd">
<svg width="100%" height="100%" viewBox="0 0 128 128" version="1.1" xmlns="http://www.w3.org/2000/svg" xmlns:xlink="http://www.w3.org/1999/xlink" xml:space="preserve" xmlns:serif="http://www.serif.com/" style="fill-rule:evenodd;clip-rule:evenodd;stroke-linejoin:round;stroke-miterlimit:2;">
    <g>
        <path d="M64.03,119C51.89,119 43.08,106.21 43.08,88.58C43.08,71.18 52.04,51.72 64.03,51.72C75.99,51.72 84.92,71.18 84.92,88.58C84.92,106.21 76.13,119 64.03,119Z" style="fill:rgb(119,41,152);fill-rule:nonzero;"/>
    </g>
    <g>
        <path d="M64,93.67C40.16,93.67 22.86,77.76 22.86,55.84C22.86,34.23 40.45,10.05 64,10.05C74.98,10.05 85.4,15.24 93.33,24.67C100.76,33.5 105.03,44.87 105.03,55.84C105.03,77.76 87.78,93.67 64,93.67Z" style="fill:rgb(119,41,152);fill-rule:nonzero;"/>
    </g>
    <g transform="matrix(1,0,0,1,0,-2.825)">
        <clipPath id="_clip1">
            <rect x="4" y="4" width="120" height="120"/>
        </clipPath>
        <g clip-path="url(#_clip1)">
            <g transform="matrix(1,0,0,1,0,2.825)">
                <path d="M13,131L13,120.99C13,101.7 45.14,97.99 54.99,97.32C55.51,97.28 55.92,96.85 55.92,96.32L55.92,91.08L72.08,91.08L72.08,96.34C72.08,96.86 72.48,97.3 73.01,97.34C92.38,98.78 115,105.84 115,121L115,131L13,131Z" style="fill:rgb(29,140,200);fill-rule:nonzero;"/>
            </g>
            <g transform="matrix(1,0,0,1,-0.05,2.91)">
                <path d="M96.19,51.47C96.19,51.47 102.08,52.49 102.08,58.84C102.08,64.44 97.78,66.65 93.48,66.65L93.48,51.47L96.19,51.47ZM31.91,51.47C31.91,51.47 26.02,52.49 26.02,58.84C26.02,64.44 30.32,66.65 34.62,66.65L34.62,51.47L31.91,51.47Z" style="fill:rgb(29,140,200);fill-rule:nonzero;"/>
            </g>
            <g transform="matrix(1,0,0,1,-0.05,2.91)">
                <path d="M64.05,9.91C38.65,9.91 32.01,29.6 32.01,57.26C32.01,85.94 50.44,93.36 64.05,93.36C77.46,93.36 96.09,86.16 96.09,57.26C96.1,29.59 89.45,9.91 64.05,9.91Z" style="fill:rgb(66,173,231);fill-rule:nonzero;"/>
            </g>
            <g transform="matrix(1,0,0,1,-0.05,2.91)">
                <path d="M53.5,59.82C53.5,62.68 51.59,64.99 49.22,64.99C46.86,64.99 44.93,62.67 44.93,59.82C44.93,56.96 46.85,54.64 49.22,54.64C51.59,54.64 53.5,56.96 53.5,59.82M74.6,59.82C74.6,62.68 76.51,64.99 78.89,64.99C81.25,64.99 83.17,62.67 83.17,59.82C83.17,56.96 81.25,54.64 78.89,54.64C76.51,54.64 74.6,56.96 74.6,59.82" style="fill:rgb(33,33,33);fill-rule:nonzero;"/>
            </g>
            <g transform="matrix(1,0,0,1,-0.05,2.91)">
                <path d="M73.33,77.29L54.79,77.29C53.73,77.29 53.27,78 53.97,79.08C54.95,80.58 58.61,83.46 64.06,83.46C69.51,83.46 73.17,80.58 74.15,79.08C74.85,78.01 74.39,77.29 73.33,77.29Z" style="fill:rgb(33,33,33);fill-rule:nonzero;"/>
            </g>
            <g transform="matrix(1,0,0,1,-0.05,2.91)">
                <path d="M68.53,69.41C66.95,69.86 65.31,70.07 64.05,70.07C62.79,70.07 61.15,69.85 59.57,69.41C58.9,69.22 58.63,69.86 58.87,70.28C59.37,71.16 61.39,72.94 64.05,72.94C66.71,72.94 68.73,71.16 69.23,70.28C69.47,69.86 69.21,69.22 68.53,69.41Z" style="fill:rgb(19,81,124);fill-rule:nonzero;"/>
            </g>
        </g>
    </g>
    <g>
        <path d="M32.06,56.2C31.05,54.7 29.77,52.79 28.79,51.33C28.42,49.34 25.47,31.55 35.15,19.58C41.16,12.14 50.87,8.34 63.99,8.28L64.1,8.28C77.13,8.34 86.84,12.15 92.85,19.59C102.53,31.56 99.57,49.35 99.21,51.34C98.24,52.8 96.96,54.71 95.94,56.21C95.38,49.78 92.97,41.13 91.17,37.05C90.11,34.65 87.52,33.1 84.56,33.1C84.14,33.1 83.72,33.13 83.31,33.2C78.8,33.9 71.8,34.73 64.09,34.73L63.94,34.73C56.2,34.73 49.21,33.9 44.7,33.2C44.29,33.14 43.87,33.1 43.45,33.1C40.49,33.1 37.9,34.65 36.84,37.05C35.03,41.12 32.62,49.77 32.06,56.2Z" style="fill:rgb(136,46,160);fill-rule:nonzero;"/>
    </g>
    <g>
        <g>
            <path d="M32.99,28.23C32.62,28.89 31.71,29.08 30.98,28.64C30.25,28.2 29.99,27.31 30.4,26.67C30.81,26.03 31.69,25.87 32.39,26.29C33.09,26.71 33.36,27.57 32.99,28.23Z" style="fill:rgb(255,234,0);fill-rule:nonzero;"/>
            <path d="M35.64,29.66C35.3,30.33 34.41,30.57 33.66,30.17C32.91,29.77 32.62,28.89 32.99,28.23C33.36,27.57 34.24,27.37 34.96,27.75C35.67,28.14 35.98,28.98 35.64,29.66Z" style="fill:rgb(255,234,0);fill-rule:nonzero;"/>
            <path d="M38.33,30.94C38.02,31.63 37.15,31.91 36.39,31.55C35.63,31.19 35.3,30.33 35.64,29.65C35.98,28.98 36.84,28.73 37.57,29.08C38.3,29.43 38.64,30.25 38.33,30.94ZM41.07,32.1C40.79,32.8 39.94,33.13 39.16,32.8C38.38,32.47 38.02,31.63 38.33,30.94C38.64,30.25 39.49,29.96 40.23,30.27C40.97,30.58 41.35,31.39 41.07,32.1Z" style="fill:rgb(255,234,0);fill-rule:nonzero;"/>
            <path d="M43.85,33.11C43.61,33.83 42.77,34.19 41.98,33.9C41.2,33.61 40.79,32.79 41.07,32.09C41.35,31.39 42.17,31.05 42.93,31.33C43.68,31.61 44.09,32.4 43.85,33.11ZM46.67,33.99C46.46,34.72 45.64,35.12 44.85,34.87C44.06,34.62 43.61,33.82 43.86,33.11C44.1,32.39 44.91,32.02 45.67,32.26C46.43,32.5 46.88,33.27 46.67,33.99ZM49.51,34.74C49.34,35.48 48.54,35.92 47.74,35.71C46.94,35.5 46.46,34.72 46.67,34C46.88,33.27 47.67,32.86 48.44,33.06C49.2,33.26 49.68,34 49.51,34.74Z" style="fill:rgb(255,234,0);fill-rule:nonzero;"/>
            <path d="M52.38,35.35C52.24,36.09 51.47,36.57 50.66,36.4C49.85,36.23 49.34,35.47 49.51,34.74C49.68,34 50.45,33.56 51.23,33.72C52,33.89 52.52,34.61 52.38,35.35Z" style="fill:rgb(255,234,0);fill-rule:nonzero;"/>
            <path d="M55.27,35.83C55.16,36.58 54.42,37.1 53.6,36.96C52.78,36.83 52.24,36.1 52.38,35.35C52.52,34.61 53.26,34.12 54.04,34.25C54.82,34.38 55.37,35.08 55.27,35.83Z" style="fill:rgb(255,234,0);fill-rule:nonzero;"/>
            <path d="M58.17,36.16C58.1,36.91 57.38,37.46 56.56,37.37C55.74,37.27 55.16,36.57 55.27,35.82C55.38,35.07 56.09,34.55 56.88,34.65C57.66,34.74 58.24,35.41 58.17,36.16ZM61.08,36.37C61.04,37.13 60.35,37.71 59.53,37.65C58.71,37.59 58.1,36.92 58.17,36.17C58.24,35.42 58.93,34.87 59.72,34.92C60.51,34.97 61.12,35.61 61.08,36.37Z" style="fill:rgb(255,234,0);fill-rule:nonzero;"/>
            <path d="M64,36.44C64,37.2 63.33,37.81 62.51,37.79C61.69,37.77 61.05,37.13 61.08,36.37C61.12,35.61 61.78,35.03 62.57,35.05C63.36,35.07 64,35.68 64,36.44ZM66.92,36.37C66.96,37.13 66.32,37.77 65.49,37.79C64.66,37.81 64,37.19 64,36.44C64,35.68 64.64,35.07 65.43,35.05C66.22,35.03 66.88,35.61 66.92,36.37Z" style="fill:rgb(255,234,0);fill-rule:nonzero;"/>
            <path d="M69.83,36.16C69.9,36.91 69.29,37.59 68.47,37.64C67.65,37.7 66.95,37.11 66.92,36.36C66.88,35.6 67.49,34.96 68.28,34.91C69.07,34.86 69.76,35.41 69.83,36.16Z" style="fill:rgb(255,234,0);fill-rule:nonzero;"/>
            <path d="M72.73,35.83C72.84,36.58 72.26,37.28 71.44,37.38C70.62,37.48 69.9,36.93 69.83,36.17C69.76,35.42 70.34,34.75 71.12,34.66C71.91,34.56 72.63,35.08 72.73,35.83Z" style="fill:rgb(255,234,0);fill-rule:nonzero;"/>
            <path d="M75.62,35.35C75.76,36.09 75.22,36.82 74.4,36.96C73.58,37.09 72.84,36.58 72.73,35.83C72.62,35.08 73.17,34.39 73.95,34.26C74.73,34.13 75.48,34.61 75.62,35.35Z" style="fill:rgb(255,234,0);fill-rule:nonzero;"/>
            <path d="M78.49,34.74C78.66,35.48 78.15,36.23 77.34,36.4C76.53,36.57 75.76,36.09 75.62,35.35C75.48,34.61 76,33.89 76.77,33.72C77.55,33.56 78.32,34 78.49,34.74ZM81.33,33.99C81.54,34.72 81.06,35.49 80.26,35.7C79.46,35.91 78.66,35.47 78.49,34.73C78.32,33.99 78.8,33.25 79.57,33.05C80.34,32.86 81.12,33.27 81.33,33.99ZM84.15,33.11C84.39,33.83 83.95,34.63 83.16,34.87C82.37,35.12 81.55,34.71 81.34,33.99C81.13,33.26 81.58,32.5 82.34,32.26C83.1,32.02 83.91,32.4 84.15,33.11ZM86.93,32.1C87.21,32.8 86.8,33.62 86.02,33.91C85.24,34.2 84.4,33.83 84.16,33.12C83.92,32.4 84.33,31.62 85.08,31.34C85.82,31.06 86.65,31.39 86.93,32.1Z" style="fill:rgb(255,234,0);fill-rule:nonzero;"/>
            <path d="M89.67,30.94C89.98,31.63 89.61,32.47 88.84,32.8C88.07,33.13 87.21,32.8 86.93,32.1C86.65,31.4 87.03,30.59 87.77,30.28C88.51,29.97 89.36,30.25 89.67,30.94Z" style="fill:rgb(255,234,0);fill-rule:nonzero;"/>
            <path d="M92.36,29.66C92.7,30.33 92.37,31.19 91.61,31.56C90.85,31.92 89.98,31.64 89.67,30.95C89.36,30.26 89.71,29.43 90.43,29.09C91.16,28.73 92.02,28.98 92.36,29.66Z" style="fill:rgb(255,234,0);fill-rule:nonzero;"/>
            <path d="M95.01,28.23C95.38,28.89 95.09,29.76 94.34,30.17C93.59,30.57 92.7,30.33 92.36,29.66C92.02,28.99 92.33,28.14 93.04,27.76C93.76,27.37 94.64,27.57 95.01,28.23Z" style="fill:rgb(255,234,0);fill-rule:nonzero;"/>
            <path d="M97.6,26.67C98.01,27.31 97.75,28.2 97.02,28.64C96.29,29.08 95.38,28.89 95.01,28.23C94.64,27.57 94.91,26.71 95.61,26.29C96.31,25.87 97.2,26.03 97.6,26.67Z" style="fill:rgb(255,234,0);fill-rule:nonzero;"/>
        </g>
        <path d="M60.3,41.06L60.3,31.84L64,27.23L67.7,31.84L67.7,41.06L64,45.67L60.3,41.06Z" style="fill:rgb(212,20,90);fill-rule:nonzero;"/>
        <path d="M64,28.63L66.82,32.15L66.82,40.76L65.41,42.52L64,44.27L61.18,40.75L61.18,32.14L62.59,30.38L64,28.63M64,25.83L62.64,27.53L59.82,31.05L59.43,31.53L59.43,41.38L59.82,41.86L62.64,45.38L64,47.08L65.36,45.38L68.18,41.86L68.57,41.38L68.57,31.53L68.18,31.05L65.36,27.53L64,25.83Z" style="fill:rgb(253,216,53);fill-rule:nonzero;"/>
    </g>
    <clipPath id="_clip2">
        <rect x="4" y="4" width="120" height="120"/>
    </clipPath>
    <g clip-path="url(#_clip2)">
        <path d="M16.78,132.92L11.55,130.98C6.38,129.06 3.74,123.3 5.66,118.13L8.36,110.85C10.28,105.68 16.04,103.04 21.21,104.96L26.44,106.9C31.61,108.82 34.25,114.58 32.33,119.75L29.63,127.03C27.71,132.2 21.96,134.84 16.78,132.92Z" style="fill:rgb(244,164,191);fill-rule:nonzero;"/>
    </g>
    <clipPath id="_clip3">
        <rect x="4" y="4" width="120" height="120"/>
    </clipPath>
    <g clip-path="url(#_clip3)">
        <path d="M111.22,132.92L116.45,130.98C121.62,129.06 124.26,123.3 122.34,118.13L119.64,110.85C117.72,105.68 111.96,103.04 106.79,104.96L101.56,106.9C96.39,108.82 93.75,114.58 95.67,119.75L98.37,127.03C100.29,132.2 106.04,134.84 111.22,132.92Z" style="fill:rgb(244,164,191);fill-rule:nonzero;"/>
    </g>
    <g>
        <clipPath id="_clip4">
            <rect x="4" y="4" width="120" height="120"/>
        </clipPath>
        <g clip-path="url(#_clip4)">
            <path d="M25.18,131C24.92,128.1 24.38,122.05 28.12,117.96C30.78,115.05 35.21,113.58 41.29,113.58C42.82,113.58 44.48,113.67 46.22,113.86C51.24,114.4 54.81,115.84 58.59,117.37C60.21,118.02 61.88,118.7 63.67,119.3C63.78,119.34 63.89,119.35 64.01,119.35C64.13,119.35 64.24,119.33 64.35,119.3C66.13,118.7 67.8,118.04 69.41,117.39C73.2,115.87 76.77,114.44 81.81,113.86C83.42,113.67 84.96,113.58 86.39,113.58C91.93,113.58 96.11,114.99 98.83,117.76C102.94,121.96 102.81,128.23 102.74,131.24C102.74,131.35 102.74,131.46 102.73,131.56C97.35,131.43 76.59,131.39 64.01,131.39C51.39,131.39 30.54,131.43 25.24,131.56C25.21,131.39 25.2,131.2 25.18,131Z" style="fill:rgb(244,164,191);fill-rule:nonzero;"/>
        </g>
    </g>
</svg>
