<?xml version="1.0" encoding="UTF-8" standalone="no"?>
<!DOCTYPE svg PUBLIC "-//W3C//DTD SVG 1.1//EN" "http://www.w3.org/Graphics/SVG/1.1/DTD/svg11.dtd">
<svg width="100%" height="100%" viewBox="0 0 128 128" version="1.1" xmlns="http://www.w3.org/2000/svg" xmlns:xlink="http://www.w3.org/1999/xlink" xml:space="preserve" xmlns:serif="http://www.serif.com/" style="fill-rule:evenodd;clip-rule:evenodd;stroke-linecap:round;stroke-linejoin:round;stroke-miterlimit:10;">
    <path d="M90.42,61.75C90.42,61.75 87.25,45.67 83.67,42.83C79.57,39.59 70.63,39.5 70.63,39.5L70.59,29.83L59.63,28.81L59.84,39.33C59.84,39.33 53.67,39.58 50.67,41.41C47.67,43.24 39.67,51.08 39.67,51.08C39.67,51.08 24.69,55.12 23.07,55.31C17.69,53.19 12.84,61.33 14.67,62.91C16.5,64.49 39.84,61.08 43.17,59.41C46.5,57.74 51.19,53.6 52.5,52.49L52.5,71.41L62.08,84.16L76,72.69C76,72.69 77.44,66.31 77.88,52.5L82.88,63.75C82.88,63.75 86.26,74.41 86.19,75.97C86.1,78.2 85.03,78.42 84.1,79.24C81.22,81.78 83.1,83.49 83.43,83.71C83.76,83.93 84.24,83.93 84.24,83.93L84.03,85.66C84.07,86.26 84.45,87.25 85.06,87.25L90,87C91.23,86.86 92.28,83.2 92.38,79.81C92.56,73.31 90.42,61.75 90.42,61.75Z" style="fill:#fadcbc;fill-rule:nonzero;"/>
    <g transform="matrix(0.692229,0,0,0.692229,19.711,11.0222)">
        <g transform="matrix(0.397468,0,0,0.397468,39.8629,-12.7074)">
            <path d="M106.91,66.04C106.91,66.04 114.78,67.4 114.78,75.88C114.78,83.36 109.04,86.31 103.3,86.31L103.3,66.04L106.91,66.04ZM21.09,66.04C21.09,66.04 13.22,67.4 13.22,75.88C13.22,83.36 18.96,86.31 24.7,86.31L24.7,66.04L21.09,66.04Z" style="fill:#dba689;fill-rule:nonzero;"/>
        </g>
        <g transform="matrix(0.397468,0,0,0.397468,39.8629,-12.7074)">
            <path d="M64,10.55C30.09,10.55 21.22,36.84 21.22,73.77C21.22,112.06 45.83,121.96 64,121.96C81.9,121.96 106.78,112.34 106.78,73.77C106.78,36.83 97.91,10.55 64,10.55Z" style="fill:#fadcbc;fill-rule:nonzero;"/>
        </g>
        <g transform="matrix(0.397468,0,0,0.397468,39.8629,-12.7074)">
            <path d="M49.91,77.19C49.91,81 47.36,84.09 44.2,84.09C41.04,84.09 38.47,81 38.47,77.19C38.47,73.37 41.04,70.28 44.2,70.28C47.36,70.28 49.91,73.37 49.91,77.19M78.08,77.19C78.08,81 80.64,84.09 83.8,84.09C86.95,84.09 89.52,81 89.52,77.19C89.52,73.37 86.95,70.28 83.8,70.28C80.64,70.28 78.08,73.37 78.08,77.19" style="fill:rgb(68,68,68);fill-rule:nonzero;"/>
        </g>
        <g transform="matrix(0.397468,0,0,0.397468,39.8629,-12.7074)">
            <path d="M69.98,89.99C67.87,90.59 65.69,90.88 64,90.88C62.31,90.88 60.13,90.59 58.02,89.99C57.12,89.73 56.77,90.59 57.09,91.16C57.76,92.34 60.45,94.71 64,94.71C67.55,94.71 70.24,92.34 70.91,91.16C71.24,90.59 70.88,89.74 69.98,89.99Z" style="fill:#dba689;fill-rule:nonzero;"/>
        </g>
        <g transform="matrix(0.397468,0,0,0.397468,39.8629,-12.7074)">
            <path d="M65.02,5.72C65.02,5.72 64.36,5.7 64.07,5.7C63.78,5.7 63.12,5.72 63.12,5.72C26.53,6.43 15.5,28.44 15.5,43.71C15.5,58.55 15.51,69.45 15.51,69.45C15.51,69.45 16.09,68.85 17.17,68.01C18.32,67.12 19.58,66.62 19.58,66.62L21.43,79L33.62,53.52C33.69,53.36 33.86,53.27 34.03,53.29L41.26,54.09C48.52,54.9 55.82,55.29 63.12,55.31L63.12,55.33C63.44,55.33 63.75,55.32 64.07,55.32C64.39,55.32 64.7,55.33 65.02,55.33L65.02,55.31C72.32,55.29 79.61,54.9 86.88,54.09L94.11,53.29C94.28,53.27 94.45,53.36 94.52,53.52L106.71,79L108.56,66.61C108.56,66.61 109.83,67.11 110.97,68C112.05,68.84 112.63,69.44 112.63,69.44C112.63,69.44 112.64,58.54 112.64,43.7C112.65,28.44 101.62,6.43 65.02,5.72Z" style="fill:rgb(27,187,172);fill-rule:nonzero;"/>
        </g>
        <g transform="matrix(0.397468,0,0,0.397468,39.8629,-12.7074)">
            <path d="M76.38,100.52L51.62,100.52C50.2,100.52 49.59,101.47 50.53,102.9C51.84,104.9 56.72,108.75 64,108.75C71.28,108.75 76.16,104.9 77.47,102.9C78.41,101.47 77.8,100.52 76.38,100.52Z" style="fill:rgb(81,63,53);fill-rule:nonzero;"/>
        </g>
    </g>
    <g>
        <path d="M66.21,124.48C63.15,124.48 60.35,123.85 58.12,122.67C48.55,117.58 44.96,103.16 48.51,84.09C49.25,80.13 50.69,74.572 52.5,70.872C53.34,72.112 55.22,75.47 61.56,75.76C61.92,75.78 62.27,75.78 62.62,75.78C67.64,75.78 71.85,74.21 74.37,73.28C75.03,73.04 75.64,72.78 76,72.69C76.94,83.33 74.13,87.53 71.14,91.96C68.36,96.08 65.48,100.34 65.48,109.88C65.48,116.31 67.82,117.88 71.58,118.32C71.81,118.35 72.04,118.36 72.27,118.36C74.28,118.36 76.48,117.37 78.99,115.34L79.37,115.04L79.09,114.65C77.44,112.34 75.69,109.57 75.22,106.55C74.74,103.46 75.43,99.73 77.13,96.31C77.75,95.06 78.64,93.47 79.96,92.35C80.32,92.04 80.71,91.76 81.13,91.51C80.89,92.2 80.71,92.89 80.67,93.09C80.39,94.36 80.58,95.83 81.19,97.22C81.74,98.47 82.55,99.53 83.33,100.56C84.21,101.72 85.04,102.81 85.54,104.14C85.8,104.84 85.99,105.56 86.11,106.28C86.14,106.45 86.14,106.67 86.15,106.89C86.17,107.46 86.19,108.22 86.48,108.63L86.63,109.01L86.9,109.01C87.04,109.01 87.05,108.84 88.48,108.26C89.05,108.03 89.61,107.72 89.73,107.68C90.67,107.4 91.7,107.22 92.7,107.09L92.88,107.05C95.02,106.754 97.183,106.663 99.34,106.78L100.14,106.83C100.8,106.87 101.45,106.91 102.11,106.91C102.87,106.91 103.53,106.85 104.13,106.73C104.35,106.69 104.56,106.63 104.78,106.56C105.48,106.34 106.1,106.03 106.62,105.63C105.16,110.38 100.27,119 90.39,119C87.94,119 85.3,118.46 82.55,117.4L82.18,117.26L81.95,117.58C79,121.71 72.67,124.48 66.21,124.48Z" style="fill:rgb(27,187,172);fill-rule:nonzero;"/>
        <path d="M51.4,78.01C51.4,78.01 51.43,78.16 51.5,78.38C51.57,78.58 51.7,78.85 51.87,79.1C52.05,79.36 52.27,79.61 52.54,79.86C52.66,79.99 52.83,80.09 52.96,80.22C53.1,80.34 53.26,80.45 53.42,80.54C53.43,80.55 53.64,80.68 53.64,80.67C53.68,80.7 53.76,80.73 53.83,80.76C53.98,80.8 54.13,80.89 54.3,80.92C54.63,81 54.97,81.04 55.29,81.04C55.61,81.03 55.91,81 56.13,80.95C56.36,80.9 56.5,80.86 56.5,80.86L56.58,80.94C56.58,80.94 56.5,81.04 56.33,81.18C56.16,81.33 55.9,81.52 55.54,81.67C55.19,81.82 54.74,81.92 54.25,81.91C53.77,81.9 53.24,81.76 52.81,81.48C51.94,80.92 51.35,80 51.21,79.24C51.06,78.47 51.32,77.96 51.29,77.98L51.4,78.01ZM58.49,81.36C58.49,81.36 58.61,81.42 58.81,81.53C58.99,81.62 59.26,81.75 59.54,81.87C59.83,81.99 60.14,82.09 60.45,82.18C60.61,82.23 60.77,82.24 60.93,82.28C61.09,82.31 61.24,82.33 61.4,82.34C61.41,82.35 61.64,82.37 61.65,82.36C61.7,82.37 61.79,82.36 61.87,82.36C62.03,82.34 62.19,82.36 62.35,82.34C62.67,82.31 62.99,82.25 63.29,82.18C63.88,82.03 64.39,81.82 64.39,81.82L64.48,81.88C64.48,81.88 64.42,81.98 64.29,82.13C64.16,82.29 63.97,82.5 63.69,82.71C63.41,82.92 63.06,83.12 62.65,83.27C62.24,83.41 61.76,83.48 61.3,83.45C60.36,83.36 59.53,82.84 59.06,82.34C58.863,82.142 58.692,81.92 58.55,81.68C58.45,81.51 58.4,81.41 58.4,81.41L58.49,81.36ZM60.46,85.12C60.46,85.12 60.56,85.2 60.75,85.34C60.91,85.46 61.16,85.63 61.41,85.79C61.68,85.95 61.97,86.1 62.26,86.24C62.41,86.31 62.57,86.35 62.71,86.42C62.86,86.48 63.01,86.52 63.16,86.55C63.17,86.56 63.39,86.61 63.41,86.61C63.46,86.62 63.54,86.63 63.62,86.64C63.78,86.65 63.94,86.69 64.1,86.69C64.42,86.71 64.75,86.7 65.06,86.68C65.66,86.63 66.2,86.5 66.2,86.5L66.28,86.58C66.28,86.58 66.2,86.67 66.05,86.8C65.9,86.94 65.67,87.11 65.37,87.28C65.07,87.44 64.68,87.59 64.25,87.67C63.82,87.75 63.34,87.74 62.89,87.64C61.97,87.41 61.24,86.76 60.85,86.19C60.65,85.91 60.52,85.65 60.45,85.46C60.37,85.27 60.34,85.17 60.34,85.17L60.46,85.12ZM65.42,82.33L65.77,82.41C65.97,82.45 66.26,82.5 66.56,82.54C66.87,82.57 67.2,82.58 67.52,82.58C67.68,82.58 67.85,82.54 68.01,82.54C68.17,82.53 68.33,82.5 68.47,82.46C68.48,82.46 68.71,82.42 68.72,82.41C68.77,82.4 68.85,82.37 68.92,82.35C69.06,82.29 69.23,82.26 69.37,82.18C69.67,82.05 69.95,81.9 70.22,81.74C70.47,81.58 70.71,81.41 70.87,81.28C71.04,81.14 71.14,81.06 71.14,81.06L71.25,81.09C71.25,81.09 71.22,81.2 71.15,81.39C71.08,81.58 70.96,81.85 70.77,82.14C70.57,82.43 70.3,82.73 69.94,82.99C69.59,83.25 69.15,83.46 68.7,83.56C67.77,83.76 66.82,83.49 66.22,83.14C65.92,82.97 65.69,82.78 65.55,82.64C65.4,82.5 65.33,82.41 65.33,82.41L65.42,82.33ZM49.4,84.55C49.41,84.54 49.41,84.72 49.48,84.94C49.54,85.15 49.67,85.43 49.85,85.69C49.94,85.82 50.06,85.95 50.17,86.08C50.3,86.2 50.44,86.34 50.58,86.47C50.73,86.6 50.89,86.72 51.05,86.85C51.2,86.98 51.41,87.1 51.56,87.19C51.69,87.28 51.74,87.3 51.81,87.34C51.89,87.37 51.98,87.42 52.07,87.45C52.24,87.53 52.43,87.6 52.62,87.65C52.81,87.68 53,87.76 53.19,87.78C53.38,87.8 53.56,87.83 53.74,87.84C54.09,87.86 54.41,87.84 54.65,87.81C54.89,87.78 55.04,87.75 55.04,87.75L55.11,87.84C55.11,87.84 55.01,87.93 54.81,88.07C54.61,88.21 54.31,88.37 53.92,88.49C53.53,88.61 53.05,88.67 52.54,88.63C52.03,88.59 51.48,88.45 51.01,88.17C50.07,87.6 49.36,86.68 49.19,85.86C49.09,85.46 49.13,85.1 49.19,84.87C49.25,84.63 49.31,84.52 49.31,84.52L49.4,84.55ZM55.53,87.8C55.53,87.8 55.63,87.88 55.81,88.03C55.97,88.16 56.2,88.34 56.45,88.51C56.71,88.68 56.99,88.85 57.28,89.01C57.42,89.09 57.58,89.14 57.72,89.21C57.87,89.28 58.02,89.33 58.17,89.37C58.18,89.38 58.4,89.45 58.41,89.45C58.46,89.47 58.54,89.48 58.62,89.5C58.78,89.52 58.93,89.57 59.1,89.58C59.42,89.62 59.75,89.63 60.06,89.62C60.36,89.61 60.65,89.58 60.86,89.55C61.08,89.52 61.21,89.5 61.21,89.5L61.29,89.58C61.29,89.58 61.21,89.66 61.05,89.79C60.89,89.92 60.66,90.08 60.34,90.23C59.72,90.53 58.76,90.72 57.85,90.44C56.95,90.16 56.25,89.47 55.89,88.88C55.71,88.59 55.59,88.32 55.53,88.13C55.46,87.94 55.44,87.83 55.44,87.83L55.53,87.8ZM62.25,89.85L62.55,90.04C62.72,90.14 62.97,90.28 63.23,90.41C63.5,90.53 63.8,90.65 64.09,90.74C64.24,90.79 64.39,90.8 64.54,90.85C64.69,90.88 64.83,90.9 64.98,90.91C65.17,90.93 65.26,90.94 65.42,90.94C65.57,90.92 65.72,90.94 65.88,90.92C66.19,90.89 66.5,90.83 66.79,90.76C67.36,90.61 67.86,90.4 67.86,90.4L67.95,90.46C67.95,90.46 67.89,90.56 67.77,90.71C67.364,91.234 66.815,91.629 66.19,91.85C65.79,91.99 65.33,92.06 64.87,92.03C63.94,91.93 63.16,91.38 62.73,90.86C62.51,90.6 62.37,90.36 62.28,90.18C62.19,90 62.15,89.9 62.15,89.9L62.25,89.85ZM48.38,93.55C48.38,93.55 48.41,93.7 48.47,93.9C48.53,94.08 48.65,94.34 48.8,94.57C48.97,94.81 49.16,95.04 49.39,95.27C49.5,95.39 49.65,95.49 49.76,95.61C49.89,95.72 50.02,95.83 50.16,95.92C50.269,96.004 50.387,96.078 50.51,96.14C50.64,96.19 50.77,96.28 50.91,96.31C51.2,96.4 51.5,96.47 51.8,96.5C52.09,96.52 52.38,96.51 52.58,96.48C52.8,96.45 52.93,96.43 52.93,96.43L53.01,96.51C53.01,96.51 52.93,96.6 52.76,96.72C52.6,96.85 52.34,97.01 52.01,97.13C51.67,97.25 51.26,97.32 50.81,97.28C50.37,97.25 49.89,97.09 49.49,96.81C48.72,96.24 48.21,95.37 48.12,94.66C48.02,93.94 48.28,93.48 48.26,93.49L48.38,93.55ZM53.13,96.56C53.13,96.56 53.23,96.64 53.4,96.77C53.55,96.88 53.78,97.04 54.01,97.2C54.25,97.35 54.52,97.5 54.78,97.63C54.91,97.7 55.06,97.74 55.18,97.81C55.31,97.87 55.45,97.91 55.58,97.95C55.58,97.96 55.79,98.02 55.8,98.02C55.84,98.04 55.91,98.05 55.99,98.06C56.13,98.07 56.27,98.13 56.42,98.14C56.71,98.18 57.01,98.2 57.29,98.21C57.85,98.21 58.37,98.14 58.37,98.14L58.45,98.22C58.45,98.22 58.37,98.3 58.23,98.41C58.09,98.53 57.87,98.68 57.58,98.82C57.01,99.1 56.11,99.27 55.27,99.02C54.43,98.76 53.79,98.12 53.46,97.58C53.29,97.31 53.18,97.06 53.12,96.88C53.06,96.7 53.03,96.6 53.03,96.6L53.13,96.56ZM58.55,98.31C58.55,98.31 58.65,98.38 58.83,98.49C58.99,98.59 59.22,98.72 59.46,98.84C59.71,98.96 59.98,99.07 60.24,99.16C60.37,99.21 60.51,99.22 60.64,99.27C60.77,99.31 60.9,99.33 61.02,99.34C61.2,99.37 61.26,99.38 61.41,99.39C61.54,99.38 61.68,99.41 61.82,99.4C62.1,99.39 62.38,99.37 62.66,99.33C63.19,99.24 63.68,99.08 63.68,99.08L63.77,99.15C63.77,99.15 63.71,99.24 63.59,99.37C63.193,99.837 62.668,100.178 62.08,100.35C61.7,100.46 61.27,100.5 60.85,100.45C60,100.31 59.3,99.75 58.93,99.26C58.74,99.01 58.62,98.78 58.55,98.61C58.48,98.44 58.45,98.35 58.45,98.35L58.55,98.31ZM55.28,76.17C55.28,76.17 55.39,76.27 55.57,76.43C55.74,76.58 55.99,76.78 56.26,76.99C56.54,77.19 56.86,77.39 57.19,77.57C57.35,77.66 57.54,77.72 57.7,77.81C57.87,77.88 58.04,77.94 58.22,77.98C58.24,77.99 58.47,78.06 58.5,78.06C58.56,78.08 58.66,78.09 58.75,78.11C58.93,78.12 59.12,78.17 59.3,78.18C59.67,78.2 60.04,78.19 60.38,78.16C60.72,78.12 61.03,78.07 61.26,78.02C61.5,77.97 61.63,77.94 61.63,77.94L61.71,78.02C61.71,78.02 61.62,78.11 61.45,78.26C61.28,78.41 61.02,78.6 60.68,78.77C60.34,78.94 59.9,79.09 59.42,79.16C58.94,79.23 58.41,79.21 57.91,79.07C56.9,78.78 56.11,78.02 55.7,77.38C55.49,77.06 55.36,76.76 55.28,76.55C55.2,76.34 55.17,76.22 55.17,76.22L55.28,76.17ZM64.25,78.03C64.25,78.03 64.39,78.04 64.61,78.07C64.82,78.1 65.13,78.15 65.44,78.22C65.76,78.27 66.09,78.32 66.41,78.34C66.57,78.36 66.74,78.34 66.9,78.35C67.06,78.36 67.26,78.34 67.41,78.34C67.53,78.34 67.63,78.34 67.68,78.33C67.75,78.33 67.84,78.31 67.91,78.3C68.07,78.28 68.22,78.27 68.37,78.23C68.51,78.18 68.67,78.17 68.81,78.12C68.95,78.07 69.09,78.02 69.23,77.96C69.572,77.797 69.9,77.607 70.21,77.39L70.31,77.43C70.31,77.43 70.27,77.54 70.18,77.71C70.09,77.89 69.95,78.14 69.72,78.4C69.5,78.66 69.18,78.92 68.79,79.11C68.4,79.3 67.94,79.41 67.48,79.44C66.55,79.5 65.64,79.18 65.08,78.79C64.51,78.41 64.18,78.1 64.18,78.1L64.25,78.03ZM53.05,83.23C53.05,83.23 53.16,83.33 53.34,83.49C53.51,83.64 53.76,83.84 54.03,84.05C54.31,84.25 54.63,84.45 54.96,84.63C55.12,84.72 55.31,84.78 55.47,84.87C55.64,84.94 55.81,85 55.99,85.04C56.01,85.05 56.24,85.12 56.27,85.12C56.33,85.14 56.43,85.15 56.52,85.17C56.7,85.18 56.89,85.23 57.07,85.24C57.44,85.26 57.81,85.25 58.15,85.22C58.49,85.18 58.8,85.13 59.03,85.08C59.27,85.03 59.4,85 59.4,85L59.48,85.08C59.48,85.08 59.39,85.17 59.22,85.32C59.05,85.47 58.79,85.66 58.45,85.83C58.11,86 57.67,86.15 57.19,86.22C56.71,86.29 56.18,86.27 55.68,86.13C54.67,85.84 53.88,85.08 53.47,84.44C53.26,84.12 53.13,83.82 53.05,83.61C52.97,83.4 52.94,83.28 52.94,83.28L53.05,83.23ZM58.28,93.16C58.28,93.16 58.38,93.24 58.57,93.38C58.73,93.5 58.98,93.67 59.23,93.83C59.5,93.99 59.79,94.14 60.08,94.28C60.23,94.35 60.39,94.39 60.53,94.46C60.68,94.52 60.83,94.56 60.98,94.59C60.99,94.6 61.21,94.65 61.23,94.65C61.28,94.66 61.36,94.67 61.44,94.68C61.6,94.69 61.76,94.73 61.92,94.73C62.24,94.75 62.57,94.74 62.88,94.72C63.48,94.67 64.02,94.54 64.02,94.54L64.1,94.62C64.1,94.62 64.02,94.71 63.87,94.84C63.72,94.98 63.49,95.15 63.19,95.32C62.89,95.48 62.5,95.63 62.07,95.71C61.64,95.79 61.16,95.78 60.71,95.68C59.79,95.45 59.06,94.8 58.67,94.23C58.47,93.95 58.34,93.69 58.27,93.5C58.19,93.31 58.16,93.21 58.16,93.21L58.28,93.16ZM51.05,89.99C51.05,89.99 51.15,90.09 51.32,90.28C51.47,90.44 51.71,90.67 51.96,90.89C52.22,91.12 52.53,91.34 52.84,91.55C52.99,91.66 53.17,91.73 53.33,91.83C53.49,91.92 53.66,92 53.83,92.05C53.84,92.06 54.08,92.15 54.11,92.15C54.17,92.17 54.26,92.2 54.35,92.22C54.53,92.25 54.71,92.32 54.89,92.33C55.26,92.38 55.63,92.4 55.97,92.4C56.31,92.39 56.62,92.37 56.85,92.33C57.09,92.3 57.23,92.28 57.23,92.28L57.3,92.37C57.3,92.37 57.2,92.46 57.02,92.59C56.84,92.72 56.56,92.89 56.2,93.04C55.84,93.18 55.4,93.3 54.91,93.32C54.43,93.35 53.9,93.27 53.41,93.1C52.43,92.72 51.7,91.9 51.35,91.22C51.17,90.88 51.06,90.58 51,90.36C50.94,90.14 50.92,90.02 50.92,90.02L51.05,89.99ZM56.28,102.16C56.28,102.16 56.38,102.24 56.57,102.38C56.73,102.5 56.98,102.67 57.23,102.83C57.5,102.99 57.79,103.14 58.08,103.28C58.23,103.35 58.39,103.39 58.53,103.46C58.68,103.52 58.83,103.56 58.98,103.59C58.99,103.6 59.21,103.65 59.23,103.65C59.28,103.66 59.36,103.67 59.44,103.68C59.6,103.69 59.76,103.73 59.92,103.73C60.24,103.75 60.57,103.74 60.88,103.72C61.48,103.67 62.02,103.54 62.02,103.54L62.1,103.62C62.1,103.62 62.02,103.71 61.87,103.84C61.72,103.98 61.49,104.15 61.19,104.32C60.89,104.48 60.5,104.63 60.07,104.71C59.64,104.79 59.16,104.78 58.71,104.68C57.79,104.45 57.06,103.8 56.67,103.23C56.47,102.95 56.34,102.69 56.27,102.5C56.19,102.31 56.16,102.21 56.16,102.21L56.28,102.16ZM49.05,99.99C49.05,99.99 49.15,100.09 49.32,100.28C49.47,100.44 49.71,100.67 49.96,100.89C50.22,101.12 50.53,101.34 50.84,101.55C50.99,101.66 51.17,101.73 51.33,101.83C51.49,101.92 51.66,102 51.83,102.05C51.84,102.06 52.08,102.15 52.11,102.15C52.17,102.17 52.26,102.2 52.35,102.22C52.53,102.25 52.71,102.32 52.89,102.33C53.26,102.38 53.63,102.4 53.97,102.4C54.31,102.39 54.62,102.37 54.85,102.33C55.09,102.3 55.23,102.28 55.23,102.28L55.3,102.37C55.3,102.37 55.2,102.46 55.02,102.59C54.84,102.72 54.56,102.89 54.2,103.04C53.84,103.18 53.4,103.3 52.91,103.32C52.43,103.35 51.9,103.27 51.41,103.1C50.43,102.72 49.7,101.9 49.35,101.22C49.17,100.88 49.06,100.58 49,100.36C48.94,100.14 48.92,100.02 48.92,100.02L49.05,99.99ZM52.69,104.69C52.69,104.69 52.81,104.77 53.01,104.91C53.2,105.03 53.48,105.2 53.77,105.37C54.08,105.53 54.42,105.68 54.77,105.82C54.94,105.89 55.13,105.92 55.31,105.98C55.49,106.03 55.67,106.07 55.85,106.08C55.87,106.09 56.11,106.12 56.14,106.12C56.21,106.13 56.3,106.13 56.39,106.13C56.57,106.12 56.76,106.15 56.95,106.12C57.32,106.09 57.68,106.03 58.02,105.95C58.35,105.86 58.65,105.77 58.87,105.69C59.1,105.6 59.23,105.56 59.23,105.56L59.32,105.63C59.32,105.63 59.25,105.73 59.1,105.9C58.95,106.07 58.72,106.3 58.4,106.52C58.08,106.74 57.68,106.95 57.21,107.08C56.75,107.21 56.21,107.26 55.7,107.2C54.66,107.05 53.77,106.41 53.27,105.83C53.02,105.54 52.84,105.27 52.74,105.07C52.63,104.87 52.59,104.76 52.59,104.76L52.69,104.69ZM84.24,115.05C84.24,115.05 84.52,114.6 85.06,114.04C85.6,113.48 86.41,112.82 87.29,112.29C88.18,111.77 89.15,111.37 89.9,111.18C90.65,110.97 91.18,110.95 91.18,110.95C91.18,110.95 90.77,111.29 90.13,111.7C89.5,112.12 88.65,112.64 87.79,113.15C86.93,113.65 86.07,114.14 85.39,114.49C84.74,114.85 84.24,115.05 84.24,115.05ZM90.36,114.72C90.36,114.72 90.73,114.39 91.26,113.98C91.8,113.56 92.49,113.01 93.16,112.44C93.84,111.88 94.5,111.29 95.01,110.84C95.52,110.39 95.9,110.09 95.9,110.09C95.9,110.09 95.8,110.57 95.46,111.2C95.13,111.83 94.53,112.6 93.8,113.21C93.43,113.51 93.04,113.79 92.64,114C92.25,114.21 91.87,114.38 91.52,114.49C90.85,114.7 90.36,114.72 90.36,114.72ZM96.21,114.34C96.21,114.34 96.28,114.25 96.42,114.1C96.55,113.96 96.74,113.75 96.97,113.5C98.025,112.354 98.956,111.1 99.75,109.76C100.08,109.2 100.33,108.79 100.33,108.79C100.33,108.79 100.41,109.26 100.29,109.95C100.24,110.3 100.12,110.69 99.95,111.1C99.78,111.51 99.53,111.91 99.27,112.3C98.98,112.67 98.66,113.02 98.32,113.3C97.98,113.58 97.64,113.81 97.32,113.96C96.67,114.29 96.21,114.34 96.21,114.34ZM80.63,113.2C80.63,113.2 80.66,113.07 80.74,112.86C80.81,112.65 80.9,112.36 81.02,112C81.568,110.325 81.927,108.594 82.09,106.84C82.16,106.11 82.22,105.59 82.22,105.59C82.22,105.59 82.49,106.04 82.67,106.81C82.77,107.19 82.82,107.64 82.83,108.13C82.84,108.62 82.78,109.14 82.69,109.66C82.57,110.17 82.42,110.67 82.21,111.12C82,111.56 81.78,111.96 81.54,112.27C81.05,112.9 80.63,113.2 80.63,113.2ZM79.59,110.75C79.59,110.75 79.43,110.63 79.2,110.36C78.97,110.09 78.68,109.65 78.49,109.06C78.29,108.47 78.18,107.75 78.19,106.98C78.2,106.59 78.23,106.21 78.29,105.81C78.35,105.42 78.42,105.03 78.5,104.64C78.67,103.87 78.85,103.13 78.98,102.43C79.1,101.74 79.16,101.09 79.16,100.53C79.15,99.97 79.08,99.5 79,99.17C78.92,98.84 78.85,98.65 78.85,98.65C78.85,98.65 78.99,98.79 79.18,99.09C79.37,99.39 79.6,99.86 79.73,100.46C79.87,101.06 79.92,101.78 79.86,102.55C79.81,103.31 79.64,104.09 79.49,104.85C79.4,105.23 79.32,105.6 79.25,105.97C79.19,106.33 79.11,106.7 79.07,107.04C78.99,107.73 78.98,108.38 79.05,108.93C79.11,109.48 79.25,109.94 79.37,110.26C79.49,110.56 79.59,110.75 79.59,110.75Z" style="fill:rgb(4,126,112);fill-rule:nonzero;"/>
    </g>
    <g>
        <path d="M16.06,63.92C15.43,62.87 16.53,54.78 17.26,53.59C17.48,53.23 18.05,53.02 18.77,53.02C20.14,53.02 21.71,53.73 22.77,54.82C23.88,55.96 24.45,57.47 24.4,59.2C24.34,62.07 22.26,64 19.25,64L16.06,63.92Z" style="fill:#fadcbc;fill-rule:nonzero;"/>
    </g>
    <g>
        <path d="M24.31,121.77L14.59,36.46C14.36,36.47 14.17,36.46 14.02,36.44C10.8,36.61 8.41,34.4 7.82,30.63C7.67,30.05 7.62,29.3 7.59,28.85C7.58,28.74 7.58,28.65 7.57,28.6L7.56,28.69L7.61,25L7.5,25C7.2,25 6.92,24.65 6.74,24.4C6.52,24.1 6.47,23.59 6.6,23.15L7.63,19.61C7.81,18.99 8.27,18.82 8.46,18.79C8.89,18.73 9.4,18.94 9.58,19.58L10.55,23.08C10.62,23.31 10.69,23.77 10.44,24.15C10.29,24.39 10.04,24.55 9.77,24.59L9.64,24.62L9.41,24.63L9.36,28.6C9.54,30.05 10.12,31.42 10.89,32.2C11.39,32.71 13,33.01 14.2,33.13L13.23,21.12L13.15,21.13C12.851,21.167 12.552,21.064 12.34,20.85C12.08,20.59 11.97,20.19 12.04,19.74L12.57,16.15C12.67,15.5 13.1,15.31 13.28,15.25C13.68,15.12 14.24,15.27 14.51,15.89L15.97,19.22C16.14,19.61 16.16,19.99 16.01,20.3C15.9,20.55 15.68,20.74 15.41,20.82L15.11,20.87L17.02,32.71C18.14,32.23 19.59,31.46 19.95,30.84C20.54,29.86 20.77,28.51 20.6,27.04L19.64,23.37L19.53,23.4C19.25,23.48 18.93,23.43 18.69,23.24C18.4,23.02 18.24,22.65 18.24,22.19L18.26,18.55C18.27,17.9 18.66,17.64 18.84,17.56C19.22,17.38 19.79,17.45 20.14,18.02L22.05,21.11C22.27,21.47 22.34,21.85 22.24,22.17C22.16,22.43 21.97,22.65 21.73,22.77L21.39,22.88L22.4,26.8C22.41,26.85 22.42,26.94 22.44,27.06C22.51,27.5 22.64,28.24 22.64,28.88C22.95,32.64 21.14,35.38 17.91,35.98C17.81,36.02 17.58,36.07 17.33,36.12L27.06,121.45L24.31,121.77Z" style="fill:rgb(133,92,82);fill-rule:nonzero;"/>
    </g>
    <path d="M18.19,56.02L20.96,55.97C20.96,55.97 20.49,58.85 20.43,58.77C20.37,58.69 18.27,57.52 18.27,57.52L18.19,56.02Z" style="fill:#fadcbc;fill-rule:nonzero;"/>
    <path d="M17.51,62.56C17.629,63.317 17.106,64.038 16.35,64.16L14.4,64.47C13.643,64.589 12.922,64.066 12.8,63.31C12.681,62.553 13.204,61.832 13.96,61.71L15.91,61.4C16.67,61.27 17.39,61.79 17.51,62.56Z" style="fill:#fadcbc;fill-rule:nonzero;stroke:#fadcbc;stroke-width:1px;"/>
    <path d="M16.97,56.7C17.38,58.26 18.74,59.27 20.33,59.35C20.67,59.37 21.07,59.22 21.27,58.93C21.44,58.69 21.36,58.42 21.04,58.4C19.67,58.33 18.64,57.41 18.3,56.1C18.17,55.61 16.82,56.14 16.97,56.7Z" style="fill:#fadcbc;fill-rule:nonzero;stroke:#fadcbc;stroke-width:1px;stroke-linecap:butt;stroke-miterlimit:2;"/>
    <path d="M17.3,60.29C17.3,60.303 17.301,60.317 17.301,60.33C17.301,61.087 16.687,61.714 15.93,61.73L13.35,61.8C13.337,61.8 13.323,61.801 13.31,61.801C12.553,61.801 11.926,61.187 11.91,60.43C11.91,60.417 11.909,60.403 11.909,60.39C11.909,59.633 12.523,59.006 13.28,58.99L15.86,58.92C16.63,58.9 17.27,59.51 17.3,60.29Z" style="fill:#fadcbc;fill-rule:nonzero;stroke:#fadcbc;stroke-width:1px;"/>
    <path d="M17.43,57.42L17.43,57.53C17.41,58.29 16.78,58.89 16.02,58.87L13.15,58.8C12.39,58.78 11.79,58.15 11.81,57.39L11.81,57.28C11.83,56.52 12.46,55.92 13.22,55.94L16.09,56.01C16.85,56.03 17.45,56.66 17.43,57.42Z" style="fill:#fadcbc;fill-rule:nonzero;stroke:#fadcbc;stroke-width:1px;"/>
    <path d="M17.98,55.08C17.82,55.82 17.1,56.3 16.35,56.15L13.28,55.51C12.54,55.35 12.06,54.63 12.21,53.88C12.37,53.14 13.09,52.66 13.84,52.81L16.91,53.45C17.66,53.6 18.13,54.33 17.98,55.08Z" style="fill:#fadcbc;fill-rule:nonzero;stroke:#fadcbc;stroke-width:1px;"/>
    <path d="M14.14,57.94C13.66,58.86 14.83,59.64 15.5,59.71C16.16,59.78 16.59,59.2 16.84,58.58C17.74,56.39 18.37,56.54 19.08,56.56C20.06,56.59 21.9,56.58 21.81,55.25C21.72,53.91 19.45,53.4 18.16,53.6C15.38,54.05 14.37,57.5 14.14,57.94Z" style="fill:#fadcbc;fill-rule:nonzero;stroke:#fadcbc;stroke-width:1px;stroke-linecap:butt;stroke-miterlimit:2;"/>
    <g>
        <path d="M16.533,58.786C16.308,59.142 15.847,59.646 15.465,59.569C13.535,59.178 14.247,57.653 14.327,57.453C14.617,56.673 14.839,55.111 15.989,54.111C17.319,53.271 18.187,53.143 19.158,53.103C18.658,52.953 17.821,53.102 17.301,53.182C14.611,53.612 14.28,56.2 13.82,57.41C13.77,57.56 13.73,57.66 13.7,57.72C13.47,58.16 13.48,58.64 13.71,59.07C14.07,59.74 14.88,60.15 15.45,60.21C15.5,60.21 15.55,60.22 15.6,60.22C16.07,60.22 16.81,60 17.31,58.78C17.86,57.45 18.24,56.92 18.53,56.7C17.888,57.005 17.296,57.576 16.533,58.786Z" style="fill:#dba689;fill-opacity:0.5;fill-rule:nonzero;"/>
    </g>
</svg>
