<?xml version="1.0" encoding="UTF-8" standalone="no"?>
<!DOCTYPE svg PUBLIC "-//W3C//DTD SVG 1.1//EN" "http://www.w3.org/Graphics/SVG/1.1/DTD/svg11.dtd">
<svg width="100%" height="100%" viewBox="0 0 128 128" version="1.1" xmlns="http://www.w3.org/2000/svg" xmlns:xlink="http://www.w3.org/1999/xlink" xml:space="preserve" xmlns:serif="http://www.serif.com/" style="fill-rule:evenodd;clip-rule:evenodd;stroke-linejoin:round;stroke-miterlimit:1.41421;">
    <g transform="matrix(1.03483,0,0,1.03483,-31.2045,-4.45837)">
        <path d="M72.65,24.67C72.65,24.67 72.65,47.86 75.64,58.64C77.11,63.95 78.95,67.3 83.36,63.99L100.46,63.82C104.86,67.18 108.02,63.96 108.97,58.5C111.21,45.62 111.21,24.67 111.21,24.67L72.65,24.67Z" style="fill:#232020;fill-rule:nonzero;"/>
    </g>
    <g transform="matrix(1.03483,0,0,1.03483,-31.2045,-4.45837)">
        <rect x="88.66" y="55.66" width="5.31" height="15.77" style="fill:rgb(170,0,255);fill-rule:nonzero;"/>
    </g>
    <g transform="matrix(1.03483,0,0,1.03483,-31.2045,-4.45837)">
        <rect x="78.55" y="61.97" width="12.28" height="17.4" style="fill:rgb(170,0,255);fill-rule:nonzero;"/>
    </g>
    <g transform="matrix(1.03483,0,0,1.03483,-31.2045,-4.45837)">
        <path d="M78.62,77.45L70.43,96.9L91.93,96.9L91.93,77.45L78.62,77.45Z" style="fill:rgb(170,0,255);fill-rule:nonzero;"/>
    </g>
    <g transform="matrix(1.03483,0,0,1.03483,-31.2045,-4.45837)">
        <rect x="78.62" y="98.95" width="9.21" height="28.66" style="fill:#70534a;fill-rule:nonzero;"/>
    </g>
    <g transform="matrix(1.03483,0,0,1.03483,-31.2045,-4.45837)">
        <rect x="78.62" y="96.9" width="9.21" height="3.07" style="fill:#563e37;fill-rule:nonzero;"/>
    </g>
    <g transform="matrix(1.03483,0,0,1.03483,-31.2045,-4.45837)">
        <path d="M89.06,128L77.06,128L77.06,125.5C77.06,123.29 78.85,121.5 81.06,121.5L85.06,121.5C87.27,121.5 89.06,123.29 89.06,125.5L89.06,128Z" style="fill:rgb(68,68,68);fill-rule:nonzero;"/>
    </g>
    <g transform="matrix(1.03483,0,0,1.03483,-31.2045,-4.45837)">
        <rect x="91.92" y="61.978" width="13.31" height="17.4" style="fill:rgb(170,0,255);fill-rule:nonzero;"/>
    </g>
    <g transform="matrix(1.03483,0,0,1.03483,-31.2045,-4.45837)">
        <path d="M105.23,77.45L113.42,96.9L91.93,96.9L91.93,77.45L105.23,77.45Z" style="fill:rgb(170,0,255);fill-rule:nonzero;"/>
    </g>
    <g transform="matrix(1.03483,0,0,1.03483,-31.2045,-4.45837)">
        <rect x="96.025" y="98.953" width="9.21" height="28.66" style="fill:#70534a;fill-rule:nonzero;"/>
    </g>
    <g transform="matrix(1.03483,0,0,1.03483,-31.2045,-4.45837)">
        <rect x="96.025" y="96.907" width="9.21" height="3.07" style="fill:#563e37;fill-rule:nonzero;"/>
    </g>
    <g transform="matrix(1.03483,0,0,1.03483,-31.2045,-4.45837)">
        <path d="M94.79,128L106.79,128L106.79,125.5C106.79,123.29 105,121.5 102.79,121.5L98.79,121.5C96.58,121.5 94.79,123.29 94.79,125.5L94.79,128Z" style="fill:rgb(68,68,68);fill-rule:nonzero;"/>
    </g>
    <g transform="matrix(1.03483,0,0,1.03483,-31.2045,-4.45837)">
        <rect x="89.88" y="76.43" width="4.09" height="20.47" style="fill:rgb(170,0,255);fill-rule:nonzero;"/>
    </g>
    <g transform="matrix(1.03483,0,0,1.03483,-31.2045,-4.45837)">
        <rect x="78.62" y="71.44" width="13.31" height="6.02" style="fill:rgb(123,31,162);fill-rule:nonzero;"/>
        <rect x="91.92" y="71.43" width="13.31" height="6.02" style="fill:rgb(123,31,162);fill-rule:nonzero;"/>
        <rect x="89.88" y="71.44" width="4.09" height="6.02" style="fill:rgb(123,31,162);fill-rule:nonzero;"/>
    </g>
    <g transform="matrix(1.0207,0,0,1.0207,-2.0239,-3.57072)">
        <g transform="matrix(1,0,0,1.17991,0.517971,-11.4441)">
            <rect x="77.772" y="62.39" width="7.4" height="22.106" style="fill:#70534a;"/>
        </g>
        <g transform="matrix(1,0,0,1,3.70023,3.977)">
            <circle cx="78.29" cy="84.276" r="3.7" style="fill:#70534a;"/>
        </g>
    </g>
    <g transform="matrix(1.0207,0,0,1.0207,-37.5169,-3.57072)">
        <g transform="matrix(1,0,0,1.17991,0.517971,-11.4441)">
            <rect x="77.772" y="62.39" width="7.4" height="22.106" style="fill:#70534a;"/>
        </g>
        <g transform="matrix(1,0,0,1,3.70023,3.977)">
            <circle cx="78.29" cy="84.276" r="3.7" style="fill:#70534a;"/>
        </g>
    </g>
    <g transform="matrix(1.03483,0,0,1.03483,-31.2045,-4.45837)">
        <path d="M91.93,49.82C95.43,49.81 99.83,50.22 102.17,50.84C109.46,52.78 113.235,57.425 113.43,63.611L91.93,66.154L91.93,49.82Z" style="fill:rgb(170,0,255);fill-rule:nonzero;"/>
    </g>
    <g transform="matrix(-1.03483,0,0,1.03483,159.132,-4.45837)">
        <path d="M91.93,49.82C95.43,49.81 99.83,50.22 102.17,50.84C109.46,52.78 113.235,57.425 113.43,63.611L91.93,66.154L91.93,49.82Z" style="fill:rgb(170,0,255);fill-rule:nonzero;"/>
    </g>
    <g transform="matrix(1.03483,0,0,1.03483,-31.2045,-4.45837)">
        <ellipse cx="91.93" cy="24.67" rx="19.28" ry="17.33" style="fill:#232020;"/>
    </g>
    <g transform="matrix(1.03483,0,0,1.03483,-31.2045,-4.45837)">
        <path d="M91.93,56.78C88.99,56.78 86.81,54.81 86.81,51.87L86.81,46.75L97.05,46.75L97.05,51.87C97.04,54.8 94.87,56.78 91.93,56.78Z" style="fill:#70534a;fill-rule:nonzero;"/>
    </g>
    <g transform="matrix(1.03483,0,0,1.03483,-31.2045,-4.45837)">
        <path d="M97.04,51.77C97.04,51.77 95.09,52.56 91.93,52.56C88.77,52.56 86.81,51.86 86.81,51.86L86.81,46.84C86.81,45.5 87.7,44.04 89.04,44.04L94.83,44.04C96.17,44.04 97.05,45.4 97.05,46.74L97.05,51.77L97.04,51.77Z" style="fill:#563e37;fill-rule:nonzero;"/>
    </g>
    <g transform="matrix(1.03483,0,0,1.03483,-31.2045,-4.45837)">
        <path d="M91.93,11.51C80.08,11.51 76.98,20.7 76.98,33.6C76.98,46.51 86.17,50.44 91.93,50.44C97.69,50.44 106.88,46.5 106.88,33.6C106.88,20.7 103.78,11.51 91.93,11.51Z" style="fill:#70534a;fill-rule:nonzero;"/>
    </g>
    <g transform="matrix(1.03483,0,0,1.03483,-31.2045,-4.45837)">
        <path d="M96.45,21.64C94.87,23.15 87.05,30.21 76.26,32.05L76.26,17.59C76.26,17.59 80.92,8.35 92.09,8.35C103.26,8.35 107.92,17.82 107.92,17.82L107.92,32.05C107.92,32.05 100.6,29.24 96.92,21.73C96.874,21.625 96.769,21.557 96.654,21.557C96.578,21.557 96.504,21.587 96.45,21.64Z" style="fill:#232020;fill-rule:nonzero;"/>
    </g>
    <g transform="matrix(1.03483,0,0,1.03483,-31.2045,-4.45837)">
        <path d="M86.9,34.46C86.9,35.82 85.99,36.93 84.86,36.93C83.73,36.93 82.82,35.83 82.82,34.46C82.82,33.09 83.74,31.99 84.86,31.99C85.98,32 86.9,33.1 86.9,34.46M96.95,34.46C96.95,35.82 97.86,36.93 98.99,36.93C100.12,36.93 101.03,35.83 101.03,34.46C101.03,33.09 100.11,31.99 98.99,31.99C97.87,32 96.95,33.1 96.95,34.46" style="fill:rgb(68,68,68);fill-rule:nonzero;"/>
    </g>
    <g transform="matrix(1.03483,0,0,1.03483,-31.2045,-4.45837)">
        <path d="M96.35,42.79L91.93,42.79L87.51,42.79C87,42.79 86.79,43.13 87.12,43.64C87.59,44.35 89.33,45.73 91.93,45.73C94.53,45.73 96.27,44.36 96.74,43.64C97.07,43.13 96.85,42.79 96.35,42.79Z" style="fill:rgb(76,55,52);fill-rule:nonzero;"/>
    </g>
    <g transform="matrix(1.03483,0,0,1.03483,-31.2045,-4.45837)">
        <path d="M94.06,39.31C93.31,39.52 92.53,39.63 91.92,39.63C91.31,39.63 90.54,39.53 89.78,39.31C89.46,39.22 89.33,39.52 89.45,39.73C89.69,40.15 90.65,41 91.92,41C93.19,41 94.15,40.15 94.39,39.73C94.51,39.52 94.38,39.22 94.06,39.31Z" style="fill:#563e37;fill-rule:nonzero;"/>
    </g>
</svg>
