<?xml version="1.0" encoding="UTF-8" standalone="no"?>
<!DOCTYPE svg PUBLIC "-//W3C//DTD SVG 1.1//EN" "http://www.w3.org/Graphics/SVG/1.1/DTD/svg11.dtd">
<svg width="100%" height="100%" viewBox="0 0 128 128" version="1.1" xmlns="http://www.w3.org/2000/svg" xmlns:xlink="http://www.w3.org/1999/xlink" xml:space="preserve" xmlns:serif="http://www.serif.com/" style="fill-rule:evenodd;clip-rule:evenodd;stroke-linejoin:round;stroke-miterlimit:2;">
    <g>
        <path d="M106.91,66.04C106.91,66.04 114.78,67.4 114.78,75.88C114.78,83.36 109.04,86.31 103.3,86.31L103.3,66.04L106.91,66.04ZM21.09,66.04C21.09,66.04 13.22,67.4 13.22,75.88C13.22,83.36 18.96,86.31 24.7,86.31L24.7,66.04L21.09,66.04Z" style="fill:#99674f;fill-rule:nonzero;"/>
    </g>
    <path d="M64,10.55C30.09,10.55 21.22,36.84 21.22,73.77C21.22,112.06 45.83,121.96 64,121.96C81.9,121.96 106.78,112.34 106.78,73.77C106.78,36.83 97.91,10.55 64,10.55Z" style="fill:#bf8f68;fill-rule:nonzero;"/>
    <path d="M49.91,77.19C49.91,81 47.36,84.09 44.2,84.09C41.04,84.09 38.47,81 38.47,77.19C38.47,73.37 41.04,70.28 44.2,70.28C47.36,70.28 49.91,73.37 49.91,77.19M78.08,77.19C78.08,81 80.64,84.09 83.8,84.09C86.95,84.09 89.52,81 89.52,77.19C89.52,73.37 86.95,70.28 83.8,70.28C80.64,70.28 78.08,73.37 78.08,77.19" style="fill:rgb(68,68,68);fill-rule:nonzero;"/>
    <path d="M76.38,100.52L51.62,100.52C50.2,100.52 49.59,101.47 50.53,102.9C51.84,104.9 56.72,108.75 64,108.75C71.28,108.75 76.16,104.9 77.47,102.9C78.41,101.47 77.8,100.52 76.38,100.52Z" style="fill:rgb(81,63,53);fill-rule:nonzero;"/>
    <path d="M69.98,89.99C67.87,90.59 65.69,90.88 64,90.88C62.31,90.88 60.13,90.59 58.02,89.99C57.12,89.73 56.77,90.59 57.09,91.16C57.76,92.34 60.45,94.71 64,94.71C67.55,94.71 70.24,92.34 70.91,91.16C71.24,90.59 70.88,89.74 69.98,89.99Z" style="fill:#99674f;fill-rule:nonzero;"/>
    <g id="hair" transform="matrix(1.29673,0,0,1.29673,-18.9892,-3.5587)">
        <path d="M67.21,4.047L67.097,4.047C66.379,4.05 65.659,4.175 64.97,4.43C64.751,4.517 64.402,4.697 64.118,4.854L64,4.92C63.7,4.75 63.29,4.53 63.03,4.43C62.377,4.188 61.696,4.063 61.016,4.048L60.903,4.047C59.24,4.04 57.591,4.686 56.382,5.878L56.3,5.96C55.448,5.506 54.519,5.276 53.589,5.251L53.442,5.249C51.311,5.241 49.192,6.298 47.981,8.175L47.94,8.24C47.462,8.109 46.974,8.038 46.484,8.028L46.337,8.026C45.308,8.03 44.275,8.298 43.31,8.83C41.78,9.67 40.63,11.05 40.13,12.66C38.54,12.67 37.01,13.32 35.8,14.51C34.53,15.76 33.78,17.44 33.74,19.16C30.58,20.16 28.58,23.64 29.29,26.93C27.27,28.09 26.29,29.79 26.32,32.12C26.34,33.57 26.94,34.62 27.26,35.08C26.31,35.58 25.62,36.53 25.31,37.78C24.92,39.35 25.19,41.08 25.98,42.16C24.1,44.45 24.25,47.71 26.38,50.21C25.64,51.55 25.4,53.1 25.95,55.05C26.74,57.56 28.79,57.93 28.79,57.93C27.58,60.72 29.588,64.72 31.258,65.29C31.258,65.29 33.406,44.389 38.59,37.864L38.707,37.98C39.22,38.482 40.071,39.207 41.512,39.196L41.6,39.195C41.863,39.187 42.146,39.156 42.45,39.094C44.33,38.714 45.1,38.074 45.64,37.004L45.658,37.092C45.853,37.998 46.366,38.832 47.18,39.404C47.848,39.872 48.62,40.095 49.384,40.091L49.476,40.09C50.637,40.056 51.772,39.499 52.49,38.484C52.62,38.304 52.72,38.104 52.81,37.914L52.832,37.987C53.304,39.522 54.377,40.727 56.08,40.964C56.267,40.989 56.453,41.001 56.637,41.002L56.715,41.002C58.181,40.98 59.51,40.204 60.28,39.014L60.32,39.079C60.754,39.786 61.916,41.354 63.98,41.354L64.08,41.352C66.158,41.302 67.366,39.673 67.76,39.014L67.802,39.077C68.591,40.252 69.933,41.016 71.403,41.005L71.482,41.003C71.64,40.999 71.8,40.986 71.96,40.964C73.69,40.724 74.7,39.484 75.16,37.914L75.194,37.988C75.275,38.161 75.366,38.326 75.48,38.484C76.217,39.526 77.393,40.085 78.586,40.091L78.677,40.091C79.412,40.077 80.149,39.854 80.79,39.404C81.63,38.814 82.15,37.944 82.33,37.004L82.381,37.103C82.86,38.02 83.679,39.003 85.664,39.003L85.773,39.002C85.994,38.999 86.23,38.983 86.48,38.954C88.57,38.714 89.38,37.284 89.38,37.284L89.435,37.35C94.06,43.09 96.741,65.29 96.741,65.29C96.741,65.29 99.73,61.326 99.78,58.3C101.18,57.47 102.13,56.24 102.45,54.4C102.78,52.56 102.34,51.55 101.6,50.21C103.75,47.71 103.9,44.45 102.02,42.16C102.81,41.08 103.08,39.35 102.69,37.78C102.38,36.52 101.69,35.57 100.74,35.08C101.07,34.62 101.67,33.58 101.68,32.12C101.71,29.79 100.74,28.09 98.71,26.93C99.42,23.64 97.43,20.16 94.26,19.16C94.22,17.45 93.48,15.76 92.2,14.51C90.99,13.33 89.46,12.67 87.87,12.66C87.37,11.06 86.22,9.67 84.69,8.83C83.771,8.33 82.786,8.06 81.805,8.031L81.658,8.029C81.144,8.026 80.631,8.089 80.131,8.221L80.06,8.24C78.884,6.365 76.81,5.29 74.705,5.25L74.558,5.249C73.603,5.253 72.646,5.471 71.767,5.925L71.7,5.96C70.511,4.743 68.872,4.07 67.21,4.047Z" style="fill:#6d4c41;fill-rule:nonzero;"/>
    </g>
</svg>
