<?xml version="1.0" encoding="UTF-8" standalone="no"?>
<!DOCTYPE svg PUBLIC "-//W3C//DTD SVG 1.1//EN" "http://www.w3.org/Graphics/SVG/1.1/DTD/svg11.dtd">
<svg width="100%" height="100%" viewBox="0 0 128 128" version="1.1" xmlns="http://www.w3.org/2000/svg" xmlns:xlink="http://www.w3.org/1999/xlink" xml:space="preserve" xmlns:serif="http://www.serif.com/" style="fill-rule:evenodd;clip-rule:evenodd;stroke-linejoin:round;stroke-miterlimit:2;">
    <rect x="6.1" y="68.45" width="117.48" height="12.25" style="fill:rgb(135,90,59);fill-rule:nonzero;"/>
    <rect x="6.1" y="60.04" width="117.48" height="8.41" style="fill:rgb(25,108,162);fill-rule:nonzero;"/>
    <path d="M12.3,89.51C12.3,92.46 10.47,94.86 8.21,94.86C5.95,94.86 4.12,92.47 4.12,89.51L4.12,37.08C4.12,34.13 5.95,31.73 8.21,31.73C10.47,31.73 12.3,34.12 12.3,37.08L12.3,89.51Z" style="fill:rgb(135,90,59);fill-rule:nonzero;"/>
    <circle cx="8.21" cy="30.39" r="7.16" style="fill:rgb(135,90,59);"/>
    <path d="M125.16,89.51C125.16,92.46 123.33,94.86 121.07,94.86C118.81,94.86 116.98,92.47 116.98,89.51L116.98,37.08C116.98,34.13 118.81,31.73 121.07,31.73C123.33,31.73 125.16,34.12 125.16,37.08L125.16,89.51Z" style="fill:rgb(135,90,59);fill-rule:nonzero;"/>
    <path d="M36.96,53.61C36.16,53.16 36.08,50.22 34.1,48.86C32.68,47.89 28.76,46.44 24.69,46.14C20.93,45.87 17.03,46.68 15.59,47.35C13.41,48.37 12.86,51.26 12,51.57C10.88,51.98 10.01,52.7 9.95,53.7C9.91,54.54 10.58,54.97 11.35,55.79C11.92,56.38 12.77,58.95 14.12,59.8C15.45,60.63 19.29,61.24 23.43,61.58C27.6,61.92 32.06,61.99 33.52,61.38C34.99,60.76 36.25,58.37 36.91,57.87C37.81,57.19 38.54,56.88 38.63,56.04C38.75,55.04 38,54.19 36.96,53.61Z" style="fill:rgb(64,192,231);fill-rule:nonzero;"/>
    <path d="M40.85,49.69C39.84,54.79 33.97,57.54 29.39,56.45C25.28,55.48 21.31,51.22 22.09,46.36C22.9,41.32 28.37,38.39 32.84,39.06C37.55,39.78 41.86,44.61 40.85,49.69Z" style="fill:rgb(191,143,104);fill-rule:nonzero;"/>
    <path d="M35.51,57.23C34.86,58.84 33.45,60.04 33.45,60.04C32.4,61.38 31.23,63.58 30.71,65C29.87,67.32 30.36,68.94 31.02,70.29C32.19,72.66 34.94,72.86 36.58,73.04C42.22,73.64 51.87,74.16 62.45,74.33C89.48,74.77 117,72.37 117,72.37L117,55.79C115.38,51.08 107.22,50.9 95.54,48C88.76,46.31 84.21,44.53 77.83,42.29C63.25,37.18 56.82,35.13 48.75,37C45.63,37.72 40.93,39.94 39,42.5C35.54,47.08 36.43,54.93 35.51,57.23Z" style="fill:rgb(189,207,70);fill-rule:nonzero;"/>
    <path d="M117,61.97C115.65,61.42 113.03,61.12 112.5,61.08C110.29,60.93 107.9,60.88 103.33,60.83C99.82,60.79 91.93,61.02 87.93,60.78C83.93,60.54 69.99,59.4 62.89,58.25C55.87,57.11 48.83,56.14 41.82,54.95C39.6,54.57 37.68,54.15 36.01,53.86C35.91,54.94 35.8,55.93 35.59,56.51C35.45,56.9 35.27,57.28 35.09,57.62C34.52,58.73 33.83,59.57 33.83,59.57C33.15,60.37 32.68,61.07 32.37,61.64C36.45,63.16 38.88,63.42 42.38,63.5C48.19,63.64 56.39,62.9 62.19,63.19C84.55,64.28 83.15,64.36 88.92,64.59C100.18,65.02 112,65.21 117,65.46C116.99,63.75 116.98,63.56 117,61.97Z" style="fill:rgb(152,170,48);fill-rule:nonzero;"/>
</svg>
