<?xml version="1.0" encoding="UTF-8" standalone="no"?>
<!DOCTYPE svg PUBLIC "-//W3C//DTD SVG 1.1//EN" "http://www.w3.org/Graphics/SVG/1.1/DTD/svg11.dtd">
<svg width="100%" height="100%" viewBox="0 0 128 128" version="1.1" xmlns="http://www.w3.org/2000/svg" xmlns:xlink="http://www.w3.org/1999/xlink" xml:space="preserve" xmlns:serif="http://www.serif.com/" style="fill-rule:evenodd;clip-rule:evenodd;stroke-linejoin:round;stroke-miterlimit:2;">
    <path d="M101.26,123.96C96.93,123.96 60.8,124 55.97,124C51.14,124 47.86,123.61 46.35,123.33C39.27,122.04 31.59,120.8 25.73,116.75C21.25,113.66 16.6,107.92 21.24,97.77C27.71,82.85 33.38,68.13 46.64,66.25C51.08,65.62 57.61,65.69 64.94,65.69C72.27,65.69 77.1,66.9 80.16,67.57C102.01,72.36 102.93,89.55 104.93,108.25C104.93,108.25 106.64,123.96 101.26,123.96Z" style="fill:url(#_Linear1);fill-rule:nonzero;"/>
    <g transform="matrix(0.711788,6.93889e-18,-6.93889e-18,0.711788,16.1932,-0.549341)">
        <path d="M28.51,113.53C22,91.19 22,45.39 22,45.39L106,45.06C106,45.06 106,86.55 101.12,113.25L28.51,113.53Z" style="fill:#232020;fill-rule:nonzero;"/>
    </g>
    <g transform="matrix(0.711788,6.93889e-18,-6.93889e-18,0.711788,16.1932,-0.549341)">
        <ellipse cx="64" cy="46.11" rx="42" ry="39.5" style="fill:#232020;"/>
    </g>
    <path d="M71.91,59.63L57.57,59.63L57.57,67.51C57.57,71.07 60.49,73.96 64.09,73.96L65.39,73.96C68.99,73.96 71.91,71.07 71.91,67.51L71.91,59.63Z" style="fill:#563e37;fill-rule:nonzero;"/>
    <path id="shadow_x5F_body_1_" d="M101.73,109.32C95.6,98.35 93.87,96.76 93.01,94.84C91.58,91.63 90.15,90.36 89.08,89.9C88.96,88.68 88.66,87.21 88.25,85.42C88.88,84.99 89.37,84.39 89.66,83.67C90.03,82.73 90.01,81.7 89.61,80.77L86.49,73.62C86.09,72.69 53.97,86.42 53.97,86.42C52.92,88.17 52.52,89.71 53.84,92.59C54.61,94.27 56.37,95.63 56.74,95.47L59.75,94.33C60.17,94.95 60.77,95.43 61.49,95.71C61.77,95.82 62.9,96.12 64.39,95.66L72.22,92.33C73.3,93.92 74.92,94.1 75.98,94.01C75.98,94.01 76.82,96.54 79.06,97.66C78.01,99.31 79.77,102.38 80.76,104.34C82.29,107.36 78.89,118.62 80.09,123.99L101.28,124.09C102.94,120.72 104.67,114.57 101.73,109.32Z" style="fill:url(#_Linear2);fill-rule:nonzero;"/>
    <path d="M101.26,123.96C96.93,123.96 60.8,124 55.97,124C51.14,124 47.86,123.61 46.35,123.33C39.27,122.04 31.59,120.8 25.73,116.75C21.25,113.66 16.6,107.92 21.24,97.77C27.71,82.85 33.38,68.13 46.64,66.25C51.08,65.62 57.61,65.69 64.94,65.69C72.27,65.69 77.1,66.9 80.16,67.57C102.01,72.36 102.93,89.55 104.93,108.25C104.93,108.25 106.64,123.96 101.26,123.96Z" style="fill:rgb(101,31,255);fill-rule:nonzero;"/>
    <path d="M71.91,59.63L57.57,59.63L57.57,67.51C57.57,71.07 60.49,73.96 64.09,73.96L65.39,73.96C68.99,73.96 71.91,71.07 71.91,67.51L71.91,59.63Z" style="fill:#563e37;fill-rule:nonzero;"/>
    <path id="shadow_x5F_body_1_1" serif:id="shadow_x5F_body_1_" d="M101.73,109.32C95.6,98.35 93.87,96.76 93.01,94.84C91.58,91.63 90.15,90.36 89.08,89.9C88.96,88.68 88.66,87.21 88.25,85.42C88.88,84.99 89.37,84.39 89.66,83.67C90.03,82.73 90.01,81.7 89.61,80.77L86.49,73.62C85.024,66.489 72.934,82.552 75.98,94.01C75.98,94.01 76.82,96.54 79.06,97.66C78.01,99.31 79.77,102.38 80.76,104.34C82.29,107.36 78.89,118.62 80.09,123.99L101.28,124.09C102.94,120.72 104.67,114.57 101.73,109.32Z" style="fill-opacity:0.1;fill-rule:nonzero;"/>
    <path d="M92.84,77.56L89.72,70.41C89.32,69.48 88.57,68.77 87.63,68.4C86.69,68.03 85.66,68.05 84.73,68.45L61.46,78.35C59.55,79.18 58.67,81.42 59.5,83.33L62.62,90.48C63.02,91.41 63.77,92.12 64.71,92.49C64.99,92.6 65.27,92.67 65.56,92.72C66.25,92.82 66.95,92.72 67.61,92.44L90.88,82.54C91.81,82.14 92.52,81.39 92.89,80.45C93.27,79.51 93.25,78.49 92.84,77.56Z" style="fill:rgb(129,205,238);fill-rule:nonzero;"/>
    <path d="M60.72,78.79C59.42,79.4 58.79,81.51 59.41,82.92L62.98,91.12C63.6,92.53 66.18,93.15 67.59,92.53L90.88,82.54L60.72,78.79Z" style="fill:rgb(255,253,231);fill-rule:nonzero;"/>
    <path d="M57.72,85.15C58.2,85.02 58.83,85.08 59.12,85.47C59.45,85.92 59.68,86.63 59.92,87.15C60.33,88.05 60.6,88.99 60.58,89.98C60.58,90.09 60.57,90.22 60.48,90.3C60.42,90.36 60.33,90.38 60.24,90.4C59.7,90.51 59.14,90.55 58.59,90.53C57.49,90.49 56.91,89.52 56.57,88.57C56.36,87.97 56.26,87.33 56.38,86.71C56.51,86.09 56.89,85.51 57.45,85.23C57.54,85.21 57.62,85.18 57.72,85.15Z" style="fill:rgb(198,42,42);fill-rule:nonzero;"/>
    <path d="M62.98,91.12L61.88,91.6C61.14,91.92 60.22,91.74 59.68,91.14C59.16,90.56 59.2,89.77 59.09,89.02C58.95,88.04 58.6,87.15 57.95,86.53C57.76,86.35 57.53,86.2 57.35,86.01C56.54,85.14 57.23,83.57 58.19,83.15L59.29,82.67C60.34,82.21 62.26,83.1 63.4,85.87C64.54,88.62 64.03,90.66 62.98,91.12Z" style="fill:rgb(224,96,85);fill-rule:nonzero;"/>
    <path d="M55.01,93.21C54.4,98.37 50.13,102.77 45.2,104.1C39.98,105.52 33.41,102.51 30.18,97.99C24.15,89.57 30.59,82.56 31.97,80.99C35.41,77.09 40.49,77.16 44.51,77.41C52.75,77.92 55.85,86.18 55.01,93.21Z" style="fill:rgb(188,221,152);fill-rule:nonzero;"/>
    <path d="M43.17,75.79C41.09,75.81 37.91,76 35.66,77.32C34.65,77.92 34.33,78.96 34.33,78.96C37.03,77.93 39.76,77.74 43.14,78.98C49.49,81.31 50.56,86.69 50.02,93.45C49.63,98.34 46.39,102.3 42.45,103.56C40.61,104.15 40.77,105.04 43.17,105.21C51.82,105.81 57.88,98.62 57.88,90.5C57.88,82.38 52.46,75.7 43.17,75.79Z" style="fill:rgb(254,246,224);fill-rule:nonzero;"/>
    <path d="M58.52,96.25C70.9,97.44 74.48,104.37 74.48,104.37C86.89,107.12 90.14,115.37 89.15,119.11C89.15,119.11 83.47,122.45 79.93,122.52C74.82,122.63 69.69,122.68 64.6,122.45C64.6,122.45 65.38,116.79 63.52,115.15C62.39,114.16 60.44,115.16 58.56,114.05C55.41,112.19 50.6,109.34 46.56,107.15C42.54,104.97 39.01,103.98 39.01,103.98C42.6,99.8 49.03,95.34 58.52,96.25Z" style="fill:rgb(189,189,189);fill-rule:nonzero;"/>
    <path d="M83.37,93.62C80.45,94.75 82.79,98.76 83.99,101.13C85.75,104.59 87.03,114.54 89.36,118.51C92.54,123.93 100.96,125.46 104.61,122.85C107.63,120.69 108.66,112.69 104.98,106.1C98.85,95.13 97.12,93.54 96.26,91.62C93.42,85.24 90.57,86.54 90.57,86.54L83.37,93.62Z" style="fill:rgb(101,31,255);fill-rule:nonzero;"/>
    <path id="hand_3_" d="M90.1,116.71C90.1,116.07 89.87,115.37 88.31,115.99C84.36,117.56 81.24,118.69 76.79,116.93C77.26,117.34 82.74,112.72 79.54,110.42C78.17,109.93 75.27,113.11 72.4,113.32C69.52,113.21 66.01,113.15 63.52,115.7L62.52,123.99C65.08,123.99 77.25,124.36 82.02,123.7C84.83,122.97 89.48,120.72 90.1,116.71Z" style="fill:url(#_Linear3);fill-rule:nonzero;"/>
    <path id="hand_x5F_fill_1_" d="M78.99,69.97C78.1,69.84 76.45,69.89 76.13,70.72C75.49,72.35 77.25,73.27 78.43,73.57C80.27,74.04 82.28,74.44 82.28,74.44L84,77.37C84,77.37 80.23,76.28 78.5,76.24C76.3,76.19 73.59,77.35 71.95,78.03C69.92,78.86 71.39,81.16 73.55,81.12C75.38,81.08 77.49,80.27 77.49,80.27L80.04,81.27C78.96,81.34 76.03,81.55 75.42,83.3C74.75,85.23 76,86.84 76,86.84C76,86.84 75.22,87.87 76,89.53C76.63,90.86 78.52,91.93 80.33,91.96C81.26,94.84 83.72,95.37 85.12,95.35C88.09,95.32 90.53,93.49 91.59,91.35C92.85,88.79 93.16,85.38 90.89,80.25C89.56,77.25 87.26,72.54 85.26,71.59C82.79,70.42 82.49,70.5 78.99,69.97Z" style="fill:url(#_Linear4);fill-rule:nonzero;"/>
    <path id="tone_2_" d="M78.88,91.72C79.35,91.86 79.84,91.95 80.33,91.96C80.71,93.15 81.36,93.92 82.09,94.44C81.81,94.13 81.31,93.22 81.26,93.02C80.98,91.75 81.23,91.21 81.64,90.44C82.05,89.67 82.03,89.12 81.72,88.88C81.35,88.59 79.68,89.14 79.29,89.17C79.29,89.17 80.39,90.23 79.92,91.03C79.68,91.41 79.26,91.62 78.88,91.72Z" style="fill:rgb(237,166,0);fill-rule:nonzero;"/>
    <path id="tone_1_" d="M76,86.84C76,86.84 77.76,84.89 82.1,85.17C82.1,85.17 80.78,84.27 78.88,84.52C76.65,84.82 76,86.84 76,86.84Z" style="fill:rgb(237,166,0);fill-rule:nonzero;"/>
    <path id="tone" d="M80.04,81.26L82.66,81.23C82.66,81.23 80.95,80.63 79.97,80.45C78.99,80.28 77.49,80.26 77.49,80.26L80.04,81.26Z" style="fill:rgb(237,166,0);fill-rule:nonzero;"/>
    <g transform="matrix(0.706191,-0.0587625,0.0587625,0.706191,22.1507,2.95079)">
        <path d="M51.89,10.07C26.49,10.07 19.85,29.76 19.85,57.42C19.85,86.1 38.28,93.52 51.89,93.52C65.3,93.52 83.93,86.32 83.93,57.42C83.93,29.76 77.28,10.07 51.89,10.07Z" style="fill:#70534a;fill-rule:nonzero;"/>
    </g>
    <g transform="matrix(0.706191,-0.0587625,0.0587625,0.706191,22.1507,2.95079)">
        <path d="M61.16,77.46L42.62,77.46C41.56,77.46 41.1,78.17 41.8,79.25C42.78,80.75 46.44,83.63 51.89,83.63C57.34,83.63 61,80.75 61.98,79.25C62.68,78.17 62.22,77.46 61.16,77.46Z" style="fill:rgb(81,63,53);fill-rule:nonzero;"/>
    </g>
    <g transform="matrix(0.706191,-0.0587625,0.0587625,0.706191,22.1507,2.95079)">
        <path d="M56.37,69.58C54.79,70.03 53.15,70.24 51.89,70.24C50.63,70.24 48.99,70.02 47.41,69.58C46.74,69.39 46.47,70.03 46.71,70.45C47.21,71.33 49.23,73.11 51.89,73.11C54.55,73.11 56.57,71.33 57.07,70.45C57.31,70.02 57.04,69.38 56.37,69.58Z" style="fill:#563e37;fill-rule:nonzero;"/>
    </g>
    <g transform="matrix(0.997468,0.0711167,-0.0711167,0.997468,3.99817,-2.55834)">
        <path d="M50.62,42.71C49.29,42.92 48.04,42.78 47.13,42.4C46.74,42.23 46.55,42.4 46.68,42.8C47.18,44.37 49.01,45.36 50.99,45.05C52.97,44.74 54.41,43.24 54.4,41.59C54.4,41.17 54.17,41.06 53.85,41.34C53.1,41.99 51.95,42.5 50.62,42.71Z" style="fill:rgb(68,68,68);fill-rule:nonzero;"/>
    </g>
    <g transform="matrix(0.997468,0.0711167,-0.0711167,0.997468,3.99817,-2.55834)">
        <path d="M71.78,39.38C70.45,39.59 69.2,39.45 68.29,39.07C67.9,38.9 67.71,39.07 67.84,39.47C68.34,41.04 70.17,42.03 72.15,41.72C74.13,41.41 75.57,39.91 75.56,38.26C75.56,37.84 75.33,37.73 75.01,38.01C74.25,38.66 73.11,39.17 71.78,39.38Z" style="fill:rgb(68,68,68);fill-rule:nonzero;"/>
    </g>
    <path id="hand_3_1" serif:id="hand_3_" d="M90.1,116.71C90.1,116.07 89.87,115.37 88.31,115.99C84.36,117.56 81.24,118.69 76.79,116.93C77.26,117.34 82.74,112.72 79.54,110.42C78.17,109.93 75.27,113.11 72.4,113.32C69.52,113.21 66.01,113.15 63.52,115.7L62.52,123.99C65.08,123.99 77.25,124.36 82.02,123.7C84.83,122.97 89.48,120.72 90.1,116.71Z" style="fill:#70534a;fill-rule:nonzero;"/>
    <path id="hand_x5F_fill_1_1" serif:id="hand_x5F_fill_1_" d="M78.99,69.97C78.1,69.84 76.45,69.89 76.13,70.72C75.49,72.35 77.25,73.27 78.43,73.57C80.27,74.04 82.28,74.44 82.28,74.44L84,77.37C84,77.37 80.23,76.28 78.5,76.24C76.3,76.19 73.59,77.35 71.95,78.03C69.92,78.86 71.39,81.16 73.55,81.12C75.38,81.08 77.49,80.27 77.49,80.27L80.04,81.27C78.96,81.34 76.03,81.55 75.42,83.3C74.75,85.23 76,86.84 76,86.84C76,86.84 75.22,87.87 76,89.53C76.63,90.86 78.52,91.93 80.33,91.96C81.26,94.84 83.72,95.37 85.12,95.35C88.09,95.32 90.53,93.49 91.59,91.35C92.85,88.79 93.16,85.38 90.89,80.25C89.56,77.25 87.26,72.54 85.26,71.59C82.79,70.42 82.49,70.5 78.99,69.97Z" style="fill:#70534a;fill-rule:nonzero;"/>
    <path id="tone_2_1" serif:id="tone_2_" d="M78.88,91.72C79.35,91.86 79.84,91.95 80.33,91.96C80.71,93.15 81.36,93.92 82.09,94.44C81.81,94.13 81.31,93.22 81.26,93.02C80.98,91.75 81.23,91.21 81.64,90.44C82.05,89.67 82.03,89.12 81.72,88.88C81.35,88.59 79.68,89.14 79.29,89.17C79.29,89.17 80.39,90.23 79.92,91.03C79.68,91.41 79.26,91.62 78.88,91.72Z" style="fill:#563e37;fill-rule:nonzero;"/>
    <path id="tone_2_2" serif:id="tone_2_" d="M78.88,91.72C79.35,91.86 79.84,91.95 80.33,91.96C80.71,93.15 81.36,93.92 82.09,94.44C81.81,94.13 81.31,93.22 81.26,93.02C80.98,91.75 81.23,91.21 81.64,90.44C82.05,89.67 82.03,89.12 81.72,88.88C81.35,88.59 79.68,89.14 79.29,89.17C79.29,89.17 80.39,90.23 79.92,91.03C79.68,91.41 79.26,91.62 78.88,91.72Z" style="fill-opacity:0.02;fill-rule:nonzero;"/>
    <path id="tone_1_1" serif:id="tone_1_" d="M76,86.84C76,86.84 77.76,84.89 82.1,85.17C82.1,85.17 80.78,84.27 78.88,84.52C76.65,84.82 76,86.84 76,86.84Z" style="fill:#563e37;fill-rule:nonzero;"/>
    <path id="tone1" serif:id="tone" d="M80.04,81.26L82.66,81.23C82.66,81.23 80.95,80.63 79.97,80.45C78.99,80.28 77.49,80.26 77.49,80.26L80.04,81.26Z" style="fill:#563e37;fill-rule:nonzero;"/>
    <g transform="matrix(0.710823,-0.0370518,0.0370518,0.710823,14.2553,0.58081)">
        <path d="M73.26,35.25C70.03,38.35 54.01,52.79 31.94,56.56L31.94,26.96C31.94,26.96 41.47,8.05 64.34,8.05C87.21,8.05 96.74,27.44 96.74,27.44L96.083,55.996C96.083,55.996 81.76,50.81 74.23,35.44C74.04,35.06 73.56,34.96 73.26,35.25Z" style="fill:#232020;fill-rule:nonzero;"/>
    </g>
    <defs>
        <linearGradient id="_Linear1" x1="0" y1="0" x2="1" y2="0" gradientUnits="userSpaceOnUse" gradientTransform="matrix(2.54618e-15,41.5823,-41.5823,2.54618e-15,62.2498,77.7069)"><stop offset="0" style="stop-color:rgb(247,140,31);stop-opacity:1"/><stop offset="1" style="stop-color:rgb(237,109,35);stop-opacity:1"/></linearGradient>
        <linearGradient id="_Linear2" x1="0" y1="0" x2="1" y2="0" gradientUnits="userSpaceOnUse" gradientTransform="matrix(4.3982e-15,-71.8281,71.8281,4.3982e-15,78.1582,145.563)"><stop offset="0" style="stop-color:rgb(33,33,33);stop-opacity:0.8"/><stop offset="1" style="stop-color:rgb(33,33,33);stop-opacity:0"/></linearGradient>
        <linearGradient id="_Linear3" x1="0" y1="0" x2="1" y2="0" gradientUnits="userSpaceOnUse" gradientTransform="matrix(27.583,0,0,27.583,62.512,117.239)"><stop offset="0" style="stop-color:#70534a;stop-opacity:1"/><stop offset="0.5" style="stop-color:#70534a;stop-opacity:1"/><stop offset="1" style="stop-color:#70534a;stop-opacity:1"/></linearGradient>
        <linearGradient id="_Linear4" x1="0" y1="0" x2="1" y2="0" gradientUnits="userSpaceOnUse" gradientTransform="matrix(-10.7584,-17.8779,17.8779,-10.7584,89.876,95.1687)"><stop offset="0" style="stop-color:#70534a;stop-opacity:1"/><stop offset="0.5" style="stop-color:#70534a;stop-opacity:1"/><stop offset="1" style="stop-color:#70534a;stop-opacity:1"/></linearGradient>
    </defs>
</svg>
