<?xml version="1.0" encoding="UTF-8" standalone="no"?>
<!DOCTYPE svg PUBLIC "-//W3C//DTD SVG 1.1//EN" "http://www.w3.org/Graphics/SVG/1.1/DTD/svg11.dtd">
<svg width="100%" height="100%" viewBox="0 0 128 128" version="1.1" xmlns="http://www.w3.org/2000/svg" xmlns:xlink="http://www.w3.org/1999/xlink" xml:space="preserve" xmlns:serif="http://www.serif.com/" style="fill-rule:evenodd;clip-rule:evenodd;stroke-linejoin:round;stroke-miterlimit:2;">
    <path d="M62.209,28.286C56.514,28.286 48.881,31.711 45.093,35.964L12.822,72.194C10.928,74.32 10.975,75.764 10.987,77.627L10.987,106.198C10.987,107.718 13.416,108.442 16.263,108.442L64.93,108.442C70.625,108.442 78.26,105.017 82.048,100.764L114.318,64.534C116.211,62.408 116.028,61.675 116.152,59.101L116.152,30.531C116.152,29.009 113.723,28.286 110.876,28.286L62.209,28.286Z" style="fill:rgb(253,207,37);fill-rule:nonzero;"/>
    <g transform="matrix(1,0,-0.665125,0.74673,0,0)">
        <path d="M146.348,51.647C146.348,44.049 141.742,37.88 136.068,37.88L87.403,37.88C81.729,37.88 77.123,44.049 77.123,51.647L77.123,93.191C77.123,100.789 81.729,106.958 87.403,106.958L136.068,106.958C141.742,106.958 146.348,100.789 146.348,93.191L146.348,51.647Z" style="fill:rgb(227,205,49);"/>
    </g>
    <g transform="matrix(1,0,-0.665125,0.74673,0,0)">
        <path d="M146.348,51.647C146.348,44.049 141.742,37.88 136.068,37.88L87.403,37.88C81.729,37.88 77.123,44.049 77.123,51.647L77.123,93.191C77.123,100.789 81.729,106.958 87.403,106.958L136.068,106.958C141.742,106.958 146.348,100.789 146.348,93.191L146.348,51.647Z" style="fill:rgb(255,226,21);"/>
    </g>
    <ellipse id="a" cx="29.914" cy="70.425" rx="6.338" ry="3.794" style="fill:rgb(247,147,41);fill-opacity:0.53;"/>
    <g id="a1" serif:id="a" transform="matrix(1.14062,0.0519746,-0.0519746,1.14062,21.3119,-40.4312)">
        <ellipse cx="29.914" cy="70.425" rx="6.338" ry="3.794" style="fill:rgb(247,147,41);fill-opacity:0.53;"/>
    </g>
    <g id="a2" serif:id="a" transform="matrix(0.81032,-0.02606,0.02606,0.81032,45.707,0.04)">
        <ellipse cx="29.914" cy="70.425" rx="6.338" ry="3.794" style="fill:rgb(247,147,41);fill-opacity:0.53;"/>
    </g>
    <g id="a3" serif:id="a" transform="matrix(0.86415,-0.036,0.036,0.86415,31.62,-26.4)">
        <ellipse cx="29.914" cy="70.425" rx="6.338" ry="3.794" style="fill:rgb(247,147,41);fill-opacity:0.53;"/>
    </g>
    <g id="a4" serif:id="a" transform="matrix(1.23823,0.0329217,-0.0329217,1.23823,65.1565,-51.7477)">
        <ellipse cx="29.914" cy="70.425" rx="6.338" ry="3.794" style="fill:rgb(247,147,41);fill-opacity:0.53;"/>
    </g>
    <g id="a5" serif:id="a" transform="matrix(0.70862,-0.02967,0.02967,0.70862,60.287,-14.43)">
        <ellipse cx="29.914" cy="70.425" rx="6.338" ry="3.794" style="fill:rgb(247,147,41);fill-opacity:0.53;"/>
    </g>
    <g id="a6" serif:id="a" transform="matrix(1.25997,-0.03418,0.03418,1.25997,46.356,-40.918)">
        <ellipse cx="29.914" cy="70.425" rx="6.338" ry="3.794" style="fill:rgb(247,147,41);fill-opacity:0.53;"/>
    </g>
    <g id="a7" serif:id="a" transform="matrix(0.67737,-0.01452,0.01452,0.67737,14.827,10.983)">
        <ellipse cx="29.914" cy="70.425" rx="6.338" ry="3.794" style="fill:rgb(247,147,41);fill-opacity:0.53;"/>
    </g>
    <g id="a8" serif:id="a" transform="matrix(1.04532,0.0365765,-0.0365765,1.04532,36.2423,-27.0879)">
        <ellipse cx="29.914" cy="70.425" rx="6.338" ry="3.794" style="fill:rgb(247,147,41);fill-opacity:0.53;"/>
    </g>
    <g id="a9" serif:id="a" transform="matrix(0.7274,-0.00956,0.00956,0.7274,50.82,21.64)">
        <ellipse cx="29.914" cy="70.425" rx="6.338" ry="3.794" style="fill:rgb(247,147,41);fill-opacity:0.53;"/>
    </g>
    <g id="a10" serif:id="a" transform="matrix(1.01707,-0.0089,0.0089,1.01707,21.947,-7.24)">
        <ellipse cx="29.914" cy="70.425" rx="6.338" ry="3.794" style="fill:rgb(247,147,41);fill-opacity:0.53;"/>
    </g>
    <g id="a11" serif:id="a" transform="matrix(0.71747,0.002,-0.002,0.71747,-1.358,25.13)">
        <ellipse cx="29.914" cy="70.425" rx="6.338" ry="3.794" style="fill:rgb(247,147,41);fill-opacity:0.53;"/>
    </g>
    <g id="a12" serif:id="a" transform="matrix(1.33787,-0.0673286,0.0673286,1.33787,9.91791,-18.0392)">
        <ellipse cx="29.914" cy="70.425" rx="6.338" ry="3.794" style="fill:rgb(247,147,41);fill-opacity:0.53;"/>
    </g>
    <g id="a13" serif:id="a" transform="matrix(0.818967,0.0334658,-0.0334658,0.818967,21.2876,-8.21087)">
        <ellipse cx="29.914" cy="70.425" rx="6.338" ry="3.794" style="fill:rgb(247,147,41);fill-opacity:0.53;"/>
    </g>
    <g id="a14" serif:id="a" transform="matrix(0.688961,0.041668,-0.041668,0.688961,70.4162,7.3769)">
        <ellipse cx="29.914" cy="70.425" rx="6.338" ry="3.794" style="fill:rgb(247,147,41);fill-opacity:0.53;"/>
    </g>
    <ellipse id="b" cx="15.797" cy="84.457" rx="3.186" ry="2.965" style="fill:rgb(247,147,41);fill-opacity:0.53;"/>
    <g id="b1" serif:id="b" transform="matrix(0.7685,-0.03056,0.03056,0.7685,3.617,27.88)">
        <ellipse cx="15.797" cy="84.457" rx="3.186" ry="2.965" style="fill:rgb(247,147,41);fill-opacity:0.53;"/>
    </g>
    <g id="b2" serif:id="b" transform="matrix(0.909691,0.0269354,-0.0269354,0.909691,13.5273,9.22196)">
        <ellipse cx="15.797" cy="84.457" rx="3.186" ry="2.965" style="fill:rgb(247,147,41);fill-opacity:0.53;"/>
    </g>
    <g id="b3" serif:id="b" transform="matrix(0.754077,-0.0249626,0.0249626,0.754077,14.5679,40.236)">
        <ellipse cx="15.797" cy="84.457" rx="3.186" ry="2.965" style="fill:rgb(247,147,41);fill-opacity:0.53;"/>
    </g>
    <g id="b4" serif:id="b" transform="matrix(1.05538,0.0259588,-0.0259588,1.05538,43.9659,14.7707)">
        <ellipse cx="15.797" cy="84.457" rx="3.186" ry="2.965" style="fill:rgb(247,147,41);fill-opacity:0.53;"/>
    </g>
    <g id="b5" serif:id="b" transform="matrix(0.972819,-0.0545934,0.0545934,0.972819,16.2054,18.017)">
        <ellipse cx="15.797" cy="84.457" rx="3.186" ry="2.965" style="fill:rgb(247,147,41);fill-opacity:0.53;"/>
    </g>
    <g id="b6" serif:id="b" transform="matrix(1.01305,-0.00705,0.00705,1.01305,52.148,6.274)">
        <ellipse cx="15.797" cy="84.457" rx="3.186" ry="2.965" style="fill:rgb(247,147,41);fill-opacity:0.53;"/>
    </g>
    <g id="b7" serif:id="b" transform="matrix(0.8274,-0.03727,0.03727,0.8274,51.147,31.55)">
        <ellipse cx="15.797" cy="84.457" rx="3.186" ry="2.965" style="fill:rgb(247,147,41);fill-opacity:0.53;"/>
    </g>
    <g id="b8" serif:id="b" transform="matrix(0.906461,-0.0481719,0.0481719,0.906461,19.2646,13.9308)">
        <ellipse cx="15.797" cy="84.457" rx="3.186" ry="2.965" style="fill:rgb(247,147,41);fill-opacity:0.53;"/>
    </g>
    <g id="b9" serif:id="b" transform="matrix(1.33514,-0.0693176,0.0693176,1.33514,30.1119,-15.8269)">
        <ellipse cx="15.797" cy="84.457" rx="3.186" ry="2.965" style="fill:rgb(247,147,41);fill-opacity:0.53;"/>
    </g>
    <g id="b10" serif:id="b" transform="matrix(1.10367,0.064024,-0.064024,1.10367,35.9881,9.75817)">
        <ellipse cx="15.797" cy="84.457" rx="3.186" ry="2.965" style="fill:rgb(247,147,41);fill-opacity:0.53;"/>
    </g>
    <g id="b11" serif:id="b" transform="matrix(1.1008,0.0570741,-0.0570741,1.1008,35.0003,-6.51521)">
        <ellipse cx="15.797" cy="84.457" rx="3.186" ry="2.965" style="fill:rgb(247,147,41);fill-opacity:0.53;"/>
    </g>
    <g id="b12" serif:id="b" transform="matrix(0.72446,0.04433,-0.03725,0.86217,61.987,10.82)">
        <ellipse cx="15.797" cy="84.457" rx="3.186" ry="2.965" style="fill:rgb(247,147,41);fill-opacity:0.53;"/>
    </g>
</svg>
