<?xml version="1.0" encoding="UTF-8" standalone="no"?>
<!DOCTYPE svg PUBLIC "-//W3C//DTD SVG 1.1//EN" "http://www.w3.org/Graphics/SVG/1.1/DTD/svg11.dtd">
<svg width="100%" height="100%" viewBox="0 0 128 128" version="1.1" xmlns="http://www.w3.org/2000/svg" xmlns:xlink="http://www.w3.org/1999/xlink" xml:space="preserve" xmlns:serif="http://www.serif.com/" style="fill-rule:evenodd;clip-rule:evenodd;stroke-linejoin:round;stroke-miterlimit:2;">
    <g id="hair_1_" transform="matrix(1.26804,0,0,1.26804,-17.1494,-2.14596)">
        <path d="M109.01,37.96C108.66,34.42 106.25,33.16 106.25,33.16C108.66,28.64 107.6,25.28 103.06,23.08C103.59,17.81 101.28,15.1 96.54,14.5C95.37,9.44 92.3,7.49 87.59,8.77C85.02,4.44 81.54,3.51 77.23,5.97C73.51,1.76 68.27,0.63 63.98,5.3C59.69,0.62 54.45,1.76 50.73,5.97C46.42,3.51 42.94,4.44 40.37,8.77C35.66,7.49 32.59,9.43 31.42,14.5C26.68,15.1 24.37,17.81 24.9,23.08C20.36,25.28 19.29,28.65 21.71,33.17C21.71,33.17 19.31,34.43 18.95,37.97C18.61,41.41 20.86,43.89 20.86,43.89C17.98,47.43 18.92,51.14 22.42,53.71C22.42,53.71 20.11,61.1 28.22,63.14C28.22,63.14 28.28,69.52 33.98,70.25L33.98,67.24C31.93,66.87 31.2,64.91 31.19,62.97C31.5,63.03 31.81,63.08 32.15,63.13C32.36,62.74 89.17,61.84 96.67,61.67C97.02,63.94 96.48,66.79 93.97,67.25L93.97,70.26C99.68,69.52 99.73,63.15 99.73,63.15C107.84,61.11 105.53,53.72 105.53,53.72C109.03,51.15 109.97,47.44 107.09,43.9C107.11,43.88 109.36,41.4 109.01,37.96Z" style="fill:rgb(84,57,48);fill-rule:nonzero;"/>
    </g>
    <path d="M106.633,66.04C106.729,68.56 106.779,71.134 106.779,73.77C106.779,78.27 106.429,82.362 105.803,86.105C110.596,85.339 114.779,82.265 114.779,75.881C114.779,67.401 106.91,66.039 106.91,66.039L106.633,66.039L106.633,66.04ZM21.09,66.04C21.09,66.04 13.22,67.4 13.22,75.88C13.22,82.266 17.405,85.341 22.2,86.107C21.57,82.362 21.22,78.269 21.22,73.77C21.22,71.134 21.271,68.56 21.367,66.04L21.09,66.04Z" style="fill:#7a4c32;fill-rule:nonzero;"/>
    <path d="M64,10.55C30.09,10.55 21.22,36.84 21.22,73.77C21.22,112.06 45.83,121.96 64,121.96C81.9,121.96 106.78,112.34 106.78,73.77C106.78,36.83 97.91,10.55 64,10.55Z" style="fill:#9b643c;fill-rule:nonzero;"/>
    <path d="M49.91,77.19C49.91,81 47.36,84.09 44.2,84.09C41.04,84.09 38.47,81 38.47,77.19C38.47,73.37 41.04,70.28 44.2,70.28C47.36,70.28 49.91,73.37 49.91,77.19M78.08,77.19C78.08,81 80.64,84.09 83.8,84.09C86.95,84.09 89.52,81 89.52,77.19C89.52,73.37 86.95,70.28 83.8,70.28C80.64,70.28 78.08,73.37 78.08,77.19" style="fill:rgb(68,68,68);fill-rule:nonzero;"/>
    <path d="M76.38,100.52L51.62,100.52C50.2,100.52 49.59,101.47 50.53,102.9C51.84,104.9 56.72,108.75 64,108.75C71.28,108.75 76.16,104.9 77.47,102.9C78.41,101.47 77.8,100.52 76.38,100.52Z" style="fill:rgb(81,63,53);fill-rule:nonzero;"/>
    <path d="M69.98,89.99C67.87,90.59 65.69,90.88 64,90.88C62.31,90.88 60.13,90.59 58.02,89.99C57.12,89.73 56.77,90.59 57.09,91.16C57.76,92.34 60.45,94.71 64,94.71C67.55,94.71 70.24,92.34 70.91,91.16C71.24,90.59 70.88,89.74 69.98,89.99Z" style="fill:#7a4c32;fill-rule:nonzero;"/>
    <g id="hair" transform="matrix(1.26804,0,0,1.26804,-17.1494,-2.14596)">
        <path d="M97.669,62.83C97.669,62.83 99.7,56.64 101.35,51.09C102.42,47.47 102.92,43.38 102.81,43.28C107.34,40.05 106.89,36.59 101.67,34.41C105.49,30.01 105.25,26.67 99.49,25.47C101.08,19.61 99.16,16.78 93.39,17.97C93.73,11.63 91.04,9.94 85.68,12.83C85.68,12.83 85.53,8.71 82.85,7.74C80.16,6.77 76.43,9.87 76.43,9.87C72.63,4.2 68.32,4.29 64,9.74L64,9.73C59.68,4.29 55.37,4.2 51.58,9.87C51.58,9.87 47.85,6.77 45.16,7.74C42.47,8.71 42.33,12.83 42.33,12.83C36.96,9.94 34.28,11.63 34.62,17.97C28.85,16.78 26.93,19.61 28.52,25.47C22.77,26.67 22.52,30.01 26.34,34.41C21.11,36.59 21.45,39.71 25.97,42.88C28.06,44.35 27.78,48.52 28.54,51.85C30.48,60.33 30.306,62.42 30.306,62.42C30.306,62.42 33.79,59.7 34.17,57.96C34.55,56.21 35.06,53.45 34,52C37.49,49.32 36.18,44.76 36.18,44.76C36.18,44.76 39.28,44.13 41.03,41.3C41.81,40.04 42.25,39.39 43.59,39.98C44.64,40.45 45.72,40.74 46.88,40.74C49.56,40.74 51.92,39.34 53.3,37.22C54.26,37.77 55.37,38.09 56.55,38.09C59.52,38.09 62.03,36.12 62.92,33.39C64.15,34.89 65.99,35.84 68.06,35.84C68.93,35.84 69.75,35.66 70.52,35.35C70.52,35.35 71.33,40.01 77.58,39.71C82.17,39.5 83.63,36.69 83.63,36.69C83.63,36.69 84.81,39.11 86.93,39.85C89.05,40.59 90.72,40.26 90.72,40.26C90.72,40.26 89.59,45.92 95.1,49.06C95.1,49.06 93.6,52.62 94.42,56.24C95.03,59.04 97.669,62.83 97.669,62.83Z" style="fill:rgb(84,57,48);fill-rule:nonzero;"/>
    </g>
</svg>
