<?xml version="1.0" encoding="UTF-8" standalone="no"?>
<!DOCTYPE svg PUBLIC "-//W3C//DTD SVG 1.1//EN" "http://www.w3.org/Graphics/SVG/1.1/DTD/svg11.dtd">
<svg width="100%" height="100%" viewBox="0 0 128 128" version="1.1" xmlns="http://www.w3.org/2000/svg" xmlns:xlink="http://www.w3.org/1999/xlink" xml:space="preserve" xmlns:serif="http://www.serif.com/" style="fill-rule:evenodd;clip-rule:evenodd;stroke-linecap:round;stroke-linejoin:round;stroke-miterlimit:1.5;">
    <g transform="matrix(1.01858,0,0,1.01858,-2.35377,-1.67577)">
        <path d="M126.015,15.16C126.015,8.784 120.838,3.607 114.461,3.607L15.826,3.607C9.449,3.607 4.273,8.784 4.273,15.16L4.273,113.796C4.273,120.172 9.449,125.349 15.826,125.349L114.461,125.349C120.838,125.349 126.015,120.172 126.015,113.796L126.015,15.16Z" style="fill:rgb(64,192,231);"/>
    </g>
    <g transform="matrix(1.42966,0,0,1.23139,-20.3346,37.71)">
        <rect x="30.737" y="14.303" width="56.503" height="45.171" style="fill:none;stroke:white;stroke-width:6px;"/>
    </g>
    <g transform="matrix(0.339898,0,0,0.339898,18.2162,62.0565)">
        <path d="M86.27,50.71C79.86,42.76 74.83,43.73 74.83,41.39C74.83,39.05 83.36,36.5 83.62,24.36C83.89,12.32 74.28,5.05 64,5.05C53.73,5.05 44.12,12.33 44.39,24.37C44.66,36.51 53.18,39.05 53.18,41.4C53.18,43.75 48.15,42.76 41.74,50.72C35.33,58.67 28.21,76.6 31.11,85.41C34.01,94.23 44.12,91.07 44.12,85.41C44.12,79.75 42.63,76.45 44.67,70.45C46.71,64.45 47.11,64.66 48.5,64.95C50.42,65.35 47.74,73.36 47.23,80.13C46.85,85.18 48.36,89.03 49.51,90.9C51.04,93.42 52.02,111.76 48.9,114.11C47.06,115.5 45.23,117.34 45.23,119.81C45.23,124 49.09,125.49 54.82,124.78C59.81,124.16 63.24,121.88 62.85,114.7C62.44,107.53 60.65,95.02 64.01,95.02C67.39,95.02 65.59,107.53 65.18,114.7C64.78,121.87 68.22,124.16 73.2,124.78C78.93,125.49 82.8,124.01 82.8,119.81C82.8,117.35 80.96,115.5 79.12,114.11C76.01,111.76 76.98,93.42 78.53,90.9C79.66,89.03 81.18,85.18 80.8,80.13C80.29,73.37 77.6,65.36 79.52,64.95C80.91,64.65 81.31,64.45 83.35,70.45C85.39,76.45 83.9,79.75 83.9,85.41C83.9,91.07 94,94.23 96.9,85.41C99.79,76.59 92.68,58.66 86.27,50.71Z" style="fill:white;fill-rule:nonzero;"/>
    </g>
    <g transform="matrix(0.339898,0,0,0.339898,42.2454,62.0565)">
        <path d="M86.27,50.71C79.86,42.76 74.83,43.73 74.83,41.39C74.83,39.05 83.36,36.5 83.62,24.36C83.89,12.32 74.28,5.05 64,5.05C53.73,5.05 44.12,12.33 44.39,24.37C44.66,36.51 53.18,39.05 53.18,41.4C53.18,43.75 48.15,42.76 41.74,50.72C35.33,58.67 28.21,76.6 31.11,85.41C34.01,94.23 44.12,91.07 44.12,85.41C44.12,79.75 42.63,76.45 44.67,70.45C46.71,64.45 47.11,64.66 48.5,64.95C50.42,65.35 47.74,73.36 47.23,80.13C46.85,85.18 48.36,89.03 49.51,90.9C51.04,93.42 52.02,111.76 48.9,114.11C47.06,115.5 45.23,117.34 45.23,119.81C45.23,124 49.09,125.49 54.82,124.78C59.81,124.16 63.24,121.88 62.85,114.7C62.44,107.53 60.65,95.02 64.01,95.02C67.39,95.02 65.59,107.53 65.18,114.7C64.78,121.87 68.22,124.16 73.2,124.78C78.93,125.49 82.8,124.01 82.8,119.81C82.8,117.35 80.96,115.5 79.12,114.11C76.01,111.76 76.98,93.42 78.53,90.9C79.66,89.03 81.18,85.18 80.8,80.13C80.29,73.37 77.6,65.36 79.52,64.95C80.91,64.65 81.31,64.45 83.35,70.45C85.39,76.45 83.9,79.75 83.9,85.41C83.9,91.07 94,94.23 96.9,85.41C99.79,76.59 92.68,58.66 86.27,50.71Z" style="fill:white;fill-rule:nonzero;"/>
    </g>
    <g transform="matrix(0.339898,0,0,0.339898,66.2746,62.0565)">
        <path d="M86.27,50.71C79.86,42.76 74.83,43.73 74.83,41.39C74.83,39.05 83.36,36.5 83.62,24.36C83.89,12.32 74.28,5.05 64,5.05C53.73,5.05 44.12,12.33 44.39,24.37C44.66,36.51 53.18,39.05 53.18,41.4C53.18,43.75 48.15,42.76 41.74,50.72C35.33,58.67 28.21,76.6 31.11,85.41C34.01,94.23 44.12,91.07 44.12,85.41C44.12,79.75 42.63,76.45 44.67,70.45C46.71,64.45 47.11,64.66 48.5,64.95C50.42,65.35 47.74,73.36 47.23,80.13C46.85,85.18 48.36,89.03 49.51,90.9C51.04,93.42 52.02,111.76 48.9,114.11C47.06,115.5 45.23,117.34 45.23,119.81C45.23,124 49.09,125.49 54.82,124.78C59.81,124.16 63.24,121.88 62.85,114.7C62.44,107.53 60.65,95.02 64.01,95.02C67.39,95.02 65.59,107.53 65.18,114.7C64.78,121.87 68.22,124.16 73.2,124.78C78.93,125.49 82.8,124.01 82.8,119.81C82.8,117.35 80.96,115.5 79.12,114.11C76.01,111.76 76.98,93.42 78.53,90.9C79.66,89.03 81.18,85.18 80.8,80.13C80.29,73.37 77.6,65.36 79.52,64.95C80.91,64.65 81.31,64.45 83.35,70.45C85.39,76.45 83.9,79.75 83.9,85.41C83.9,91.07 94,94.23 96.9,85.41C99.79,76.59 92.68,58.66 86.27,50.71Z" style="fill:white;fill-rule:nonzero;"/>
    </g>
    <g transform="matrix(0.412614,0,0,0.412614,20.6848,2.94054)">
        <path d="M64,105.05L32.86,62.58L52.28,62.58L52.28,22.95L75.51,22.95L75.51,62.58L95.13,62.58L64,105.05Z" style="fill:white;fill-rule:nonzero;"/>
    </g>
    <g transform="matrix(-0.412614,5.05306e-17,-5.05306e-17,-0.412614,107.315,55.7551)">
        <path d="M64,105.05L32.86,62.58L52.28,62.58L52.28,22.95L75.51,22.95L75.51,62.58L95.13,62.58L64,105.05Z" style="fill:white;fill-rule:nonzero;"/>
    </g>
</svg>
