<?xml version="1.0" encoding="UTF-8" standalone="no"?>
<!DOCTYPE svg PUBLIC "-//W3C//DTD SVG 1.1//EN" "http://www.w3.org/Graphics/SVG/1.1/DTD/svg11.dtd">
<svg width="100%" height="100%" viewBox="0 0 128 128" version="1.1" xmlns="http://www.w3.org/2000/svg" xmlns:xlink="http://www.w3.org/1999/xlink" xml:space="preserve" xmlns:serif="http://www.serif.com/" style="fill-rule:evenodd;clip-rule:evenodd;stroke-linejoin:round;stroke-miterlimit:2;">
    <path d="M116.74,49.62C114.84,25.06 98.93,5.74 64,7.42C28.93,5.89 13.27,25.06 11.36,49.62C10.12,65.53 9.03,127.97 9.03,127.97L118.98,127.97C118.97,127.98 117.97,65.54 116.74,49.62Z" style="fill:rgb(211,211,211);fill-rule:nonzero;"/>
    <g transform="matrix(0.969566,0,0,0.969566,13.941,4.96402)">
        <path d="M83.76,52.14C83.76,52.14 89.65,53.16 89.65,59.51C89.65,65.11 85.35,67.32 81.05,67.32L81.05,52.14L83.76,52.14ZM19.48,52.14C19.48,52.14 13.59,53.16 13.59,59.51C13.59,65.11 17.89,67.32 22.19,67.32L22.19,52.14L19.48,52.14Z" style="fill:#563e37;fill-rule:nonzero;"/>
    </g>
    <path d="M20.43,118.09L20.43,127.98L107.57,127.98L107.57,118.09C107.57,102.92 86.18,95.22 64.33,95.25C42.61,95.28 20.43,102.03 20.43,118.09Z" style="fill:rgb(245,245,245);fill-rule:nonzero;"/>
    <path d="M73.06,89.82L54.92,89.82L54.92,102.42L49.82,112.13C49.66,112.43 49.88,112.79 50.22,112.79L77.76,112.79C78.1,112.79 78.32,112.43 78.16,112.13L73.06,102.42L73.06,89.82Z" style="fill:#563e37;fill-rule:nonzero;"/>
    <path d="M64,14.28C39.67,14.28 33.3,33.14 33.3,59.64C33.3,86.14 52.17,94.22 64,94.22C75.83,94.22 94.7,86.14 94.7,59.64C94.7,33.14 88.33,14.28 64,14.28Z" style="fill:#70534a;fill-rule:nonzero;"/>
    <g transform="matrix(0.969566,0,0,0.969566,13.941,4.96402)">
        <path d="M52.38,6.96C52.38,6.96 51.88,6.94 51.67,6.95C51.46,6.95 50.96,6.96 50.96,6.96C23.55,7.49 15.29,23.98 15.29,35.41C15.29,46.52 15.3,54.69 15.3,54.69C15.3,54.69 15.74,54.24 16.54,53.61C17.4,52.94 18.35,52.57 18.35,52.57L19.73,61.85L28.86,42.77C28.92,42.65 29.04,42.58 29.17,42.6L34.58,43.2C40.02,43.8 45.49,44.1 50.95,44.11L50.95,44.12C51.19,44.12 51.42,44.11 51.66,44.11C51.9,44.11 52.13,44.12 52.37,44.12L52.37,44.1C57.83,44.08 63.3,43.79 68.74,43.19L74.15,42.59C74.28,42.58 74.4,42.65 74.46,42.76L83.59,61.84L84.97,52.56C84.97,52.56 85.92,52.94 86.78,53.6C87.59,54.23 88.02,54.68 88.02,54.68C88.02,54.68 88.03,46.52 88.03,35.4C88.05,23.98 79.79,7.49 52.38,6.96Z" style="fill:#232020;fill-rule:nonzero;"/>
    </g>
    <path d="M53.45,60.73C53.45,63.57 51.55,65.88 49.19,65.88C46.84,65.88 44.92,63.58 44.92,60.73C44.92,57.88 46.83,55.58 49.19,55.58C51.55,55.57 53.45,57.88 53.45,60.73M74.44,60.73C74.44,63.57 76.34,65.88 78.71,65.88C81.06,65.88 82.97,63.58 82.97,60.73C82.97,57.88 81.06,55.58 78.71,55.58C76.35,55.57 74.44,57.88 74.44,60.73" style="fill:rgb(68,68,68);fill-rule:nonzero;"/>
    <path d="M73.23,78.11L54.77,78.11C53.71,78.11 53.26,78.82 53.96,79.89C54.94,81.38 58.57,84.25 64,84.25C69.43,84.25 73.06,81.38 74.04,79.89C74.74,78.82 74.29,78.11 73.23,78.11Z" style="fill:rgb(81,63,53);fill-rule:nonzero;"/>
    <path d="M68.46,70.27C66.89,70.71 65.26,70.93 64,70.93C62.74,70.93 61.11,70.71 59.54,70.27C58.87,70.08 58.6,70.72 58.85,71.14C59.35,72.02 61.35,73.78 64,73.78C66.65,73.78 68.65,72.01 69.15,71.14C69.39,70.71 69.13,70.08 68.46,70.27Z" style="fill:#563e37;fill-rule:nonzero;"/>
    <path d="M64.42,22.62C74.14,22.62 85.39,19.92 94.7,17.13C93.25,15.58 92.12,14.64 90.8,13.57C71.23,19.38 55.91,19.1 37.21,13.57C35.51,14.67 34.09,16.15 33.31,17.13C42.8,20.05 54.48,22.62 64.42,22.62Z" style="fill:rgb(245,245,245);fill-rule:nonzero;"/>
</svg>
