<?xml version="1.0" encoding="UTF-8" standalone="no"?>
<!DOCTYPE svg PUBLIC "-//W3C//DTD SVG 1.1//EN" "http://www.w3.org/Graphics/SVG/1.1/DTD/svg11.dtd">
<svg width="100%" height="100%" viewBox="0 0 128 128" version="1.1" xmlns="http://www.w3.org/2000/svg" xmlns:xlink="http://www.w3.org/1999/xlink" xml:space="preserve" xmlns:serif="http://www.serif.com/" style="fill-rule:evenodd;clip-rule:evenodd;stroke-linecap:round;stroke-linejoin:round;stroke-miterlimit:1.5;">
    <g transform="matrix(0.686704,0.726937,-0.726937,0.686704,75.4839,-32.102)">
        <g transform="matrix(0.940823,0.200582,-0.200582,0.940823,27.819,-11.2384)">
            <path d="M56.58,97.15L45.19,90.83L55.72,65.57L70.813,72.043L56.58,97.15Z" style="fill:rgb(244,213,152);fill-rule:nonzero;"/>
        </g>
        <g transform="matrix(0.921407,0.637254,-0.637254,0.921407,22.2003,-54.0698)">
            <circle cx="100.597" cy="62.284" r="5.219" style="fill:rgb(244,213,152);"/>
        </g>
        <g transform="matrix(1.02647,0.709914,-0.804869,1.16376,19.1722,-82.362)">
            <rect x="97.204" y="60.409" width="7.987" height="8.265" style="fill:rgb(244,213,152);"/>
        </g>
    </g>
    <g transform="matrix(0.918396,0,0,0.918396,16.3735,-4.39112)">
        <path d="M69.01,73.11L55.76,73.11C53.242,73.11 51.17,71.038 51.17,68.52L53.57,44.63C54.05,40.75 55.26,34.27 60.55,34.27L65.13,34.27C69.69,34.27 71.59,39.66 71.79,44.41L73.59,68.53C73.6,71.05 71.55,73.11 69.01,73.11Z" style="fill:rgb(101,31,255);fill-rule:nonzero;"/>
    </g>
    <g transform="matrix(0.717327,0,0,0.717327,33.8521,34.716)">
        <g transform="matrix(1,0,0,1,5.47848,1.42109e-14)">
            <g transform="matrix(1.843,0,0,1.843,-39.8784,-79.2615)">
                <path d="M71.599,47.017C71.599,46.357 71.063,45.821 70.403,45.821L64.204,45.821C63.545,45.821 63.009,46.357 63.009,47.017C63.009,47.677 63.545,48.212 64.204,48.212L70.403,48.212C71.063,48.212 71.599,47.677 71.599,47.017Z" style="fill:rgb(69,69,69);"/>
            </g>
            <g transform="matrix(1.843,0,0,1.843,-39.8784,-79.2615)">
                <path d="M64.991,90.136C64.782,91.14 63.084,91.227 63,90C63,90 63,83.004 63,80.283C63,79.695 62.523,79.218 61.935,79.218C57.452,79.218 40.131,79.218 35.648,79.218C35.365,79.218 35.094,79.33 34.895,79.53C34.695,79.73 34.583,80 34.583,80.283C34.583,84.718 34.583,101.5 34.583,101.5C34.445,103.524 32.649,102.466 32.583,101.5L32.583,76.998C32.634,76.222 33.025,76.035 33.583,75.998C33.583,75.998 56.662,75.998 61.936,75.998C62.524,75.998 63,75.522 63,74.934C63.002,69.662 63.009,46.595 63.009,46.595C63.214,45.611 65.68,45.471 65.766,46.731L65.766,90C65.767,89.996 64.994,90.091 64.991,90.136Z" style="fill:rgb(226,115,56);fill-rule:nonzero;"/>
            </g>
            <g transform="matrix(1.843,0,0,1.843,-47.294,-70.7295)">
                <g transform="matrix(0.5625,0,0,0.5625,13.9817,41.7456)">
                    <path d="M42,90C46.415,90 50,93.585 50,98C50,102.415 46.415,106 42,106C37.585,106 34,102.415 34,98C34,93.585 37.585,90 42,90ZM42,90.981C45.874,90.981 49.019,94.126 49.019,98C49.019,101.874 45.874,105.019 42,105.019C38.126,105.019 34.981,101.874 34.981,98C34.981,94.126 38.126,90.981 42,90.981Z" style="fill:rgb(65,65,65);"/>
                </g>
                <g transform="matrix(0.28125,0,0,0.28125,19.6067,71.5581)">
                    <path d="M64,75.963L64,104.037" style="fill:none;stroke:rgb(76,76,76);stroke-width:2.02px;"/>
                </g>
                <g transform="matrix(0.24357,0.140625,-0.140625,0.24357,34.6745,65.9493)">
                    <path d="M64,75.963L64,104.037" style="fill:none;stroke:rgb(76,76,76);stroke-width:2.02px;"/>
                </g>
                <g transform="matrix(0.140625,0.24357,-0.24357,0.140625,50.528,68.6258)">
                    <path d="M64,75.963L64,104.037" style="fill:none;stroke:rgb(76,76,76);stroke-width:2.02px;"/>
                </g>
                <g transform="matrix(7.80626e-17,0.28125,-0.28125,7.80626e-17,62.9192,78.8706)">
                    <path d="M64,75.963L64,104.037" style="fill:none;stroke:rgb(76,76,76);stroke-width:2.02px;"/>
                </g>
                <g transform="matrix(-0.140625,0.24357,-0.24357,-0.140625,68.528,93.9383)">
                    <path d="M64,75.963L64,104.037" style="fill:none;stroke:rgb(76,76,76);stroke-width:2.02px;"/>
                </g>
                <g transform="matrix(-0.24357,0.140625,-0.140625,-0.24357,65.8514,109.792)">
                    <path d="M64,75.963L64,104.037" style="fill:none;stroke:rgb(76,76,76);stroke-width:2.02px;"/>
                </g>
            </g>
            <g transform="matrix(1.843,0,0,1.843,-39.8784,-79.2615)">
                <path d="M63.001,72.05C63.001,72.05 43.062,72.05 36.561,72.05C35.444,72.05 34.539,72.955 34.539,74.072C34.539,74.53 34.539,74.985 34.539,75.337C34.539,75.702 34.835,75.998 35.2,75.998C39.038,75.998 58.426,75.998 62.32,75.998C62.5,75.998 62.674,75.926 62.802,75.798C62.929,75.67 63.001,75.497 63.001,75.316C63.001,74.187 63.001,72.05 63.001,72.05Z" style="fill:rgb(77,143,217);"/>
            </g>
            <g transform="matrix(1.843,0,0,1.843,-39.8784,-79.2615)">
                <path d="M63.009,48.839C63.009,48.493 62.728,48.212 62.382,48.212C61.844,48.212 61.058,48.212 60.426,48.212C59.854,48.212 59.391,48.676 59.391,49.248C59.391,53.83 59.391,72.05 59.391,72.05L63.009,72.05C63.009,72.05 63.009,52.602 63.009,48.839Z" style="fill:rgb(77,143,217);"/>
            </g>
            <g transform="matrix(1.25238,0,0,1,-7.3421,0)">
                <path d="M66.843,37.408C67.289,37.51 67.608,37.774 67.645,38.542L67.645,60.802C67.585,61.997 65.908,62.566 65.82,60.802L65.82,39.685C65.82,39.685 36.467,39.685 30.907,39.685C30.667,39.685 30.438,39.805 30.268,40.017C30.099,40.229 30.004,40.516 30.004,40.816C30.004,45.196 30.004,60.802 30.004,60.802C29.888,63.105 28.238,61.996 28.178,60.802L28.178,38.542C28.208,37.927 28.589,37.437 29.091,37.399L66.733,37.399C66.769,37.402 66.806,37.405 66.843,37.408Z" style="fill:rgb(226,115,56);fill-rule:nonzero;"/>
            </g>
            <g transform="matrix(1.35467,0,0,1,-13.3932,-0.472337)">
                <path d="M60.483,39.015C60.483,37.511 59.582,36.29 58.472,36.29L35.39,36.29C34.28,36.29 33.378,37.511 33.378,39.015C33.378,40.519 34.28,41.74 35.39,41.74L58.472,41.74C59.582,41.74 60.483,40.519 60.483,39.015Z" style="fill:rgb(32,89,153);"/>
            </g>
            <g transform="matrix(2.26282,0,0,2.26282,-66.7471,-117.046)">
                <g transform="matrix(2,0,0,2,-20,-106)">
                    <path d="M42,90C46.415,90 50,93.585 50,98C50,102.415 46.415,106 42,106C37.585,106 34,102.415 34,98C34,93.585 37.585,90 42,90ZM42,91.472C45.603,91.472 48.528,94.397 48.528,98C48.528,101.603 45.603,104.528 42,104.528C38.397,104.528 35.472,101.603 35.472,98C35.472,94.397 38.397,91.472 42,91.472Z" style="fill:rgb(65,65,65);"/>
                </g>
                <path d="M64,75.963L64,104.037" style="fill:none;stroke:rgb(76,76,76);stroke-width:0.46px;"/>
                <g transform="matrix(0.866025,0.5,-0.5,0.866025,53.5744,-19.9423)">
                    <path d="M64,75.963L64,104.037" style="fill:none;stroke:rgb(76,76,76);stroke-width:0.46px;"/>
                </g>
                <g transform="matrix(0.5,0.866025,-0.866025,0.5,109.942,-10.4256)">
                    <path d="M64,75.963L64,104.037" style="fill:none;stroke:rgb(76,76,76);stroke-width:0.46px;"/>
                </g>
                <g transform="matrix(2.77556e-16,1,-1,2.77556e-16,154,26)">
                    <path d="M64,75.963L64,104.037" style="fill:none;stroke:rgb(76,76,76);stroke-width:0.46px;"/>
                </g>
                <g transform="matrix(-0.5,0.866025,-0.866025,-0.5,173.942,79.5744)">
                    <path d="M64,75.963L64,104.037" style="fill:none;stroke:rgb(76,76,76);stroke-width:0.46px;"/>
                </g>
                <g transform="matrix(-0.866025,0.5,-0.5,-0.866025,164.426,135.942)">
                    <path d="M64,75.963L64,104.037" style="fill:none;stroke:rgb(76,76,76);stroke-width:0.46px;"/>
                </g>
            </g>
        </g>
        <g transform="matrix(1,0,0,1,5.47848,-6.00073)">
            <path d="M21.807,68.146L6.88,103.889L-0.543,101.232" style="fill:none;stroke:rgb(226,115,56);stroke-width:3.19px;"/>
        </g>
    </g>
    <g transform="matrix(-0.455105,0.754592,-0.754592,-0.455105,142.475,64.7284)">
        <g transform="matrix(0.956731,-0.100237,0.100237,0.956731,14.8235,14.9728)">
            <g transform="matrix(0.677079,-0.73591,0.73591,0.677079,-67.3195,53.0202)">
                <circle cx="51.13" cy="93.56" r="6.54" style="fill:rgb(244,213,152);"/>
            </g>
            <g transform="matrix(-0.183449,-0.983029,0.983029,-0.183449,-47.2217,146.219)">
                <path d="M51.386,126.289L40.223,124.539L44.65,92.62L57.46,95.571L51.386,126.289Z" style="fill:rgb(244,213,152);fill-rule:nonzero;"/>
            </g>
        </g>
        <g transform="matrix(-0.274047,-0.922106,0.922106,-0.274047,-9.69521,158.6)">
            <path d="M47.52,126.55L37.85,125.03C36.112,124.759 34.816,123.247 34.816,121.488C34.816,121.301 34.831,121.114 34.86,120.93C35.17,118.97 37,117.63 38.96,117.94L48.63,119.46C50.59,119.77 51.93,121.6 51.62,123.56C51.315,125.504 49.465,126.853 47.52,126.55Z" style="fill:rgb(69,104,173);fill-rule:nonzero;"/>
            <path d="M34.907,120.575L51.672,123.209L50.919,128L34.154,125.366L34.907,120.575Z" style="fill:rgb(69,104,173);fill-rule:nonzero;"/>
            <path d="M46.38,119.101L52.169,120.011L51.557,123.903L45.768,122.993L46.38,119.101Z" style="fill:rgb(69,104,173);fill-rule:nonzero;"/>
        </g>
    </g>
    <g transform="matrix(0.918396,0,0,0.918396,16.3735,-4.39112)">
        <path d="M66.9,26.13L67.03,36.35L59.25,37.39L56.22,17.31L66.9,26.13Z" style="fill:#fbc11b;fill-rule:nonzero;"/>
    </g>
    <g transform="matrix(0.916199,-0.0634989,0.0634989,0.916199,14.6967,-0.314557)">
        <g>
            <path d="M68.71,16.23L66.67,33.16L55.62,31.91C50.48,31.33 46.87,26.57 47.7,21.47L48.71,15.28C49.64,9.56 55.3,5.89 60.9,7.38L63.12,7.97C66.77,8.95 69.16,12.47 68.71,16.23Z" style="fill:#fbc11b;fill-rule:nonzero;"/>
            <path d="M67.72,27.76L62.67,26.22L62.83,22.56C62.89,21.33 62.26,20.17 61.2,19.54L59.49,23.38C58.32,23.02 57.417,22.075 57.11,20.89L56.5,18.53C56.236,17.508 55.494,16.673 54.51,16.29L48.94,14.15C48.94,14.15 49.95,6.16 57.96,6.15C59.34,6.15 60.7,6.22 62,6.35C68.02,6.94 72.11,12.74 70.67,18.61C69.92,21.74 68.93,24.79 67.72,27.76Z" style="fill:#e1450a;fill-rule:nonzero;"/>
            <path d="M70.94,16.78C70.94,16.78 76.37,18.09 75.45,26.97C74.72,34.05 80.2,40.51 80.2,40.51C80.2,40.51 72.08,37.75 68.41,30.39C64.74,23.03 70.94,16.78 70.94,16.78Z" style="fill:#e1450a;fill-rule:nonzero;"/>
        </g>
        <path d="M52.31,19.68C52.2,20.43 51.62,20.97 51,20.88C50.38,20.79 49.96,20.12 50.07,19.37C50.18,18.62 50.76,18.08 51.38,18.17C52,18.25 52.41,18.93 52.31,19.68" style="fill:rgb(68,68,68);fill-rule:nonzero;"/>
    </g>
    <g transform="matrix(0.787234,-0.472985,0.472985,0.787234,5.01011,30.5338)">
        <path d="M69.732,63.733L62.418,64.924L60.01,50.13L67.324,48.94L69.732,63.733Z" style="fill:#fbc11b;fill-rule:nonzero;"/>
    </g>
    <g transform="matrix(0.0310539,-0.917871,0.917871,0.0310539,26.3302,108.56)">
        <circle cx="66.05" cy="64.33" r="3.75" style="fill:#fbc11b;"/>
    </g>
    <g transform="matrix(0.787234,-0.472985,0.472985,0.787234,5.01011,30.5338)">
        <path d="M59.02,55.43L70.45,53.36L68.33,41.67C67.788,38.967 65.392,37.004 62.635,37.004C59.448,37.004 56.826,39.626 56.826,42.813C56.826,43.123 56.85,43.433 56.9,43.74L59.02,55.43Z" style="fill:rgb(54,21,175);fill-rule:nonzero;"/>
    </g>
    <g transform="matrix(0.787234,-0.472985,0.472985,0.787234,5.01011,30.5338)">
        <path d="M64.284,77.709L57.492,74.746L62.565,63.114L69.357,66.077L64.284,77.709Z" style="fill:#fbc11b;fill-rule:nonzero;"/>
    </g>
    <g transform="matrix(0.787234,-0.472985,0.472985,0.787234,5.01011,30.5338)">
        <path d="M57.4,83.98C58.012,84.25 58.674,84.389 59.342,84.389C61.249,84.389 62.984,83.256 63.75,81.51L64.72,79.3C64.99,78.688 65.129,78.026 65.129,77.358C65.129,75.451 63.996,73.716 62.25,72.95C61.638,72.68 60.976,72.541 60.308,72.541C58.401,72.541 56.666,73.674 55.9,75.42L54.93,77.63C54.661,78.241 54.522,78.902 54.522,79.57C54.522,81.477 55.654,83.212 57.4,83.98Z" style="fill:#fbc11b;fill-rule:nonzero;"/>
    </g>
</svg>
