<?xml version="1.0" encoding="UTF-8" standalone="no"?>
<!DOCTYPE svg PUBLIC "-//W3C//DTD SVG 1.1//EN" "http://www.w3.org/Graphics/SVG/1.1/DTD/svg11.dtd">
<svg width="100%" height="100%" viewBox="0 0 128 128" version="1.1" xmlns="http://www.w3.org/2000/svg" xmlns:xlink="http://www.w3.org/1999/xlink" xml:space="preserve" xmlns:serif="http://www.serif.com/" style="fill-rule:evenodd;clip-rule:evenodd;stroke-linejoin:round;stroke-miterlimit:2;">
    <path d="M7.98,118.17L7.98,128.06L95.12,128.06L95.12,118.17C95.12,103 73.73,95.3 51.88,95.33C30.17,95.36 7.98,102.11 7.98,118.17Z" style="fill:rgb(40,53,147);fill-rule:nonzero;"/>
    <path d="M60.66,90.33L42.49,90.33L42.49,99.92C42.49,104.26 46.19,107.78 50.75,107.78L52.4,107.78C56.96,107.78 60.66,104.26 60.66,99.92L60.66,90.33Z" style="fill:#7a4c32;fill-rule:nonzero;"/>
    <path d="M51.52,13.65C27.17,13.65 20.8,32.52 20.8,59.04C20.8,85.55 39.69,93.64 51.52,93.64C63.35,93.64 82.24,85.55 82.24,59.04C82.24,32.53 75.87,13.65 51.52,13.65Z" style="fill:#9b643c;fill-rule:nonzero;"/>
    <path d="M60.85,78.19L42.39,78.19C41.33,78.19 40.88,78.9 41.58,79.97C42.56,81.46 46.19,84.33 51.62,84.33C57.05,84.33 60.68,81.46 61.66,79.97C62.36,78.9 61.91,78.19 60.85,78.19Z" style="fill:rgb(68,68,68);fill-rule:nonzero;"/>
    <g>
        <path d="M41.12,60.81C41.12,63.65 39.22,65.96 36.86,65.96C34.51,65.96 32.59,63.66 32.59,60.81C32.59,57.96 34.5,55.66 36.86,55.66C39.22,55.66 41.12,57.96 41.12,60.81M62.12,60.81C62.12,63.65 64.02,65.96 66.39,65.96C68.74,65.96 70.65,63.66 70.65,60.81C70.65,57.96 68.74,55.66 66.39,55.66C64.02,55.66 62.12,57.96 62.12,60.81" style="fill:rgb(68,68,68);fill-rule:nonzero;"/>
    </g>
    <path d="M56.03,70.35C54.46,70.79 52.83,71.01 51.57,71.01C50.31,71.01 48.68,70.79 47.11,70.35C46.44,70.16 46.17,70.8 46.42,71.22C46.92,72.1 48.92,73.86 51.57,73.86C54.22,73.86 56.22,72.09 56.72,71.22C56.96,70.79 56.7,70.16 56.03,70.35Z" style="fill:#7a4c32;fill-rule:nonzero;"/>
    <path d="M60.96,128.08L42.14,128.08L42.14,95.78L51.55,107.78L60.96,95.78L60.96,128.08Z" style="fill:rgb(40,53,147);fill-rule:nonzero;"/>
    <path d="M77.18,116.15L77.18,99.09C74.74,98.26 72.14,97.57 69.43,97.01L69.43,113.02L51.56,112.89L33.69,113.02L33.69,97.01C30.98,97.56 28.38,98.26 25.94,99.09L25.94,116.16L21.95,128.07L81.19,128.07L77.18,116.15Z" style="fill:rgb(255,111,0);fill-rule:nonzero;"/>
    <g>
        <path d="M101.86,107.61C103.36,107.98 104.32,109.04 104.99,110.36C106.66,110.06 109.54,109.76 110.38,109.78C111.37,109.81 112.68,109.92 112.9,111.95C113.04,113.27 112.54,114.36 110.85,114.52C110.22,114.58 109.57,114.62 108.93,114.65L109.16,115.39C109.75,115.38 110.28,115.36 110.69,115.36C112.4,115.34 113.37,116.25 113.37,118.06C113.37,119.65 112,120.4 111,120.46C110.47,120.49 108.99,120.41 107.53,120.27L107.38,120.58L107.32,120.67C108.24,120.81 109.12,120.96 109.74,121.07C111.41,121.37 112.21,122.48 112.02,123.8C111.79,125.4 110.36,125.84 109.37,125.81C108.63,125.79 106.03,125.38 104.29,125.01L103.95,125.5C104.07,125.52 104.2,125.54 104.34,125.56C104.36,125.56 104.38,125.57 104.41,125.57L104.76,125.63C104.79,125.63 104.81,125.64 104.84,125.64C104.98,125.66 105.12,125.69 105.26,125.71L105.28,125.71C105.43,125.73 105.58,125.76 105.73,125.79C105.76,125.79 105.79,125.8 105.81,125.8L106.16,125.86C106.21,125.87 106.25,125.88 106.3,125.88C106.4,125.9 106.5,125.92 106.59,125.93L106.74,125.96C106.84,125.98 106.93,126 107.02,126.01L107.16,126.04C107.29,126.07 107.43,126.09 107.55,126.12C109.08,126.44 109.66,127.13 109.47,128.34C109.21,130.04 107.5,130.42 106.59,130.33C105.68,130.25 102.62,129.62 101.62,129.18L101.44,129.09L101.09,129.59C96.59,129.29 93.36,127.41 93.36,127.41C90.72,125.93 90.28,124.79 89.84,122.98C89.34,120.92 89.46,118.48 89.48,118.1C89.64,114 90.55,111.35 93.86,109.15C94.66,108.62 95.83,107.69 98.42,107.39C99.42,107.29 100.86,107.36 101.86,107.61Z" style="fill:#9b643c;fill-rule:nonzero;"/>
        <path d="M105.6,114.42C105.6,114.42 105.64,112.36 104.99,110.36L105.71,110.23C105.71,110.23 106.22,111.65 106.4,113.75C106.43,114.09 106.44,114.4 106.44,114.7L107.08,114.66L111.37,114.42C111.37,114.42 111.05,114.48 111.05,114.96C111.05,115.16 111.17,115.29 111.26,115.37C111.08,115.35 110.88,115.33 110.68,115.34L106.42,115.45C106.41,115.57 106.41,115.69 106.4,115.82C106.3,117.56 105.89,119.23 104.92,119.87C108.14,120.25 111,120.44 111,120.44C110.44,120.67 110.68,121.35 110.68,121.35C108.51,120.76 103.25,120.45 103.25,120.45C101.03,120.26 100.73,121.76 100.73,121.76C100.32,123.57 102.29,124.4 102.29,124.4C102.55,124.55 104.9,125.02 106.58,125.34L108.26,125.65L108.73,125.74C108.68,125.73 108.48,125.72 108.4,126.05C108.36,126.21 108.4,126.32 108.43,126.39C108.18,126.28 107.88,126.18 107.53,126.11C106.74,125.95 104.35,125.56 104.17,125.53L103.57,125.45C101.59,125.19 101.11,125.54 101.11,125.54C100.01,126.12 100.33,127.52 100.33,127.52C100.57,128.87 102.06,129.29 102.06,129.29C102.63,129.46 105.65,130.19 105.65,130.19L101.08,129.59C100.76,129.49 100.64,129.34 100.46,129.2C98.85,127.88 99.53,126.09 99.53,126.09C99.78,125.4 100.3,125.09 100.3,125.09C100.61,124.9 100.97,124.8 101.34,124.76C99.47,123.77 99.77,121.77 99.77,121.77C100.01,120.54 100.9,120.02 101.6,119.8C101.54,119.75 101.47,119.7 101.41,119.64C101.41,119.64 100.21,118.85 100.65,115.46C100.8,114.32 100.78,114.16 100.66,113.44C100.66,113.44 100.23,111.9 98.95,112.39C98.95,112.39 98.52,112.5 97.85,113.03C97.85,113.03 97.31,113.45 97.32,112.79C97.32,112.59 97.46,112.23 97.73,111.92C97.73,111.92 98.01,111.59 98.7,111.4C98.7,111.4 100.49,110.69 101.38,112.48C101.85,113.42 101.76,114.04 101.61,115C101.61,115 101.33,118.03 102.12,119C102.12,119 102.9,119.89 104.15,119.34C104.16,119.36 105.86,118.42 105.6,114.42Z" style="fill:#7a4c32;fill-rule:nonzero;"/>
        <path d="M108.9,89.62C109.29,87.97 109.66,86.31 109.94,84.64C110.15,83.37 111.33,80.5 109.81,79.61C108.98,79.13 107.25,78.53 106.35,79.03C106.23,79.1 106.13,79.19 106.02,79.32C105.56,79.89 105.53,80.78 105.41,81.47C105.27,82.33 105.16,83.19 105.07,84.06C104.79,86.66 104.62,89.26 104.1,91.84C103.97,92.52 103.85,93.2 103.83,93.89C103.8,95.66 103.26,97.59 103.18,99.44C103.17,99.84 103.32,100.41 103.69,100.59C104.12,100.8 104.66,101.01 105.13,101.09C105.63,101.19 106.09,101.03 106.41,100.63C106.63,100.35 106.67,99.84 106.76,99.49C107.58,96.23 108.15,92.84 108.9,89.62Z" style="fill:white;fill-rule:nonzero;"/>
        <path d="M109.35,86.89C109.74,85.24 110.11,83.58 110.39,81.91C110.6,80.64 111.78,77.77 110.26,76.88C109.43,76.4 107.7,75.8 106.8,76.3C106.68,76.37 106.58,76.46 106.47,76.59C106.01,77.16 105.98,78.05 105.86,78.74C105.72,79.6 105.62,80.46 105.52,81.33C105.33,83.1 105.19,84.86 104.96,86.62C104.7,88.64 104.43,90.66 104.17,92.68C104,94 103.7,95.37 103.65,96.7C103.64,97.1 103.79,97.67 104.16,97.85C104.59,98.06 105.13,98.26 105.6,98.35C106.1,98.45 106.56,98.29 106.88,97.89C107.1,97.62 107.14,97.1 107.23,96.75C108.03,93.5 108.6,90.11 109.35,86.89Z" style="fill:rgb(47,47,47);fill-rule:nonzero;"/>
        <path d="M126,56.19C124.71,53.79 123.1,52.31 123.1,52.31C123.1,52.31 122.69,51.98 122.25,51.84C122.15,51.81 121.7,51.7 121.41,51.97C121.05,52.3 120.84,53.07 120.71,53.51C120.31,54.83 119.9,56.04 119.51,57.27C119.19,58.25 118.34,61.09 118.17,61.48C117.88,62.12 117.52,62.7 117.07,63.04C116.3,63.63 112.9,64.48 111.3,64.89C111.3,64.89 110.26,65.16 109.73,64.35C108.75,62.86 106.86,60.17 106.71,59.06C106.58,58.09 107.01,56.3 107.39,54.85C107.82,53.18 108.25,51.51 108.66,49.84C108.78,49.35 108.97,48.57 108.59,48.14C108.22,47.73 107.52,47.84 107.05,47.95C105.74,48.25 104.41,48.89 103.24,49.57C102.53,49.98 101.85,50.43 101.23,50.96C98.9,52.93 96.16,56.43 95.86,61.35C95.55,66.44 98.64,71.42 100.64,74.12C101.518,75.439 102.129,76.917 102.44,78.47C102.63,79.44 101.96,84.83 101.96,84.83L100.79,93.42L100.09,98.57C100.1,98.58 100.1,98.59 100.1,98.59L97.2,124.49C98.32,126.96 99.94,127.83 101.52,127.96C104.31,128.19 106.73,126.02 107.13,123.25L110.42,100.24C111.24,95.9 113.45,84.24 114.02,81.83C114.51,79.78 115.69,78.83 116.38,78.43C116.54,78.35 116.71,78.26 116.89,78.18C116.9,78.18 116.91,78.17 116.91,78.17C120,76.62 125.56,73.24 127.28,68.3C128.84,63.67 127.65,59.27 126,56.19ZM109.57,85.19C109.32,86.68 109,88.16 108.65,89.62C107.98,92.49 107.47,95.51 106.76,98.41C106.68,98.72 106.65,99.17 106.45,99.42C106.17,99.78 105.75,99.92 105.31,99.83C104.89,99.75 104.41,99.57 104.03,99.38C103.7,99.22 103.56,98.71 103.57,98.36C103.62,97.17 103.88,95.96 104.03,94.78C104.27,92.98 104.5,91.18 104.74,89.39C104.95,87.82 105.07,86.25 105.24,84.68C105.32,83.91 105.42,83.14 105.54,82.38C105.64,81.77 105.67,80.97 106.08,80.46C106.17,80.35 106.27,80.26 106.37,80.2C107.17,79.75 108.72,80.28 109.45,80.71C110.81,81.51 109.76,84.06 109.57,85.19Z" style="fill:rgb(120,163,173);fill-rule:nonzero;"/>
        <path d="M110.89,120.45L111,120.45C111.99,120.39 113.36,119.64 113.37,118.05C113.37,116.31 112.48,115.41 110.89,115.36L110.82,114.99L111.34,114.96C112.22,114.75 112.68,114.22 112.84,113.54C112.9,113.44 112.92,112.3 112.91,112.17C112.83,111.1 112.44,110.6 112.44,110.6C112.04,109.58 109.58,109.81 109.58,109.81L105.09,110.41C104.93,110.36 104.77,110.31 104.62,110.26C103.97,109.24 103.1,108.45 101.85,108.14C100.85,107.9 99.42,107.82 98.41,107.94C95.82,108.24 94.65,109.17 93.85,109.7C93.68,109.81 93.54,109.93 93.39,110.05C94.3,111.7 95.68,113.43 97.37,113.14C97.48,112.89 97.66,112.63 97.74,112.54C98.1,112.15 98.6,111.87 99.13,111.81C99.96,111.71 100.82,112.12 101.27,112.82C101.97,113.9 101.16,115.33 101.11,116.62C101.09,117.23 101.59,117.82 101.71,118.42C101.82,118.99 102.04,119.59 102.53,119.9C102.56,119.92 102.61,119.92 102.64,119.94C102.61,120.04 102.54,120.24 102.46,120.5C102.14,120.52 101.83,120.58 101.56,120.73C100.94,121.07 100.62,121.82 100.7,122.51C100.76,123.02 101.03,123.49 101.41,123.84C101.17,124.62 100.97,125.32 100.87,125.73C100.18,126.26 100.11,127.39 100.59,128.14C101.09,128.93 102.01,129.36 102.92,129.59C103.83,129.82 104.77,129.9 105.66,130.2C105.61,130.19 105.57,130.19 105.52,130.18C105.97,130.26 106.35,130.32 106.59,130.34C107.49,130.42 109.21,130.04 109.47,128.35C109.62,127.38 109.26,126.75 108.33,126.37C108.26,126.12 108.14,125.84 108.07,125.63C108.24,125.66 108.42,125.7 108.59,125.73C108.92,125.77 109.2,125.8 109.37,125.8C110.36,125.83 111.8,125.39 112.02,123.79C112.17,122.73 111.68,121.82 110.62,121.34C110.23,121.26 109.83,121.2 109.44,121.13C109.6,120.87 109.76,120.61 109.92,120.36L110.89,120.45Z" style="fill:#9b643c;fill-rule:nonzero;"/>
        <path d="M111.33,115.39C111.19,115.21 111.16,114.92 111.16,114.92L111.13,114.92C110.77,114.89 106.46,114.71 106.46,114.71C106.44,113.32 105.87,111.66 105.48,110.33C105.22,110.3 104.91,110.33 104.64,110.24C104.98,111.55 105.61,113.08 105.65,114.42C105.68,115.32 105.62,116.21 105.43,117.09C105.28,117.8 105.04,118.52 104.52,119.03C104,119.54 103.15,119.75 102.54,119.36C102.05,119.05 101.84,118.45 101.72,117.88C101.6,117.28 101.55,116.67 101.58,116.07C101.63,114.78 101.98,113.37 101.29,112.29C100.84,111.59 99.97,111.18 99.15,111.28C98.62,111.34 98.12,111.62 97.76,112.01C97.59,112.2 96.93,113.14 97.61,113.16C97.8,113.16 97.97,113.03 98.12,112.91C98.58,112.54 99.16,112.2 99.73,112.37C100.43,112.58 100.7,113.43 100.73,114.16C100.77,115.16 100.56,116.15 100.56,117.14C100.56,118.14 100.83,119.21 101.6,119.84C100.56,120.07 99.79,121.1 99.76,122.17C99.73,123.24 100.4,124.26 101.33,124.78C100.46,124.8 99.7,125.5 99.47,126.34C99.24,127.18 99.5,128.1 100.03,128.79C100.26,129.09 100.54,129.35 100.88,129.51C100.95,129.54 101.03,129.56 101.11,129.58L101.43,129.12L101.32,129.27L101.1,129.58C101.33,129.65 101.58,129.69 101.82,129.73C101.96,129.75 102.1,129.77 102.25,129.78C103.34,129.92 104.43,130.06 105.52,130.19C105.57,130.2 105.61,130.2 105.66,130.21C104.77,129.91 103.83,129.83 102.92,129.6C102.01,129.37 101.1,128.94 100.59,128.15C100.09,127.36 100.18,126.15 100.97,125.66C101.45,125.36 102.04,125.38 102.6,125.42C103.49,125.48 104.37,125.59 105.25,125.73C105.49,125.77 105.73,125.81 105.96,125.85L106.14,125.88C106.19,125.89 106.23,125.9 106.28,125.9C106.38,125.92 106.48,125.94 106.57,125.95L106.72,125.98C106.82,126 106.91,126.02 107,126.03L107.14,126.06C107.27,126.09 107.41,126.11 107.53,126.14C107.8,126.2 108.02,126.27 108.23,126.34C108.29,126.36 108.36,126.37 108.42,126.39C108.28,126.16 108.45,125.81 108.71,125.77L108.57,125.74L103.68,124.78C103.04,124.65 102.38,124.52 101.83,124.19C101.23,123.83 100.77,123.21 100.68,122.51C100.59,121.81 100.92,121.06 101.54,120.73C102.01,120.47 102.57,120.48 103.11,120.49C105.62,120.57 108.13,120.86 110.6,121.35C110.62,121.35 110.65,121.36 110.67,121.36C110.51,121.05 110.67,120.61 110.99,120.47C110.95,120.47 110.91,120.46 110.88,120.46C108.9,120.28 106.92,120.09 104.94,119.91C106.15,118.85 106.33,117.06 106.42,115.46C106.42,115.45 111.13,115.39 111.33,115.39Z" style="fill:#7a4c32;fill-rule:nonzero;"/>
    </g>
    <g transform="matrix(1.98326,0,0,1.98326,-158.479,-39.8289)">
        <path d="M94.066,27.778C96.675,25.707 100.329,23.961 105.476,23.859C105.476,23.859 105.721,23.849 105.834,23.849C105.936,23.849 106.191,23.859 106.191,23.859C109.911,23.964 112.963,24.918 115.402,26.243C116.216,26.5 116.997,26.834 117.673,27.221C118.084,27.456 118.457,27.717 118.827,28.012C118.903,28.073 119.184,28.228 119.209,28.321C119.238,28.425 118.994,28.305 118.886,28.296C118.731,28.283 118.574,28.272 118.419,28.252L118.368,28.246C118.971,28.744 119.515,29.258 120,29.772C120.271,29.935 120.539,30.114 120.804,30.314C121.132,30.562 121.401,30.867 121.659,31.184C121.748,31.294 121.84,31.401 121.917,31.52C121.966,31.595 122.148,31.735 122.06,31.745C121.896,31.764 121.698,31.677 121.52,31.62C122.01,32.31 122.39,32.964 122.665,33.536C123.633,35.551 124.199,37.503 124.508,39.288C125.092,40.069 125.567,40.92 125.654,41.756C125.668,41.885 125.453,41.592 125.348,41.517C125.153,41.377 124.947,41.255 124.746,41.124C124.854,42.375 124.844,43.507 124.778,44.475C125.148,44.925 125.697,45.513 125.762,46.106C125.767,46.16 125.663,46.061 125.615,46.037C125.48,45.97 125.357,45.907 125.234,45.818C125.048,45.683 124.867,45.537 124.697,45.38C124.515,47.006 124.206,47.978 124.206,47.978C124.206,47.978 123.992,47.754 123.584,47.437C123.145,47.1 122.665,46.906 122.665,46.906C123.306,49.8 123.851,54.429 122.665,56.431C120.735,54.812 118.108,49.269 117.391,39.774C116.735,40.348 116.068,40.864 115.492,41.108C115.534,41.282 115.575,41.456 115.63,41.619C115.693,41.806 115.767,41.99 115.858,42.164C115.907,42.256 116.121,42.448 116.018,42.432C115.768,42.394 115.388,42.01 115.166,41.873C114.718,41.595 114.247,41.364 113.749,41.208C113.257,41.177 112.766,41.13 112.283,41.047C112.464,41.653 112.611,42.271 112.664,42.901C112.683,43.125 112.706,43.776 112.534,43.933C112.534,43.933 112.37,43.713 112.357,43.694C112.245,43.534 112.131,43.375 112.017,43.217C111.69,42.765 111.364,42.316 110.987,41.903C110.287,41.135 109.563,40.41 108.76,39.79C107.985,39.438 107.209,39.088 106.389,38.836C105.299,38.5 104.178,38.454 103.065,38.251C102.871,38.215 102.678,38.17 102.487,38.118C102.375,38.122 102.263,38.127 102.152,38.133C102.787,39.669 103,41.371 102.51,42.961C102.292,43.667 101.971,44.34 101.551,44.947C101.52,44.992 101.219,45.432 101.139,45.399C100.91,45.303 100.565,44.561 100.421,44.352C99.882,43.567 99.309,42.759 98.629,42.086C97.378,40.845 95.87,40.03 94.322,39.278C94.417,45.039 92.655,52.822 89.002,56.431C88.06,54.319 88.205,49.505 89.002,46.906C89.002,46.906 88.512,47.1 88.084,47.437C87.686,47.754 87.461,47.978 87.461,47.978C87.461,47.978 86.769,45.388 86.759,42.115C86.575,42.277 86.243,42.692 86.034,42.725C85.973,42.735 86.045,42.601 86.052,42.539C86.069,42.39 86.093,42.241 86.117,42.093C86.173,41.748 86.247,41.406 86.344,41.07C86.474,40.618 86.659,40.195 86.876,39.788C87.097,37.721 87.669,35.566 88.878,33.721C88.632,33.702 88.393,33.677 88.167,33.65C87.877,33.614 87.587,33.553 87.313,33.452C87.277,33.439 87.088,33.396 87.076,33.358C87.076,33.358 87.599,33.105 87.679,33.062C88.34,32.711 88.992,32.314 89.634,31.927C89.969,31.724 90.31,31.497 90.647,31.254C91.238,30.503 91.939,29.698 92.772,28.904C92.544,28.723 92.341,28.501 92.171,28.224C91.979,27.91 91.799,27.548 91.755,27.177C91.74,27.051 91.827,26.729 92.041,26.77C92.608,26.879 92.864,27.699 93.479,27.838C93.635,27.873 93.855,27.833 94.066,27.778Z" style="fill:#47352d;fill-rule:nonzero;"/>
    </g>
</svg>
