<?xml version="1.0" encoding="UTF-8" standalone="no"?>
<!DOCTYPE svg PUBLIC "-//W3C//DTD SVG 1.1//EN" "http://www.w3.org/Graphics/SVG/1.1/DTD/svg11.dtd">
<svg width="100%" height="100%" viewBox="0 0 128 128" version="1.1" xmlns="http://www.w3.org/2000/svg" xmlns:xlink="http://www.w3.org/1999/xlink" xml:space="preserve" xmlns:serif="http://www.serif.com/" style="fill-rule:evenodd;clip-rule:evenodd;stroke-linecap:round;stroke-linejoin:round;stroke-miterlimit:1.5;">
    <g transform="matrix(0.686704,0.726937,-0.726937,0.686704,73.2912,-29.1784)">
        <g transform="matrix(0.940823,0.200582,-0.200582,0.940823,27.819,-11.2384)">
            <path d="M56.58,97.15L45.19,90.83L55.72,65.57L70.813,72.043L56.58,97.15Z" style="fill:rgb(129,140,155);fill-rule:nonzero;"/>
        </g>
        <g transform="matrix(0.921407,0.637254,-0.637254,0.921407,22.2003,-54.0698)">
            <circle cx="100.597" cy="62.284" r="5.219" style="fill:rgb(129,140,155);"/>
        </g>
        <g transform="matrix(1.02647,0.709914,-0.804869,1.16376,19.1722,-82.362)">
            <rect x="97.204" y="60.409" width="7.987" height="8.265" style="fill:rgb(129,140,155);"/>
        </g>
    </g>
    <g transform="matrix(0.914273,0.0869352,-0.0869352,0.914273,21.126,-6.58249)">
        <path d="M69.01,73.11L55.76,73.11C53.242,73.11 51.17,71.038 51.17,68.52L53.57,44.63C54.05,40.75 55.26,34.27 60.55,34.27L65.13,34.27C69.69,34.27 71.59,39.66 71.79,44.41L73.59,68.53C73.6,71.05 71.55,73.11 69.01,73.11Z" style="fill:#00bfa5;fill-rule:nonzero;"/>
    </g>
    <g transform="matrix(-0.455105,0.754592,-0.754592,-0.455105,140.283,67.652)">
        <g transform="matrix(0.956731,-0.100237,0.100237,0.956731,14.8235,14.9728)">
            <g transform="matrix(0.677079,-0.73591,0.73591,0.677079,-67.3195,53.0202)">
                <circle cx="51.13" cy="93.56" r="6.54" style="fill:rgb(129,140,155);"/>
            </g>
            <g transform="matrix(-0.183449,-0.983029,0.983029,-0.183449,-47.2217,146.219)">
                <path d="M51.386,126.289L40.223,124.539L44.65,92.62L57.46,95.571L51.386,126.289Z" style="fill:rgb(129,140,155);fill-rule:nonzero;"/>
            </g>
        </g>
        <g transform="matrix(-0.274047,-0.922106,0.922106,-0.274047,-9.69521,158.6)">
            <path d="M47.52,126.55L37.85,125.03C36.112,124.759 34.816,123.247 34.816,121.488C34.816,121.301 34.831,121.114 34.86,120.93C35.17,118.97 37,117.63 38.96,117.94L48.63,119.46C50.59,119.77 51.93,121.6 51.62,123.56C51.315,125.504 49.465,126.853 47.52,126.55Z" style="fill:rgb(69,104,173);fill-rule:nonzero;"/>
            <path d="M34.907,120.575L51.672,123.209L50.919,128L34.154,125.366L34.907,120.575Z" style="fill:rgb(69,104,173);fill-rule:nonzero;"/>
            <path d="M46.38,119.101L52.169,120.011L51.557,123.903L45.768,122.993L46.38,119.101Z" style="fill:rgb(69,104,173);fill-rule:nonzero;"/>
        </g>
    </g>
    <g transform="matrix(1.11907,0,0,1.11907,1.15898,-5.76134)">
        <g transform="matrix(1,0,0,1,0,47.3178)">
            <path d="M84.051,38.224C84.051,36.538 82.684,35.171 80.998,35.171C73.539,35.171 54.461,35.171 47.002,35.171C45.316,35.171 43.949,36.538 43.949,38.224C43.949,42.159 43.949,48.959 43.949,52.894C43.949,54.58 45.316,55.948 47.002,55.948C54.461,55.948 73.539,55.948 80.998,55.948C82.684,55.948 84.051,54.58 84.051,52.894C84.051,48.959 84.051,42.159 84.051,38.224Z" style="fill:rgb(120,163,173);"/>
        </g>
        <g transform="matrix(1,0,0,1,-25.6366,47.3178)">
            <circle cx="64" cy="64" r="5.585" style="fill:rgb(132,132,132);stroke:rgb(52,52,52);stroke-width:3.57px;"/>
        </g>
        <g transform="matrix(2.06229,0,0,2.06229,-67.9868,-26.602)">
            <circle cx="64" cy="64" r="5.585" style="fill:rgb(132,132,132);stroke:rgb(52,52,52);stroke-width:2.17px;"/>
        </g>
        <g transform="matrix(0.379472,0,0,0.379472,39.7138,81.0986)">
            <circle cx="64" cy="64" r="5.585" style="fill:rgb(52,52,52);"/>
        </g>
        <g transform="matrix(1,0,0,1,25.6366,47.3178)">
            <circle cx="64" cy="64" r="5.585" style="fill:rgb(132,132,132);stroke:rgb(52,52,52);stroke-width:3.57px;"/>
        </g>
        <g transform="matrix(1.10157,0,0,0.6522,-4.73708,27.4413)">
            <path d="M74.402,75.136C74.402,73.894 74.11,72.703 73.59,71.825C73.071,70.947 72.365,70.454 71.63,70.454C66.311,70.454 54.728,70.454 49.409,70.454C48.674,70.454 47.969,70.947 47.449,71.825C46.929,72.703 46.637,73.894 46.637,75.136C46.637,75.733 46.637,76.344 46.637,76.942C46.637,78.184 46.929,79.374 47.449,80.253C47.969,81.131 48.674,81.624 49.409,81.624C54.728,81.624 66.311,81.624 71.63,81.624C72.365,81.624 73.071,81.131 73.59,80.253C74.11,79.374 74.402,78.184 74.402,76.942C74.402,76.344 74.402,75.733 74.402,75.136Z" style="fill:rgb(1,108,162);"/>
        </g>
        <g transform="matrix(0.145511,-1.09192,0.646485,0.0861515,21.3589,118.361)">
            <path d="M74.402,75.136C74.402,73.894 74.11,72.703 73.59,71.825C73.071,70.947 72.365,70.454 71.63,70.454C66.311,70.454 54.728,70.454 49.409,70.454C48.674,70.454 47.969,70.947 47.449,71.825C46.929,72.703 46.637,73.894 46.637,75.136C46.637,75.733 46.637,76.344 46.637,76.942C46.637,78.184 46.929,79.374 47.449,80.253C47.969,81.131 48.674,81.624 49.409,81.624C54.728,81.624 66.311,81.624 71.63,81.624C72.365,81.624 73.071,81.131 73.59,80.253C74.11,79.374 74.402,78.184 74.402,76.942C74.402,76.344 74.402,75.733 74.402,75.136Z" style="fill:rgb(1,108,162);"/>
        </g>
        <g transform="matrix(0.06591,-0.448952,0.645283,0.0947331,29.4611,56.0778)">
            <path d="M74.402,75.136C74.402,72.55 71.389,70.454 67.673,70.454C63.332,70.454 57.707,70.454 53.367,70.454C49.65,70.454 46.637,72.55 46.637,75.136C46.637,75.733 46.637,76.344 46.637,76.942C46.637,79.528 49.65,81.624 53.367,81.624C57.707,81.624 63.332,81.624 67.673,81.624C71.389,81.624 74.402,79.528 74.402,76.942C74.402,76.344 74.402,75.733 74.402,75.136Z" style="fill:rgb(64,192,231);"/>
        </g>
        <g transform="matrix(0.983247,0,0,1,0.95976,0)">
            <path d="M82.517,62.442L57.29,62.442" style="fill:none;stroke:rgb(40,40,40);stroke-width:4.51px;"/>
        </g>
        <g transform="matrix(1,0,0,1,1.75794,-1.37974)">
            <path d="M27.013,101.153C27.013,101.153 28.361,101.97 29.754,102.814C30.532,103.285 31.471,103.408 32.344,103.154C33.216,102.899 33.942,102.291 34.345,101.476C36.722,96.67 41.161,87.694 43.055,83.863C43.602,82.757 44.73,82.056 45.964,82.056C51.747,82.056 68.404,82.056 75.114,82.056C76.744,82.056 78.122,80.846 78.332,79.229C79.649,69.103 84.051,35.25 84.051,35.25" style="fill:none;stroke:rgb(237,108,48);stroke-width:4.47px;"/>
        </g>
        <path d="M57.29,62.442L57.29,55.594" style="fill:none;stroke:rgb(40,40,40);stroke-width:2.68px;"/>
        <g transform="matrix(1,0,0,1,-0.0960646,0.0296011)">
            <path d="M38.459,111.288C39.227,109.874 40.087,108.479 40.544,106.924C41.048,105.206 41.096,103.402 41.487,101.66C41.878,99.915 42.595,98.519 43.4,96.945C44.186,95.408 45.152,93.737 46.753,92.911C47.672,92.436 48.803,92.325 49.808,92.174" style="fill:none;stroke:rgb(237,108,48);stroke-width:2.68px;"/>
        </g>
        <g transform="matrix(-1,0,0,1,128.096,0)">
            <path d="M38.459,111.288C39.227,109.874 40.087,108.479 40.544,106.924C41.048,105.206 41.096,103.402 41.487,101.66C41.878,99.915 42.595,98.519 43.4,96.945C44.186,95.408 45.152,93.737 46.753,92.911C47.672,92.436 48.803,92.325 49.808,92.174" style="fill:none;stroke:rgb(237,108,48);stroke-width:2.68px;"/>
        </g>
    </g>
    <g transform="matrix(0.99551,0.0946598,-0.0946598,0.99551,4.41028,-3.76101)">
        <g transform="matrix(0.918396,0,0,0.918396,16.3735,-4.39112)">
            <path d="M66.9,26.13L67.03,36.35L59.25,37.39L56.22,17.31L66.9,26.13Z" style="fill:#9b643c;fill-rule:nonzero;"/>
        </g>
        <g transform="matrix(0.914292,-0.086725,0.086725,0.914292,14.0567,1.19521)">
            <g>
                <path d="M68.71,16.23L66.67,33.16L55.62,31.91C50.48,31.33 46.87,26.57 47.7,21.47L48.71,15.28C49.64,9.56 55.3,5.89 60.9,7.38L63.12,7.97C66.77,8.95 69.16,12.47 68.71,16.23Z" style="fill:#9b643c;fill-rule:nonzero;"/>
                <path d="M67.72,27.76L62.67,26.22L62.83,22.56C62.89,21.33 62.26,20.17 61.2,19.54L59.49,23.38C58.32,23.02 57.417,22.075 57.11,20.89L56.5,18.53C56.236,17.508 55.494,16.673 54.51,16.29L48.94,14.15C48.94,14.15 49.95,6.16 57.96,6.15C59.34,6.15 60.7,6.22 62,6.35C68.02,6.94 72.11,12.74 70.67,18.61C69.92,21.74 68.93,24.79 67.72,27.76Z" style="fill:#47352d;fill-rule:nonzero;"/>
            </g>
            <path d="M52.31,19.68C52.2,20.43 51.62,20.97 51,20.88C50.38,20.79 49.96,20.12 50.07,19.37C50.18,18.62 50.76,18.08 51.38,18.17C52,18.25 52.41,18.93 52.31,19.68" style="fill:rgb(68,68,68);fill-rule:nonzero;"/>
        </g>
    </g>
    <g transform="matrix(0.99551,0.0946598,-0.0946598,0.99551,4.41028,-3.76101)">
        <g transform="matrix(0.918396,0,0,0.918396,16.3735,-4.39112)">
            <path d="M69.732,63.733L62.418,64.924L60.01,50.13L67.324,48.94L69.732,63.733Z" style="fill:#9b643c;fill-rule:nonzero;"/>
        </g>
        <g transform="matrix(0.499334,-0.77079,0.77079,0.499334,-5.53568,73.4717)">
            <circle cx="66.05" cy="64.33" r="3.75" style="fill:#9b643c;"/>
        </g>
        <g transform="matrix(0.918396,0,0,0.918396,16.3735,-4.39112)">
            <path d="M59.02,55.43L70.45,53.36L68.33,41.67C67.788,38.967 65.392,37.004 62.635,37.004C59.448,37.004 56.826,39.626 56.826,42.813C56.826,43.123 56.85,43.433 56.9,43.74L59.02,55.43Z" style="fill:rgb(4,162,135);fill-rule:nonzero;"/>
        </g>
        <g transform="matrix(0.918396,0,0,0.918396,16.3735,-4.39112)">
            <path d="M64.284,77.709L57.492,74.746L62.565,63.114L69.357,66.077L64.284,77.709Z" style="fill:#9b643c;fill-rule:nonzero;"/>
        </g>
        <g transform="matrix(0.918396,0,0,0.918396,16.3735,-4.39112)">
            <path d="M57.4,83.98C58.012,84.25 58.674,84.389 59.342,84.389C61.249,84.389 62.984,83.256 63.75,81.51L64.72,79.3C64.99,78.688 65.129,78.026 65.129,77.358C65.129,75.451 63.996,73.716 62.25,72.95C61.638,72.68 60.976,72.541 60.308,72.541C58.401,72.541 56.666,73.674 55.9,75.42L54.93,77.63C54.661,78.241 54.522,78.902 54.522,79.57C54.522,81.477 55.654,83.212 57.4,83.98Z" style="fill:#9b643c;fill-rule:nonzero;"/>
        </g>
    </g>
</svg>
