<?xml version="1.0" encoding="UTF-8" standalone="no"?>
<!DOCTYPE svg PUBLIC "-//W3C//DTD SVG 1.1//EN" "http://www.w3.org/Graphics/SVG/1.1/DTD/svg11.dtd">
<svg width="100%" height="100%" viewBox="0 0 128 128" version="1.1" xmlns="http://www.w3.org/2000/svg" xmlns:xlink="http://www.w3.org/1999/xlink" xml:space="preserve" xmlns:serif="http://www.serif.com/" style="fill-rule:evenodd;clip-rule:evenodd;stroke-linejoin:round;stroke-miterlimit:1.41421;">
    <g transform="matrix(1.69968,0,0,1.69968,-43.5498,-44.9629)">
        <path d="M63.741,35.694C63.757,35.218 63.467,34.786 63.021,34.622C62.574,34.458 62.073,34.599 61.777,34.971C56.791,41.937 43.688,62.841 43.688,75.685C43.688,86.496 52.465,95.274 63.276,95.274C74.087,95.274 82.865,86.496 82.865,75.685C82.865,62.835 66.816,44.013 63.741,35.694Z" style="fill:rgb(185,24,22);"/>
        <path d="M62.71,33.71L62.786,33.713L62.862,33.719L62.938,33.729L63.014,33.741L63.09,33.756L63.161,33.774L63.203,33.786L63.24,33.797L63.278,33.809L63.315,33.821L63.352,33.835L63.389,33.849L63.425,33.864L63.465,33.881L63.531,33.913L63.6,33.949L63.667,33.987L63.733,34.028L63.796,34.071L63.858,34.117L63.917,34.165L63.975,34.215L64.03,34.267L64.084,34.321L64.135,34.377L64.184,34.435L64.23,34.495L64.274,34.557L64.316,34.62L64.356,34.685L64.393,34.751L64.427,34.819L64.459,34.888L64.488,34.959L64.515,35.031L64.539,35.104L64.56,35.179L64.578,35.254L64.593,35.33L64.605,35.408L64.615,35.486L64.617,35.516L64.638,35.573L64.675,35.667L64.713,35.763L64.751,35.859L64.791,35.957L64.832,36.056L64.875,36.156L64.918,36.257L64.963,36.359L65.008,36.462L65.055,36.567L65.103,36.672L65.152,36.778L65.202,36.886L65.253,36.994L65.305,37.103L65.359,37.214L65.413,37.325L65.468,37.437L65.524,37.55L65.582,37.664L65.64,37.779L65.699,37.895L65.76,38.012L65.821,38.13L65.946,38.368L66.075,38.61L66.208,38.855L66.344,39.104L66.483,39.356L66.626,39.611L66.773,39.869L66.922,40.131L67.074,40.395L67.23,40.663L67.388,40.934L67.55,41.207L67.714,41.483L67.88,41.762L68.05,42.044L68.222,42.328L68.396,42.616L68.572,42.905L68.751,43.197L68.932,43.492L69.115,43.789L69.487,44.39L69.866,45L70.252,45.619L71.04,46.881L71.442,47.523L71.847,48.172L72.256,48.828L72.667,49.491L73.08,50.159L73.287,50.495L73.495,50.832L73.702,51.171L73.909,51.511L74.117,51.852L74.324,52.195L74.531,52.538L74.738,52.883L74.945,53.228L75.151,53.575L75.357,53.922L75.503,54.172L75.561,54.27L75.766,54.619L75.969,54.969L76.172,55.32L76.373,55.671L76.574,56.023L76.773,56.375L76.971,56.728L77.168,57.082L77.364,57.436L77.558,57.79L77.751,58.144L77.942,58.499L78.131,58.855L78.319,59.21L78.504,59.565L78.597,59.744L78.688,59.921L78.78,60.099L78.87,60.277L78.96,60.455L79.05,60.633L79.139,60.811L79.227,60.989L79.315,61.167L79.403,61.345L79.489,61.523L79.576,61.7L79.661,61.878L79.746,62.056L79.83,62.234L79.914,62.411L79.997,62.589L80.079,62.767L80.161,62.944L80.242,63.121L80.322,63.299L80.402,63.476L80.481,63.653L80.559,63.83L80.636,64.007L80.713,64.184L80.789,64.361L80.864,64.537L80.938,64.714L81.012,64.89L81.085,65.067L81.157,65.243L81.228,65.419L81.298,65.595L81.368,65.77L81.436,65.946L81.504,66.121L81.571,66.296L81.637,66.471L81.702,66.646L81.766,66.821L81.829,66.995L81.892,67.17L81.953,67.344L82.014,67.517L82.073,67.691L82.132,67.865L82.189,68.038L82.246,68.211L82.302,68.384L82.356,68.556L82.41,68.728L82.462,68.9L82.514,69.072L82.564,69.244L82.614,69.415L82.662,69.586L82.709,69.757L82.755,69.927L82.8,70.098L82.844,70.268L82.887,70.437L82.928,70.607L82.969,70.776L83.008,70.944L83.046,71.113L83.083,71.281L83.119,71.449L83.153,71.616L83.186,71.784L83.218,71.951L83.249,72.117L83.278,72.283L83.306,72.449L83.333,72.615L83.359,72.78L83.383,72.945L83.406,73.109L83.427,73.273L83.447,73.437L83.466,73.6L83.484,73.763L83.5,73.925L83.515,74.087L83.528,74.249L83.54,74.41L83.55,74.571L83.559,74.732L83.567,74.892L83.573,75.051L83.578,75.211L83.581,75.369L83.582,75.528L83.583,75.685L83.582,75.817L83.58,75.947L83.577,76.078L83.574,76.209L83.569,76.339L83.564,76.469L83.558,76.599L83.552,76.729L83.544,76.858L83.536,76.988L83.526,77.117L83.517,77.246L83.506,77.374L83.494,77.503L83.482,77.631L83.469,77.759L83.455,77.886L83.44,78.014L83.424,78.141L83.408,78.268L83.391,78.395L83.373,78.521L83.355,78.647L83.335,78.773L83.315,78.899L83.294,79.024L83.272,79.15L83.25,79.275L83.226,79.399L83.202,79.524L83.178,79.648L83.152,79.771L83.126,79.895L83.099,80.018L83.071,80.141L83.043,80.264L83.013,80.386L82.983,80.509L82.953,80.63L82.921,80.752L82.889,80.873L82.856,80.994L82.822,81.115L82.788,81.235L82.753,81.355L82.717,81.475L82.681,81.594L82.643,81.713L82.606,81.832L82.567,81.95L82.528,82.068L82.487,82.186L82.447,82.304L82.405,82.421L82.363,82.537L82.32,82.654L82.277,82.77L82.233,82.886L82.188,83.001L82.142,83.116L82.096,83.231L82.049,83.345L82.001,83.459L81.953,83.573L81.904,83.686L81.854,83.799L81.804,83.912L81.753,84.024L81.702,84.136L81.649,84.247L81.596,84.358L81.543,84.469L81.489,84.579L81.434,84.689L81.378,84.799L81.322,84.908L81.265,85.017L81.208,85.125L81.15,85.233L81.091,85.341L81.032,85.448L80.972,85.555L80.912,85.661L80.85,85.767L80.789,85.873L80.726,85.978L80.663,86.083L80.6,86.187L80.535,86.291L80.47,86.395L80.405,86.498L80.339,86.601L80.272,86.703L80.205,86.805L80.137,86.906L80.129,86.919L80.069,87.007L80,87.107L79.93,87.207L79.859,87.307L79.788,87.406L79.717,87.504L79.645,87.602L79.572,87.7L79.499,87.797L79.425,87.894L79.351,87.99L79.276,88.086L79.201,88.181L79.124,88.276L79.048,88.371L78.971,88.465L78.893,88.558L78.815,88.651L78.736,88.744L78.657,88.836L78.577,88.927L78.497,89.018L78.416,89.109L78.334,89.199L78.252,89.288L78.17,89.378L78.087,89.466L78.003,89.554L77.919,89.642L77.835,89.729L77.75,89.815L77.664,89.901L77.578,89.987L77.491,90.072L77.404,90.156L77.317,90.24L77.229,90.324L77.14,90.407L77.051,90.489L76.961,90.571L76.871,90.652L76.781,90.733L76.69,90.813L76.598,90.893L76.506,90.972L76.414,91.051L76.321,91.129L76.228,91.206L76.134,91.283L76.039,91.36L75.945,91.436L75.849,91.511L75.754,91.586L75.658,91.66L75.561,91.733L75.464,91.806L75.366,91.879L75.268,91.951L75.17,92.022L75.071,92.093L74.972,92.163L74.872,92.232L74.808,92.276L74.772,92.301L74.671,92.369L74.57,92.437L74.469,92.504L74.367,92.57L74.264,92.636L74.162,92.701L74.059,92.766L73.955,92.83L73.851,92.893L73.747,92.956L73.642,93.018L73.537,93.08L73.431,93.141L73.325,93.201L73.219,93.261L73.112,93.32L73.005,93.378L72.897,93.436L72.789,93.493L72.681,93.55L72.572,93.605L72.463,93.661L72.354,93.715L72.244,93.769L72.134,93.822L72.023,93.875L71.912,93.927L71.801,93.978L71.689,94.029L71.577,94.079L71.465,94.128L71.353,94.177L71.24,94.225L71.126,94.272L71.012,94.319L70.898,94.365L70.784,94.41L70.669,94.455L70.554,94.499L70.439,94.542L70.323,94.585L70.207,94.627L70.091,94.668L69.974,94.708L69.857,94.748L69.74,94.787L69.623,94.826L69.505,94.863L69.387,94.9L69.268,94.936L69.149,94.972L69.03,95.007L68.911,95.041L68.791,95.074L68.671,95.107L68.551,95.139L68.43,95.17L68.31,95.201L68.188,95.23L68.067,95.26L67.945,95.288L67.824,95.315L67.701,95.342L67.653,95.352L67.579,95.368L67.456,95.393L67.333,95.418L67.21,95.442L67.086,95.465L66.963,95.487L66.839,95.508L66.714,95.529L66.59,95.549L66.465,95.568L66.34,95.586L66.215,95.604L66.09,95.621L65.964,95.637L65.838,95.652L65.712,95.667L65.586,95.681L65.459,95.694L65.332,95.706L65.205,95.717L65.078,95.728L64.951,95.738L64.823,95.747L64.695,95.755L64.567,95.762L64.439,95.769L64.311,95.775L64.182,95.78L64.053,95.784L63.924,95.787L63.795,95.79L63.666,95.791L63.536,95.792L63.406,95.792L63.276,95.792L63.147,95.79L63.017,95.788L62.887,95.785L62.758,95.781L62.629,95.776L62.5,95.77L62.372,95.764L62.243,95.756L62.115,95.748L61.987,95.74L61.859,95.73L61.732,95.72L61.605,95.708L61.478,95.696L61.351,95.684L61.224,95.67L61.098,95.656L60.972,95.64L60.846,95.624L60.72,95.608L60.595,95.59L60.47,95.572L60.345,95.553L60.221,95.533L60.096,95.513L59.972,95.491L59.849,95.469L59.725,95.447L59.602,95.423L59.479,95.399L59.356,95.374L59.234,95.348L59.112,95.321L58.99,95.294L58.869,95.266L58.747,95.237L58.626,95.208L58.506,95.178L58.385,95.147L58.265,95.115L58.146,95.083L58.026,95.05L57.907,95.016L57.788,94.981L57.67,94.946L57.551,94.91L57.434,94.874L57.316,94.836L57.199,94.798L57.082,94.76L56.965,94.72L56.849,94.68L56.733,94.639L56.617,94.598L56.502,94.556L56.387,94.513L56.273,94.469L56.158,94.425L56.044,94.38L55.931,94.334L55.818,94.288L55.705,94.241L55.592,94.194L55.48,94.146L55.369,94.097L55.257,94.047L55.146,93.997L55.035,93.946L54.925,93.895L54.815,93.843L54.706,93.79L54.597,93.736L54.488,93.682L54.379,93.628L54.271,93.572L54.164,93.516L54.056,93.46L53.95,93.403L53.843,93.345L53.737,93.286L53.631,93.227L53.526,93.168L53.421,93.107L53.317,93.046L53.213,92.985L53.109,92.923L53.006,92.86L52.903,92.797L52.801,92.733L52.699,92.668L52.597,92.603L52.496,92.538L52.477,92.525L52.395,92.471L52.295,92.405L52.195,92.337L52.096,92.269L51.997,92.201L51.898,92.132L51.8,92.062L51.702,91.992L51.605,91.921L51.508,91.85L51.412,91.778L51.316,91.705L51.221,91.632L51.126,91.559L51.031,91.484L50.937,91.41L50.844,91.334L50.751,91.259L50.658,91.182L50.566,91.105L50.474,91.028L50.383,90.95L50.292,90.872L50.202,90.793L50.112,90.713L50.023,90.633L49.934,90.552L49.846,90.471L49.758,90.39L49.671,90.308L49.584,90.225L49.498,90.142L49.412,90.058L49.327,89.974L49.242,89.889L49.158,89.804L49.074,89.719L48.991,89.632L48.908,89.546L48.826,89.459L48.744,89.371L48.663,89.283L48.582,89.194L48.502,89.105L48.422,89.016L48.343,88.926L48.265,88.835L48.187,88.744L48.11,88.653L48.033,88.561L47.956,88.469L47.881,88.376L47.805,88.283L47.731,88.189L47.656,88.095L47.583,88L47.51,87.905L47.437,87.81L47.366,87.714L47.294,87.617L47.224,87.52L47.153,87.423L47.084,87.326L47.015,87.227L46.965,87.156L46.946,87.129L46.878,87.03L46.811,86.931L46.744,86.831L46.678,86.731L46.612,86.631L46.547,86.53L46.482,86.428L46.419,86.326L46.355,86.224L46.293,86.122L46.231,86.019L46.169,85.915L46.108,85.812L46.048,85.708L45.988,85.603L45.929,85.498L45.871,85.393L45.813,85.287L45.756,85.181L45.699,85.074L45.644,84.968L45.588,84.86L45.534,84.753L45.48,84.645L45.426,84.537L45.374,84.428L45.322,84.319L45.27,84.21L45.219,84.1L45.169,83.99L45.12,83.879L45.071,83.768L45.023,83.657L44.975,83.546L44.928,83.434L44.882,83.322L44.837,83.209L44.792,83.097L44.748,82.983L44.704,82.87L44.661,82.756L44.619,82.642L44.578,82.527L44.537,82.413L44.497,82.298L44.457,82.182L44.419,82.067L44.381,81.951L44.343,81.834L44.307,81.718L44.271,81.601L44.235,81.483L44.201,81.366L44.167,81.248L44.134,81.13L44.101,81.012L44.07,80.893L44.039,80.774L44.009,80.655L43.979,80.535L43.95,80.415L43.944,80.388L43.922,80.295L43.894,80.175L43.867,80.055L43.841,79.934L43.816,79.813L43.791,79.692L43.767,79.57L43.744,79.448L43.721,79.326L43.7,79.204L43.679,79.081L43.658,78.958L43.639,78.835L43.62,78.712L43.602,78.588L43.585,78.464L43.568,78.34L43.553,78.216L43.538,78.092L43.524,77.967L43.51,77.842L43.498,77.717L43.486,77.591L43.475,77.466L43.465,77.34L43.455,77.214L43.446,77.087L43.439,76.961L43.431,76.834L43.425,76.707L43.42,76.58L43.415,76.453L43.411,76.326L43.408,76.198L43.406,76.07L43.404,75.942L43.403,75.814L43.404,75.685L43.405,75.532L43.407,75.378L43.411,75.224L43.416,75.069L43.422,74.913L43.429,74.756L43.437,74.599L43.447,74.442L43.458,74.283L43.47,74.124L43.483,73.964L43.497,73.804L43.512,73.643L43.528,73.482L43.538,73.396L43.546,73.32L43.564,73.157L43.583,72.994L43.603,72.83L43.625,72.666L43.647,72.501L43.67,72.335L43.695,72.169L43.72,72.002L43.747,71.835L43.775,71.668L43.803,71.499L43.833,71.331L43.864,71.162L43.895,70.992L43.928,70.822L43.961,70.651L43.996,70.48L44.031,70.308L44.068,70.136L44.069,70.129L44.105,69.964L44.143,69.791L44.182,69.617L44.221,69.444L44.262,69.269L44.304,69.095L44.346,68.919L44.39,68.744L44.434,68.568L44.479,68.392L44.525,68.215L44.572,68.038L44.619,67.861L44.668,67.683L44.717,67.505L44.768,67.326L44.819,67.148L44.841,67.07L44.87,66.968L44.922,66.789L44.974,66.609L45.028,66.428L45.082,66.248L45.137,66.067L45.192,65.886L45.249,65.704L45.306,65.522L45.364,65.34L45.422,65.158L45.482,64.976L45.542,64.793L45.603,64.61L45.664,64.427L45.726,64.243L45.789,64.06L45.853,63.876L45.917,63.692L45.982,63.508L46.048,63.323L46.114,63.139L46.181,62.954L46.248,62.769L46.316,62.584L46.385,62.399L46.442,62.247L46.454,62.214L46.523,62.028L46.593,61.842L46.663,61.656L46.734,61.47L46.805,61.284L46.877,61.098L46.95,60.912L47.023,60.725L47.097,60.539L47.171,60.352L47.245,60.166L47.321,59.979L47.396,59.792L47.473,59.606L47.549,59.419L47.627,59.232L47.704,59.046L47.783,58.859L47.94,58.486L48.1,58.112L48.261,57.739L48.424,57.367L48.586,57.001L48.589,56.994L48.754,56.621L48.92,56.249L49.088,55.877L49.257,55.506L49.427,55.135L49.599,54.765L49.772,54.396L49.946,54.027L50.121,53.659L50.297,53.293L50.475,52.927L50.653,52.562L50.832,52.199L51.012,51.837L51.192,51.476L51.374,51.116L51.556,50.758L51.738,50.401L51.921,50.045L52.105,49.692L52.289,49.34L52.473,48.989L52.657,48.64L52.842,48.294L53.027,47.949L53.212,47.606L53.397,47.265L53.582,46.926L53.767,46.589L53.861,46.418L53.951,46.254L54.134,45.922L54.318,45.591L54.5,45.263L54.683,44.937L54.865,44.614L55.046,44.294L55.227,43.976L55.408,43.66L55.587,43.348L55.766,43.039L55.945,42.732L56.122,42.428L56.298,42.128L56.474,41.83L56.648,41.536L56.822,41.245L56.994,40.957L57.165,40.673L57.335,40.392L57.503,40.114L57.67,39.84L57.836,39.57L58,39.304L58.162,39.041L58.323,38.782L58.483,38.526L58.64,38.275L58.796,38.028L58.95,37.785L59.102,37.545L59.136,37.492L59.251,37.31L59.399,37.079L59.544,36.853L59.688,36.63L59.829,36.413L59.968,36.199L60.104,35.99L60.239,35.786L60.37,35.587L60.5,35.392L60.626,35.202L60.751,35.017L60.872,34.837L60.991,34.662L61.121,34.472L61.156,34.428L61.181,34.398L61.206,34.369L61.234,34.337L61.284,34.285L61.339,34.231L61.396,34.18L61.454,34.132L61.514,34.086L61.576,34.042L61.639,34.001L61.704,33.963L61.77,33.927L61.837,33.894L61.905,33.863L61.974,33.835L62.045,33.81L62.116,33.788L62.188,33.768L62.261,33.751L62.334,33.737L62.409,33.726L62.483,33.718L62.558,33.712L62.634,33.709L62.71,33.71ZM62.609,35.399L62.599,35.399L62.589,35.4L62.579,35.401L62.569,35.403L62.559,35.405L62.549,35.408L62.539,35.41L62.529,35.414L62.519,35.417L62.51,35.421L62.5,35.426L62.491,35.431L62.482,35.436L62.473,35.441L62.464,35.447L62.455,35.454L62.447,35.461L62.436,35.471L62.434,35.471L62.43,35.475L62.426,35.479L62.421,35.485L62.327,35.612L62.203,35.779L62.076,35.95L61.947,36.127L61.814,36.308L61.679,36.494L61.541,36.685L61.401,36.88L61.257,37.08L61.111,37.284L60.963,37.493L60.812,37.707L60.659,37.924L60.504,38.146L60.382,38.321L60.347,38.372L60.187,38.603L60.026,38.838L59.862,39.076L59.697,39.319L59.53,39.565L59.361,39.815L59.19,40.069L59.017,40.327L58.843,40.589L58.667,40.853L58.49,41.122L58.311,41.394L58.13,41.669L57.949,41.948L57.766,42.229L57.582,42.514L57.396,42.803L57.21,43.094L57.023,43.388L56.834,43.685L56.645,43.985L56.455,44.288L56.264,44.594L56.072,44.902L55.88,45.213L55.687,45.527L55.494,45.843L55.3,46.162L55.106,46.483L54.911,46.806L54.816,46.965L54.717,47.132L54.523,47.46L54.328,47.791L54.134,48.123L53.94,48.458L53.746,48.795L53.552,49.133L53.358,49.474L53.164,49.816L52.97,50.16L52.777,50.505L52.584,50.852L52.392,51.201L52.2,51.551L52.009,51.902L51.819,52.255L51.629,52.609L51.44,52.964L51.251,53.32L51.064,53.678L50.878,54.036L50.692,54.396L50.508,54.756L50.325,55.117L50.143,55.479L49.962,55.842L49.783,56.205L49.605,56.569L49.428,56.934L49.253,57.298L49.25,57.305L49.082,57.665L48.911,58.031L48.743,58.398L48.576,58.764L48.411,59.132L48.33,59.315L48.249,59.499L48.168,59.682L48.088,59.866L48.008,60.049L47.929,60.233L47.85,60.416L47.772,60.6L47.694,60.783L47.617,60.966L47.54,61.15L47.464,61.333L47.389,61.516L47.314,61.699L47.239,61.882L47.166,62.065L47.093,62.248L47.02,62.431L47.007,62.463L46.949,62.613L46.879,62.796L46.809,62.979L46.74,63.161L46.671,63.344L46.603,63.526L46.536,63.708L46.47,63.89L46.404,64.071L46.339,64.253L46.274,64.434L46.21,64.615L46.147,64.795L46.085,64.976L46.023,65.156L45.962,65.336L45.902,65.516L45.843,65.696L45.784,65.875L45.726,66.054L45.669,66.233L45.612,66.411L45.557,66.589L45.502,66.767L45.448,66.944L45.394,67.122L45.365,67.222L45.342,67.299L45.291,67.475L45.242,67.652L45.192,67.828L45.144,68.003L45.097,68.179L45.05,68.353L45.004,68.528L44.959,68.702L44.915,68.876L44.872,69.049L44.83,69.222L44.789,69.394L44.748,69.566L44.709,69.737L44.67,69.908L44.633,70.079L44.597,70.242L44.596,70.249L44.56,70.418L44.526,70.588L44.492,70.756L44.46,70.924L44.428,71.092L44.398,71.259L44.368,71.425L44.339,71.591L44.312,71.757L44.285,71.922L44.26,72.086L44.235,72.249L44.211,72.413L44.189,72.575L44.167,72.737L44.147,72.898L44.128,73.059L44.109,73.219L44.092,73.378L44.084,73.453L44.076,73.537L44.061,73.695L44.048,73.852L44.035,74.009L44.024,74.165L44.014,74.32L44.005,74.475L43.997,74.629L43.99,74.782L43.984,74.934L43.979,75.086L43.976,75.237L43.974,75.387L43.973,75.537L43.973,75.685L43.974,75.81L43.975,75.935L43.978,76.059L43.981,76.183L43.985,76.307L43.99,76.431L43.996,76.555L44.002,76.678L44.009,76.801L44.017,76.924L44.026,77.047L44.035,77.169L44.046,77.292L44.057,77.414L44.068,77.536L44.081,77.657L44.094,77.779L44.108,77.9L44.123,78.021L44.138,78.141L44.155,78.262L44.172,78.382L44.189,78.502L44.208,78.622L44.227,78.741L44.247,78.861L44.268,78.98L44.289,79.098L44.311,79.217L44.334,79.335L44.357,79.453L44.382,79.571L44.407,79.688L44.432,79.805L44.459,79.922L44.486,80.039L44.514,80.155L44.536,80.244L44.542,80.271L44.572,80.387L44.602,80.502L44.633,80.617L44.664,80.732L44.697,80.846L44.73,80.961L44.763,81.075L44.798,81.188L44.832,81.302L44.868,81.415L44.904,81.527L44.941,81.64L44.979,81.752L45.018,81.864L45.057,81.975L45.096,82.086L45.137,82.197L45.177,82.308L45.219,82.418L45.261,82.528L45.304,82.637L45.348,82.746L45.392,82.855L45.437,82.964L45.483,83.072L45.529,83.18L45.575,83.287L45.623,83.395L45.671,83.501L45.72,83.608L45.769,83.714L45.819,83.82L45.869,83.925L45.92,84.03L45.972,84.135L46.025,84.239L46.078,84.343L46.131,84.447L46.185,84.55L46.24,84.653L46.296,84.755L46.352,84.857L46.408,84.959L46.465,85.06L46.523,85.161L46.581,85.262L46.64,85.362L46.7,85.462L46.76,85.561L46.821,85.66L46.882,85.759L46.944,85.857L47.006,85.955L47.069,86.052L47.133,86.149L47.197,86.245L47.262,86.342L47.327,86.437L47.393,86.533L47.459,86.627L47.526,86.722L47.544,86.747L47.593,86.816L47.662,86.909L47.73,87.002L47.799,87.095L47.869,87.187L47.94,87.279L48.01,87.37L48.082,87.461L48.154,87.552L48.226,87.642L48.299,87.731L48.372,87.82L48.446,87.909L48.521,87.997L48.596,88.085L48.671,88.172L48.747,88.259L48.824,88.345L48.901,88.431L48.979,88.516L49.057,88.601L49.135,88.686L49.214,88.77L49.294,88.853L49.374,88.936L49.454,89.019L49.535,89.101L49.617,89.182L49.699,89.263L49.781,89.344L49.864,89.424L49.947,89.503L50.031,89.582L50.115,89.661L50.2,89.739L50.285,89.817L50.371,89.894L50.457,89.97L50.544,90.046L50.631,90.122L50.718,90.197L50.806,90.271L50.895,90.345L50.984,90.418L51.073,90.491L51.163,90.564L51.253,90.635L51.343,90.707L51.434,90.777L51.526,90.848L51.618,90.917L51.71,90.986L51.803,91.055L51.896,91.123L51.989,91.19L52.083,91.257L52.178,91.324L52.273,91.389L52.368,91.455L52.463,91.519L52.559,91.583L52.656,91.647L52.753,91.71L52.85,91.772L52.947,91.834L53.045,91.895L53.144,91.956L53.242,92.016L53.342,92.075L53.441,92.134L53.541,92.193L53.641,92.25L53.742,92.307L53.843,92.364L53.944,92.42L54.046,92.475L54.148,92.53L54.251,92.584L54.354,92.637L54.457,92.69L54.56,92.742L54.664,92.794L54.768,92.845L54.873,92.895L54.978,92.945L55.083,92.994L55.189,93.043L55.295,93.091L55.401,93.138L55.508,93.185L55.615,93.231L55.722,93.276L55.829,93.321L55.937,93.365L56.045,93.409L56.154,93.451L56.263,93.494L56.372,93.535L56.481,93.576L56.591,93.616L56.701,93.656L56.812,93.695L56.922,93.733L57.033,93.771L57.144,93.807L57.256,93.844L57.368,93.879L57.48,93.914L57.592,93.948L57.705,93.982L57.818,94.015L57.931,94.047L58.045,94.079L58.159,94.109L58.273,94.14L58.387,94.169L58.502,94.198L58.616,94.226L58.732,94.253L58.847,94.28L58.963,94.306L59.078,94.331L59.195,94.356L59.311,94.38L59.428,94.403L59.544,94.425L59.662,94.447L59.779,94.468L59.897,94.488L60.014,94.508L60.132,94.527L60.251,94.545L60.369,94.562L60.488,94.579L60.607,94.595L60.726,94.61L60.846,94.625L60.965,94.638L61.085,94.651L61.205,94.663L61.325,94.675L61.446,94.686L61.567,94.696L61.687,94.705L61.809,94.713L61.93,94.721L62.051,94.728L62.173,94.734L62.295,94.74L62.417,94.744L62.539,94.748L62.662,94.752L62.784,94.754L62.907,94.756L63.03,94.756L63.153,94.756L63.276,94.756L63.4,94.754L63.523,94.752L63.646,94.749L63.768,94.745L63.891,94.74L64.013,94.735L64.135,94.729L64.257,94.722L64.379,94.714L64.5,94.706L64.621,94.696L64.742,94.686L64.863,94.676L64.983,94.664L65.104,94.652L65.224,94.639L65.344,94.625L65.463,94.611L65.582,94.596L65.702,94.58L65.82,94.563L65.939,94.546L66.057,94.528L66.175,94.509L66.293,94.49L66.411,94.469L66.528,94.448L66.645,94.427L66.762,94.404L66.879,94.381L66.995,94.357L67.111,94.333L67.227,94.308L67.342,94.282L67.412,94.266L67.457,94.255L67.572,94.228L67.687,94.2L67.801,94.172L67.915,94.142L68.029,94.112L68.143,94.082L68.256,94.05L68.369,94.018L68.482,93.986L68.594,93.952L68.706,93.918L68.818,93.884L68.929,93.848L69.04,93.812L69.151,93.776L69.262,93.738L69.372,93.7L69.482,93.662L69.592,93.622L69.701,93.582L69.81,93.542L69.919,93.501L70.027,93.459L70.135,93.416L70.242,93.373L70.35,93.329L70.457,93.285L70.563,93.24L70.67,93.194L70.776,93.148L70.881,93.101L70.987,93.053L71.092,93.005L71.196,92.957L71.301,92.907L71.404,92.857L71.508,92.807L71.611,92.755L71.714,92.704L71.816,92.651L71.919,92.598L72.02,92.544L72.122,92.49L72.223,92.435L72.323,92.38L72.423,92.324L72.523,92.268L72.623,92.21L72.722,92.153L72.821,92.094L72.919,92.036L73.017,91.976L73.114,91.916L73.211,91.856L73.308,91.794L73.405,91.733L73.5,91.67L73.596,91.608L73.691,91.544L73.786,91.48L73.88,91.416L73.974,91.351L74.068,91.285L74.101,91.262L74.161,91.219L74.253,91.153L74.346,91.086L74.438,91.018L74.529,90.95L74.62,90.881L74.711,90.812L74.801,90.742L74.891,90.672L74.98,90.601L75.069,90.53L75.157,90.458L75.245,90.386L75.333,90.313L75.42,90.24L75.507,90.166L75.593,90.092L75.679,90.017L75.764,89.942L75.849,89.866L75.933,89.789L76.017,89.713L76.101,89.635L76.184,89.557L76.266,89.479L76.348,89.4L76.43,89.321L76.511,89.241L76.591,89.161L76.671,89.08L76.751,88.999L76.83,88.918L76.909,88.835L76.987,88.753L77.065,88.67L77.142,88.586L77.218,88.502L77.295,88.418L77.37,88.333L77.445,88.248L77.52,88.162L77.594,88.076L77.668,87.989L77.741,87.902L77.814,87.814L77.886,87.727L77.957,87.638L78.028,87.549L78.099,87.46L78.169,87.37L78.238,87.28L78.307,87.19L78.375,87.099L78.443,87.007L78.51,86.916L78.577,86.823L78.643,86.731L78.709,86.638L78.774,86.544L78.839,86.45L78.903,86.356L78.966,86.262L79.021,86.178L79.029,86.167L79.092,86.071L79.153,85.976L79.215,85.88L79.276,85.783L79.336,85.686L79.396,85.589L79.455,85.491L79.513,85.393L79.571,85.295L79.629,85.196L79.685,85.097L79.742,84.998L79.797,84.898L79.852,84.798L79.907,84.697L79.961,84.596L80.014,84.495L80.067,84.393L80.119,84.291L80.17,84.189L80.221,84.086L80.271,83.983L80.321,83.88L80.37,83.776L80.418,83.672L80.466,83.568L80.513,83.463L80.56,83.358L80.606,83.253L80.651,83.147L80.696,83.041L80.74,82.935L80.783,82.828L80.826,82.721L80.868,82.614L80.91,82.506L80.95,82.398L80.991,82.29L81.03,82.181L81.069,82.072L81.107,81.963L81.145,81.854L81.182,81.744L81.218,81.634L81.254,81.524L81.289,81.413L81.323,81.302L81.357,81.191L81.39,81.08L81.422,80.968L81.454,80.856L81.485,80.743L81.515,80.631L81.545,80.518L81.574,80.405L81.602,80.291L81.63,80.178L81.657,80.064L81.683,79.95L81.708,79.835L81.733,79.721L81.757,79.606L81.781,79.491L81.803,79.375L81.825,79.259L81.847,79.143L81.867,79.027L81.887,78.911L81.906,78.794L81.925,78.677L81.943,78.56L81.96,78.443L81.976,78.325L81.991,78.208L82.006,78.09L82.02,77.971L82.034,77.853L82.046,77.734L82.058,77.615L82.069,77.496L82.08,77.377L82.09,77.257L82.099,77.138L82.107,77.018L82.114,76.897L82.121,76.777L82.127,76.657L82.132,76.536L82.136,76.415L82.14,76.294L82.143,76.172L82.145,76.051L82.146,75.929L82.147,75.807L82.147,75.686L82.145,75.541L82.143,75.397L82.139,75.252L82.133,75.106L82.126,74.96L82.118,74.813L82.108,74.665L82.097,74.517L82.085,74.368L82.071,74.219L82.056,74.069L82.04,73.918L82.022,73.767L82.003,73.616L81.983,73.464L81.962,73.311L81.939,73.158L81.915,73.004L81.89,72.85L81.863,72.695L81.835,72.54L81.806,72.384L81.776,72.228L81.745,72.071L81.712,71.914L81.678,71.756L81.647,71.615L81.643,71.598L81.607,71.439L81.57,71.28L81.532,71.12L81.492,70.96L81.451,70.8L81.41,70.639L81.367,70.478L81.323,70.316L81.277,70.154L81.231,69.992L81.184,69.829L81.136,69.665L81.086,69.502L81.036,69.338L80.984,69.173L80.931,69.009L80.878,68.844L80.823,68.678L80.768,68.513L80.711,68.347L80.653,68.18L80.595,68.013L80.535,67.846L80.475,67.679L80.413,67.512L80.351,67.344L80.288,67.175L80.224,67.007L80.159,66.838L80.093,66.669L80.026,66.5L79.958,66.331L79.889,66.161L79.82,65.991L79.749,65.821L79.678,65.65L79.606,65.48L79.534,65.309L79.46,65.138L79.386,64.967L79.31,64.795L79.235,64.624L79.158,64.452L79.08,64.28L79.002,64.108L78.923,63.936L78.844,63.763L78.763,63.591L78.682,63.418L78.601,63.245L78.518,63.072L78.435,62.899L78.351,62.726L78.267,62.553L78.182,62.38L78.096,62.206L78.01,62.033L77.923,61.859L77.836,61.685L77.748,61.512L77.659,61.338L77.57,61.164L77.48,60.99L77.39,60.816L77.299,60.642L77.208,60.468L77.116,60.294L76.931,59.946L76.743,59.598L76.554,59.249L76.364,58.901L76.171,58.553L75.977,58.206L75.782,57.858L75.585,57.511L75.386,57.164L75.187,56.817L74.986,56.471L74.784,56.125L74.581,55.78L74.377,55.436L74.173,55.092L74.114,54.995L73.967,54.748L73.761,54.406L73.555,54.064L73.347,53.723L73.14,53.382L72.932,53.043L72.724,52.704L72.515,52.367L72.307,52.03L72.098,51.695L71.89,51.361L71.682,51.028L71.266,50.366L70.852,49.708L70.44,49.057L70.03,48.412L69.625,47.772L68.827,46.515L68.436,45.897L68.051,45.287L67.673,44.686L67.487,44.388L67.302,44.092L67.12,43.799L66.94,43.508L66.762,43.219L66.586,42.933L66.413,42.648L66.242,42.367L66.073,42.088L65.908,41.811L65.744,41.537L65.584,41.265L65.427,40.996L65.272,40.73L65.12,40.466L64.972,40.205L64.826,39.947L64.684,39.691L64.545,39.439L64.41,39.189L64.278,38.943L64.213,38.82L64.149,38.698L64.087,38.577L64.025,38.457L63.964,38.337L63.903,38.219L63.844,38.101L63.786,37.983L63.729,37.867L63.673,37.751L63.617,37.636L63.563,37.522L63.51,37.408L63.458,37.295L63.406,37.183L63.356,37.072L63.307,36.961L63.259,36.852L63.212,36.742L63.166,36.634L63.121,36.527L63.077,36.42L63.035,36.314L62.993,36.208L62.953,36.103L62.915,36.003L62.882,35.895L62.864,35.785L62.859,35.673L62.86,35.659L62.86,35.655L62.861,35.65L62.861,35.65L62.861,35.637L62.861,35.628L62.861,35.624L62.861,35.619L62.86,35.611L62.859,35.602L62.858,35.593L62.856,35.585L62.854,35.576L62.852,35.567L62.849,35.559L62.846,35.551L62.842,35.542L62.838,35.534L62.834,35.526L62.83,35.518L62.825,35.51L62.82,35.502L62.814,35.495L62.809,35.488L62.803,35.481L62.796,35.474L62.79,35.467L62.783,35.461L62.776,35.455L62.768,35.449L62.76,35.443L62.752,35.438L62.74,35.431L62.74,35.43L62.735,35.428L62.731,35.425L62.726,35.423L62.721,35.421L62.717,35.419L62.712,35.417L62.711,35.416L62.698,35.412L62.688,35.409L62.679,35.406L62.669,35.404L62.659,35.402L62.649,35.401L62.639,35.399L62.63,35.399L62.619,35.398L62.609,35.399Z" style="fill:rgb(255,164,168);"/>
    </g>
    <g transform="matrix(0.878438,0,0,0.878438,8.03916,11.5225)">
        <path d="M94.439,75.79C94.574,75.377 94.967,75.104 95.401,75.123C95.835,75.142 96.204,75.447 96.302,75.87C96.941,78.576 97.294,81.193 97.294,83.678C97.294,102.054 82.375,116.972 64,116.972C52.97,116.972 43.186,111.597 37.126,103.325C36.875,102.961 36.905,102.472 37.199,102.141C37.492,101.81 37.974,101.722 38.365,101.927C43.579,104.562 49.35,106.03 55.42,106.03C73.164,106.03 88.345,93.483 94.439,75.79Z" style="fill:rgb(255,94,93);fill-opacity:0.729412;"/>
    </g>
</svg>
