<?xml version="1.0" encoding="UTF-8" standalone="no"?>
<!DOCTYPE svg PUBLIC "-//W3C//DTD SVG 1.1//EN" "http://www.w3.org/Graphics/SVG/1.1/DTD/svg11.dtd">
<svg width="100%" height="100%" viewBox="0 0 128 128" version="1.1" xmlns="http://www.w3.org/2000/svg" xmlns:xlink="http://www.w3.org/1999/xlink" xml:space="preserve" xmlns:serif="http://www.serif.com/" style="fill-rule:evenodd;clip-rule:evenodd;stroke-linejoin:round;stroke-miterlimit:1.41421;">
    <path d="M89.256,44.293C93.074,49.682 94.667,55.774 99.15,60.839C102.4,64.51 104.796,69.241 108.409,72.562C109.448,73.518 111.483,75.745 112.864,77.281C113.761,78.261 113.878,79.725 113.148,80.835C111.634,83.263 109.007,87.259 107.214,88.373C102.823,91.1 97.469,91.783 92.418,92.224C87.769,92.63 83.484,92.977 78.987,91.651" style="fill:rgb(0,137,123);"/>
    <path d="M89.851,43.873L89.941,44.002L90.031,44.132L90.12,44.262L90.208,44.392L90.296,44.523L90.383,44.655L90.554,44.916L90.722,45.179L90.887,45.443L91.05,45.707L91.21,45.971L91.367,46.236L91.523,46.502L91.675,46.768L91.826,47.034L91.975,47.301L92.121,47.568L92.266,47.835L92.41,48.102L92.552,48.37L92.692,48.638L92.831,48.905L92.969,49.173L93.106,49.441L93.242,49.709L93.511,50.243L93.778,50.777L94.044,51.31L94.309,51.842L94.575,52.372L94.842,52.901L94.977,53.164L95.112,53.426L95.248,53.688L95.385,53.95L95.523,54.21L95.662,54.47L95.802,54.729L95.944,54.987L96.087,55.245L96.232,55.501L96.379,55.757L96.528,56.012L96.678,56.265L96.831,56.518L96.985,56.77L97.142,57.02L97.302,57.27L97.464,57.519L97.546,57.642L97.629,57.765L97.712,57.888L97.796,58.011L97.881,58.133L97.966,58.256L98.053,58.377L98.14,58.499L98.228,58.62L98.316,58.741L98.406,58.862L98.496,58.982L98.587,59.102L98.679,59.221L98.772,59.341L98.866,59.459L98.96,59.578L99.056,59.696L99.152,59.814L99.249,59.931L99.348,60.048L99.447,60.165L99.486,60.21L99.547,60.281L99.65,60.399L99.803,60.575L99.957,60.754L100.109,60.934L100.259,61.116L100.409,61.299L100.557,61.482L100.704,61.667L100.85,61.853L100.995,62.04L101.139,62.227L101.282,62.416L101.424,62.605L101.566,62.795L101.707,62.986L101.846,63.177L101.986,63.369L102.262,63.754L102.537,64.14L102.81,64.527L103.081,64.915L103.622,65.691L103.892,66.078L104.162,66.464L104.433,66.848L104.705,67.231L104.979,67.611L105.115,67.799L105.253,67.987L105.391,68.174L105.53,68.36L105.67,68.545L105.81,68.73L105.951,68.913L106.092,69.095L106.234,69.275L106.378,69.455L106.522,69.633L106.667,69.81L106.813,69.986L106.96,70.16L107.108,70.332L107.257,70.503L107.407,70.673L107.466,70.738L107.559,70.84L107.712,71.006L107.866,71.17L108.021,71.333L108.178,71.493L108.336,71.652L108.496,71.808L108.657,71.963L108.823,72.117L108.925,72.213L109.034,72.317L109.148,72.428L109.267,72.545L109.39,72.667L109.516,72.795L109.647,72.928L109.781,73.066L110.058,73.353L110.346,73.656L110.643,73.971L110.945,74.296L111.251,74.627L111.559,74.962L111.865,75.297L112.169,75.631L112.466,75.96L112.756,76.281L113.3,76.889L113.346,76.941L113.394,76.997L113.441,77.055L113.487,77.113L113.531,77.172L113.574,77.231L113.615,77.292L113.655,77.353L113.694,77.414L113.731,77.477L113.767,77.54L113.801,77.603L113.834,77.668L113.866,77.732L113.896,77.798L113.925,77.863L113.953,77.929L113.979,77.996L114.003,78.063L114.027,78.131L114.048,78.198L114.069,78.267L114.088,78.335L114.105,78.404L114.121,78.473L114.136,78.543L114.15,78.612L114.161,78.682L114.172,78.752L114.181,78.822L114.188,78.893L114.195,78.963L114.199,79.034L114.203,79.104L114.205,79.175L114.205,79.246L114.204,79.317L114.202,79.387L114.198,79.458L114.192,79.529L114.186,79.6L114.177,79.67L114.168,79.741L114.157,79.811L114.144,79.881L114.13,79.951L114.115,80.021L114.098,80.09L114.079,80.16L114.06,80.229L114.038,80.297L114.015,80.366L113.991,80.433L113.966,80.501L113.938,80.568L113.91,80.635L113.88,80.701L113.848,80.767L113.815,80.833L113.781,80.897L113.745,80.962L113.707,81.025L113.668,81.088L113.633,81.143L113.489,81.372L113.336,81.613L113.177,81.862L113.039,82.077L113.012,82.118L112.844,82.381L112.67,82.648L112.492,82.92L112.309,83.196L112.123,83.475L111.934,83.755L111.741,84.037L111.546,84.319L111.348,84.601L111.148,84.882L110.946,85.161L110.744,85.436L110.641,85.573L110.539,85.709L110.437,85.844L110.334,85.977L110.232,86.109L110.129,86.24L110.026,86.369L109.923,86.497L109.82,86.623L109.718,86.748L109.615,86.87L109.513,86.991L109.41,87.109L109.308,87.226L109.206,87.34L109.105,87.452L109.003,87.561L108.902,87.668L108.801,87.773L108.701,87.874L108.6,87.973L108.5,88.07L108.401,88.163L108.302,88.253L108.203,88.34L108.104,88.424L108.005,88.505L107.907,88.582L107.809,88.656L107.711,88.727L107.613,88.794L107.517,88.855L107.408,88.922L107.301,88.987L107.194,89.051L107.087,89.114L106.979,89.176L106.871,89.238L106.763,89.299L106.654,89.359L106.545,89.419L106.436,89.478L106.326,89.536L106.216,89.593L105.996,89.705L105.774,89.815L105.734,89.834L105.551,89.922L105.327,90.026L105.102,90.128L104.876,90.227L104.65,90.324L104.422,90.418L104.193,90.509L103.963,90.598L103.733,90.685L103.501,90.769L103.269,90.851L103.036,90.93L102.802,91.008L102.568,91.083L102.333,91.156L102.097,91.226L101.861,91.295L101.624,91.362L101.386,91.426L101.148,91.489L100.909,91.55L100.67,91.609L100.431,91.666L100.191,91.721L99.951,91.775L99.71,91.827L99.469,91.877L99.228,91.926L98.986,91.973L98.745,92.019L98.503,92.063L98.26,92.106L98.018,92.147L97.776,92.187L97.533,92.226L97.29,92.263L97.048,92.3L96.805,92.335L96.563,92.369L96.32,92.402L96.078,92.433L95.835,92.464L95.771,92.472L95.593,92.495L95.351,92.526L95.109,92.555L94.867,92.584L94.386,92.639L93.905,92.691L93.425,92.741L92.947,92.789L92.471,92.835L91.603,92.917L91.171,92.957L90.741,92.995L90.311,93.032L89.883,93.067L89.456,93.1L89.03,93.131L88.605,93.159L88.392,93.172L88.179,93.184L87.967,93.195L87.755,93.206L87.543,93.215L87.331,93.224L87.119,93.231L86.907,93.238L86.696,93.243L86.484,93.248L86.272,93.251L86.061,93.253L85.98,93.253L85.849,93.254L85.637,93.254L85.425,93.252L85.214,93.249L85.002,93.245L84.79,93.24L84.578,93.233L84.366,93.224L84.154,93.214L83.941,93.202L83.729,93.189L83.516,93.174L83.304,93.158L83.091,93.139L82.878,93.119L82.664,93.097L82.451,93.074L82.237,93.048L82.023,93.021L81.809,92.991L81.595,92.96L81.38,92.926L81.165,92.89L80.95,92.853L80.734,92.813L80.519,92.77L80.302,92.726L80.086,92.679L79.869,92.63L79.652,92.579L79.435,92.525L79.217,92.469L78.999,92.411L78.785,92.351L78.289,91.45L79.189,90.952L79.396,91.014L79.598,91.072L79.801,91.128L80.003,91.182L80.205,91.234L80.407,91.284L80.609,91.331L80.811,91.376L81.012,91.419L81.214,91.46L81.415,91.5L81.616,91.537L81.818,91.572L82.019,91.605L82.22,91.637L82.421,91.666L82.622,91.694L82.824,91.72L83.025,91.745L83.226,91.767L83.428,91.788L83.63,91.808L83.831,91.826L84.033,91.842L84.235,91.857L84.437,91.87L84.64,91.882L84.842,91.892L85.045,91.901L85.248,91.909L85.451,91.915L85.654,91.92L85.858,91.924L85.984,91.926L86.062,91.927L86.266,91.928L86.47,91.928L86.675,91.927L86.88,91.925L87.086,91.922L87.291,91.918L87.498,91.912L87.704,91.906L87.911,91.9L88.118,91.892L88.326,91.883L88.533,91.874L88.951,91.853L89.371,91.829L89.792,91.803L90.215,91.775L90.64,91.745L91.068,91.713L91.498,91.681L92.364,91.612L92.837,91.574L93.311,91.534L93.786,91.492L94.262,91.448L94.739,91.401L94.976,91.376L95.215,91.351L95.453,91.325L95.628,91.305L95.691,91.297L95.929,91.268L96.167,91.238L96.404,91.206L96.642,91.174L96.88,91.14L97.117,91.106L97.354,91.07L97.59,91.033L97.827,90.995L98.063,90.956L98.299,90.915L98.534,90.873L98.769,90.83L99.003,90.785L99.237,90.738L99.471,90.691L99.704,90.641L99.936,90.59L100.168,90.538L100.4,90.483L100.63,90.427L100.86,90.37L101.089,90.31L101.318,90.249L101.546,90.186L101.773,90.121L101.999,90.054L102.224,89.985L102.449,89.914L102.672,89.841L102.895,89.766L103.117,89.689L103.338,89.61L103.557,89.528L103.776,89.444L103.994,89.358L104.21,89.27L104.426,89.179L104.64,89.086L104.853,88.99L105.065,88.892L105.238,88.81L105.276,88.792L105.485,88.688L105.694,88.582L105.797,88.528L105.9,88.474L106.003,88.418L106.106,88.362L106.208,88.306L106.31,88.248L106.411,88.19L106.513,88.131L106.613,88.072L106.714,88.012L106.814,87.951L106.911,87.891L106.985,87.844L107.059,87.794L107.134,87.739L107.212,87.681L107.292,87.618L107.374,87.551L107.457,87.48L107.542,87.405L107.629,87.326L107.716,87.244L107.805,87.158L107.895,87.069L107.986,86.977L108.078,86.882L108.171,86.783L108.265,86.682L108.36,86.578L108.455,86.471L108.551,86.362L108.647,86.25L108.744,86.136L108.842,86.019L108.939,85.901L109.038,85.78L109.136,85.658L109.235,85.534L109.333,85.408L109.432,85.28L109.531,85.152L109.63,85.021L109.729,84.89L109.828,84.758L110.025,84.489L110.222,84.217L110.417,83.943L110.61,83.667L110.801,83.391L110.99,83.114L111.176,82.839L111.359,82.565L111.539,82.294L111.714,82.025L111.885,81.762L112.052,81.503L112.078,81.462L112.212,81.249L112.368,81.002L112.517,80.763L112.663,80.528L112.695,80.478L112.721,80.435L112.746,80.392L112.77,80.349L112.793,80.306L112.814,80.262L112.835,80.218L112.855,80.173L112.874,80.128L112.892,80.083L112.908,80.038L112.924,79.993L112.939,79.947L112.953,79.901L112.966,79.855L112.978,79.809L112.989,79.762L112.999,79.716L113.008,79.669L113.016,79.622L113.023,79.575L113.029,79.528L113.034,79.481L113.039,79.434L113.042,79.386L113.044,79.339L113.045,79.292L113.046,79.245L113.045,79.197L113.044,79.15L113.041,79.103L113.038,79.056L113.033,79.009L113.028,78.962L113.021,78.915L113.014,78.868L113.006,78.822L112.997,78.775L112.987,78.729L112.976,78.683L112.964,78.637L112.951,78.592L112.937,78.547L112.922,78.502L112.906,78.457L112.889,78.412L112.872,78.368L112.853,78.324L112.834,78.281L112.813,78.238L112.792,78.195L112.77,78.152L112.747,78.11L112.723,78.069L112.698,78.027L112.672,77.987L112.645,77.946L112.617,77.906L112.588,77.867L112.559,77.828L112.528,77.79L112.497,77.752L112.464,77.714L112.427,77.673L111.881,77.072L111.592,76.754L111.294,76.429L110.991,76.1L110.684,75.768L110.377,75.438L110.071,75.112L109.77,74.793L109.476,74.484L109.191,74.188L108.917,73.908L108.786,73.775L108.659,73.647L108.536,73.525L108.417,73.408L108.304,73.298L108.196,73.194L108.094,73.098L107.995,73.007L107.824,72.849L107.651,72.686L107.481,72.521L107.312,72.354L107.146,72.186L106.981,72.016L106.817,71.844L106.655,71.671L106.557,71.564L106.495,71.496L106.336,71.32L106.179,71.142L106.023,70.964L105.869,70.783L105.715,70.602L105.563,70.42L105.413,70.236L105.263,70.052L105.114,69.866L104.967,69.68L104.821,69.492L104.675,69.304L104.531,69.115L104.387,68.926L104.244,68.736L104.102,68.545L103.96,68.354L103.68,67.97L103.401,67.585L103.125,67.199L102.85,66.813L102.576,66.427L102.029,65.656L101.756,65.273L101.483,64.892L101.209,64.512L100.934,64.136L100.796,63.949L100.657,63.763L100.519,63.578L100.379,63.394L100.239,63.21L100.099,63.028L99.957,62.847L99.816,62.668L99.673,62.489L99.53,62.312L99.386,62.136L99.241,61.962L99.095,61.789L98.948,61.618L98.8,61.448L98.65,61.278L98.544,61.158L98.479,61.084L98.437,61.036L98.331,60.914L98.227,60.791L98.123,60.667L98.021,60.544L97.919,60.42L97.819,60.296L97.719,60.171L97.62,60.046L97.523,59.921L97.426,59.795L97.33,59.67L97.236,59.544L97.142,59.417L97.049,59.29L96.957,59.164L96.865,59.036L96.775,58.909L96.685,58.781L96.596,58.653L96.508,58.525L96.421,58.397L96.334,58.267L96.164,58.01L95.996,57.751L95.831,57.492L95.669,57.231L95.509,56.97L95.351,56.709L95.196,56.447L95.043,56.184L94.892,55.92L94.743,55.657L94.596,55.392L94.45,55.128L94.306,54.863L94.163,54.598L94.022,54.332L93.882,54.067L93.743,53.801L93.605,53.535L93.332,53.003L93.061,52.471L92.791,51.94L92.523,51.409L92.253,50.879L91.983,50.35L91.847,50.087L91.71,49.824L91.573,49.561L91.434,49.299L91.295,49.038L91.155,48.777L91.013,48.516L90.87,48.257L90.725,47.998L90.579,47.74L90.431,47.482L90.282,47.226L90.13,46.97L89.977,46.715L89.821,46.462L89.663,46.209L89.503,45.957L89.34,45.706L89.174,45.455L89.091,45.332L89.007,45.207L88.922,45.083L88.836,44.96L88.749,44.837L88.661,44.712L88.837,43.697L89.851,43.873Z" style="fill:rgb(211,179,64);"/>
    <path d="M89.12,44.922C91.049,50.764 92.394,56.839 93.664,62.834C95.215,70.148 96.681,76.974 96.975,84.483C97.056,86.548 97.374,89.7 97.345,92.224C95.691,92.478 92.765,92.807 91.132,92.95C86.483,93.356 83.484,92.977 78.987,91.651L89.12,44.922Z" style="fill-opacity:0.294118;"/>
    <g transform="matrix(0.704452,0,0,0.704452,18.9012,0.44635)">
        <path d="M126.71,29.41C124.59,26.96 119.3,22.96 116,20.17C112.61,17.31 105.34,11.83 103.13,10.94C94.14,7.32 90.09,6.08 81.42,3.7C81.42,3.7 73.09,5.74 64,5.74C54.91,5.74 46.58,3.7 46.58,3.7C37.9,6.08 33.86,7.33 24.87,10.94C22.65,11.83 15.38,17.31 12,20.17C8.7,22.96 3.4,26.96 1.29,29.41C1.08,29.64 0.97,30.57 0.98,31.5C1.12,36.8 3.92,39.72 7.5,45.25C11.37,51.23 14.13,54.19 17.09,56.47C17.61,56.91 18.94,56.62 19.88,55.88C23.05,53.37 24.24,51.77 26.31,50.76C26.32,50.76 27.97,49.96 28.51,50.59C29.24,51.45 28.84,54.18 27.93,65.01C27.93,65.01 27.3,85.507 26.85,90.217C26.34,95.497 26.149,119.853 26.05,125.201C25.799,138.821 22.525,151.151 22.18,155.815C22.167,156.108 22.305,156.388 22.546,156.555C24.854,158.081 35.229,164.611 40.7,165.629C48.34,167.049 56.18,167.759 64.02,167.759C71.86,167.759 79.69,167.049 87.34,165.629C92.843,164.603 105.596,157.784 107.844,156.481C108.038,156.35 108.149,156.127 108.137,155.893C107.731,151.452 102.94,141.82 101.99,125.201C101.69,119.861 101.71,95.487 101.19,90.217C100.74,85.507 100.11,65.01 100.11,65.01C99.19,54.18 98.8,51.45 99.53,50.59C100.06,49.97 101.72,50.76 101.73,50.76C103.8,51.77 104.98,53.37 108.16,55.88C109.1,56.62 110.43,56.92 110.95,56.47C113.91,54.19 116.66,51.23 120.54,45.25C124.12,39.72 126.92,36.8 127.06,31.5C127.04,30.57 126.93,29.64 126.71,29.41Z" style="fill:rgb(101,31,255);fill-rule:nonzero;"/>
    </g>
    <g transform="matrix(0.704452,0,0,0.704452,18.9012,0.44635)">
        <path d="M47.25,6.31C58.55,9.15 70.14,9.18 81.44,6.39C81.19,8.5 80.58,10.52 79.68,12.17C78.32,14.69 76.37,16.31 74.38,17.5C68.72,20.88 62.41,21.22 56.46,19.39C54.94,18.92 53.42,18.31 52.03,17.27C49.82,15.62 47.96,12.89 46.79,9.58C46.61,9.06 46.44,8.51 46.44,7.92C46.44,7.33 46.68,6.71 47.05,6.59" style="fill:rgb(54,21,175);fill-rule:nonzero;"/>
    </g>
    <path d="M63.986,7.625L63.986,4.49" style="fill:rgb(0,77,64);"/>
    <path d="M63.986,7.625L63.986,4.49" style="fill:rgb(0,77,64);"/>
    <path d="M64,7.625L64,4.49" style="fill:rgb(0,77,64);"/>
    <path d="M64,7.625L64,4.49" style="fill:rgb(0,77,64);"/>
    <path d="M94.411,107.337C94.76,108.539 95.009,109.509 95.079,110.265C95.087,110.43 95.009,110.587 94.872,110.68C93.288,111.598 84.304,116.401 80.428,117.124C75.039,118.124 69.523,118.625 64,118.625C58.477,118.625 52.954,118.124 47.572,117.124C43.718,116.407 36.409,111.807 34.784,110.732C34.614,110.614 34.517,110.417 34.526,110.21C34.571,109.602 34.687,108.809 34.847,107.859C35.351,108.127 35.479,108.187 35.76,108.328C51.83,116.308 72.01,117.443 88.301,110.43C90.502,109.482 92.445,107.641 94.411,107.337Z" style="fill:rgb(211,179,64);fill-rule:nonzero;"/>
    <path d="M37.445,75.17C37.531,70.34 38.318,54 38.469,49.533" style="fill:rgb(0,137,123);"/>
    <path d="M38.469,49.533C41.755,48.004 45.024,46.439 48.172,44.641C64.724,35.187 75.536,22.57 82.205,4.76L82.541,4.865L82.543,4.865C83.483,9.97 88.642,43.027 67.716,57.408C60.556,62.329 58.68,63.486 54.953,66.182C53.094,67.527 46.771,71.585 44.71,72.542C42.815,73.422 40.246,74.395 37.445,75.17" style="fill:rgb(0,137,123);"/>
    <path d="M80.675,4.299C81.929,4.668 83.088,5.029 84.269,5.425L84.282,5.499C87.436,23.987 86.393,45.239 69.749,57.648C59.592,65.221 48.511,73.003 37.445,75.871L37.433,75.863L37.442,75.325L37.458,74.459C37.61,74.38 37.794,74.303 38.016,74.234C48.362,70.942 57.463,63.011 66.943,56.287C78.593,47.918 82.385,31.343 82.099,17.311C82.051,14.946 81.898,12.585 81.657,10.232C74.86,25.4 62.916,37.855 47.721,45.93C44.935,47.411 42.066,48.73 39.184,50.012L38.469,50.241L38.446,50.227L38.464,49.693L38.497,48.709C50.663,42.725 62.095,34.951 70.323,23.84C74.728,17.892 78.109,11.202 80.675,4.299Z" style="fill:rgb(211,179,64);fill-rule:nonzero;"/>
    <path d="M91.959,52.253L92.025,52.423L92.092,52.595L92.162,52.767L92.234,52.94L92.307,53.113L92.383,53.287L92.46,53.462L92.539,53.638L92.62,53.814L92.702,53.99L92.786,54.167L92.872,54.345L92.959,54.523L93.048,54.701L93.138,54.88L93.23,55.058L93.323,55.238L93.418,55.417L93.513,55.597L93.61,55.776L93.708,55.956L93.807,56.136L93.908,56.316L94.009,56.496L94.111,56.676L94.215,56.856L94.319,57.035L94.424,57.215L94.53,57.394L94.637,57.573L94.744,57.752L94.852,57.93L95.07,58.286L95.29,58.64L95.512,58.992L95.646,59.201L95.735,59.341L95.958,59.689L96.181,60.034L96.405,60.375L96.629,60.712L96.852,61.046L97.074,61.375L97.296,61.699L97.515,62.019L97.733,62.333L97.949,62.642L98.162,62.945L98.372,63.242L98.745,63.77L99.116,64.296L99.483,64.821L99.847,65.343L100.569,66.38L101.093,67.132L101.284,67.41L101.639,67.921L101.993,68.43L102.347,68.937L102.702,69.44L103.058,69.942L103.236,70.191L103.415,70.439L103.595,70.687L103.774,70.934L103.955,71.18L104.136,71.426L104.317,71.671L104.5,71.915L104.683,72.158L104.867,72.401L105.051,72.642L105.093,72.696L105.235,72.885L105.418,73.128L105.603,73.369L105.788,73.61L105.975,73.85L106.163,74.09L106.352,74.328L106.542,74.566L106.734,74.803L106.927,75.039L107.122,75.274L107.318,75.509L107.516,75.743L107.715,75.976L107.916,76.208L108.119,76.44L108.153,76.478L108.323,76.671L108.529,76.901L108.736,77.131L108.946,77.36L109.157,77.588L109.371,77.815L109.586,78.042L109.804,78.268L110.024,78.493L110.247,78.717L110.482,78.952L110.937,80.127L110.392,81.306L110.377,81.319L109.164,81.78L108.023,81.246L108.016,81.238L107.797,80.986L107.577,80.729L107.359,80.472L107.144,80.214L106.932,79.956L106.722,79.698L106.514,79.439L106.309,79.18L106.106,78.921L105.906,78.661L105.741,78.444L105.708,78.401L105.513,78.14L105.319,77.879L105.128,77.617L104.939,77.355L104.752,77.093L104.566,76.831L104.383,76.568L104.201,76.305L104.021,76.041L103.843,75.778L103.667,75.514L103.492,75.249L103.318,74.985L103.146,74.72L102.975,74.455L102.844,74.248L102.807,74.189L102.642,73.92L102.478,73.652L102.316,73.384L102.154,73.115L101.994,72.846L101.835,72.576L101.677,72.306L101.519,72.036L101.363,71.766L101.207,71.495L101.051,71.224L100.743,70.682L100.437,70.138L100.132,69.592L99.829,69.046L99.526,68.497L99.364,68.201L98.925,67.395L98.323,66.285L98.019,65.727L97.714,65.168L97.406,64.607L97.094,64.044L96.917,63.723L96.736,63.395L96.554,63.06L96.37,62.719L96.184,62.373L95.998,62.021L95.811,61.665L95.623,61.304L95.435,60.939L95.248,60.571L95.062,60.198L94.876,59.823L94.803,59.672L94.693,59.445L94.512,59.064L94.333,58.682L94.157,58.298L94.07,58.105L93.983,57.912L93.898,57.72L93.813,57.526L93.729,57.333L93.646,57.14L93.563,56.947L93.482,56.754L93.402,56.561L93.323,56.368L93.245,56.175L93.168,55.983L93.092,55.791L93.018,55.599L92.945,55.407L92.873,55.216L92.802,55.026L92.733,54.836L92.666,54.646L92.6,54.458L92.535,54.27L92.472,54.082L92.411,53.896L92.351,53.71L92.293,53.525L92.237,53.341L92.182,53.158L92.13,52.976L92.079,52.795L92.03,52.615L91.983,52.437L91.938,52.259L91.945,52.246L91.959,52.253Z" style="fill:white;fill-opacity:0.831373;"/>
</svg>
