<?xml version="1.0" encoding="UTF-8" standalone="no"?>
<svg
   width="534px"
   height="534px"
   version="1.1"
   xml:space="preserve"
   style="fill-rule:evenodd;clip-rule:evenodd;stroke-linejoin:round;stroke-miterlimit:2;"
   id="svg134"
   sodipodi:docname="kiss woman woman.svg"
   inkscape:version="1.1 (c68e22c387, 2021-05-23)"
   xmlns:inkscape="http://www.inkscape.org/namespaces/inkscape"
   xmlns:sodipodi="http://sodipodi.sourceforge.net/DTD/sodipodi-0.dtd"
   xmlns="http://www.w3.org/2000/svg"
   xmlns:svg="http://www.w3.org/2000/svg"><sodipodi:namedview
     id="namedview136"
     pagecolor="#ffffff"
     bordercolor="#666666"
     borderopacity="1.0"
     inkscape:pageshadow="2"
     inkscape:pageopacity="0.0"
     inkscape:pagecheckerboard="0"
     showgrid="false"
     inkscape:zoom="1.6329588"
     inkscape:cx="242.19839"
     inkscape:cy="368.34977"
     inkscape:window-width="1920"
     inkscape:window-height="1057"
     inkscape:window-x="-8"
     inkscape:window-y="-8"
     inkscape:window-maximized="1"
     inkscape:current-layer="g100" /><g
     id="g110"><g
       id="g108"><g
         id="g106"><path
           d="M246.042,551.209C258.542,434.625 258.542,295.417 258.542,295.417L-105.167,295.417C-105.167,295.417 -105.167,442.209 -89.667,551.209L246.042,551.209Z"
           style="fill:#232020;fill-rule:nonzero;"
           id="path2" /><path
           id="ellipse4"
           style="fill:#232020"
           d="M 259.08299,294.33401 A 181.83299,163.45799 0 0 1 77.25,457.79201 181.83299,163.45799 0 0 1 -104.58299,294.33401 181.83299,163.45799 0 0 1 77.25,130.87602 181.83299,163.45799 0 0 1 259.08299,294.33401 Z" /><path
           d="M96.667,513.75C172.333,513.417 217.334,463.167 221.084,382.542L221.084,290.334C221.084,217.334 161.917,158.167 88.917,158.167L84.083,158.167C11.083,158.167 -48.083,217.334 -48.083,290.334L-48.083,377.75C-48.083,453.375 26.125,514.042 96.667,513.75Z"
           style="fill:#70534a;fill-rule:nonzero;"
           id="path6" /><g
           id="g23"><g
             id="g21"><g
               id="g19"><clipPath
                 id="_clip1"><path
                   d="M93.75,513.709C175.583,514.292 217.834,459.75 221.084,382.542L221.084,290.334C221.084,217.334 161.917,158.167 88.917,158.167L84.083,158.167C11.083,158.167 -48.083,217.334 -48.083,290.334L-48.083,377.75C-48.083,453.375 27.292,513.25 93.75,513.709Z"
                   id="path8" /></clipPath><g
                 clip-path="url(#_clip1)"
                 id="g17"><g
                   opacity="0.6"
                   id="g15"><g
                     id="g13"><path
                       d="M242.586,485.05C214.503,495.175 183.503,480.925 173.294,453.175C163.086,425.467 177.503,394.759 205.586,384.634C233.586,374.55 264.669,388.842 274.919,416.55C285.128,444.3 270.628,474.967 242.586,485.05Z"
                       style="fill:url(#_Radial2);fill-rule:nonzero;"
                       id="path11" /></g></g></g></g></g></g><g
           id="g38"><g
             id="g36"><g
               id="g34"><clipPath
                 id="_clip3"><path
                   d="M93.75,513.709C175.583,514.292 217.834,459.75 221.084,382.542L221.084,290.334C221.084,217.334 161.917,158.167 88.917,158.167L84.083,158.167C11.083,158.167 -48.083,217.334 -48.083,290.334L-48.083,377.75C-48.083,453.375 27.292,513.25 93.75,513.709Z"
                   id="path25" /></clipPath><g
                 clip-path="url(#_clip3)"
                 id="g32"><g
                   opacity="0.6"
                   id="g30"><path
                     d="M49.625,486.125C21.542,496.25 -9.458,482 -19.667,454.25C-29.875,426.542 -15.458,395.834 12.625,385.709C40.625,375.625 71.708,389.917 81.958,417.625C92.167,445.375 77.667,476.042 49.625,486.125Z"
                     style="fill:url(#_Radial4);fill-rule:nonzero;"
                     id="path28" /></g></g></g></g></g><path
           d="M107.542,295.917C132.167,303.375 174.75,312.292 193.708,321.125C210.959,329.209 221.25,348.292 221.25,367.334L221.25,464.5L245.042,417.375L253.084,260.042L182.417,175.625L106.083,153.833L-1.958,153.833L-84.083,245.667L-85.458,477.584L-60.5,484.834L-69.292,365.959C-69.292,347.834 -62.792,379.875 -47.5,370.167C-33.208,361.125 22.917,314.334 37.375,271C40.5,261.667 43.458,264.042 49.875,268.792C60.042,276.25 80.875,287.834 107.542,295.917Z"
           style="fill:#232020;fill-rule:nonzero;"
           id="path40" /><path
           d="M108.958,392.625C114.833,394.959 118.875,395.292 123.583,395.292C128.292,395.292 132.333,394.917 138.208,392.625C140.708,391.625 143.417,394.084 142.875,396.375C141.083,403.917 133.5,410.125 123.583,410.125C113.667,410.125 105.833,403.625 104.292,396.375C103.792,394.084 106.417,391.667 108.958,392.625Z"
           style="fill:#563e37;fill-rule:nonzero;"
           id="path42" /><path
           d="M189.167,352.375C190.708,352.584 191.833,356.417 190.5,363.125C188.875,371.25 183.25,377.417 178.125,379.917C171.708,383.084 158.958,385.292 148.833,378.209C137.208,370.084 140.625,363.334 144.833,364.875C149.125,366.459 156.875,368.125 163.292,367.709C169.917,367.292 177.125,364.084 181.75,359.834C185.125,356.709 187.5,352.167 189.167,352.375ZM93.542,352.959C95.083,353.209 96.083,357.042 94.583,363.75C92.792,371.834 86.958,377.834 81.792,380.25C75.292,383.25 62.5,385.125 52.542,377.792C41.125,369.375 44.708,362.709 48.875,364.375C53.125,366.042 60.833,367.917 67.25,367.667C73.917,367.417 81.167,364.375 85.917,360.25C89.375,357.209 91.917,352.709 93.542,352.959Z"
           style="fill:#444;fill-rule:nonzero;"
           id="path44" /><g
           id="g48"><path
             d="M126.458,431C127.542,432.25 130,432.584 132.5,432.875C136.625,433.334 142.5,433.459 145.208,437.125C147.375,440.125 147,444.542 145.25,447.209C142.583,451.25 137.917,450.792 133.542,452.417C132.417,452.834 131.792,454.084 131.917,455.209C131.958,455.625 132.125,456.042 132.458,456.417C133.917,457.792 136.125,457.792 138,457.959C139.917,458.125 142.583,458.459 144.167,459.959C147.042,462.667 146.917,466.625 144.708,469.417C141.75,473.167 134.833,474.167 131.583,476.709C129.875,478.042 127.667,480 128.375,483.167C129.208,486.792 134.917,488.084 139.167,483.5C143.125,479.292 150.25,477.167 153.125,472.125C156.125,466.875 155.083,461.5 151.708,456.417C150.125,453.959 152.875,450.417 153.833,447.125C154.708,444.084 154.792,441.25 153.917,438.167C151.458,428.584 141.542,428.459 133.75,425.292C131.958,424.584 129.375,424.375 127.417,425.334C125.833,426.167 124.75,429 126.458,431Z"
             style="fill:#444;fill-rule:nonzero;"
             id="path46" /></g><g
           id="g100"><path
             d="M287.292,551.209C274.792,434.625 274.792,295.417 274.792,295.417L638.501,295.417C638.501,295.417 638.501,442.209 623,551.209L287.292,551.209Z"
             style="fill:#6d4c41;fill-rule:nonzero;"
             id="path50"
             mask="none" /><path
             id="ellipse52"
             style="fill:#6d4c41"
             d="m 637.91701,294.33401 c 10e-6,90.27536 -81.4094,163.458 -181.833,163.458 -100.42359,0 -181.833,-73.18264 -181.83299,-163.458 0,-90.27536 83.24656,-163.45799 183.67015,-163.45799 100.42359,0 179.99584,73.18263 179.99584,163.45799 z"
             mask="none"
             sodipodi:nodetypes="sssss" /><path
             d="M436.667,513.75C361,513.417 316,463.167 312.25,382.542L312.25,290.334C312.25,217.334 371.417,158.167 444.417,158.167L449.25,158.167C522.25,158.167 581.417,217.334 581.417,290.334L581.417,377.75C581.417,453.375 507.209,514.042 436.667,513.75Z"
             style="fill:#bf8f68;fill-rule:nonzero;"
             id="path54"
             mask="none" /><g
             id="g88"
             mask="none"><g
               id="g86"><g
                 id="g84"><clipPath
                   id="_clip7"><path
                     d="M439.584,513.709C357.75,514.292 315.5,459.75 312.25,382.542L312.25,290.334C312.25,217.334 371.417,158.167 444.417,158.167L449.25,158.167C522.25,158.167 581.417,217.334 581.417,290.334L581.417,377.75C581.417,453.375 506.042,513.25 439.584,513.709Z"
                     id="path73" /></clipPath><g
                   clip-path="url(#_clip7)"
                   id="g82"><g
                     opacity="0.6"
                     id="g80"><g
                       id="g78"><path
                         d="M520.675,486.125C492.592,496.25 461.592,482 451.384,454.25C441.175,426.542 455.592,395.834 483.675,385.709C511.675,375.625 542.759,389.917 553.009,417.625C563.217,445.375 548.717,476.042 520.675,486.125Z"
                         style="fill:url(#_Radial8);fill-rule:nonzero;"
                         id="path76" /></g></g></g></g></g></g><path
             d="m 425.792,295.917 c -24.625,7.458 -67.208,16.375 -86.167,25.208 -17.25,8.084 -27.541,27.167 -27.541,46.209 V 464.5 l -23.792,-47.125 -8,-157.375 70.583,-84.417 80.00831,-22.40339 104.36669,0.61239 82.125,91.833 1.375,231.917 -24.958,7.25 8.792,-118.875 c 0,-18.125 -6.5,13.917 -21.792,4.208 -14.333,-9.125 -70.458,-55.875 -84.917,-99.25 -3.125,-9.333 -6.083,-6.958 -12.5,-2.208 -10.083,7.583 -30.916,19.167 -57.583,27.25 z"
             style="fill:#6d4c41;fill-rule:nonzero"
             id="path90"
             mask="none"
             sodipodi:nodetypes="ccscccccccccccccc" /><path
             d="M424.375,392.625C418.5,394.959 414.459,395.292 409.75,395.292C405.042,395.292 401,394.917 395.125,392.625C392.625,391.625 389.917,394.084 390.459,396.375C392.25,403.917 399.834,410.125 409.75,410.125C419.667,410.125 427.5,403.625 429.042,396.375C429.542,394.084 426.917,391.667 424.375,392.625Z"
             style="fill:#99674f;fill-rule:nonzero;"
             id="path92"
             mask="none" /><path
             d="M344.167,352.375C342.625,352.584 341.5,356.417 342.834,363.125C344.459,371.25 350.084,377.417 355.209,379.917C361.625,383.084 374.375,385.292 384.5,378.209C396.125,370.084 392.709,363.334 388.5,364.875C384.209,366.459 376.459,368.125 370.042,367.709C363.417,367.292 356.209,364.084 351.584,359.834C348.209,356.709 345.834,352.167 344.167,352.375ZM439.792,352.959C438.25,353.209 437.25,357.042 438.75,363.75C440.542,371.834 446.375,377.834 451.542,380.25C458.042,383.25 470.834,385.125 480.792,377.792C492.209,369.375 488.625,362.709 484.459,364.375C480.209,366.042 472.5,367.917 466.084,367.667C459.417,367.417 452.167,364.375 447.417,360.25C443.959,357.209 441.417,352.709 439.792,352.959Z"
             style="fill:#444;fill-rule:nonzero;"
             id="path94"
             mask="none" /><g
             id="g98"
             mask="none"><path
               d="M406.917,431C405.834,432.25 403.375,432.584 400.875,432.875C396.75,433.334 390.875,433.459 388.167,437.125C386,440.125 386.375,444.542 388.125,447.209C390.792,451.25 395.459,450.792 399.834,452.417C400.959,452.834 401.584,454.084 401.459,455.209C401.417,455.625 401.25,456.042 400.917,456.417C399.459,457.792 397.25,457.792 395.375,457.959C393.459,458.125 390.792,458.459 389.209,459.959C386.334,462.667 386.459,466.625 388.667,469.417C391.625,473.167 398.542,474.167 401.792,476.709C403.5,478.042 405.709,480 405,483.167C404.167,486.792 398.459,488.084 394.209,483.5C390.25,479.292 383.125,477.167 380.25,472.125C377.25,466.875 378.292,461.5 381.667,456.417C383.25,453.959 380.5,450.417 379.542,447.125C378.667,444.084 378.584,441.25 379.459,438.167C381.917,428.584 391.834,428.459 399.625,425.292C401.417,424.584 404,424.375 405.959,425.334C407.542,426.167 408.584,429 406.917,431Z"
               style="fill:#444;fill-rule:nonzero;"
               id="path96" /></g></g><g
           id="g104"><path
             d="M143.125,145.375C167.625,181.833 211.25,219.625 242.709,249C246.084,252.125 249.375,255.5 252.792,258.667C256.417,262.042 260.834,269.709 266.667,270.042C272.542,269.709 276.917,262 280.542,258.667C283.959,255.5 287.292,252.125 290.667,249C322.125,219.667 365.75,181.833 390.209,145.375C397.542,134.5 402.917,122.792 405.125,109.833C407.292,96.833 407.209,78.208 401.875,65.833C389.334,36.583 367.959,19.875 338.667,20.042C337.584,20.083 336.5,20.083 335.417,20.125C323.917,20.333 312.792,22.875 302.25,27.292C290.959,32.042 283.209,39.167 273.167,45.542C269.375,47.958 263.959,47.917 260.209,45.542C250.167,39.167 242.459,32.042 231.125,27.292C220.584,22.917 209.417,20.333 197.958,20.125C196.875,20.083 195.75,20.083 194.708,20.042C165.333,19.875 144,36.583 131.5,65.833C126.208,78.208 126.083,96.833 128.25,109.833C130.417,122.75 135.875,134.458 143.125,145.375Z"
             style="fill:#f06292;fill-rule:nonzero;"
             id="path102" /></g></g></g></g><defs
     id="defs132"><radialGradient
       id="_Radial2"
       cx="0"
       cy="0"
       r="1"
       gradientUnits="userSpaceOnUse"
       gradientTransform="matrix(54.0867,0,0,53.4546,224.102,434.855)"><stop
         offset="0"
         style="stop-color:#99674f;stop-opacity:0.6"
         id="stop112" /><stop
         offset="1"
         style="stop-color:#99674f;stop-opacity:0"
         id="stop114" /></radialGradient><radialGradient
       id="_Radial4"
       cx="0"
       cy="0"
       r="1"
       gradientUnits="userSpaceOnUse"
       gradientTransform="matrix(54.0867,0,0,53.4546,31.141,435.93)"><stop
         offset="0"
         style="stop-color:#99674f;stop-opacity:0.6"
         id="stop117" /><stop
         offset="1"
         style="stop-color:#99674f;stop-opacity:0"
         id="stop119" /></radialGradient><radialGradient
       id="_Radial6"
       cx="0"
       cy="0"
       r="1"
       gradientUnits="userSpaceOnUse"
       gradientTransform="matrix(54.0865,0,0,53.4546,309.232,434.855)"><stop
         offset="0"
         style="stop-color:#99674f;stop-opacity:0.6"
         id="stop122" /><stop
         offset="1"
         style="stop-color:#99674f;stop-opacity:0"
         id="stop124" /></radialGradient><radialGradient
       id="_Radial8"
       cx="0"
       cy="0"
       r="1"
       gradientUnits="userSpaceOnUse"
       gradientTransform="matrix(54.0867,0,0,53.4546,502.191,435.93)"><stop
         offset="0"
         style="stop-color:#99674f;stop-opacity:0.6"
         id="stop127" /><stop
         offset="1"
         style="stop-color:#99674f;stop-opacity:0"
         id="stop129" /></radialGradient></defs></svg>
