<?xml version="1.0" encoding="UTF-8" standalone="no"?>
<!DOCTYPE svg PUBLIC "-//W3C//DTD SVG 1.1//EN" "http://www.w3.org/Graphics/SVG/1.1/DTD/svg11.dtd">
<svg width="100%" height="100%" viewBox="0 0 128 128" version="1.1" xmlns="http://www.w3.org/2000/svg" xmlns:xlink="http://www.w3.org/1999/xlink" xml:space="preserve" xmlns:serif="http://www.serif.com/" style="fill-rule:evenodd;clip-rule:evenodd;stroke-linejoin:round;stroke-miterlimit:2;">
    <g>
        <path d="M4,74.82C4,74.82 27.95,65.81 64,65.98C81.58,66.06 101.33,69 124,74.82C124,74.82 100.61,120.17 64,120.17C27.39,120.17 7.92,83.79 4,74.82Z" style="fill:rgb(66,66,66);fill-rule:nonzero;"/>
    </g>
    <g>
        <path d="M63.83,110.33C33.16,110.33 13.22,88.48 6.14,75.66C11.99,73.74 33.33,67.47 62.96,67.47C82.77,67.47 102.48,70.23 121.59,75.67C116.48,82.81 94.75,110.33 63.83,110.33Z" style="fill:rgb(211,48,44);fill-rule:nonzero;"/>
    </g>
    <g>
        <g>
            <path d="M13.5,130.5L13.5,120.99C13.5,103.7 40.71,97.53 64,97.5L64.14,97.5C77.53,97.5 89.96,99.65 99.15,103.55C106.15,106.53 114.5,111.97 114.5,120.99L114.5,130.5L13.5,130.5Z" style="fill:rgb(66,66,66);fill-rule:nonzero;"/>
        </g>
    </g>
    <g>
        <path d="M63.17,107.23C59.17,107.23 55.91,104.01 55.91,100.06L55.91,91.08L72.07,91.08L72.07,100.06C72.07,104.02 68.82,107.23 64.81,107.23L63.17,107.23Z" style="fill:#563e37;fill-rule:nonzero;"/>
    </g>
    <g>
        <path d="M55,106L48.17,126L79.5,126L73,106L55,106Z" style="fill:white;fill-rule:nonzero;"/>
    </g>
    <g>
        <path d="M77.78,106.06C77.78,103.8 77.3,101.35 76.49,99.44C76.36,99.12 76.01,98.96 75.65,98.99C71.94,99.57 68.29,101.22 66.16,103.35C66,103.51 65.8,103.58 65.61,103.58L62.41,103.58C62.18,103.58 61.99,103.48 61.86,103.35C59.7,101.22 56.08,99.61 52.34,98.99C51.98,98.96 51.63,99.12 51.5,99.44C50.69,101.34 50.21,103.8 50.21,106.06L50.34,106.06L50.34,106.12L50.34,106.06L50.21,106.06C50.21,108.64 50.69,110.84 51.5,112.77C51.63,113.09 51.98,113.29 52.34,113.25C56.08,112.67 59.7,111.05 61.83,108.92C61.99,108.76 62.19,108.69 62.38,108.69L65.61,108.69C65.84,108.69 66.03,108.79 66.16,108.92C68.29,111.05 71.91,112.66 75.65,113.25C76.01,113.31 76.33,113.09 76.49,112.77C77.3,110.84 77.78,108.64 77.78,106.06L77.78,106.12L77.78,106.06Z" style="fill:rgb(211,48,44);fill-rule:nonzero;"/>
        <path d="M64.82,109.69L63.18,109.69C62.17,109.69 61.34,108.86 61.34,107.85L61.34,104.16C61.34,103.15 62.17,102.32 63.18,102.32L64.82,102.32C65.83,102.32 66.66,103.15 66.66,104.16L66.66,107.85C66.66,108.86 65.83,109.69 64.82,109.69Z" style="fill:rgb(211,48,44);fill-rule:nonzero;"/>
    </g>
    <g transform="matrix(1.01762,0,0,1.01762,-2.0111,-5.62742)">
        <ellipse cx="64" cy="45.9" rx="42" ry="39.5" style="fill:#232020;"/>
    </g>
    <g transform="matrix(0.763346,0,0,0.808337,15.1459,-2.46459)">
        <path d="M64,10.55C30.09,10.55 21.22,36.84 21.22,73.77C21.22,112.06 45.83,121.96 64,121.96C81.9,121.96 106.78,112.34 106.78,73.77C106.78,36.83 97.91,10.55 64,10.55Z" style="fill:#70534a;fill-rule:nonzero;"/>
    </g>
    <g transform="matrix(0.808337,0,0,0.808337,12.2664,-2.46459)">
        <path d="M49.91,77.19C49.91,81 47.36,84.09 44.2,84.09C41.04,84.09 38.47,81 38.47,77.19C38.47,73.37 41.04,70.28 44.2,70.28C47.36,70.28 49.91,73.37 49.91,77.19M78.08,77.19C78.08,81 80.64,84.09 83.8,84.09C86.95,84.09 89.52,81 89.52,77.19C89.52,73.37 86.95,70.28 83.8,70.28C80.64,70.28 78.08,73.37 78.08,77.19" style="fill:rgb(68,68,68);fill-rule:nonzero;"/>
    </g>
    <g transform="matrix(0.808337,0,0,0.808337,12.2664,-2.46459)">
        <path d="M69.98,89.99C67.87,90.59 65.69,90.88 64,90.88C62.31,90.88 60.13,90.59 58.02,89.99C57.12,89.73 56.77,90.59 57.09,91.16C57.76,92.34 60.45,94.71 64,94.71C67.55,94.71 70.24,92.34 70.91,91.16C71.24,90.59 70.88,89.74 69.98,89.99Z" style="fill:#563e37;fill-rule:nonzero;"/>
    </g>
    <g transform="matrix(0.808337,0,0,0.808337,12.2664,-2.46459)">
        <path d="M76.38,100.52L51.62,100.52C50.2,100.52 49.59,101.47 50.53,102.9C51.84,104.9 56.72,108.75 64,108.75C71.28,108.75 76.16,104.9 77.47,102.9C78.41,101.47 77.8,100.52 76.38,100.52Z" style="fill:rgb(81,63,53);fill-rule:nonzero;"/>
    </g>
    <g transform="matrix(1,0,0,1,-0.00404168,1.46574)">
        <g>
            <clipPath id="_clip1">
                <path d="M74.011,77.324L53.997,77.324C52.849,77.324 52.356,78.092 53.116,79.248C54.175,80.864 58.119,83.976 64.004,83.976C69.889,83.976 73.833,80.864 74.892,79.248C75.652,78.092 75.159,77.324 74.011,77.324Z"/>
            </clipPath>
            <g clip-path="url(#_clip1)">
                <g>
                    <path d="M55.33,75.66L56.33,80.65L58.67,76.71L55.33,75.66ZM72.67,75.66L71.67,80.65L69.33,76.71L72.67,75.66Z" style="fill:white;fill-rule:nonzero;"/>
                </g>
            </g>
        </g>
    </g>
    <g transform="matrix(1.10269,0,0,1.01762,-7.46624,-5.62742)">
        <path d="M73.07,34.21C69.84,37.32 53.78,51.79 31.65,55.56L31.65,25.9C31.65,25.9 41.2,6.95 64.12,6.95C87.04,6.95 96.6,26.38 96.6,26.38L96.6,55.57C96.6,55.57 81.58,49.81 74.04,34.4C73.942,34.183 73.725,34.043 73.488,34.043C73.332,34.043 73.183,34.103 73.07,34.21Z" style="fill:#232020;fill-rule:nonzero;"/>
    </g>
</svg>
