<?xml version="1.0" encoding="UTF-8" standalone="no"?>
<!DOCTYPE svg PUBLIC "-//W3C//DTD SVG 1.1//EN" "http://www.w3.org/Graphics/SVG/1.1/DTD/svg11.dtd">
<svg width="100%" height="100%" viewBox="0 0 128 128" version="1.1" xmlns="http://www.w3.org/2000/svg" xmlns:xlink="http://www.w3.org/1999/xlink" xml:space="preserve" xmlns:serif="http://www.serif.com/" style="fill-rule:evenodd;clip-rule:evenodd;stroke-linejoin:round;stroke-miterlimit:1.41421;">
    <g transform="matrix(1.16499,0,0,1.16499,-8.87333,4.13165)">
        <g transform="matrix(0.97802,0.208513,-0.208513,0.97802,14.7753,-12.1145)">
            <path d="M56.58,97.15L45.19,90.83L55.72,65.57L70.813,72.043L56.58,97.15Z" style="fill:rgb(241,202,126);fill-rule:nonzero;"/>
        </g>
        <g transform="matrix(0.994556,-0.1042,0.1042,0.994556,1.26598,15.133)">
            <g transform="matrix(0.677079,-0.73591,0.73591,0.677079,-67.3195,53.0202)">
                <circle cx="51.13" cy="93.56" r="6.54" style="fill:rgb(244,213,152);"/>
            </g>
            <g transform="matrix(-0.183449,-0.983029,0.983029,-0.183449,-47.2217,146.219)">
                <path d="M51.386,126.289L40.223,124.539L44.65,92.62L57.46,95.571L51.386,126.289Z" style="fill:rgb(244,213,152);fill-rule:nonzero;"/>
            </g>
        </g>
        <g transform="matrix(-0.284881,-0.958563,0.958563,-0.284881,-24.2221,164.439)">
            <path d="M47.52,126.55L37.85,125.03C36.112,124.759 34.816,123.247 34.816,121.488C34.816,121.301 34.831,121.114 34.86,120.93C35.17,118.97 37,117.63 38.96,117.94L48.63,119.46C50.59,119.77 51.93,121.6 51.62,123.56C51.315,125.504 49.465,126.853 47.52,126.55Z" style="fill:rgb(69,104,173);fill-rule:nonzero;"/>
            <path d="M34.907,120.575L51.672,123.209L50.919,128L34.154,125.366L34.907,120.575Z" style="fill:rgb(69,104,173);fill-rule:nonzero;"/>
            <path d="M46.38,119.101L52.169,120.011L51.557,123.903L45.768,122.993L46.38,119.101Z" style="fill:rgb(69,104,173);fill-rule:nonzero;"/>
        </g>
        <path d="M66.9,26.13L67.03,36.35L59.25,37.39L56.22,17.31L66.9,26.13Z" style="fill:#e0bb95;fill-rule:nonzero;"/>
        <path d="M68.71,16.23L66.67,33.16L55.62,31.91C50.48,31.33 46.87,26.57 47.7,21.47L48.71,15.28C49.64,9.56 55.3,5.89 60.9,7.38L63.12,7.97C66.77,8.95 69.16,12.47 68.71,16.23Z" style="fill:#e0bb95;fill-rule:nonzero;"/>
        <path d="M67.72,27.76L62.67,26.22L62.83,22.56C62.89,21.33 62.26,20.17 61.2,19.54L59.49,23.38C58.32,23.02 57.417,22.075 57.11,20.89L56.5,18.53C56.236,17.508 55.494,16.673 54.51,16.29L48.94,14.15C48.94,14.15 49.95,6.16 57.96,6.15C59.34,6.15 60.7,6.22 62,6.35C68.02,6.94 72.11,12.74 70.67,18.61C69.92,21.74 68.93,24.79 67.72,27.76Z" style="fill:#bfa055;fill-rule:nonzero;"/>
        <path d="M52.31,19.68C52.2,20.43 51.62,20.97 51,20.88C50.38,20.79 49.96,20.12 50.07,19.37C50.18,18.62 50.76,18.08 51.38,18.17C52,18.25 52.41,18.93 52.31,19.68" style="fill:rgb(68,68,68);fill-rule:nonzero;"/>
        <path d="M69.01,73.11L55.76,73.11C53.242,73.11 51.17,71.038 51.17,68.52L53.57,44.63C54.05,40.75 55.26,34.27 60.55,34.27L65.13,34.27C69.69,34.27 71.59,39.66 71.79,44.41L73.59,68.53C73.6,71.05 71.55,73.11 69.01,73.11Z" style="fill:rgb(101,31,255);fill-rule:nonzero;"/>
        <path d="M69.732,63.733L62.418,64.924L60.01,50.13L67.324,48.94L69.732,63.733Z" style="fill:#e0bb95;fill-rule:nonzero;"/>
        <g transform="matrix(0.543702,-0.839278,0.839278,0.543702,-23.8559,84.7813)">
            <circle cx="66.05" cy="64.33" r="3.75" style="fill:#e0bb95;"/>
        </g>
        <path d="M59.02,55.43L70.45,53.36L68.33,41.67C67.788,38.967 65.392,37.004 62.635,37.004C59.448,37.004 56.826,39.626 56.826,42.813C56.826,43.123 56.85,43.433 56.9,43.74L59.02,55.43Z" style="fill:rgb(54,21,175);fill-rule:nonzero;"/>
        <path d="M64.284,77.709L57.492,74.746L62.565,63.114L69.357,66.077L64.284,77.709Z" style="fill:#e0bb95;fill-rule:nonzero;"/>
        <path d="M57.4,83.98C58.012,84.25 58.674,84.389 59.342,84.389C61.249,84.389 62.984,83.256 63.75,81.51L64.72,79.3C64.99,78.688 65.129,78.026 65.129,77.358C65.129,75.451 63.996,73.716 62.25,72.95C61.638,72.68 60.976,72.541 60.308,72.541C58.401,72.541 56.666,73.674 55.9,75.42L54.93,77.63C54.661,78.241 54.522,78.902 54.522,79.57C54.522,81.477 55.654,83.212 57.4,83.98Z" style="fill:#e0bb95;fill-rule:nonzero;"/>
        <path d="M70.94,16.78C70.94,16.78 76.37,18.09 75.45,26.97C74.72,34.05 80.2,40.51 80.2,40.51C80.2,40.51 72.08,37.75 68.41,30.39C64.74,23.03 70.94,16.78 70.94,16.78Z" style="fill:#bfa055;fill-rule:nonzero;"/>
    </g>
</svg>
