<?xml version="1.0" encoding="utf-8"?>
<!-- Generator: Adobe Illustrator 24.0.3, SVG Export Plug-In . SVG Version: 6.00 Build 0)  -->
<svg version="1.1" id="Layer_8" xmlns="http://www.w3.org/2000/svg" xmlns:xlink="http://www.w3.org/1999/xlink" x="0px" y="0px"
	 viewBox="0 0 128 128" style="enable-background:new 0 0 128 128;" xml:space="preserve">
<g>
	<path style="fill:#694D42;" d="M77.52,83.78c4.93,2.51,14.08,4.86,18.94,4.15c12.6-1.85,21.69-9.13,27.2-19.22
		c2.33-4.27,2.53-12.92-1.21-13.86c-4.74-1.19-10.37-0.26-19.11,3.87c-8.89,4.2-11.03,10.84-21.5,5.73"/>
	<path style="opacity:0.44;fill:#B3937C;" d="M79.88,75.09c1.83,1.22,2.09,1.88,3.6,3.48c2.97,3.16,9.99,3.33,11.35,3.35
		c8.09,0.11,12-1.85,17.22-5.3s10.13-10.99,11.01-14.73c0.61-2.58,0.92-4.54,0.8-6.13c-0.39-0.44-0.85-0.77-1.4-0.91
		c-4.74-1.19-10.37-0.26-19.11,3.87c-8.89,4.2-11.03,10.84-21.5,5.73l-2.28,10.17L79.88,75.09z"/>
	<path style="fill:#694D42;" d="M123.47,59.99c0.18-0.95,0.31-1.8,0.37-2.57l-5.37-2.35l0.31-0.7c-1.85-0.03-3.89,0.24-6.19,0.83
		l2.58,1.14l-2.66,6.03l-6.03-2.66l1.29-2.91c-1.07,0.42-5.12,2.14-6.83,3.2l2.25,0.99l-2.66,6.03l-6-2.72
		c-1.13,0.71-2.25,1.29-3.46,1.64l-6.05,13.68c0.73,0.37,1.53,0.66,2.34,0.89l2.46-5.56l6.03,2.66c0,0-1.25,2.79-1.91,4.28
		c0.39,0.02,2.11,0.03,2.69,0.01l1.51-3.28l5.33,2.31c1.6-0.46,3.05-1.08,4.49-1.83l2.18-5.12l3.42,1.53
		c0.69-0.56,1.37-1.18,2.02-1.84l-4.43-1.97l2.66-6.03l6.08,2.69c0.49-0.73,0.93-1.45,1.32-2.15l-6.39-2.83l2.66-6.03L123.47,59.99z
		 M96.84,75.33l-6.03-2.66l2.66-6.03l6.03,2.66L96.84,75.33z M105.16,79.01l-6.03-2.66l2.66-6.03l6.03,2.66L105.16,79.01z
		 M108.83,70.69l-6.03-2.66l2.66-6.03l6.03,2.66L108.83,70.69z"/>
	<path style="fill:#825B4E;" d="M17.36,8.23c-1.03-0.16-2.06-0.28-3.1-0.34c-0.43-0.03-0.9-0.04-1.27,0.18
		c-0.31,0.18-0.51,0.5-0.67,0.82c-0.9,1.74-1.01,3.87-0.29,5.69c0.18,0.45,0.53,0.95,1,0.87c0.19-0.03,0.34-0.15,0.49-0.27
		c1.48-1.16,2.85-2.45,4.08-3.86c0.21-0.24,0.41-0.63,0.16-0.84"/>
	<path style="fill:#694D42;" d="M57.41,102.05c-8.65,4.19-14.38,9.08-20.38,15.08c-0.45,0.45-2.33,2.5-1.17,3.12
		c1.16,0.62,4.03-1.48,4.85-0.93c0.98,0.65,0.26,1.8,1.29,2.54c1.03,0.74,3.8-1.42,5.2-0.79c1.4,0.63,0.78,1.71,1.6,2.67
		c1.07,1.26,3.45,0.09,4.09-0.42c3.77-2.98,13.16-11.93,14.82-13.86c2.2-2.56,3.6-6,1.64-8.28"/>
	<path style="fill:#694D42;" d="M28.26,99.21c-5.13,1.63-10.08,3.8-14.73,6.46c-0.97,0.55-1.93,1.14-2.73,1.91
		c-0.35,0.33-0.73,0.92-0.38,1.25c0.8,0.73,2.33-0.46,3.49,0.45c0.4,0.32,0.17,1.7,0.47,2.12c0.32,0.44,0.93,0.6,1.48,0.56
		s1.07-0.25,1.6-0.41c1.17-0.35,2.37-0.57,3.14,0.35c0.48,0.58,0.45,1.12,0.76,1.74c0.21,0.43,0.56,0.77,1.43,0.76
		c1.32-0.01,2.53-0.61,3.62-1.34c4.92-3.3,9.55-6.98,14.18-10.65"/>
	<path style="fill:#825B4E;" d="M47.3,12.38c3.46,0.97,4.32-0.02,6.92,0.18c3.33,0.25,2.93,3.4,2.44,5.14
		c-0.63,2.23-1.87,4.04-3.64,5.53c-0.3,0.25-0.64,0.51-1.04,0.54c-0.47,0.04-0.9-0.25-1.26-0.55c-2.36-1.93-3.86-4.88-4.03-7.92"/>
	<path style="fill:#B38A6D;" d="M12.16,41.12c0,0-6.13,0.71-8.28,7.29C0.73,58.03,9.1,63.61,9.1,63.61S6.8,83.32,18.81,94.12
		s15.93,11.2,29.97,13.77s27.13-6.48,30.51-10.12s8.64-11.23,9.58-20.67c0.94-9.43-7.42-25.94-14.98-34.56S50.8,20.56,50.8,20.56
		L28.4,41.44L12.16,41.12z"/>
	<path style="fill:#B38A6D;" d="M48.27,13.23c-5.59-7.84-11.8-9.39-18.63-9.39c-7.37,0-14.36,5.41-17.58,9.69
		c-2.6,3.47-5.84,9.11-6.3,15.6c-0.36,5.1,1.26,9.87,6.3,13.4c5.04,3.53,25.07,7.74,33.29,2.09c7.2-4.95,9.64-11.6,8.92-17.18
		C53.76,23.43,52.6,19.3,48.27,13.23z"/>
	
		<ellipse transform="matrix(0.9523 -0.3051 0.3051 0.9523 -3.6671 11.9302)" style="fill:#212121;" cx="36.34" cy="17.7" rx="2.43" ry="3.15"/>
	<path style="fill:#FFECB3;" d="M15.62,32.75c-0.52,3.64,1.09,9.12,2.44,9.04c1.12-0.07,1.38-2.29,1.38-2.29s0.96,2.84,2.72,2.66
		c1.68-0.18,1.6-6.19,2.03-9.13l-5.7-2.33L15.62,32.75z"/>
	<path style="fill:#212121;" d="M11.84,15.91c0.33-1.02,1.26-2.35,2.77-2.31c1.61,0.05,1.33,2.36,0.78,3.58
		c-0.56,1.22-1.85,2.4-3.06,1.64C11.5,18.3,11.61,16.63,11.84,15.91z"/>
	<path style="fill:#825B4E;" d="M41.53,67.39c-12.8-4.32-13.34-17.07-17.28-20.07c-1.34-1.03-2.63-1.28-3.99-1.99
		c-1.25-0.65-2.69-1.31-4-0.79c0.9,0.61,1.71,1.37,2.36,2.25c-1.3,0.13-3.23,0.29-3.87,1.11c-0.11,0.14,0.04,0.36,0.2,0.44
		c0.16,0.08,2.3,0.47,3.15,1.33c-0.68,0.58-1.46,1.06-2.05,1.73c-0.34,0.38-0.03,0.62,0.11,0.66c0.92,0.25,1.95,0.1,2.81,0.52
		c0.86,0.42,1.49,1.21,2.25,1.77c0.92,0.69,2.07,1.07,3.23,1.07c1.92,4.01,4.42,7.35,7.67,10.37c3,2.79,6.7,4.78,10.81,5.53
		c12.93,2.36,18.67-10.8,18.67-10.8S52.41,71.06,41.53,67.39z"/>
	<path style="fill:#212121;" d="M21.8,18.45c-0.5-0.66-1.45-0.75-2.06-0.2c-1.53,1.39-3.01,2.67-3.65,3.69
		c-0.42,0.69-0.79,2.08,0.02,3.07c0.81,0.99,3.36,3.06,3.36,3.06s3.23-1.51,4.23-2.22c1.21-0.87,1.48-2.72,0.45-4.25
		C23.74,20.99,22.6,19.51,21.8,18.45z"/>
	<path style="fill:#212121;" d="M28.47,32.39c0.84-1.31-0.1-1.93-0.65-1.29c-0.62,0.71-2.26,1.84-4.51,1.05
		c-1.25-0.44-2.09-0.84-2.57-2.27c-0.34-1.02-0.22-2.39-0.21-3.45c0-0.48-2.14-0.53-2.28-0.13c-0.29,0.82-0.27,1.67-0.3,2.53
		c-0.03,0.95-0.16,2.08-0.97,2.58c-2.64,1.67-4.2-0.83-4.51-1.12c-0.13-0.12-0.43,0.65-0.17,1.48c1.24,4.01,5.67,3.28,6.94,1.36
		C19.47,34.73,25.12,37.62,28.47,32.39z"/>
	<path style="fill:#825B4E;" d="M7.91,62.65c0.17,0.15,0.39,0.38,0.55,0.51c0.42,0.35,1.04,0.32,1.43-0.07
		c0.45-0.47,0.99-1.3,1.33-2.41c0.66-2.11,0.42-5.06-0.86-7.18l-1.2,1.22c0.92,2.92,0.56,5.41-0.37,6.97
		C8.42,62.3,7.93,62.6,7.91,62.65z"/>
	<path style="fill:#825B4E;" d="M39.09,42.94l-0.73,3.37c3.13-0.38,6.45-6.44,6.45-6.44l0.04,4.05c4-2.17,6.07-11.49,6.07-11.49
		c0.36,4.52,0.76,14.58-12.76,16.33c-4.9,0.64-10.03-1.38-10.03-1.38S35.75,46.88,39.09,42.94z"/>
	<path style="fill:#825B4E;" d="M6.93,47.01c1.7-2.66,4.7-3.49,7.14-3.11c0.11,0.02,0.41,0.13,0.49,0.2
		c0.16,0.15,0.09,0.44-0.09,0.58c-0.17,0.14-0.41,0.17-0.62,0.23c-1.22,0.3-2.32,1.23-2.53,2.47c0.87-0.36,1.91-0.28,2.72,0.19
		c0.22,0.13,0.46,0.39,0.33,0.62c-0.07,0.13-0.24,0.18-0.39,0.23c-1.06,0.34-1.78,1.45-1.95,2.55c0.57-0.12,1.16-0.25,1.74-0.15
		c0.58,0.1,1.35,0.59,1.29,1.04c-0.07,0.48-1.37,0.16-1.96,1.19c-0.41,0.72-0.63,1.59-1.27,2.11c-0.59,0.48-1.44,0.58-2.17,0.36
		c-0.73-0.21-1.36-0.7-1.86-1.27C6.09,52.3,5.72,49.29,6.93,47.01"/>
</g>
</svg>
