<?xml version="1.0" encoding="UTF-8" standalone="no"?>
<!DOCTYPE svg PUBLIC "-//W3C//DTD SVG 1.1//EN" "http://www.w3.org/Graphics/SVG/1.1/DTD/svg11.dtd">
<svg width="100%" height="100%" viewBox="0 0 128 128" version="1.1" xmlns="http://www.w3.org/2000/svg" xmlns:xlink="http://www.w3.org/1999/xlink" xml:space="preserve" xmlns:serif="http://www.serif.com/" style="fill-rule:evenodd;clip-rule:evenodd;stroke-linejoin:round;stroke-miterlimit:2;">
    <path d="M68.19,106.21C68.09,106.26 68,106.32 67.9,106.37C68.11,96.46 71.21,86.54 77.59,79.07C76.42,80.44 69.34,77.67 68.05,79.07C55.67,92.52 58.2,111.62 59.3,117.26C59.48,118.21 60.3,118.9 61.27,118.91C63.13,118.93 66.16,118.91 67.89,118.9C68.64,118.89 69.3,118.39 69.48,117.65C70.57,113.23 72.62,108.3 76.76,106.2C74.51,107.35 70.48,105.04 68.19,106.21Z" style="fill:rgb(75,107,117);fill-rule:nonzero;"/>
    <ellipse cx="75.39" cy="97.4" rx="12.6" ry="2.43" style="fill:rgb(43,59,64);"/>
    <path d="M82.3,95.94C81.76,90.49 75.4,80.33 75.4,80.33C75.4,80.33 69.04,90.49 68.5,95.94C67.93,101.65 73.59,102.42 75.4,102.42C77.21,102.42 82.87,101.65 82.3,95.94Z" style="fill:rgb(255,145,0);fill-rule:nonzero;"/>
    <path d="M102.78,77.37C102.78,78.54 102.05,79.59 100.95,79.98C97.23,81.27 86.46,83.25 75.26,83.25C64.06,83.25 53.29,81.27 49.57,79.98C48.46,79.6 47.74,78.54 47.74,77.37L47.74,69.76L102.79,69.76L102.79,77.37L102.78,77.37Z" style="fill:rgb(101,147,162);fill-rule:nonzero;"/>
    <path d="M88.53,105.86C88.53,107.74 87.85,110.42 75.39,110.42C62.93,110.42 62.25,107.84 62.25,105.86L62.25,97.4C62.25,97.4 64.48,99.93 75.1,99.93C85.72,99.93 88.53,97.4 88.53,97.4L88.53,105.86Z" style="fill:rgb(101,147,162);fill-rule:nonzero;"/>
    <path d="M86.93,106.37C97.04,108.48 101.73,116.73 101.73,116.73C102.19,113.07 101.95,108.6 101.73,107.3C98.71,88.92 89.82,81.42 89.82,81.42L98.47,79.74C105.99,87.3 109.19,96.23 110.25,106.73C110.57,109.87 110.51,119.37 108.68,120.58C108.68,120.58 100.97,125.2 99.8,123.91C93.89,117.42 87.53,110.63 78.09,109.53C74.76,109.13 84.16,105.79 86.93,106.37Z" style="fill:rgb(101,147,162);fill-rule:nonzero;"/>
    <path d="M63.86,106.37C53.75,108.48 49.06,116.73 49.06,116.73C48.6,113.07 48.84,108.6 49.06,107.3C52.08,88.92 60.97,81.42 60.97,81.42L52.32,79.74C44.8,87.3 41.6,96.23 40.54,106.73C40.22,109.87 40.28,119.37 42.11,120.58C42.11,120.58 49.82,125.2 50.99,123.91C56.9,117.42 63.26,110.63 72.7,109.53C76.03,109.13 66.63,105.79 63.86,106.37Z" style="fill:rgb(101,147,162);fill-rule:nonzero;"/>
    <path d="M26.63,37.48C21.93,36.45 16.32,35.83 11.32,35.24C6.5,34.67 4.27,37.21 4.27,41.63C4.27,45.23 5.77,47.8 6.72,49.08C7.15,49.66 7.79,50.04 8.51,50.15C10.86,50.53 15.55,51.01 20.31,51.01C25.98,51.01 32.15,49.35 37.33,48.61C39.21,48.34 39.39,50.63 39.24,48.87C38.74,42.83 31.73,38.6 26.63,37.48Z" style="fill:rgb(230,86,25);fill-rule:nonzero;"/>
    <g>
        <path d="M75.25,27.6C32.09,27.6 31.67,33.7 32.12,38L35.1,61.12C36.74,71.76 53.35,74.77 75.24,74.51C97.13,74.77 113.74,71.76 115.38,61.12L118.38,38C118.83,33.7 118.41,27.6 75.25,27.6Z" style="fill:rgb(230,86,25);fill-rule:nonzero;"/>
        <ellipse cx="75.21" cy="36.37" rx="39.59" ry="6.21" style="fill:rgb(66,66,66);"/>
        <ellipse cx="75.21" cy="37.37" rx="39.07" ry="5.21" style="fill:rgb(255,249,196);"/>
    </g>
    <g>
        <path d="M12.09,14.3L51.21,41.3C53.13,41.53 55.19,41.73 57.37,41.91L13.79,11.83L12.09,14.3Z" style="fill:rgb(158,158,158);fill-rule:nonzero;"/>
        <path d="M105.92,23.66C105.45,22.98 104.52,22.81 103.83,23.27L75.77,42.57C77.6,42.57 79.4,42.54 81.16,42.5L105.53,25.74C106.21,25.28 106.39,24.35 105.92,23.66Z" style="fill:rgb(158,158,158);fill-rule:nonzero;"/>
        <g>
            <path d="M104.04,21.92L119.82,11.07C120.96,10.29 122.51,10.57 123.3,11.71C124.08,12.85 123.79,14.4 122.66,15.19L106.88,26.04C105.45,26.99 102.38,23.01 104.04,21.92Z" style="fill:rgb(191,133,94);fill-rule:nonzero;"/>
        </g>
        <path d="M92.38,19.8C91.77,19.23 90.82,19.27 90.26,19.87L69.16,42.5L73.2,42.56L92.45,21.92C93.02,21.32 92.99,20.37 92.38,19.8Z" style="fill:rgb(158,158,158);fill-rule:nonzero;"/>
        <g>
            <path d="M90.17,18.51L103.23,4.51C104.17,3.5 105.75,3.44 106.76,4.39C107.77,5.33 107.82,6.91 106.88,7.92L93.82,21.92C92.65,23.16 88.79,19.93 90.17,18.51Z" style="fill:rgb(191,133,94);fill-rule:nonzero;"/>
        </g>
    </g>
    <g>
        <path d="M27.28,26.01L11.52,15.13C10.38,14.35 10.1,12.79 10.88,11.65C11.67,10.51 13.22,10.23 14.36,11.01L30.12,21.89C31.81,23.12 28.92,27.13 27.28,26.01Z" style="fill:rgb(191,133,94);fill-rule:nonzero;"/>
    </g>
</svg>
