<?xml version="1.0" encoding="UTF-8" standalone="no"?>
<!DOCTYPE svg PUBLIC "-//W3C//DTD SVG 1.1//EN" "http://www.w3.org/Graphics/SVG/1.1/DTD/svg11.dtd">
<svg width="100%" height="100%" viewBox="0 0 128 128" version="1.1" xmlns="http://www.w3.org/2000/svg" xmlns:xlink="http://www.w3.org/1999/xlink" xml:space="preserve" xmlns:serif="http://www.serif.com/" style="fill-rule:evenodd;clip-rule:evenodd;stroke-linejoin:round;stroke-miterlimit:2;">
    <path d="M83.3,123.7C83.3,122.4 84.2,121.4 85.3,121.4C86.3,121.4 87.1,122.2 87.3,123.3C88.7,123.1 90.5,122.8 92.3,122.4C92.3,121.1 93.2,120.1 94.3,120.1C95.1,120.1 95.9,120.7 96.2,121.5C97.8,121.1 99.5,120.7 101.3,120.3C101.4,119.2 102.2,118.3 103.2,118.3C103.9,118.3 104.5,118.7 104.8,119.3C105.8,119 106.9,118.7 107.9,118.4L107.9,118.1C107.9,117 108.7,116.1 109.6,116.1C110.3,116.1 110.9,116.6 111.2,117.3C112.1,117 112.9,116.6 113.7,116.3C113.8,115.3 114.5,114.5 115.4,114.5C115.8,114.5 116.2,114.7 116.6,115C118.3,114.2 119.7,113.3 120.8,112.4C120.6,112.1 120.6,111.8 120.6,111.4C120.6,110.3 121.4,109.4 122.3,109.4C122.6,109.4 122.9,109.5 123.2,109.7C123.4,109.4 123.5,109.1 123.5,108.8C123.5,108.6 123.6,108.5 123.7,108.4C124.1,107.7 125.3,104.9 123.4,101.5C123.1,100.9 122.4,100.4 121.7,100.4L79.2,96.8L79,96.8L9.7,98.3C9,98.3 8.3,98.7 7.9,99.4L6.1,102.5C6,102.7 5.9,102.8 5.8,102.9C5.5,103.2 4.6,104.5 4.5,108.5C4.4,113.6 4.3,115.8 5.5,117.1C6.3,118 7.6,118.1 8.5,117.3C8.8,117 9.3,116.9 9.7,116.9C10.8,116.9 11.8,118 11.8,119.2C11.8,119.5 11.7,119.7 11.7,120C12.7,120.2 13.8,120.4 15.2,120.7C16,120.8 16.9,120.5 17.3,119.8C17.7,119.2 18.3,118.9 18.9,118.9C20,118.9 21,120 21,121.2L21,121.5C22.2,121.6 23.5,121.7 24.6,121.7C25.4,121.7 26,121.3 26.4,120.6C26.8,120 27.4,119.5 28.2,119.5C28.9,119.5 29.6,119.9 30,120.5C30.4,121.2 31.2,121.5 32.1,121.5C32.7,121.5 33.3,121.4 33.8,121.4C34.6,121.3 35.3,120.9 35.6,120.2C35.9,119.4 36.7,118.8 37.5,118.8C38,118.8 38.4,119 38.7,119.3C39.5,119.4 40.2,119.5 41,119.6C42.8,118.7 46.1,117.5 53.7,118.3C64,119.4 78.8,123.6 82.7,123.7L83.4,123.7L83.3,123.7Z" style="fill:rgb(109,74,65);fill-rule:nonzero;"/>
    <path d="M85.1,116.2C79.4,116.5 73.7,115.7 68.1,114.7C62.9,113.7 57.9,111.9 52.7,110.9C41.3,108.8 29.6,109.3 18.1,108.5C14.9,108.3 3.2,107.1 6.3,101.1C6.4,100.9 6.6,100.6 6.7,100.4C6.9,100.6 10.9,105.7 20.1,105.8L25.6,105.8C35.6,105.8 49.2,105.9 56.3,108.1C63.1,110.2 81.3,115.8 91,112.5C105.2,107.8 119.7,104.1 120.5,102C121.2,100.3 121.1,98.7 121.1,97C122.4,98.1 123.2,99.9 123,101.6C122.8,103 121.8,104.3 120.6,105.2C116.5,108.1 110.8,109.6 106.2,111.2C100.2,113.2 94,115.3 87.7,116C86.8,116.1 85.9,116.2 85.1,116.2Z" style="fill:rgb(189,189,189);fill-rule:nonzero;"/>
    <path d="M121.1,95.9C119.2,87.3 113.2,87.1 103.7,86C94.2,84.9 71.2,75.7 64.2,62.6C57.2,49.5 53.6,37.5 52.2,32.4C50.8,27.4 46.8,31.3 46,31.4C46,31.4 43.6,33.5 38.8,34.6C40,40 42.1,42.4 38.3,46.2C30.5,53.5 18.6,50.1 7.8,49.9C8.1,55.9 8,60.7 7.4,67C6.5,76.2 3.1,99.3 7.7,102.2C14.3,106.4 22.1,106.8 29.7,106.5C47.3,105.9 72,113 76.6,113.5C85,114.5 93.4,112.8 103,109.8C118.8,104.7 122.9,104.5 121.1,95.9Z" style="fill:rgb(255,183,77);fill-rule:nonzero;"/>
    <path d="M38.5,46.6C41.8,43.2 42.6,38.6 42.2,33.8C42,32.1 40.4,30.9 38.7,31.2C36,31.6 32.9,32 29.4,32C7.5,32 5.4,30.7 5.4,41.4C5.4,43.7 5.5,45.9 5.6,47.9C5.7,49.4 6.9,50.7 8.5,50.7C19.3,51.3 30.8,54 38.5,46.6Z" style="fill:rgb(109,74,65);fill-rule:nonzero;"/>
    <circle cx="48.9" cy="45.3" r="3" style="fill:rgb(109,74,65);"/>
    <circle cx="52.4" cy="54" r="3" style="fill:rgb(109,74,65);"/>
    <circle cx="56.5" cy="61.9" r="3" style="fill:rgb(109,74,65);"/>
    <circle cx="61.5" cy="68.8" r="3" style="fill:rgb(109,74,65);"/>
    <circle cx="67.4" cy="75.9" r="3" style="fill:rgb(109,74,65);"/>
    <circle cx="74.5" cy="82.1" r="3" style="fill:rgb(109,74,65);"/>
    <path d="M48.9,46C48.6,46 48.3,45.8 48.1,45.5C47.9,45.1 48.1,44.6 48.5,44.4L55.1,41.4C55.5,41.2 56,41.4 56.2,41.8C56.4,42.2 56.2,42.7 55.8,42.9L49.2,45.9C49.1,45.9 49,46 48.9,46Z" style="fill:rgb(189,189,189);fill-rule:nonzero;"/>
    <path d="M52.3,54.6C52,54.6 51.7,54.4 51.5,54.1C51.3,53.7 51.5,53.2 51.9,53L58.5,50C58.9,49.8 59.4,50 59.6,50.4C59.8,50.8 59.6,51.3 59.2,51.5L52.6,54.5C52.6,54.5 52.4,54.6 52.3,54.6Z" style="fill:rgb(189,189,189);fill-rule:nonzero;"/>
    <path d="M56.4,62.8C56.1,62.8 55.8,62.6 55.6,62.3C55.4,61.9 55.6,61.4 56,61.2L62.6,58.2C63,58 63.5,58.2 63.7,58.6C63.9,59 63.7,59.5 63.3,59.7L56.7,62.7C56.7,62.8 56.5,62.8 56.4,62.8Z" style="fill:rgb(189,189,189);fill-rule:nonzero;"/>
    <path d="M61.9,69.5C61.6,69.5 61.3,69.3 61.1,69.1C60.9,68.7 61,68.2 61.4,67.9L67.1,64.7C67.5,64.5 68,64.6 68.3,65C68.6,65.4 68.4,65.9 68,66.2L62.3,69.4C62.2,69.4 62.1,69.5 61.9,69.5Z" style="fill:rgb(189,189,189);fill-rule:nonzero;"/>
    <path d="M67.9,76.3C67.7,76.3 67.4,76.2 67.3,76C67,75.7 67,75.1 67.4,74.8L72.2,70.5C72.5,70.2 73.1,70.2 73.4,70.6C73.7,71 73.7,71.5 73.3,71.8L68.5,76C68.3,76.2 68.1,76.3 67.9,76.3Z" style="fill:rgb(189,189,189);fill-rule:nonzero;"/>
    <path d="M74.8,82.4C74.6,82.4 74.4,82.3 74.3,82.2C73.9,81.9 73.9,81.4 74.2,81L78,76.2C78.3,75.8 78.8,75.8 79.2,76.1C79.6,76.4 79.6,76.9 79.3,77.3L75.5,82.1C75.3,82.3 75,82.4 74.8,82.4Z" style="fill:rgb(189,189,189);fill-rule:nonzero;"/>
</svg>
