<?xml version="1.0" encoding="UTF-8" standalone="no"?>
<!DOCTYPE svg PUBLIC "-//W3C//DTD SVG 1.1//EN" "http://www.w3.org/Graphics/SVG/1.1/DTD/svg11.dtd">
<svg width="100%" height="100%" viewBox="0 0 128 128" version="1.1" xmlns="http://www.w3.org/2000/svg" xmlns:xlink="http://www.w3.org/1999/xlink" xml:space="preserve" xmlns:serif="http://www.serif.com/" style="fill-rule:evenodd;clip-rule:evenodd;stroke-linejoin:round;stroke-miterlimit:2;">
    <path d="M20.27,122.41C19.16,122.41 18.11,122.07 17.07,121.36C16.34,120.86 15.91,120.16 15.86,119.38C15.78,118.1 16.73,117.19 16.92,117.02L17.03,116.92L17.16,116.84C17.16,116.84 21.61,114.26 22.76,113.61C23.62,113.12 25.29,111.83 27.23,110.35C29.7,108.45 32.78,106.09 35.76,104.14C39.26,101.85 40.67,100.16 42.07,96.6C42.95,94.37 42.25,84.31 41.57,74.57C40.83,63.87 39.99,51.76 40.71,44.41C40.55,43.29 40.37,42.25 40.2,41.26C39.36,36.43 38.7,32.62 41.56,27.82C42.59,26.09 44.1,24.76 45.92,23.98C61.56,17.27 88.71,7.84 96.13,7.03C98.3,6.79 100.21,6.68 101.95,6.68C108.49,6.68 117.46,8.13 119.78,20.7C120.3,23.49 121.05,30.61 116.93,36.4C114.33,40.06 110.38,42.31 105.19,43.1C99.83,44.25 89.53,44.75 79.58,45.24C74.38,45.49 69.43,45.74 65.66,46.06C72.14,60.66 65.93,72.81 61.76,80.97L61.28,81.92C59.07,86.26 56.64,95.95 58.15,103.88C58.22,104.26 58.33,104.7 58.44,105.18C59.23,108.56 60.71,114.85 55.19,117.26C53.34,118.06 51.71,118.41 49.73,118.41C48.95,118.41 48.17,118.36 47.34,118.31C46.8,118.27 46.23,118.24 45.61,118.21C44.83,118.18 44.14,118.12 43.5,118.07C42.77,118.01 42.14,117.96 41.54,117.96C40.59,117.96 39.48,118.07 37.77,118.89C37.21,119.16 36.69,119.42 36.2,119.68C34.67,120.47 33.22,121.22 31.19,121.58C30.89,121.63 30.57,121.66 30.24,121.66C28.57,121.66 26.84,120.97 25.7,120.41C25.18,120.96 24.41,121.52 23.3,121.84L22.91,121.95C22.09,122.16 21.23,122.41 20.27,122.41Z" style="fill:#fadcbc;fill-rule:nonzero;"/>
    <path d="M58.75,47.73C58.02,50.02 57.36,52.21 56.8,54.4C56.26,56.59 55.78,58.75 55.55,60.94C55.23,63.12 55.09,65.31 55.08,67.53C55.01,69.78 55.24,72 55.26,74.43L55.26,74.46C55.26,74.51 55.22,74.56 55.15,74.56C55.11,74.56 55.06,74.53 55.05,74.49C54.28,72.26 53.61,70.01 53.38,67.69C53.05,65.38 53.11,63.04 53.38,60.72C53.69,58.41 54.3,56.12 55.16,53.93C56.02,51.73 57.13,49.6 58.56,47.63C58.59,47.58 58.66,47.57 58.7,47.6C58.74,47.62 58.75,47.67 58.74,47.71L58.75,47.73Z" style="fill:#dba689;fill-rule:nonzero;"/>
    <path d="M52.65,102.09C53.06,103.02 53.53,104.78 52.64,106.53C51.21,108.64 49.41,108.93 48.48,108.9C48.2,108.89 48.05,108.6 48.22,108.39C48.73,107.78 49.68,106.56 50.48,105.18C51.2,103.94 51.72,102.78 52,102.08C52.13,101.81 52.54,101.82 52.65,102.09Z" style="fill:#dba689;fill-rule:nonzero;"/>
    <path d="M48.99,40.03C50.49,38.66 51.78,35.92 52.06,35.08C52.33,34.24 53.08,30.98 52.9,29.22L52.88,29.13C52.87,29.07 52.91,29.01 52.98,29.01C53.01,29 53.04,29.01 53.06,29.03C54.16,29.78 54.73,31 54.91,32.18C55.11,33.38 54.99,34.61 54.64,35.77C54.26,36.92 53.6,38.03 52.63,38.89C51.68,39.76 50.34,40.28 49,40.29C48.94,40.29 48.88,40.24 48.88,40.18C48.88,40.15 48.9,40.11 48.92,40.09L48.99,40.03Z" style="fill:#dba689;fill-rule:nonzero;"/>
</svg>
