<?xml version="1.0" encoding="UTF-8" standalone="no"?>
<!DOCTYPE svg PUBLIC "-//W3C//DTD SVG 1.1//EN" "http://www.w3.org/Graphics/SVG/1.1/DTD/svg11.dtd">
<svg width="100%" height="100%" viewBox="0 0 128 128" version="1.1" xmlns="http://www.w3.org/2000/svg" xmlns:xlink="http://www.w3.org/1999/xlink" xml:space="preserve" xmlns:serif="http://www.serif.com/" style="fill-rule:evenodd;clip-rule:evenodd;stroke-linejoin:round;stroke-miterlimit:1.41421;">
    <g transform="matrix(1.0207,0,0,1.0207,-1.32509,-2.64997)">
        <g transform="matrix(0.480894,0,0,0.480894,58.5094,4.5634)">
            <ellipse cx="64" cy="45.9" rx="42" ry="39.5" style="fill:#6d4c41;"/>
        </g>
        <g transform="matrix(1,0,0,1,2.99923,0)">
            <g>
                <g transform="matrix(0.939753,-0.341854,0.403357,1.10882,-49.3217,21.2376)">
                    <rect x="77.772" y="62.39" width="7.4" height="22.106" style="fill:#bf8f68;"/>
                </g>
                <g transform="matrix(0.939753,-0.341854,0.341854,0.939753,-41.0594,34.6417)">
                    <circle cx="78.29" cy="84.276" r="3.7" style="fill:#bf8f68;"/>
                </g>
            </g>
            <g transform="matrix(0.979027,0.203732,-0.203732,0.979027,13.6672,-2.16441)">
                <g transform="matrix(1,0,0,1.17991,-63.4445,-11.2244)">
                    <rect x="77.772" y="62.39" width="7.4" height="22.106" style="fill:#bf8f68;"/>
                </g>
                <g transform="matrix(1,0,0,1,-60.2623,4.19674)">
                    <circle cx="78.29" cy="84.276" r="3.7" style="fill:#bf8f68;"/>
                </g>
            </g>
            <g transform="matrix(1,0,0,1,-0.265019,0.630096)">
                <path d="M35.98,49.81C39.6,49.8 43.962,50.569 46.57,51.66C53.777,54.676 57.263,57.91 58.22,64L35.98,67.839L35.98,49.81Z" style="fill:rgb(218,65,5);fill-rule:nonzero;"/>
            </g>
            <g transform="matrix(-1,0,0,1,71.695,0.630096)">
                <path d="M35.98,49.81C39.6,49.8 43.962,50.569 46.57,51.66C53.777,54.676 57.263,57.91 58.22,64L35.98,67.839L35.98,49.81Z" style="fill:rgb(218,65,5);fill-rule:nonzero;"/>
            </g>
            <g transform="matrix(1,0,0,1,-0.265304,0)">
                <rect x="22.15" y="81.9" width="10.71" height="45.72" style="fill:rgb(129,155,138);"/>
            </g>
            <g transform="matrix(1,0,0,1,-0.265304,0)">
                <path d="M34.26,128L20.76,128L20.76,124.5C20.76,122.29 22.55,120.5 24.76,120.5L30.26,120.5C32.47,120.5 34.26,122.29 34.26,124.5L34.26,128Z" style="fill:rgb(68,68,68);fill-rule:nonzero;"/>
            </g>
            <g transform="matrix(1,0,0,1,-0.265304,0)">
                <rect x="39.037" y="81.887" width="10.71" height="45.72" style="fill:rgb(129,155,138);"/>
            </g>
            <g transform="matrix(1,0,0,1,-0.265304,0)">
                <path d="M37.64,128L51.14,128L51.14,124.5C51.14,122.29 49.35,120.5 47.14,120.5L41.64,120.5C39.43,120.5 37.64,122.29 37.64,124.5L37.64,128Z" style="fill:rgb(68,68,68);fill-rule:nonzero;"/>
            </g>
            <g transform="matrix(1,0,0,1,-0.265304,0)">
                <path d="M35.98,57.47C33.06,57.47 30.69,55.1 30.69,52.18L30.69,47.66L41.27,47.66L41.27,52.18C41.27,55.1 38.9,57.47 35.98,57.47Z" style="fill:#bf8f68;fill-rule:nonzero;"/>
            </g>
            <g transform="matrix(1,0,0,1,-0.265304,0)">
                <path d="M41.28,51.74C41.28,51.74 39.26,52.56 35.99,52.56C32.72,52.56 30.69,51.84 30.69,51.84L30.69,46.65C30.69,45.26 31.61,43.76 33,43.76L38.98,43.76C40.37,43.76 41.28,45.17 41.28,46.56L41.28,51.74Z" style="fill:#99674f;fill-rule:nonzero;"/>
            </g>
            <g transform="matrix(1,0,0,1,-0.265304,0)">
                <path d="M51.89,29.71C51.89,29.71 54.81,30.22 54.81,33.36C54.81,36.13 52.68,37.23 50.55,37.23L50.55,29.72L51.89,29.72L51.89,29.71ZM20.07,29.71C20.07,29.71 17.15,30.22 17.15,33.36C17.15,36.13 19.28,37.23 21.41,37.23L21.41,29.72L20.07,29.72L20.07,29.71Z" style="fill:#99674f;fill-rule:nonzero;"/>
            </g>
            <g transform="matrix(1,0,0,1,-0.265304,0)">
                <path d="M35.98,9.13C23.41,9.13 20.12,18.88 20.12,32.57C20.12,46.77 30.892,50.44 35.98,50.44C41.068,50.44 51.84,46.87 51.84,32.57C51.85,18.88 48.56,9.13 35.98,9.13Z" style="fill:#bf8f68;fill-rule:nonzero;"/>
            </g>
            <g transform="matrix(1,0,0,1,-0.265304,0)">
                <path d="M30.76,33.84C30.76,35.25 29.81,36.4 28.64,36.4C27.47,36.4 26.52,35.25 26.52,33.84C26.52,32.42 27.47,31.28 28.64,31.28C29.81,31.28 30.76,32.43 30.76,33.84M41.2,33.84C41.2,35.25 42.15,36.4 43.32,36.4C44.49,36.4 45.44,35.25 45.44,33.84C45.44,32.42 44.49,31.28 43.32,31.28C42.15,31.28 41.2,32.43 41.2,33.84" style="fill:rgb(68,68,68);fill-rule:nonzero;"/>
            </g>
            <g transform="matrix(1,0,0,1,-0.265304,0)">
                <path d="M40.57,42.49L35.98,42.49L31.39,42.49C30.86,42.49 30.64,42.84 30.99,43.37C31.48,44.11 33.29,45.54 35.99,45.54C38.69,45.54 40.5,44.11 40.99,43.37C41.33,42.85 41.1,42.49 40.57,42.49Z" style="fill:rgb(81,63,53);fill-rule:nonzero;"/>
            </g>
            <g transform="matrix(1,0,0,1,-0.265304,0)">
                <path d="M38.2,38.59C37.42,38.81 36.61,38.92 35.98,38.92C35.35,38.92 34.54,38.81 33.76,38.59C33.43,38.5 33.29,38.81 33.41,39.02C33.66,39.46 34.66,40.34 35.97,40.34C37.29,40.34 38.29,39.46 38.53,39.02C38.67,38.81 38.53,38.5 38.2,38.59Z" style="fill:#99674f;fill-rule:nonzero;"/>
            </g>
            <g transform="matrix(1,0,0,1,-0.265304,0)">
                <path d="M36.36,7.34C36.36,7.34 36.11,7.33 36.01,7.33C35.9,7.33 35.66,7.34 35.66,7.34C25.702,7.538 21.446,14.016 19.52,16.821C15.711,22.368 18.01,30.97 18.01,30.97C18.01,30.97 18.23,30.75 18.62,30.44C19.04,30.11 19.52,29.92 19.52,29.92C18.739,32.466 18.597,37.182 19.52,39.251C23.124,35.69 24.85,27.981 24.73,22.325C32.812,20.384 44.14,21.517 47.29,22.325C47.924,31.999 50.568,37.631 52.5,39.251C53.662,37.29 53.128,32.755 52.5,29.92C52.5,29.92 52.97,30.11 53.4,30.44C53.8,30.75 54.01,30.97 54.01,30.97C54.01,30.97 56.114,24.341 52.5,16.821C50.931,13.556 45.885,7.61 36.36,7.34Z" style="fill:#6d4c41;fill-rule:nonzero;"/>
            </g>
            <g transform="matrix(1,0,0,1,-0.265304,0)">
                <path d="M49.75,81.9L22.15,81.9L22.15,97.44L32.86,97.44L32.86,96.54C32.86,95.229 33.939,94.15 35.25,94.15L36.65,94.15C37.961,94.15 39.04,95.229 39.04,96.54L39.04,97.44L49.75,97.44L49.75,81.9Z" style="fill:rgb(129,155,138);fill-rule:nonzero;"/>
            </g>
            <g transform="matrix(0.97972,0,0,0.97972,-26.9871,2.59623)">
                <path d="M78.057,61.041C77.91,70.311 78.019,79.588 78.479,88.876L63.969,88.876L63.969,61.041L78.057,61.041ZM49.914,61.041L63.969,61.041L63.969,88.876L49.492,88.876C49.952,79.588 50.061,70.311 49.914,61.041Z" style="fill:rgb(218,65,5);"/>
            </g>
            <g transform="matrix(0.97972,0,0,0.97972,-26.9871,2.59623)">
                <path d="M50.732,19.403C52.87,20.45 55.095,21.351 56.826,23.069C57.506,23.742 58.079,24.55 58.618,25.335C58.762,25.544 59.107,26.286 59.336,26.382C59.416,26.415 59.717,25.975 59.748,25.93C60.168,25.323 60.489,24.65 60.707,23.944C61.42,21.629 60.643,19.077 59.243,17.143" style="fill:#6d4c41;"/>
            </g>
            <g transform="matrix(0.97972,0,0,0.97972,-26.9871,2.59623)">
                <path d="M59.089,18.574C59.803,18.816 60.518,19.098 61.262,19.234C62.375,19.437 63.496,19.483 64.586,19.819C66.269,20.337 67.771,21.266 69.449,21.786C70.603,22.144 71.834,22.199 73.033,22.238C74.418,22.283 76.868,19.395 78.052,18.574" style="fill:#6d4c41;"/>
            </g>
            <g transform="matrix(0.97972,0,0,0.97972,-25.247,2.73105)">
                <path d="M63.161,19.424C64.859,20.166 66.169,21.39 67.408,22.748C67.785,23.161 68.111,23.61 68.438,24.062C68.552,24.22 68.666,24.379 68.778,24.539C68.791,24.558 68.955,24.778 68.955,24.778C69.127,24.621 69.104,23.97 69.085,23.746C69.001,22.763 68.692,21.809 68.374,20.882" style="fill:#6d4c41;"/>
            </g>
            <g transform="matrix(0.967804,-0.152337,0.152337,0.967804,-27.6977,9.92227)">
                <path d="M51.703,10.229C51.198,10.504 50.793,10.899 50.312,11.208C49.334,11.837 48.189,12.481 47.121,12.916C46.426,13.199 45.721,13.49 45.013,13.733C44.927,13.763 44.371,13.932 44.371,13.932C44.377,13.971 44.557,14.043 44.591,14.062C44.846,14.204 45.123,14.31 45.404,14.39C46.516,14.704 47.971,15.022 49.113,14.705" style="fill:#6d4c41;"/>
            </g>
            <g transform="matrix(0.97972,0,0,0.97972,-26.7787,3.14018)">
                <path d="M70.035,6.114C71.876,6.114 74.057,6.733 75.657,7.649C76.068,7.884 76.441,8.145 76.811,8.44C76.887,8.501 77.168,8.656 77.193,8.749C77.222,8.853 76.978,8.733 76.87,8.724C76.715,8.711 76.558,8.7 76.403,8.68C75.894,8.615 75.386,8.555 74.874,8.52C74.683,8.507 74.492,8.495 74.3,8.485C74.21,8.481 73.946,8.438 74.03,8.472C75.718,9.158 77.303,9.62 78.788,10.742C79.116,10.99 79.385,11.295 79.643,11.612C79.732,11.722 79.824,11.829 79.901,11.948C79.95,12.023 80.132,12.163 80.044,12.173C79.843,12.196 79.591,12.061 79.388,12.014C78.843,11.888 78.298,11.78 77.743,11.707C77.503,11.676 77.263,11.652 77.022,11.63C76.912,11.62 76.631,11.532 76.691,11.624C77.399,12.698 79.004,13.194 80.008,13.941C80.52,14.323 80.807,14.906 81.108,15.451C81.26,15.726 81.509,16.11 81.539,16.427C81.544,16.484 81.424,16.425 81.367,16.42C81.21,16.406 81.11,16.393 80.966,16.372C80.487,16.302 80.016,16.189 79.538,16.112C79.461,16.099 79.148,16.009 79.087,16.047C79.044,16.074 79.36,16.478 79.367,16.486C79.789,16.986 80.366,17.316 80.812,17.79C81.865,18.911 83.47,20.573 83.638,22.184C83.652,22.313 83.437,22.02 83.332,21.945C83.127,21.798 82.91,21.67 82.699,21.532C81.921,21.022 81.235,20.414 80.34,20.119C80.269,20.095 79.526,19.874 79.48,20.021C79.314,20.545 79.995,21.514 80.289,21.909C81.046,22.931 81.92,23.858 82.719,24.849C83.088,25.306 83.678,25.917 83.746,26.534C83.751,26.588 83.647,26.489 83.599,26.465C83.464,26.398 83.341,26.335 83.218,26.246C82.946,26.048 82.684,25.828 82.454,25.582C81.68,24.758 80.982,23.848 80.197,23.038" style="fill:#6d4c41;"/>
            </g>
            <g transform="matrix(0.97972,0,0,0.97972,-26.9871,2.59623)">
                <path d="M55.928,7.04C54.866,7.594 53.88,8.313 52.714,8.631C52.444,8.704 51.956,8.884 51.676,8.821C51.061,8.682 50.805,7.862 50.238,7.753C50.024,7.712 49.937,8.034 49.952,8.16C49.996,8.531 50.176,8.893 50.368,9.207C50.9,10.077 51.761,10.396 52.699,10.672" style="fill:#6d4c41;"/>
            </g>
            <g transform="matrix(0.97972,0,0,0.97972,-26.9871,2.59623)">
                <path d="M46.98,17.677C46.207,19.159 45.012,20.415 44.541,22.053C44.444,22.389 44.37,22.731 44.314,23.076C44.29,23.224 44.266,23.373 44.249,23.522C44.242,23.584 44.17,23.718 44.231,23.708C44.446,23.674 44.793,23.233 44.973,23.083C45.542,22.606 46.086,22.073 46.757,21.739" style="fill:#6d4c41;"/>
            </g>
            <g transform="matrix(0.97972,0,0,0.97972,-26.9871,2.59623)">
                <path d="M71.317,22.038C72.052,22.165 72.731,22.463 73.363,22.856C73.585,22.993 73.965,23.377 74.215,23.415C74.318,23.431 74.104,23.239 74.055,23.147C73.964,22.973 73.89,22.789 73.827,22.602C73.646,22.068 73.615,21.429 73.234,20.986" style="fill:#6d4c41;"/>
            </g>
        </g>
        <g transform="matrix(-1,0,0,1,125.001,0)">
            <g transform="matrix(0.939753,-0.341854,0.403357,1.10882,-49.3217,21.2376)">
                <rect x="77.772" y="62.39" width="7.4" height="22.106" style="fill:#bf8f68;"/>
            </g>
            <g transform="matrix(0.939753,-0.341854,0.341854,0.939753,-41.0594,34.6417)">
                <circle cx="78.29" cy="84.276" r="3.7" style="fill:#bf8f68;"/>
            </g>
        </g>
        <g transform="matrix(-0.979027,0.203732,0.203732,0.979027,111.334,-2.16441)">
            <g transform="matrix(1,0,0,1.17991,-63.4445,-11.2244)">
                <rect x="77.772" y="62.39" width="7.4" height="22.106" style="fill:#bf8f68;"/>
            </g>
            <g transform="matrix(1,0,0,1,-60.2623,4.19674)">
                <circle cx="78.29" cy="84.276" r="3.7" style="fill:#bf8f68;"/>
            </g>
        </g>
        <g transform="matrix(-1,0,0,1,125.266,0.630096)">
            <path d="M35.98,49.81C39.6,49.8 43.962,50.569 46.57,51.66C53.777,54.676 57.263,57.91 58.22,64L35.98,67.839L35.98,49.81Z" style="fill:rgb(218,65,5);fill-rule:nonzero;"/>
        </g>
        <g transform="matrix(1,0,0,1,53.3064,0.630096)">
            <path d="M35.98,49.81C39.6,49.8 43.962,50.569 46.57,51.66C53.777,54.676 57.263,57.91 58.22,64L35.98,67.839L35.98,49.81Z" style="fill:rgb(218,65,5);fill-rule:nonzero;"/>
        </g>
        <g transform="matrix(-1,0,0,1,125.267,0)">
            <rect x="22.15" y="81.9" width="10.71" height="45.72" style="fill:rgb(129,155,138);"/>
        </g>
        <g transform="matrix(-1,0,0,1,125.267,0)">
            <path d="M34.26,128L20.76,128L20.76,124.5C20.76,122.29 22.55,120.5 24.76,120.5L30.26,120.5C32.47,120.5 34.26,122.29 34.26,124.5L34.26,128Z" style="fill:rgb(68,68,68);fill-rule:nonzero;"/>
        </g>
        <g transform="matrix(-1,0,0,1,125.267,0)">
            <rect x="39.037" y="81.887" width="10.71" height="45.72" style="fill:rgb(129,155,138);"/>
        </g>
        <g transform="matrix(-1,0,0,1,125.267,0)">
            <path d="M37.64,128L51.14,128L51.14,124.5C51.14,122.29 49.35,120.5 47.14,120.5L41.64,120.5C39.43,120.5 37.64,122.29 37.64,124.5L37.64,128Z" style="fill:rgb(68,68,68);fill-rule:nonzero;"/>
        </g>
        <g transform="matrix(-1,0,0,1,125.267,0)">
            <path d="M35.98,57.47C33.06,57.47 30.69,55.1 30.69,52.18L30.69,47.66L41.27,47.66L41.27,52.18C41.27,55.1 38.9,57.47 35.98,57.47Z" style="fill:#bf8f68;fill-rule:nonzero;"/>
        </g>
        <g transform="matrix(-1,0,0,1,125.267,0)">
            <path d="M41.28,51.74C41.28,51.74 39.26,52.56 35.99,52.56C32.72,52.56 30.69,51.84 30.69,51.84L30.69,46.65C30.69,45.26 31.61,43.76 33,43.76L38.98,43.76C40.37,43.76 41.28,45.17 41.28,46.56L41.28,51.74Z" style="fill:#99674f;fill-rule:nonzero;"/>
        </g>
        <g transform="matrix(-1,0,0,1,125.267,0)">
            <path d="M51.89,29.71C51.89,29.71 54.81,30.22 54.81,33.36C54.81,36.13 52.68,37.23 50.55,37.23L50.55,29.72L51.89,29.72L51.89,29.71ZM20.07,29.71C20.07,29.71 17.15,30.22 17.15,33.36C17.15,36.13 19.28,37.23 21.41,37.23L21.41,29.72L20.07,29.72L20.07,29.71Z" style="fill:#99674f;fill-rule:nonzero;"/>
        </g>
        <g transform="matrix(-1,0,0,1,125.267,0)">
            <path d="M35.98,9.13C23.41,9.13 20.12,18.88 20.12,32.57C20.12,46.77 30.892,50.44 35.98,50.44C41.068,50.44 51.84,46.87 51.84,32.57C51.85,18.88 48.56,9.13 35.98,9.13Z" style="fill:#bf8f68;fill-rule:nonzero;"/>
        </g>
        <g transform="matrix(-1,0,0,1,125.267,0)">
            <path d="M30.76,33.84C30.76,35.25 29.81,36.4 28.64,36.4C27.47,36.4 26.52,35.25 26.52,33.84C26.52,32.42 27.47,31.28 28.64,31.28C29.81,31.28 30.76,32.43 30.76,33.84M41.2,33.84C41.2,35.25 42.15,36.4 43.32,36.4C44.49,36.4 45.44,35.25 45.44,33.84C45.44,32.42 44.49,31.28 43.32,31.28C42.15,31.28 41.2,32.43 41.2,33.84" style="fill:rgb(68,68,68);fill-rule:nonzero;"/>
        </g>
        <g transform="matrix(-1,0,0,1,125.267,0)">
            <path d="M40.57,42.49L35.98,42.49L31.39,42.49C30.86,42.49 30.64,42.84 30.99,43.37C31.48,44.11 33.29,45.54 35.99,45.54C38.69,45.54 40.5,44.11 40.99,43.37C41.33,42.85 41.1,42.49 40.57,42.49Z" style="fill:rgb(81,63,53);fill-rule:nonzero;"/>
        </g>
        <g transform="matrix(-1,0,0,1,125.267,0)">
            <path d="M38.2,38.59C37.42,38.81 36.61,38.92 35.98,38.92C35.35,38.92 34.54,38.81 33.76,38.59C33.43,38.5 33.29,38.81 33.41,39.02C33.66,39.46 34.66,40.34 35.97,40.34C37.29,40.34 38.29,39.46 38.53,39.02C38.67,38.81 38.53,38.5 38.2,38.59Z" style="fill:#99674f;fill-rule:nonzero;"/>
        </g>
        <g transform="matrix(-1,0,0,1,125.267,0)">
            <path d="M49.75,81.9L22.15,81.9L22.15,97.44L32.86,97.44L32.86,96.54C32.86,95.229 33.939,94.15 35.25,94.15L36.65,94.15C37.961,94.15 39.04,95.229 39.04,96.54L39.04,97.44L49.75,97.44L49.75,81.9Z" style="fill:rgb(129,155,138);fill-rule:nonzero;"/>
        </g>
        <g transform="matrix(-0.97972,0,0,0.97972,151.988,2.59623)">
            <path d="M78.057,61.041C77.91,70.311 78.019,79.588 78.479,88.876L63.969,88.876L63.969,61.041L78.057,61.041ZM49.914,61.041L63.969,61.041L63.969,88.876L49.492,88.876C49.952,79.588 50.061,70.311 49.914,61.041Z" style="fill:rgb(218,65,5);"/>
        </g>
        <g transform="matrix(0.480894,0,0,0.38525,58.5094,5.22813)">
            <path d="M73.07,34.21C69.84,37.32 53.78,51.79 31.65,55.56L31.65,25.9C31.65,25.9 41.2,6.95 64.12,6.95C87.04,6.95 96.6,26.38 96.6,26.38L96.6,55.57C96.6,55.57 81.58,49.81 74.04,34.4C73.942,34.183 73.725,34.043 73.488,34.043C73.332,34.043 73.183,34.103 73.07,34.21Z" style="fill:#6d4c41;fill-rule:nonzero;"/>
        </g>
    </g>
</svg>
